
                  X                 Dinn               Dout      

                0.                 0.                 0.         
                2.5E-03            0.                 0.         
                5.E-03             1.40758E-03        1.27618E-03
                7.5E-03            2.84087E-03        2.66866E-03
               10.E-03             4.25552E-03        4.05228E-03
               12.5E-03            5.66026E-03        5.43353E-03
               15.E-03             7.05905E-03        6.81495E-03
               17.5E-03            8.4538E-03         8.19745E-03
               20.E-03             9.84558E-03        9.58128E-03
               22.5E-03           11.235E-03         10.9665E-03 
               25.E-03            12.6226E-03        12.3529E-03 
               27.5E-03           14.0087E-03        13.7405E-03 
               30.E-03            15.3935E-03        15.1292E-03 
               32.5E-03           16.7771E-03        16.5188E-03 
               35.E-03            18.1599E-03        17.9092E-03 
               37.5E-03           19.5419E-03        19.3005E-03 
               40.E-03            20.9232E-03        20.6924E-03 
               42.5E-03           22.304E-03         22.085E-03  
               45.E-03            23.6843E-03        23.4783E-03 
               47.5E-03           25.0643E-03        24.872E-03  
               50.E-03            26.4438E-03        26.2663E-03 
               52.5E-03           27.8231E-03        27.661E-03  
               55.E-03            29.2022E-03        29.0562E-03 
               57.5E-03           30.5811E-03        30.4518E-03 
               60.E-03            31.9598E-03        31.8478E-03 
               62.5E-03           33.3384E-03        33.2442E-03 
               65.E-03            34.7169E-03        34.6409E-03 
               67.5E-03           36.0953E-03        36.0379E-03 
               70.E-03            37.4737E-03        37.4352E-03 
               72.5E-03           38.852E-03         38.8327E-03 
               75.E-03            40.2303E-03        40.2306E-03 
               77.5E-03           41.6086E-03        41.6287E-03 
               80.E-03            42.987E-03         43.027E-03  
               82.5E-03           44.3653E-03        44.4256E-03 
               85.E-03            45.7437E-03        45.8244E-03 
               87.5E-03           47.1222E-03        47.2234E-03 
               90.E-03            48.5007E-03        48.6225E-03 
               92.5E-03           49.8792E-03        50.0219E-03 
               95.E-03            51.2579E-03        51.4215E-03 
               97.5E-03           52.6366E-03        52.8212E-03 
              100.E-03            54.0154E-03        54.221E-03  
              102.5E-03           55.142E-03         55.3648E-03 
              105.E-03            56.5581E-03        56.6723E-03 
              107.5E-03           58.0351E-03        57.8009E-03 
              110.E-03            59.1474E-03        58.9376E-03 
              112.5E-03           60.1689E-03        59.9367E-03 
              115.E-03            61.0915E-03        60.8562E-03 
              117.5E-03           61.9601E-03        61.7202E-03 
              120.E-03            62.7932E-03        62.5499E-03 
              122.5E-03           63.6043E-03        63.3579E-03 
              125.E-03            64.4017E-03        64.1525E-03 
              127.5E-03           65.1905E-03        64.9387E-03 
              130.E-03            65.9739E-03        65.7198E-03 
              132.5E-03           66.754E-03         66.4977E-03 
              135.E-03            67.532E-03         67.2737E-03 
              137.5E-03           68.3087E-03        68.0484E-03 
              140.E-03            69.0846E-03        68.8224E-03 
              142.5E-03           69.86E-03          69.5961E-03 
              145.E-03            70.6351E-03        70.3694E-03 
              147.5E-03           71.41E-03          71.1427E-03 
              150.E-03            72.1848E-03        71.916E-03  
              152.5E-03           72.9595E-03        72.6892E-03 
              155.E-03            73.7342E-03        73.4626E-03 
              157.5E-03           74.5089E-03        74.2359E-03 
              160.E-03            75.2836E-03        75.0092E-03 
              162.5E-03           76.0583E-03        75.7826E-03 
              165.E-03            76.8331E-03        76.5559E-03 
              167.5E-03           77.6078E-03        77.3293E-03 
              170.E-03            78.3826E-03        78.1027E-03 
              172.5E-03           79.1574E-03        78.876E-03  
              175.E-03            79.9323E-03        79.6495E-03 
              177.5E-03           80.7071E-03        80.4229E-03 
              180.E-03            81.482E-03         81.1963E-03 
              182.5E-03           82.257E-03         81.9697E-03 
              185.E-03            83.0886E-03        82.7971E-03 
              187.5E-03           84.0412E-03        83.7428E-03 
              190.E-03            85.0788E-03        84.7707E-03 
              192.5E-03           86.1751E-03        85.8554E-03 
              195.E-03            87.3111E-03        86.9784E-03 
              197.5E-03           88.4734E-03        88.1266E-03 
              200.E-03            89.653E-03         89.2917E-03 
              202.5E-03           90.8441E-03        90.4678E-03 
              205.E-03            92.0426E-03        91.6512E-03 
              207.5E-03           93.2461E-03        92.8395E-03 
              210.E-03            94.4527E-03        94.031E-03  
              212.5E-03           95.6614E-03        95.2248E-03 
              215.E-03            96.8715E-03        96.4199E-03 
              217.5E-03           98.0825E-03        97.6161E-03 
              220.E-03            99.294E-03         98.8129E-03 
              222.5E-03          100.506E-03        100.01E-03   
              225.E-03           101.718E-03        101.208E-03  
              227.5E-03          102.93E-03         102.406E-03  
              230.E-03           104.143E-03        103.604E-03  
              232.5E-03          105.355E-03        104.802E-03  
              235.E-03           106.567E-03        106.E-03     
              237.5E-03          107.78E-03         107.198E-03  
              240.E-03           108.993E-03        108.396E-03  
              242.5E-03          110.205E-03        109.595E-03  
              245.E-03           111.418E-03        110.793E-03  
              247.5E-03          112.63E-03         111.991E-03  
              250.E-03           113.843E-03        113.19E-03   
              252.5E-03          115.056E-03        114.388E-03  
              255.E-03           116.269E-03        115.586E-03  
              257.5E-03          117.482E-03        116.785E-03  
              260.E-03           118.695E-03        117.983E-03  
              262.5E-03          119.908E-03        119.181E-03  
              265.E-03           121.121E-03        120.38E-03   
              267.5E-03          122.334E-03        121.578E-03  
              270.E-03           123.548E-03        122.776E-03  
              272.5E-03          124.761E-03        123.974E-03  
              275.E-03           125.975E-03        125.172E-03  
              277.5E-03          127.188E-03        126.371E-03  
              280.E-03           128.402E-03        127.569E-03  
              282.5E-03          129.616E-03        128.767E-03  
              285.E-03           130.83E-03         129.965E-03  
              287.5E-03          132.045E-03        131.163E-03  
              290.E-03           133.259E-03        132.361E-03  
              292.5E-03          134.474E-03        133.559E-03  
              295.E-03           135.688E-03        134.756E-03  
              297.5E-03          136.903E-03        135.954E-03  
              300.E-03           138.118E-03        137.152E-03  
              302.5E-03          139.334E-03        138.35E-03   
              305.E-03           140.549E-03        139.547E-03  
              307.5E-03          141.765E-03        140.745E-03  
              310.E-03           142.98E-03         141.942E-03  
              312.5E-03          144.197E-03        143.14E-03   
              315.E-03           145.413E-03        144.337E-03  
              317.5E-03          146.629E-03        145.534E-03  
              320.E-03           147.846E-03        146.731E-03  
              322.5E-03          149.063E-03        147.928E-03  
              325.E-03           150.28E-03         149.125E-03  
              327.5E-03          151.497E-03        150.322E-03  
              330.E-03           152.715E-03        151.519E-03  
              332.5E-03          153.932E-03        152.715E-03  
              335.E-03           155.15E-03         153.912E-03  
              337.5E-03          156.369E-03        155.108E-03  
              340.E-03           157.587E-03        156.305E-03  
              342.5E-03          158.806E-03        157.501E-03  
              345.E-03           160.025E-03        158.697E-03  
              347.5E-03          161.245E-03        159.893E-03  
              350.E-03           162.465E-03        161.088E-03  
              352.5E-03          163.685E-03        162.284E-03  
              355.E-03           164.905E-03        163.479E-03  
              357.5E-03          166.126E-03        164.675E-03  
              360.E-03           167.347E-03        165.87E-03   
              362.5E-03          168.568E-03        167.065E-03  
              365.E-03           169.79E-03         168.26E-03   
              367.5E-03          171.012E-03        169.454E-03  
              370.E-03           172.234E-03        170.649E-03  
              372.5E-03          173.457E-03        171.843E-03  
              375.E-03           174.68E-03         173.037E-03  
              377.5E-03          175.904E-03        174.231E-03  
              380.E-03           177.128E-03        175.424E-03  
              382.5E-03          178.352E-03        176.618E-03  
              385.E-03           179.577E-03        177.811E-03  
              387.5E-03          180.802E-03        179.004E-03  
              390.E-03           182.028E-03        180.196E-03  
              392.5E-03          183.254E-03        181.388E-03  
              395.E-03           184.481E-03        182.581E-03  
              397.5E-03          185.709E-03        183.772E-03  
              400.E-03           186.936E-03        184.964E-03  
              402.5E-03          188.165E-03        186.155E-03  
              405.E-03           189.394E-03        187.346E-03  
              407.5E-03          190.623E-03        188.536E-03  
              410.E-03           191.853E-03        189.726E-03  
              412.5E-03          193.084E-03        190.916E-03  
              415.E-03           194.316E-03        192.106E-03  
              417.5E-03          195.548E-03        193.295E-03  
              420.E-03           196.78E-03         194.483E-03  
              422.5E-03          198.014E-03        195.671E-03  
              425.E-03           199.248E-03        196.859E-03  
              427.5E-03          200.483E-03        198.046E-03  
              430.E-03           201.719E-03        199.233E-03  
              432.5E-03          202.956E-03        200.419E-03  
              435.E-03           204.193E-03        201.605E-03  
              437.5E-03          205.432E-03        202.79E-03   
              440.E-03           206.671E-03        203.975E-03  
              442.5E-03          207.911E-03        205.159E-03  
              445.E-03           209.153E-03        206.342E-03  
              447.5E-03          210.395E-03        207.525E-03  
              450.E-03           211.639E-03        208.707E-03  
              452.5E-03          212.883E-03        209.888E-03  
              455.E-03           214.129E-03        211.068E-03  
              457.5E-03          215.376E-03        212.248E-03  
              460.E-03           216.625E-03        213.426E-03  
              462.5E-03          217.874E-03        214.604E-03  
              465.E-03           219.125E-03        215.781E-03  
              467.5E-03          220.378E-03        216.957E-03  
              470.E-03           221.632E-03        218.132E-03  
              472.5E-03          222.888E-03        219.306E-03  
              475.E-03           224.146E-03        220.478E-03  
              477.5E-03          225.405E-03        221.65E-03   
              480.E-03           226.667E-03        222.82E-03   
              482.5E-03          227.93E-03         223.989E-03  
              485.E-03           229.195E-03        225.156E-03  
              487.5E-03          230.463E-03        226.322E-03  
              490.E-03           231.733E-03        227.486E-03  
              492.5E-03          233.005E-03        228.648E-03  
              495.E-03           234.28E-03         229.809E-03  
              497.5E-03          235.558E-03        230.968E-03  
              500.E-03           236.838E-03        232.125E-03  
              502.5E-03          238.122E-03        233.279E-03  
              505.E-03           239.409E-03        234.432E-03  
              507.5E-03          240.7E-03          235.582E-03  
              510.E-03           241.994E-03        236.729E-03  
              512.5E-03          243.292E-03        237.874E-03  
              515.E-03           244.594E-03        239.015E-03  
              517.5E-03          245.901E-03        240.154E-03  
              520.E-03           247.212E-03        241.289E-03  
              522.5E-03          248.529E-03        242.42E-03   
              525.E-03           249.851E-03        243.548E-03  
              527.5E-03          251.179E-03        244.671E-03  
              530.E-03           252.513E-03        245.79E-03   
              532.5E-03          253.854E-03        246.904E-03  
              535.E-03           255.202E-03        248.013E-03  
              537.5E-03          256.558E-03        249.117E-03  
              540.E-03           257.923E-03        250.215E-03  
              542.5E-03          259.297E-03        251.306E-03  
              545.E-03           260.681E-03        252.39E-03   
              547.5E-03          262.076E-03        253.466E-03  
              550.E-03           263.483E-03        254.535E-03  
              552.5E-03          264.903E-03        255.594E-03  
              555.E-03           266.337E-03        256.644E-03  
              557.5E-03          267.787E-03        257.684E-03  
              560.E-03           269.255E-03        258.712E-03  
              562.5E-03          270.741E-03        259.728E-03  
              565.E-03           272.248E-03        260.73E-03   
              567.5E-03          273.778E-03        261.718E-03  
              570.E-03           275.334E-03        262.69E-03   
              572.5E-03          276.918E-03        263.645E-03  
              575.E-03           278.535E-03        264.58E-03   
              577.5E-03          280.186E-03        265.496E-03  
              580.E-03           281.877E-03        266.389E-03  
              582.5E-03          283.612E-03        267.259E-03  
              585.E-03           285.395E-03        268.103E-03  
              587.5E-03          287.234E-03        268.919E-03  
              590.E-03           289.133E-03        269.706E-03  
              592.5E-03          291.099E-03        270.462E-03  
              595.E-03           293.14E-03         271.186E-03  
              597.5E-03          295.262E-03        271.876E-03  
              600.E-03           297.474E-03        272.531E-03  
              602.5E-03          299.783E-03        273.151E-03  
              605.E-03           302.197E-03        273.736E-03  
              607.5E-03          304.724E-03        274.286E-03  
              610.E-03           307.369E-03        274.801E-03  
              612.5E-03          310.14E-03         275.283E-03  
              615.E-03           313.042E-03        275.734E-03  
              617.5E-03          316.081E-03        276.154E-03  
              620.E-03           319.261E-03        276.545E-03  
              622.5E-03          322.587E-03        276.909E-03  
              625.E-03           326.062E-03        277.248E-03  
              627.5E-03          329.69E-03         277.562E-03  
              630.E-03           333.474E-03        277.855E-03  
              632.5E-03          337.417E-03        278.126E-03  
              635.E-03           341.522E-03        278.377E-03  
              637.5E-03          345.791E-03        278.61E-03   
              640.E-03           350.227E-03        278.826E-03  
              642.5E-03          354.833E-03        279.025E-03  
              645.E-03           359.61E-03         279.209E-03  
              647.5E-03          364.563E-03        279.378E-03  
              650.E-03           369.693E-03        279.533E-03  
              652.5E-03          375.003E-03        279.675E-03  
              655.E-03           380.495E-03        279.805E-03  
              657.5E-03          386.173E-03        279.922E-03  
              660.E-03           392.039E-03        280.029E-03  
              662.5E-03          398.096E-03        280.126E-03  
              665.E-03           404.348E-03        280.213E-03  
              667.5E-03          410.797E-03        280.29E-03   
              670.E-03           417.446E-03        280.359E-03  
              672.5E-03          424.298E-03        280.419E-03  
              675.E-03           431.357E-03        280.472E-03  
              677.5E-03          438.626E-03        280.518E-03  
              680.E-03           446.109E-03        280.557E-03  
              682.5E-03          453.809E-03        280.59E-03   
              685.E-03           461.728E-03        280.617E-03  
              687.5E-03          469.871E-03        280.639E-03  
              690.E-03           478.242E-03        280.655E-03  
              692.5E-03          486.843E-03        280.667E-03  
              695.E-03           495.668E-03        280.674E-03  
              697.5E-03          504.7E-03          280.679E-03  
              700.E-03           514.003E-03        280.679E-03  
              702.5E-03          523.506E-03        280.679E-03  
              705.E-03           533.215E-03        280.679E-03  
              707.5E-03          543.16E-03         280.679E-03  
              710.E-03           553.352E-03        280.679E-03  
              712.5E-03          563.76E-03         280.679E-03  
              715.E-03           574.4E-03          280.679E-03  
              717.5E-03          585.269E-03        280.679E-03  
              720.E-03           596.374E-03        280.679E-03  
              722.5E-03          607.712E-03        280.679E-03  
              725.E-03           619.286E-03        280.679E-03  
              727.5E-03          631.094E-03        280.679E-03  
              730.E-03           643.141E-03        280.679E-03  
              732.5E-03          655.424E-03        280.679E-03  
              735.E-03           667.946E-03        280.679E-03  
              737.5E-03          680.702E-03        280.679E-03  
              740.E-03           693.692E-03        280.679E-03  
              742.5E-03          706.915E-03        280.679E-03  
              745.E-03           720.368E-03        280.679E-03  
              747.5E-03          734.05E-03         280.679E-03  
              750.E-03           747.958E-03        280.679E-03  
              752.5E-03          762.085E-03        280.679E-03  
              755.E-03           776.424E-03        280.679E-03  
              757.5E-03          790.973E-03        280.679E-03  
              760.E-03           805.719E-03        280.679E-03  
              762.5E-03          820.658E-03        280.679E-03  
              765.E-03           835.781E-03        280.679E-03  
              767.5E-03          851.06E-03         280.679E-03  
              770.E-03           866.51E-03         280.679E-03  
              772.5E-03          882.106E-03        280.679E-03  
              775.E-03           897.834E-03        280.679E-03  
              777.5E-03          913.676E-03        280.679E-03  
              780.E-03           929.631E-03        280.679E-03  
              782.5E-03          945.656E-03        280.679E-03  
              785.E-03           961.728E-03        280.679E-03  
              787.5E-03          977.86E-03         280.679E-03  
              790.E-03           993.982E-03        280.679E-03  
              792.5E-03            1.01009          280.679E-03  
              795.E-03             1.02617          280.679E-03  
              797.5E-03            1.04215          280.679E-03  
              800.E-03             1.05802          280.679E-03  
              802.5E-03            1.07373          280.679E-03  
              805.E-03             1.08926          280.679E-03  
              807.5E-03            1.10455          280.679E-03  
              810.E-03             1.11953          280.679E-03  
              812.5E-03            1.13415          280.679E-03  
              815.E-03             1.14837          280.679E-03  
              817.5E-03            1.16209          280.679E-03  
              820.E-03             1.17514          280.679E-03  
              822.5E-03            1.18737          280.679E-03  
              825.E-03             1.1982           280.679E-03  
              827.5E-03            1.20963          280.679E-03  
              830.E-03             1.22109          280.679E-03  
              832.5E-03            1.23257          280.679E-03  
              835.E-03             1.24408          280.679E-03  
              837.5E-03            1.25561          280.679E-03  
              840.E-03             1.26716          280.679E-03  
              842.5E-03            1.27873          280.679E-03  
              845.E-03             1.29031          280.679E-03  
              847.5E-03            1.30189          280.679E-03  
              850.E-03             1.31347          280.679E-03  
              852.5E-03            1.32503          280.679E-03  
              855.E-03             1.33654          280.679E-03  
              857.5E-03            1.34801          280.679E-03  
              860.E-03             1.35943          280.679E-03  
              862.5E-03            1.37081          280.679E-03  
              865.E-03             1.38215          280.679E-03  
              867.5E-03            1.39344          280.679E-03  
              870.E-03             1.4047           280.679E-03  
              872.5E-03            1.41591          280.679E-03  
              875.E-03             1.42708          280.679E-03  
              877.5E-03            1.43821          280.679E-03  
              880.E-03             1.44931          280.679E-03  
              882.5E-03            1.46036          280.679E-03  
              885.E-03             1.47138          280.679E-03  
              887.5E-03            1.48235          280.679E-03  
              890.E-03             1.49328          280.679E-03  
              892.5E-03            1.50416          280.679E-03  
              895.E-03             1.51499          280.679E-03  
              897.5E-03            1.52574          280.679E-03  
              900.E-03             1.53641          280.679E-03  
              902.5E-03            1.54696          280.679E-03  
              905.E-03             1.55741          280.679E-03  
              907.5E-03            1.56775          280.679E-03  
              910.E-03             1.57798          280.679E-03  
              912.5E-03            1.58811          280.679E-03  
              915.E-03             1.59815          280.679E-03  
              917.5E-03            1.6085           280.679E-03  
              920.E-03             1.61983          280.679E-03  
              922.5E-03            1.6318           280.679E-03  
              925.E-03             1.64425          280.679E-03  
              927.5E-03            1.65706          280.679E-03  
              930.E-03             1.67015          280.679E-03  
              932.5E-03            1.68347          280.679E-03  
              935.E-03             1.69696          280.679E-03  
              937.5E-03            1.71057          280.694E-03  
              940.E-03             1.72413          280.787E-03  
              942.5E-03            1.73775          280.881E-03  
              945.E-03             1.75143          280.976E-03  
              947.5E-03            1.76515          281.072E-03  
              950.E-03             1.7789           281.169E-03  
              952.5E-03            1.79265          281.267E-03  
              955.E-03             1.80641          281.366E-03  
              957.5E-03            1.82015          281.466E-03  
              960.E-03             1.83388          281.567E-03  
              962.5E-03            1.84757          281.67E-03   
              965.E-03             1.86123          281.773E-03  
              967.5E-03            1.87484          281.877E-03  
              970.E-03             1.88841          281.982E-03  
              972.5E-03            1.90193          282.088E-03  
              975.E-03             1.91539          282.196E-03  
              977.5E-03            1.92879          282.304E-03  
              980.E-03             1.94213          282.413E-03  
              982.5E-03            1.9554           282.523E-03  
              985.E-03             1.96861          282.634E-03  
              987.5E-03            1.98174          282.746E-03  
              990.E-03             1.99481          282.858E-03  
              992.5E-03            2.0078           282.972E-03  
              995.E-03             2.02073          283.087E-03  
              997.5E-03            2.03358          283.202E-03  
                1.                 2.04636          283.319E-03  




