
                  X               ep1-out            ep2-out            ep3-out             ep1-in             ep2-in             ep3-in     

                0.                 0.                 0.                 0.                 0.                 0.                 0.         
                2.5E-03            0.                 0.                 0.                 0.                 0.                 0.         
                5.E-03           899.096E-06         -1.46839E-03      569.294E-06          1.0078E-03        -1.60718E-03      599.384E-06  
                7.5E-03            1.88694E-03       -3.1279E-03         1.24097E-03        2.04216E-03       -3.31264E-03        1.27047E-03
               10.E-03             2.87023E-03       -4.79258E-03        1.92235E-03        3.06498E-03       -5.0169E-03         1.95191E-03
               12.5E-03            3.85256E-03       -6.46077E-03        2.60822E-03        4.08145E-03       -6.71957E-03        2.63812E-03
               15.E-03             4.8353E-03        -8.13167E-03        3.29638E-03        5.09403E-03       -8.42077E-03        3.32674E-03
               17.5E-03            5.81893E-03       -9.8048E-03         3.98587E-03        6.10396E-03      -10.1207E-03         4.01676E-03
               20.E-03             6.80357E-03      -11.4798E-03         4.67626E-03        7.11195E-03      -11.8196E-03         4.70769E-03
               22.5E-03            7.78919E-03      -13.1565E-03         5.36732E-03        8.11845E-03      -13.5177E-03         5.3993E-03 
               25.E-03             8.77572E-03      -14.8347E-03         6.05893E-03        9.12375E-03      -15.2152E-03         6.09145E-03
               27.5E-03            9.76309E-03      -16.5141E-03         6.75102E-03       10.1281E-03       -16.9121E-03         6.78406E-03
               30.E-03            10.7512E-03       -18.1947E-03         7.44353E-03       11.1316E-03       -18.6086E-03         7.47707E-03
               32.5E-03           11.74E-03         -19.8764E-03         8.13642E-03       12.1344E-03       -20.3048E-03         8.17045E-03
               35.E-03            12.7294E-03       -21.5591E-03         8.82967E-03       13.1366E-03       -22.0008E-03         8.86416E-03
               37.5E-03           13.7194E-03       -23.2427E-03         9.52324E-03       14.1384E-03       -23.6966E-03         9.55817E-03
               40.E-03            14.7099E-03       -24.927E-03         10.2171E-03        15.1397E-03       -25.3922E-03        10.2524E-03 
               42.5E-03           15.7009E-03       -26.6122E-03        10.9112E-03        16.1407E-03       -27.0877E-03        10.947E-03  
               45.E-03            16.6924E-03       -28.298E-03         11.6056E-03        17.1415E-03       -28.7832E-03        11.6418E-03 
               47.5E-03           17.6842E-03       -29.9845E-03        12.3003E-03        18.1419E-03       -30.4787E-03        12.3368E-03 
               50.E-03            18.6764E-03       -31.6715E-03        12.9951E-03        19.1421E-03       -32.1741E-03        13.0319E-03 
               52.5E-03           19.6689E-03       -33.3591E-03        13.6902E-03        20.1422E-03       -33.8695E-03        13.7273E-03 
               55.E-03            20.6618E-03       -35.0473E-03        14.3855E-03        21.1421E-03       -35.565E-03         14.4229E-03 
               57.5E-03           21.6549E-03       -36.7359E-03        15.0809E-03        22.1419E-03       -37.2605E-03        15.1187E-03 
               60.E-03            22.6484E-03       -38.425E-03         15.7766E-03        23.1415E-03       -38.9561E-03        15.8146E-03 
               62.5E-03           23.6421E-03       -40.1145E-03        16.4724E-03        24.1411E-03       -40.6517E-03        16.5106E-03 
               65.E-03            24.6361E-03       -41.8044E-03        17.1683E-03        25.1406E-03       -42.3474E-03        17.2068E-03 
               67.5E-03           25.6303E-03       -43.4947E-03        17.8644E-03        26.14E-03         -44.0431E-03        17.9032E-03 
               70.E-03            26.6247E-03       -45.1854E-03        18.5607E-03        27.1393E-03       -45.739E-03         18.5996E-03 
               72.5E-03           27.6193E-03       -46.8764E-03        19.2571E-03        28.1387E-03       -47.4349E-03        19.2962E-03 
               75.E-03            28.6141E-03       -48.5677E-03        19.9536E-03        29.138E-03        -49.1309E-03        19.9929E-03 
               77.5E-03           29.6091E-03       -50.2594E-03        20.6502E-03        30.1373E-03       -50.827E-03         20.6898E-03 
               80.E-03            30.6043E-03       -51.9513E-03        21.347E-03         31.1365E-03       -52.5232E-03        21.3867E-03 
               82.5E-03           31.5997E-03       -53.6435E-03        22.0438E-03        32.1358E-03       -54.2195E-03        22.0837E-03 
               85.E-03            32.5952E-03       -55.336E-03         22.7408E-03        33.135E-03        -55.9159E-03        22.7809E-03 
               87.5E-03           33.5909E-03       -57.0287E-03        23.4379E-03        34.1343E-03       -57.6124E-03        23.4781E-03 
               90.E-03            34.5867E-03       -58.7217E-03        24.135E-03         35.1335E-03       -59.3089E-03        24.1754E-03 
               92.5E-03           35.5826E-03       -60.4149E-03        24.8323E-03        36.1328E-03       -61.0056E-03        24.8728E-03 
               95.E-03            36.5787E-03       -62.1084E-03        25.5297E-03        37.1321E-03       -62.7024E-03        25.5703E-03 
               97.5E-03           37.5749E-03       -63.802E-03         26.2271E-03        38.1314E-03       -64.3993E-03        26.2679E-03 
              100.E-03            38.5713E-03       -65.4959E-03        26.9246E-03        39.1307E-03       -66.0963E-03        26.9656E-03 
              102.5E-03           39.3847E-03       -66.8788E-03        27.4941E-03        39.9465E-03       -67.4817E-03        27.5352E-03 
              105.E-03            40.278E-03        -67.8033E-03        27.5253E-03        40.916E-03        -68.4809E-03        27.5648E-03 
              107.5E-03           41.1865E-03       -68.5518E-03        27.3652E-03        42.1006E-03       -69.4584E-03        27.3577E-03 
              110.E-03            42.2722E-03       -69.3222E-03        27.05E-03          43.1594E-03       -70.209E-03         27.0496E-03 
              112.5E-03           43.3628E-03       -70.0188E-03        26.656E-03         44.2695E-03       -70.9191E-03        26.6496E-03 
              115.E-03            44.4638E-03       -70.6722E-03        26.2084E-03        45.3703E-03       -71.5729E-03        26.2026E-03 
              117.5E-03           45.5637E-03       -71.2917E-03        25.7279E-03        46.4726E-03       -72.1942E-03        25.7217E-03 
              120.E-03            46.6622E-03       -71.8881E-03        25.2259E-03        47.5727E-03       -72.7919E-03        25.2192E-03 
              122.5E-03           47.7589E-03       -72.4684E-03        24.7096E-03        48.671E-03        -73.3734E-03        24.7024E-03 
              125.E-03            48.854E-03        -73.0377E-03        24.1837E-03        49.7678E-03       -73.9438E-03        24.176E-03  
              127.5E-03           49.948E-03        -73.5993E-03        23.6513E-03        50.8634E-03       -74.5065E-03        23.6431E-03 
              130.E-03            51.0412E-03       -74.1557E-03        23.1145E-03        51.9582E-03       -75.0639E-03        23.1057E-03 
              132.5E-03           52.1337E-03       -74.7085E-03        22.5747E-03        53.0524E-03       -75.6177E-03        22.5652E-03 
              135.E-03            53.2258E-03       -75.2587E-03        22.0329E-03        54.1462E-03       -76.1689E-03        22.0227E-03 
              137.5E-03           54.3176E-03       -75.8072E-03        21.4896E-03        55.2397E-03       -76.7185E-03        21.4787E-03 
              140.E-03            55.4092E-03       -76.3545E-03        20.9453E-03        56.333E-03        -77.2668E-03        20.9338E-03 
              142.5E-03           56.5007E-03       -76.9011E-03        20.4004E-03        57.4263E-03       -77.8144E-03        20.3881E-03 
              145.E-03            57.5921E-03       -77.447E-03         19.8549E-03        58.5194E-03       -78.3614E-03        19.8419E-03 
              147.5E-03           58.6834E-03       -77.9926E-03        19.3092E-03        59.6125E-03       -78.908E-03         19.2954E-03 
              150.E-03            59.7747E-03       -78.5379E-03        18.7632E-03        60.7056E-03       -79.4543E-03        18.7487E-03 
              152.5E-03           60.866E-03        -79.083E-03         18.2171E-03        61.7987E-03       -80.0005E-03        18.2018E-03 
              155.E-03            61.9572E-03       -79.628E-03         17.6708E-03        62.8919E-03       -80.5466E-03        17.6547E-03 
              157.5E-03           63.0485E-03       -80.173E-03         17.1245E-03        63.985E-03        -81.0926E-03        17.1076E-03 
              160.E-03            64.1398E-03       -80.7178E-03        16.5781E-03        65.0782E-03       -81.6386E-03        16.5604E-03 
              162.5E-03           65.231E-03        -81.2627E-03        16.0316E-03        66.1714E-03       -82.1846E-03        16.0132E-03 
              165.E-03            66.3223E-03       -81.8075E-03        15.4852E-03        67.2647E-03       -82.7306E-03        15.4659E-03 
              167.5E-03           67.4136E-03       -82.3523E-03        14.9387E-03        68.358E-03        -83.2766E-03        14.9185E-03 
              170.E-03            68.5049E-03       -82.8971E-03        14.3922E-03        69.4513E-03       -83.8225E-03        14.3712E-03 
              172.5E-03           69.5962E-03       -83.4419E-03        13.8457E-03        70.5447E-03       -84.3685E-03        13.8238E-03 
              175.E-03            70.6876E-03       -83.9867E-03        13.2991E-03        71.6381E-03       -84.9146E-03        13.2764E-03 
              177.5E-03           71.7789E-03       -84.5315E-03        12.7526E-03        72.7316E-03       -85.4606E-03        12.729E-03  
              180.E-03            72.8703E-03       -85.0763E-03        12.2061E-03        73.8251E-03       -86.0067E-03        12.1816E-03 
              182.5E-03           73.9616E-03       -85.6211E-03        11.6595E-03        74.9186E-03       -86.5528E-03        11.6342E-03 
              185.E-03            75.077E-03        -86.2157E-03        11.1387E-03        76.0373E-03       -87.1494E-03        11.1121E-03 
              187.5E-03           76.2245E-03       -86.8884E-03        10.6639E-03        77.1901E-03       -87.8255E-03        10.6354E-03 
              190.E-03            77.3829E-03       -87.6101E-03        10.2273E-03        78.3558E-03       -88.5523E-03        10.1965E-03 
              192.5E-03           78.5455E-03       -88.3636E-03         9.81811E-03       79.5271E-03       -89.312E-03          9.78492E-03
              195.E-03            79.7101E-03       -89.1381E-03         9.42792E-03       80.7013E-03       -90.0935E-03         9.39223E-03
              197.5E-03           80.8756E-03       -89.9262E-03         9.05068E-03       81.8769E-03       -90.8893E-03         9.01244E-03
              200.E-03            82.0413E-03       -90.7235E-03         8.68217E-03       83.0533E-03       -91.6946E-03         8.64137E-03
              202.5E-03           83.2072E-03       -91.5267E-03         8.31952E-03       84.23E-03         -92.5061E-03         8.27615E-03
              205.E-03            84.3731E-03       -92.3339E-03         7.96076E-03       85.4068E-03       -93.3216E-03         7.91486E-03
              207.5E-03           85.5391E-03       -93.1437E-03         7.6046E-03        86.5836E-03       -94.1398E-03         7.55619E-03
              210.E-03            86.7051E-03       -93.9553E-03         7.25016E-03       87.7604E-03       -94.9597E-03         7.19926E-03
              212.5E-03           87.8712E-03       -94.7681E-03         6.89687E-03       88.9372E-03       -95.7807E-03         6.8435E-03 
              215.E-03            89.0373E-03       -95.5816E-03         6.54434E-03       90.1139E-03       -96.6025E-03         6.48852E-03
              217.5E-03           90.2034E-03       -96.3957E-03         6.19231E-03       91.2906E-03       -97.4247E-03         6.13405E-03
              220.E-03            91.3695E-03       -97.2101E-03         5.84062E-03       92.4672E-03       -98.2472E-03         5.77992E-03
              222.5E-03           92.5357E-03       -98.0248E-03         5.48915E-03       93.6438E-03       -99.0699E-03         5.42603E-03
              225.E-03            93.7019E-03       -98.8397E-03         5.13783E-03       94.8204E-03       -99.8927E-03         5.07229E-03
              227.5E-03           94.8681E-03       -99.6547E-03         4.7866E-03        95.9969E-03      -100.716E-03          4.71866E-03
              230.E-03            96.0344E-03      -100.47E-03           4.43545E-03       97.1734E-03      -101.539E-03          4.36509E-03
              232.5E-03           97.2006E-03      -101.285E-03          4.08434E-03       98.3499E-03      -102.361E-03          4.01156E-03
              235.E-03            98.3669E-03      -102.1E-03            3.73326E-03       99.5264E-03      -103.185E-03          3.65806E-03
              237.5E-03           99.5332E-03      -102.915E-03          3.3822E-03       100.703E-03       -104.008E-03          3.30457E-03
              240.E-03           100.699E-03       -103.731E-03          3.03116E-03      101.88E-03        -104.831E-03          2.9511E-03 
              242.5E-03          101.866E-03       -104.546E-03          2.68013E-03      103.056E-03       -105.654E-03          2.59762E-03
              245.E-03           103.032E-03       -105.361E-03          2.32912E-03      104.233E-03       -106.477E-03          2.24415E-03
              247.5E-03          104.198E-03       -106.176E-03          1.97811E-03      105.409E-03       -107.3E-03            1.89066E-03
              250.E-03           105.365E-03       -106.992E-03          1.62711E-03      106.586E-03       -108.123E-03          1.53717E-03
              252.5E-03          106.531E-03       -107.807E-03          1.27612E-03      107.763E-03       -108.946E-03          1.18367E-03
              255.E-03           107.697E-03       -108.622E-03        925.14E-06         108.939E-03       -109.77E-03         830.159E-06  
              257.5E-03          108.863E-03       -109.438E-03        574.167E-06        110.116E-03       -110.593E-03        476.633E-06  
              260.E-03           110.03E-03        -110.253E-03        223.203E-06        111.293E-03       -111.416E-03        123.092E-06  
              262.5E-03          111.196E-03       -111.068E-03       -127.752E-06        112.47E-03        -112.24E-03        -230.465E-06  
              265.E-03           112.362E-03       -111.883E-03       -478.696E-06        113.647E-03       -113.063E-03       -584.039E-06  
              267.5E-03          113.528E-03       -112.699E-03       -829.631E-06        114.824E-03       -113.887E-03       -937.632E-06  
              270.E-03           114.694E-03       -113.514E-03         -1.18055E-03      116.002E-03       -114.71E-03          -1.29124E-03
              272.5E-03          115.86E-03        -114.329E-03         -1.53147E-03      117.179E-03       -115.534E-03         -1.64488E-03
              275.E-03           117.026E-03       -115.144E-03         -1.88237E-03      118.356E-03       -116.358E-03         -1.99853E-03
              277.5E-03          118.193E-03       -115.959E-03         -2.23326E-03      119.534E-03       -117.182E-03         -2.35221E-03
              280.E-03           119.359E-03       -116.774E-03         -2.58413E-03      120.712E-03       -118.006E-03         -2.70591E-03
              282.5E-03          120.524E-03       -117.589E-03         -2.93499E-03      121.889E-03       -118.83E-03          -3.05964E-03
              285.E-03           121.69E-03        -118.405E-03         -3.28584E-03      123.067E-03       -119.654E-03         -3.41339E-03
              287.5E-03          122.856E-03       -119.22E-03          -3.63667E-03      124.245E-03       -120.478E-03         -3.76717E-03
              290.E-03           124.022E-03       -120.035E-03         -3.98749E-03      125.423E-03       -121.302E-03         -4.12098E-03
              292.5E-03          125.188E-03       -120.85E-03          -4.33829E-03      126.602E-03       -122.127E-03         -4.47481E-03
              295.E-03           126.354E-03       -121.664E-03         -4.68908E-03      127.78E-03        -122.951E-03         -4.82868E-03
              297.5E-03          127.519E-03       -122.479E-03         -5.03985E-03      128.959E-03       -123.776E-03         -5.18258E-03
              300.E-03           128.685E-03       -123.294E-03         -5.3906E-03       130.137E-03       -124.601E-03         -5.53651E-03
              302.5E-03          129.85E-03        -124.109E-03         -5.74133E-03      131.316E-03       -125.426E-03         -5.89047E-03
              305.E-03           131.016E-03       -124.924E-03         -6.09205E-03      132.495E-03       -126.251E-03         -6.24447E-03
              307.5E-03          132.181E-03       -125.739E-03         -6.44274E-03      133.674E-03       -127.076E-03         -6.5985E-03 
              310.E-03           133.347E-03       -126.553E-03         -6.79342E-03      134.853E-03       -127.901E-03         -6.95257E-03
              312.5E-03          134.512E-03       -127.368E-03         -7.14407E-03      136.033E-03       -128.726E-03         -7.30668E-03
              315.E-03           135.677E-03       -128.182E-03         -7.4947E-03       137.213E-03       -129.552E-03         -7.66083E-03
              317.5E-03          136.842E-03       -128.997E-03         -7.84531E-03      138.392E-03       -130.377E-03         -8.01501E-03
              320.E-03           138.007E-03       -129.811E-03         -8.19589E-03      139.572E-03       -131.203E-03         -8.36924E-03
              322.5E-03          139.172E-03       -130.626E-03         -8.54645E-03      140.753E-03       -132.029E-03         -8.72351E-03
              325.E-03           140.337E-03       -131.44E-03          -8.89699E-03      141.933E-03       -132.855E-03         -9.07783E-03
              327.5E-03          141.502E-03       -132.254E-03         -9.2475E-03       143.114E-03       -133.681E-03         -9.43219E-03
              330.E-03           142.666E-03       -133.068E-03         -9.59798E-03      144.294E-03       -134.508E-03         -9.7866E-03 
              332.5E-03          143.831E-03       -133.883E-03         -9.94844E-03      145.476E-03       -135.334E-03        -10.1411E-03 
              335.E-03           144.995E-03       -134.697E-03        -10.2989E-03       146.657E-03       -136.161E-03        -10.4956E-03 
              337.5E-03          146.16E-03        -135.511E-03        -10.6493E-03       147.838E-03       -136.988E-03        -10.8501E-03 
              340.E-03           147.324E-03       -136.324E-03        -10.9996E-03       149.02E-03        -137.815E-03        -11.2047E-03 
              342.5E-03          148.488E-03       -137.138E-03        -11.35E-03         150.202E-03       -138.642E-03        -11.5594E-03 
              345.E-03           149.652E-03       -137.952E-03        -11.7003E-03       151.384E-03       -139.47E-03         -11.9141E-03 
              347.5E-03          150.816E-03       -138.766E-03        -12.0505E-03       152.566E-03       -140.297E-03        -12.2689E-03 
              350.E-03           151.98E-03        -139.579E-03        -12.4008E-03       153.749E-03       -141.125E-03        -12.6237E-03 
              352.5E-03          153.143E-03       -140.392E-03        -12.751E-03        154.932E-03       -141.953E-03        -12.9786E-03 
              355.E-03           154.307E-03       -141.206E-03        -13.1011E-03       156.115E-03       -142.782E-03        -13.3336E-03 
              357.5E-03          155.47E-03        -142.019E-03        -13.4513E-03       157.299E-03       -143.61E-03         -13.6886E-03 
              360.E-03           156.633E-03       -142.832E-03        -13.8013E-03       158.482E-03       -144.439E-03        -14.0437E-03 
              362.5E-03          157.796E-03       -143.645E-03        -14.1514E-03       159.667E-03       -145.268E-03        -14.3989E-03 
              365.E-03           158.959E-03       -144.458E-03        -14.5014E-03       160.851E-03       -146.097E-03        -14.7541E-03 
              367.5E-03          160.122E-03       -145.271E-03        -14.8513E-03       162.036E-03       -146.926E-03        -15.1095E-03 
              370.E-03           161.285E-03       -146.083E-03        -15.2012E-03       163.221E-03       -147.756E-03        -15.4648E-03 
              372.5E-03          162.447E-03       -146.896E-03        -15.5511E-03       164.406E-03       -148.586E-03        -15.8203E-03 
              375.E-03           163.609E-03       -147.708E-03        -15.9009E-03       165.592E-03       -149.416E-03        -16.1759E-03 
              377.5E-03          164.771E-03       -148.52E-03         -16.2507E-03       166.778E-03       -150.246E-03        -16.5315E-03 
              380.E-03           165.933E-03       -149.332E-03        -16.6004E-03       167.964E-03       -151.077E-03        -16.8872E-03 
              382.5E-03          167.094E-03       -150.144E-03        -16.95E-03         169.151E-03       -151.908E-03        -17.243E-03  
              385.E-03           168.256E-03       -150.956E-03        -17.2996E-03       170.338E-03       -152.739E-03        -17.5989E-03 
              387.5E-03          169.417E-03       -151.768E-03        -17.6491E-03       171.525E-03       -153.57E-03         -17.9549E-03 
              390.E-03           170.578E-03       -152.579E-03        -17.9986E-03       172.713E-03       -154.402E-03        -18.311E-03  
              392.5E-03          171.738E-03       -153.39E-03         -18.348E-03        173.902E-03       -155.234E-03        -18.6672E-03 
              395.E-03           172.899E-03       -154.201E-03        -18.6973E-03       175.09E-03        -156.067E-03        -19.0235E-03 
              397.5E-03          174.059E-03       -155.012E-03        -19.0466E-03       176.28E-03        -156.9E-03          -19.38E-03   
              400.E-03           175.219E-03       -155.823E-03        -19.3958E-03       177.469E-03       -157.733E-03        -19.7365E-03 
              402.5E-03          176.378E-03       -156.633E-03        -19.7449E-03       178.66E-03        -158.566E-03        -20.0931E-03 
              405.E-03           177.537E-03       -157.443E-03        -20.094E-03        179.85E-03        -159.4E-03          -20.4499E-03 
              407.5E-03          178.696E-03       -158.253E-03        -20.4429E-03       181.042E-03       -160.235E-03        -20.8068E-03 
              410.E-03           179.855E-03       -159.063E-03        -20.7918E-03       182.233E-03       -161.069E-03        -21.1638E-03 
              412.5E-03          181.013E-03       -159.873E-03        -21.1406E-03       183.426E-03       -161.905E-03        -21.521E-03  
              415.E-03           182.171E-03       -160.682E-03        -21.4893E-03       184.618E-03       -162.74E-03         -21.8783E-03 
              417.5E-03          183.329E-03       -161.491E-03        -21.8379E-03       185.812E-03       -163.576E-03        -22.2357E-03 
              420.E-03           184.486E-03       -162.3E-03          -22.1864E-03       187.006E-03       -164.413E-03        -22.5933E-03 
              422.5E-03          185.643E-03       -163.108E-03        -22.5348E-03       188.201E-03       -165.249E-03        -22.9511E-03 
              425.E-03           186.799E-03       -163.916E-03        -22.8831E-03       189.396E-03       -166.087E-03        -23.309E-03  
              427.5E-03          187.955E-03       -164.724E-03        -23.2313E-03       190.592E-03       -166.925E-03        -23.6671E-03 
              430.E-03           189.111E-03       -165.532E-03        -23.5794E-03       191.789E-03       -167.763E-03        -24.0254E-03 
              432.5E-03          190.266E-03       -166.339E-03        -23.9273E-03       192.986E-03       -168.602E-03        -24.3838E-03 
              435.E-03           191.421E-03       -167.145E-03        -24.2751E-03       194.184E-03       -169.442E-03        -24.7425E-03 
              437.5E-03          192.575E-03       -167.952E-03        -24.6228E-03       195.383E-03       -170.282E-03        -25.1013E-03 
              440.E-03           193.728E-03       -168.758E-03        -24.9704E-03       196.583E-03       -171.123E-03        -25.4604E-03 
              442.5E-03          194.881E-03       -169.563E-03        -25.3177E-03       197.784E-03       -171.964E-03        -25.8197E-03 
              445.E-03           196.034E-03       -170.369E-03        -25.665E-03        198.986E-03       -172.806E-03        -26.1792E-03 
              447.5E-03          197.185E-03       -171.173E-03        -26.0121E-03       200.188E-03       -173.649E-03        -26.5389E-03 
              450.E-03           198.336E-03       -171.977E-03        -26.359E-03        201.392E-03       -174.493E-03        -26.8989E-03 
              452.5E-03          199.487E-03       -172.781E-03        -26.7057E-03       202.596E-03       -175.337E-03        -27.2591E-03 
              455.E-03           200.637E-03       -173.584E-03        -27.0522E-03       203.802E-03       -176.182E-03        -27.6196E-03 
              457.5E-03          201.786E-03       -174.387E-03        -27.3986E-03       205.009E-03       -177.028E-03        -27.9804E-03 
              460.E-03           202.934E-03       -175.189E-03        -27.7447E-03       206.216E-03       -177.875E-03        -28.3415E-03 
              462.5E-03          204.081E-03       -175.991E-03        -28.0907E-03       207.425E-03       -178.723E-03        -28.7029E-03 
              465.E-03           205.228E-03       -176.792E-03        -28.4364E-03       208.636E-03       -179.571E-03        -29.0646E-03 
              467.5E-03          206.374E-03       -177.592E-03        -28.7818E-03       209.847E-03       -180.421E-03        -29.4267E-03 
              470.E-03           207.518E-03       -178.391E-03        -29.127E-03        211.061E-03       -181.271E-03        -29.7891E-03 
              472.5E-03          208.662E-03       -179.19E-03         -29.472E-03        212.275E-03       -182.123E-03        -30.1519E-03 
              475.E-03           209.805E-03       -179.988E-03        -29.8167E-03       213.491E-03       -182.976E-03        -30.5151E-03 
              477.5E-03          210.946E-03       -180.785E-03        -30.161E-03        214.709E-03       -183.83E-03         -30.8787E-03 
              480.E-03           212.087E-03       -181.581E-03        -30.5051E-03       215.928E-03       -184.685E-03        -31.2428E-03 
              482.5E-03          213.226E-03       -182.377E-03        -30.8488E-03       217.149E-03       -185.542E-03        -31.6073E-03 
              485.E-03           214.363E-03       -183.171E-03        -31.1922E-03       218.372E-03       -186.4E-03          -31.9722E-03 
              487.5E-03          215.5E-03         -183.965E-03        -31.5352E-03       219.597E-03       -187.26E-03         -32.3377E-03 
              490.E-03           216.635E-03       -184.757E-03        -31.8778E-03       220.824E-03       -188.121E-03        -32.7038E-03 
              492.5E-03          217.768E-03       -185.548E-03        -32.22E-03         222.054E-03       -188.983E-03        -33.0704E-03 
              495.E-03           218.9E-03         -186.338E-03        -32.5618E-03       223.285E-03       -189.848E-03        -33.4376E-03 
              497.5E-03          220.03E-03        -187.127E-03        -32.9031E-03       224.519E-03       -190.714E-03        -33.8055E-03 
              500.E-03           221.158E-03       -187.914E-03        -33.2439E-03       225.756E-03       -191.582E-03        -34.174E-03  
              502.5E-03          222.284E-03       -188.7E-03          -33.5842E-03       226.995E-03       -192.452E-03        -34.5433E-03 
              505.E-03           223.408E-03       -189.485E-03        -33.9239E-03       228.238E-03       -193.325E-03        -34.9133E-03 
              507.5E-03          224.53E-03        -190.267E-03        -34.263E-03        229.483E-03       -194.199E-03        -35.2841E-03 
              510.E-03           225.65E-03        -191.048E-03        -34.6015E-03       230.732E-03       -195.076E-03        -35.6559E-03 
              512.5E-03          226.767E-03       -191.827E-03        -34.9393E-03       231.985E-03       -195.956E-03        -36.0285E-03 
              515.E-03           227.881E-03       -192.605E-03        -35.2764E-03       233.241E-03       -196.839E-03        -36.4021E-03 
              517.5E-03          228.992E-03       -193.38E-03         -35.6127E-03       234.501E-03       -197.724E-03        -36.7768E-03 
              520.E-03           230.1E-03         -194.152E-03        -35.9481E-03       235.765E-03       -198.613E-03        -37.1526E-03 
              522.5E-03          231.205E-03       -194.923E-03        -36.2827E-03       237.034E-03       -199.505E-03        -37.5296E-03 
              525.E-03           232.307E-03       -195.69E-03         -36.6163E-03       238.308E-03       -200.4E-03          -37.908E-03  
              527.5E-03          233.404E-03       -196.455E-03        -36.9488E-03       239.587E-03       -201.3E-03          -38.2877E-03 
              530.E-03           234.498E-03       -197.217E-03        -37.2803E-03       240.872E-03       -202.204E-03        -38.6689E-03 
              532.5E-03          235.587E-03       -197.976E-03        -37.6105E-03       242.164E-03       -203.112E-03        -39.0518E-03 
              535.E-03           236.671E-03       -198.731E-03        -37.9395E-03       243.461E-03       -204.025E-03        -39.4364E-03 
              537.5E-03          237.75E-03        -199.483E-03        -38.2671E-03       244.766E-03       -204.943E-03        -39.8228E-03 
              540.E-03           238.824E-03       -200.231E-03        -38.5931E-03       246.079E-03       -205.867E-03        -40.2114E-03 
              542.5E-03          239.891E-03       -200.974E-03        -38.9176E-03       247.4E-03         -206.798E-03        -40.6021E-03 
              545.E-03           240.952E-03       -201.712E-03        -39.2403E-03       248.73E-03        -207.734E-03        -40.9953E-03 
              547.5E-03          242.007E-03       -202.446E-03        -39.561E-03        250.07E-03        -208.679E-03        -41.3911E-03 
              550.E-03           243.053E-03       -203.174E-03        -39.8797E-03       251.421E-03       -209.631E-03        -41.7898E-03 
              552.5E-03          244.092E-03       -203.896E-03        -40.1961E-03       252.783E-03       -210.592E-03        -42.1917E-03 
              555.E-03           245.121E-03       -204.611E-03        -40.5101E-03       254.159E-03       -211.562E-03        -42.597E-03  
              557.5E-03          246.141E-03       -205.319E-03        -40.8214E-03       255.549E-03       -212.543E-03        -43.006E-03  
              560.E-03           247.15E-03        -206.02E-03         -41.1298E-03       256.954E-03       -213.535E-03        -43.4192E-03 
              562.5E-03          248.148E-03       -206.713E-03        -41.435E-03        258.377E-03       -214.54E-03         -43.837E-03  
              565.E-03           249.133E-03       -207.396E-03        -41.7368E-03       259.818E-03       -215.558E-03        -44.2599E-03 
              567.5E-03          250.104E-03       -208.07E-03         -42.0347E-03       261.281E-03       -216.593E-03        -44.6884E-03 
              570.E-03           251.061E-03       -208.733E-03        -42.3285E-03       262.767E-03       -217.644E-03        -45.123E-03  
              572.5E-03          252.002E-03       -209.384E-03        -42.6178E-03       264.279E-03       -218.714E-03        -45.5646E-03 
              575.E-03           252.924E-03       -210.022E-03        -42.9022E-03       265.819E-03       -219.805E-03        -46.0138E-03 
              577.5E-03          253.828E-03       -210.647E-03        -43.1812E-03       267.392E-03       -220.92E-03         -46.4716E-03 
              580.E-03           254.711E-03       -211.257E-03        -43.4543E-03       269.E-03          -222.061E-03        -46.9388E-03 
              582.5E-03          255.572E-03       -211.85E-03         -43.7211E-03       270.648E-03       -223.231E-03        -47.4167E-03 
              585.E-03           256.408E-03       -212.427E-03        -43.9811E-03       272.34E-03        -224.434E-03        -47.9063E-03 
              587.5E-03          257.218E-03       -212.984E-03        -44.2337E-03       274.081E-03       -225.673E-03        -48.409E-03  
              590.E-03           258.001E-03       -213.522E-03        -44.4784E-03       275.878E-03       -226.952E-03        -48.9262E-03 
              592.5E-03          258.754E-03       -214.039E-03        -44.7146E-03       277.735E-03       -228.275E-03        -49.4596E-03 
              595.E-03           259.476E-03       -214.534E-03        -44.9421E-03       279.659E-03       -229.648E-03        -50.0106E-03 
              597.5E-03          260.166E-03       -215.006E-03        -45.1602E-03       281.656E-03       -231.075E-03        -50.5812E-03 
              600.E-03           260.824E-03       -215.455E-03        -45.3689E-03       283.734E-03       -232.561E-03        -51.1729E-03 
              602.5E-03          261.447E-03       -215.879E-03        -45.5677E-03       285.899E-03       -234.111E-03        -51.7876E-03 
              605.E-03           262.037E-03       -216.28E-03         -45.7567E-03       288.157E-03       -235.73E-03         -52.4269E-03 
              607.5E-03          262.593E-03       -216.657E-03        -45.9358E-03       290.516E-03       -237.423E-03        -53.0926E-03 
              610.E-03           263.116E-03       -217.011E-03        -46.1051E-03       292.98E-03        -239.194E-03        -53.786E-03  
              612.5E-03          263.607E-03       -217.342E-03        -46.265E-03        295.556E-03       -241.048E-03        -54.5085E-03 
              615.E-03           264.067E-03       -217.651E-03        -46.4158E-03       298.248E-03       -242.986E-03        -55.2615E-03 
              617.5E-03          264.498E-03       -217.94E-03         -46.5577E-03       301.06E-03        -245.014E-03        -56.0459E-03 
              620.E-03           264.9E-03         -218.209E-03        -46.6912E-03       303.996E-03       -247.134E-03        -56.8627E-03 
              622.5E-03          265.276E-03       -218.46E-03         -46.8168E-03       307.06E-03        -249.347E-03        -57.7127E-03 
              625.E-03           265.628E-03       -218.693E-03        -46.9348E-03       310.254E-03       -251.657E-03        -58.5966E-03 
              627.5E-03          265.956E-03       -218.91E-03         -47.0457E-03       313.58E-03        -254.065E-03        -59.5151E-03 
              630.E-03           266.261E-03       -219.112E-03        -47.1498E-03       317.04E-03        -256.572E-03        -60.4686E-03 
              632.5E-03          266.547E-03       -219.299E-03        -47.2475E-03       320.638E-03       -259.18E-03         -61.4575E-03 
              635.E-03           266.812E-03       -219.473E-03        -47.3392E-03       324.373E-03       -261.89E-03         -62.4824E-03 
              637.5E-03          267.059E-03       -219.634E-03        -47.4251E-03       328.248E-03       -264.704E-03        -63.5436E-03 
              640.E-03           267.289E-03       -219.784E-03        -47.5055E-03       332.263E-03       -267.622E-03        -64.6414E-03 
              642.5E-03          267.502E-03       -219.922E-03        -47.5807E-03       336.421E-03       -270.645E-03        -65.776E-03  
              645.E-03           267.7E-03         -220.049E-03        -47.6509E-03       340.722E-03       -273.774E-03        -66.9479E-03 
              647.5E-03          267.883E-03       -220.167E-03        -47.7163E-03       345.168E-03       -277.01E-03         -68.1572E-03 
              650.E-03           268.052E-03       -220.275E-03        -47.7771E-03       349.759E-03       -280.354E-03        -69.4043E-03 
              652.5E-03          268.207E-03       -220.374E-03        -47.8336E-03       354.496E-03       -283.807E-03        -70.6894E-03 
              655.E-03           268.35E-03        -220.464E-03        -47.8858E-03       359.381E-03       -287.368E-03        -72.0126E-03 
              657.5E-03          268.481E-03       -220.547E-03        -47.934E-03        364.414E-03       -291.039E-03        -73.3744E-03 
              660.E-03           268.6E-03         -220.622E-03        -47.9783E-03       369.597E-03       -294.822E-03        -74.7749E-03 
              662.5E-03          268.708E-03       -220.689E-03        -48.0189E-03       374.93E-03        -298.715E-03        -76.2144E-03 
              665.E-03           268.806E-03       -220.75E-03         -48.0558E-03       380.414E-03       -302.721E-03        -77.6931E-03 
              667.5E-03          268.894E-03       -220.804E-03        -48.0894E-03       386.051E-03       -306.839E-03        -79.2113E-03 
              670.E-03           268.972E-03       -220.853E-03        -48.1196E-03       391.84E-03        -311.071E-03        -80.7693E-03 
              672.5E-03          269.042E-03       -220.896E-03        -48.1466E-03       397.784E-03       -315.417E-03        -82.3672E-03 
              675.E-03           269.104E-03       -220.933E-03        -48.1707E-03       403.884E-03       -319.878E-03        -84.0053E-03 
              677.5E-03          269.157E-03       -220.965E-03        -48.1918E-03       410.139E-03       -324.455E-03        -85.6839E-03 
              680.E-03           269.203E-03       -220.993E-03        -48.2101E-03       416.551E-03       -329.148E-03        -87.4032E-03 
              682.5E-03          269.242E-03       -221.016E-03        -48.2257E-03       423.121E-03       -333.957E-03        -89.1635E-03 
              685.E-03           269.275E-03       -221.036E-03        -48.2388E-03       429.849E-03       -338.884E-03        -90.965E-03  
              687.5E-03          269.301E-03       -221.051E-03        -48.2495E-03       436.738E-03       -343.93E-03         -92.8079E-03 
              690.E-03           269.321E-03       -221.063E-03        -48.2578E-03       443.786E-03       -349.094E-03        -94.6926E-03 
              692.5E-03          269.335E-03       -221.071E-03        -48.2638E-03       450.996E-03       -354.377E-03        -96.6191E-03 
              695.E-03           269.344E-03       -221.077E-03        -48.2677E-03       458.361E-03       -359.775E-03        -98.5858E-03 
              697.5E-03          269.35E-03        -221.08E-03         -48.2702E-03       465.864E-03       -365.274E-03       -100.589E-03  
              700.E-03           269.35E-03        -221.08E-03         -48.2702E-03       473.555E-03       -370.914E-03       -102.641E-03  
              702.5E-03          269.35E-03        -221.08E-03         -48.2702E-03       481.374E-03       -376.647E-03       -104.726E-03  
              705.E-03           269.35E-03        -221.08E-03         -48.2702E-03       489.328E-03       -382.48E-03        -106.848E-03  
              707.5E-03          269.35E-03        -221.08E-03         -48.2702E-03       497.436E-03       -388.427E-03       -109.01E-03   
              710.E-03           269.35E-03        -221.08E-03         -48.2702E-03       505.706E-03       -394.493E-03       -111.213E-03  
              712.5E-03          269.35E-03        -221.08E-03         -48.2702E-03       514.112E-03       -400.659E-03       -113.452E-03  
              715.E-03           269.35E-03        -221.08E-03         -48.2702E-03       522.665E-03       -406.935E-03       -115.731E-03  
              717.5E-03          269.35E-03        -221.08E-03         -48.2702E-03       531.363E-03       -413.316E-03       -118.047E-03  
              720.E-03           269.35E-03        -221.08E-03         -48.2702E-03       540.21E-03        -419.807E-03       -120.403E-03  
              722.5E-03          269.35E-03        -221.08E-03         -48.2702E-03       549.202E-03       -426.406E-03       -122.797E-03  
              725.E-03           269.35E-03        -221.08E-03         -48.2702E-03       558.341E-03       -433.112E-03       -125.23E-03   
              727.5E-03          269.35E-03        -221.08E-03         -48.2702E-03       567.627E-03       -439.926E-03       -127.701E-03  
              730.E-03           269.35E-03        -221.08E-03         -48.2702E-03       577.06E-03        -446.849E-03       -130.211E-03  
              732.5E-03          269.35E-03        -221.08E-03         -48.2702E-03       586.64E-03        -453.88E-03        -132.76E-03   
              735.E-03           269.35E-03        -221.08E-03         -48.2702E-03       596.368E-03       -461.02E-03        -135.348E-03  
              737.5E-03          269.35E-03        -221.08E-03         -48.2702E-03       606.242E-03       -468.269E-03       -137.974E-03  
              740.E-03           269.35E-03        -221.08E-03         -48.2702E-03       616.262E-03       -475.624E-03       -140.638E-03  
              742.5E-03          269.35E-03        -221.08E-03         -48.2702E-03       626.429E-03       -483.089E-03       -143.34E-03   
              745.E-03           269.35E-03        -221.08E-03         -48.2702E-03       636.742E-03       -490.662E-03       -146.08E-03   
              747.5E-03          269.35E-03        -221.08E-03         -48.2702E-03       647.201E-03       -498.343E-03       -148.858E-03  
              750.E-03           269.35E-03        -221.08E-03         -48.2702E-03       657.807E-03       -506.134E-03       -151.673E-03  
              752.5E-03          269.35E-03        -221.08E-03         -48.2702E-03       668.557E-03       -514.032E-03       -154.525E-03  
              755.E-03           269.35E-03        -221.08E-03         -48.2702E-03       679.45E-03        -522.037E-03       -157.413E-03  
              757.5E-03          269.35E-03        -221.08E-03         -48.2702E-03       690.485E-03       -530.148E-03       -160.337E-03  
              760.E-03           269.35E-03        -221.08E-03         -48.2702E-03       701.661E-03       -538.366E-03       -163.296E-03  
              762.5E-03          269.35E-03        -221.08E-03         -48.2702E-03       712.978E-03       -546.689E-03       -166.29E-03   
              765.E-03           269.35E-03        -221.08E-03         -48.2702E-03       724.435E-03       -555.118E-03       -169.318E-03  
              767.5E-03          269.35E-03        -221.08E-03         -48.2702E-03       736.017E-03       -563.64E-03        -172.377E-03  
              770.E-03           269.35E-03        -221.08E-03         -48.2702E-03       747.741E-03       -572.271E-03       -175.47E-03   
              772.5E-03          269.35E-03        -221.08E-03         -48.2702E-03       759.599E-03       -581.005E-03       -178.595E-03  
              775.E-03           269.35E-03        -221.08E-03         -48.2702E-03       771.587E-03       -589.838E-03       -181.749E-03  
              777.5E-03          269.35E-03        -221.08E-03         -48.2702E-03       783.703E-03       -598.771E-03       -184.932E-03  
              780.E-03           269.35E-03        -221.08E-03         -48.2702E-03       795.96E-03        -607.815E-03       -188.145E-03  
              782.5E-03          269.35E-03        -221.08E-03         -48.2702E-03       808.333E-03       -616.95E-03        -191.383E-03  
              785.E-03           269.35E-03        -221.08E-03         -48.2702E-03       820.814E-03       -626.17E-03        -194.645E-03  
              787.5E-03          269.35E-03        -221.08E-03         -48.2702E-03       833.438E-03       -635.503E-03       -197.934E-03  
              790.E-03           269.35E-03        -221.08E-03         -48.2702E-03       846.153E-03       -644.91E-03        -201.243E-03  
              792.5E-03          269.35E-03        -221.08E-03         -48.2702E-03       858.983E-03       -654.411E-03       -204.573E-03  
              795.E-03           269.35E-03        -221.08E-03         -48.2702E-03       871.934E-03       -664.01E-03        -207.924E-03  
              797.5E-03          269.35E-03        -221.08E-03         -48.2702E-03       884.977E-03       -673.687E-03       -211.289E-03  
              800.E-03           269.35E-03        -221.08E-03         -48.2702E-03       898.118E-03       -683.447E-03       -214.671E-03  
              802.5E-03          269.35E-03        -221.08E-03         -48.2702E-03       911.352E-03       -693.286E-03       -218.066E-03  
              805.E-03           269.35E-03        -221.08E-03         -48.2702E-03       924.673E-03       -703.2E-03         -221.473E-03  
              807.5E-03          269.35E-03        -221.08E-03         -48.2702E-03       938.057E-03       -713.17E-03        -224.888E-03  
              810.E-03           269.35E-03        -221.08E-03         -48.2702E-03       951.534E-03       -723.22E-03        -228.314E-03  
              812.5E-03          269.35E-03        -221.08E-03         -48.2702E-03       965.07E-03        -733.325E-03       -231.745E-03  
              815.E-03           269.35E-03        -221.08E-03         -48.2702E-03       978.65E-03        -743.473E-03       -235.177E-03  
              817.5E-03          269.35E-03        -221.08E-03         -48.2702E-03       992.29E-03        -753.678E-03       -238.612E-03  
              820.E-03           269.35E-03        -221.08E-03         -48.2702E-03         1.00599         -763.938E-03       -242.047E-03  
              822.5E-03          269.35E-03        -221.08E-03         -48.2702E-03         1.01971         -774.233E-03       -245.476E-03  
              825.E-03           269.35E-03        -221.08E-03         -48.2702E-03         1.03344         -784.545E-03       -248.896E-03  
              827.5E-03          269.35E-03        -221.08E-03         -48.2702E-03         1.04718         -794.873E-03       -252.307E-03  
              830.E-03           269.35E-03        -221.08E-03         -48.2702E-03         1.06092         -805.215E-03       -255.706E-03  
              832.5E-03          269.35E-03        -221.08E-03         -48.2702E-03         1.07465         -815.557E-03       -259.091E-03  
              835.E-03           269.35E-03        -221.08E-03         -48.2702E-03         1.08836         -825.902E-03       -262.46E-03   
              837.5E-03          269.35E-03        -221.08E-03         -48.2702E-03         1.10206         -836.251E-03       -265.812E-03  
              840.E-03           269.35E-03        -221.08E-03         -48.2702E-03         1.11574         -846.6E-03         -269.144E-03  
              842.5E-03          269.35E-03        -221.08E-03         -48.2702E-03         1.1294          -856.95E-03        -272.453E-03  
              845.E-03           269.35E-03        -221.08E-03         -48.2702E-03         1.14304         -867.298E-03       -275.738E-03  
              847.5E-03          269.35E-03        -221.08E-03         -48.2702E-03         1.15662         -877.628E-03       -278.994E-03  
              850.E-03           269.35E-03        -221.08E-03         -48.2702E-03         1.17016         -887.941E-03       -282.217E-03  
              852.5E-03          269.35E-03        -221.08E-03         -48.2702E-03         1.18362         -898.219E-03       -285.402E-03  
              855.E-03           269.35E-03        -221.08E-03         -48.2702E-03         1.197           -908.452E-03       -288.543E-03  
              857.5E-03          269.35E-03        -221.08E-03         -48.2702E-03         1.21027         -918.63E-03        -291.639E-03  
              860.E-03           269.35E-03        -221.08E-03         -48.2702E-03         1.22345         -928.757E-03       -294.689E-03  
              862.5E-03          269.35E-03        -221.08E-03         -48.2702E-03         1.23653         -938.835E-03       -297.695E-03  
              865.E-03           269.35E-03        -221.08E-03         -48.2702E-03         1.24952         -948.863E-03       -300.655E-03  
              867.5E-03          269.35E-03        -221.08E-03         -48.2702E-03         1.26241         -958.843E-03       -303.569E-03  
              870.E-03           269.35E-03        -221.08E-03         -48.2702E-03         1.27521         -968.778E-03       -306.436E-03  
              872.5E-03          269.35E-03        -221.08E-03         -48.2702E-03         1.28792         -978.667E-03       -309.255E-03  
              875.E-03           269.35E-03        -221.08E-03         -48.2702E-03         1.30054         -988.512E-03       -312.026E-03  
              877.5E-03          269.35E-03        -221.08E-03         -48.2702E-03         1.31306         -998.315E-03       -314.747E-03  
              880.E-03           269.35E-03        -221.08E-03         -48.2702E-03         1.32549           -1.00808         -317.418E-03  
              882.5E-03          269.35E-03        -221.08E-03         -48.2702E-03         1.33783           -1.0178          -320.038E-03  
              885.E-03           269.35E-03        -221.08E-03         -48.2702E-03         1.35008           -1.02747         -322.604E-03  
              887.5E-03          269.35E-03        -221.08E-03         -48.2702E-03         1.36223           -1.03711         -325.118E-03  
              890.E-03           269.35E-03        -221.08E-03         -48.2702E-03         1.37428           -1.0467          -327.577E-03  
              892.5E-03          269.35E-03        -221.08E-03         -48.2702E-03         1.38623           -1.05625         -329.98E-03   
              895.E-03           269.35E-03        -221.08E-03         -48.2702E-03         1.39807           -1.06574         -332.326E-03  
              897.5E-03          269.35E-03        -221.08E-03         -48.2702E-03         1.40978           -1.07517         -334.61E-03   
              900.E-03           269.35E-03        -221.08E-03         -48.2702E-03         1.42135           -1.08453         -336.82E-03   
              902.5E-03          269.35E-03        -221.08E-03         -48.2702E-03         1.43276           -1.0938          -338.957E-03  
              905.E-03           269.35E-03        -221.08E-03         -48.2702E-03         1.444             -1.10298         -341.023E-03  
              907.5E-03          269.35E-03        -221.08E-03         -48.2702E-03         1.45509           -1.11207         -343.024E-03  
              910.E-03           269.35E-03        -221.08E-03         -48.2702E-03         1.46603           -1.12107         -344.962E-03  
              912.5E-03          269.35E-03        -221.08E-03         -48.2702E-03         1.47682           -1.12998         -346.841E-03  
              915.E-03           269.35E-03        -221.08E-03         -48.2702E-03         1.48747           -1.13881         -348.663E-03  
              917.5E-03          269.35E-03        -221.08E-03         -48.2702E-03         1.49798           -1.14755         -350.429E-03  
              920.E-03           269.35E-03        -221.08E-03         -48.2702E-03         1.50835           -1.15621         -352.14E-03   
              922.5E-03          269.35E-03        -221.08E-03         -48.2702E-03         1.51858           -1.16478         -353.797E-03  
              925.E-03           269.35E-03        -221.08E-03         -48.2702E-03         1.52867           -1.17327         -355.399E-03  
              927.5E-03          269.35E-03        -221.08E-03         -48.2702E-03         1.53862           -1.18167         -356.95E-03   
              930.E-03           269.35E-03        -221.08E-03         -48.2702E-03         1.54844           -1.18999         -358.449E-03  
              932.5E-03          269.35E-03        -221.08E-03         -48.2702E-03         1.55813           -1.19823         -359.897E-03  
              935.E-03           269.35E-03        -221.08E-03         -48.2702E-03         1.56769           -1.20639         -361.296E-03  
              937.5E-03          269.355E-03       -221.09E-03         -48.265E-03          1.57711           -1.21447         -362.643E-03  
              940.E-03           269.384E-03       -221.152E-03        -48.2319E-03         1.58634           -1.22241         -363.924E-03  
              942.5E-03          269.413E-03       -221.215E-03        -48.1981E-03         1.59544           -1.23028         -365.152E-03  
              945.E-03           269.442E-03       -221.278E-03        -48.1638E-03         1.60443           -1.23809         -366.334E-03  
              947.5E-03          269.471E-03       -221.342E-03        -48.1288E-03         1.61331           -1.24584         -367.47E-03   
              950.E-03           269.5E-03         -221.407E-03        -48.0931E-03         1.62209           -1.25353         -368.563E-03  
              952.5E-03          269.529E-03       -221.472E-03        -48.0569E-03         1.63077           -1.26116         -369.612E-03  
              955.E-03           269.558E-03       -221.538E-03        -48.02E-03           1.63935           -1.26873         -370.619E-03  
              957.5E-03          269.587E-03       -221.605E-03        -47.9825E-03         1.64783           -1.27624         -371.585E-03  
              960.E-03           269.616E-03       -221.672E-03        -47.9443E-03         1.65621           -1.2837          -372.51E-03   
              962.5E-03          269.645E-03       -221.74E-03         -47.9055E-03         1.66449           -1.29109         -373.395E-03  
              965.E-03           269.675E-03       -221.809E-03        -47.8661E-03         1.67267           -1.29843         -374.239E-03  
              967.5E-03          269.704E-03       -221.878E-03        -47.8261E-03         1.68077           -1.30572         -375.045E-03  
              970.E-03           269.733E-03       -221.948E-03        -47.7855E-03         1.68877           -1.31295         -375.813E-03  
              972.5E-03          269.762E-03       -222.018E-03        -47.7442E-03         1.69668           -1.32013         -376.543E-03  
              975.E-03           269.792E-03       -222.089E-03        -47.7024E-03         1.7045            -1.32726         -377.235E-03  
              977.5E-03          269.821E-03       -222.161E-03        -47.6599E-03         1.71223           -1.33434         -377.892E-03  
              980.E-03           269.85E-03        -222.233E-03        -47.6168E-03         1.71988           -1.34137         -378.512E-03  
              982.5E-03          269.88E-03        -222.306E-03        -47.5731E-03         1.72744           -1.34835         -379.097E-03  
              985.E-03           269.909E-03       -222.38E-03         -47.5288E-03         1.73492           -1.35527         -379.647E-03  
              987.5E-03          269.938E-03       -222.454E-03        -47.4839E-03         1.74232           -1.36215         -380.162E-03  
              990.E-03           269.967E-03       -222.529E-03        -47.4383E-03         1.74963           -1.36899         -380.643E-03  
              992.5E-03          269.997E-03       -222.605E-03        -47.3922E-03         1.75686           -1.37577         -381.09E-03   
              995.E-03           270.026E-03       -222.681E-03        -47.3454E-03         1.76402           -1.38251         -381.505E-03  
              997.5E-03          270.055E-03       -222.757E-03        -47.2981E-03         1.7711            -1.38921         -381.886E-03  
                1.               270.085E-03       -222.835E-03        -47.2501E-03         1.7781            -1.39586         -382.236E-03  




