
                  X                 Dinn               Dout      

                0.                 0.                 0.         
                2.5E-03            0.                 0.         
                5.E-03             1.5499E-03         1.17996E-03
                7.5E-03            3.19072E-03        2.60065E-03
               10.E-03             4.8553E-03         4.09574E-03
               12.5E-03            6.51355E-03        5.63282E-03
               15.E-03             8.16025E-03        7.1938E-03 
               17.5E-03            9.7963E-03         8.76879E-03
               20.E-03            11.4238E-03        10.3523E-03 
               22.5E-03           13.0448E-03        11.9413E-03 
               25.E-03            14.6609E-03        13.534E-03  
               27.5E-03           16.2737E-03        15.1293E-03 
               30.E-03            17.8839E-03        16.7265E-03 
               32.5E-03           19.4924E-03        18.3252E-03 
               35.E-03            21.0998E-03        19.9252E-03 
               37.5E-03           22.7065E-03        21.5263E-03 
               40.E-03            24.3128E-03        23.1282E-03 
               42.5E-03           25.9189E-03        24.7309E-03 
               45.E-03            27.5249E-03        26.3342E-03 
               47.5E-03           29.131E-03         27.9382E-03 
               50.E-03            30.7374E-03        29.5427E-03 
               52.5E-03           32.3439E-03        31.1478E-03 
               55.E-03            33.9508E-03        32.7533E-03 
               57.5E-03           35.5579E-03        34.3593E-03 
               60.E-03            37.1654E-03        35.9656E-03 
               62.5E-03           38.7732E-03        37.5723E-03 
               65.E-03            40.3814E-03        39.1794E-03 
               67.5E-03           41.9899E-03        40.7868E-03 
               70.E-03            43.5988E-03        42.3945E-03 
               72.5E-03           45.2081E-03        44.0025E-03 
               75.E-03            46.8177E-03        45.6108E-03 
               77.5E-03           48.4277E-03        47.2193E-03 
               80.E-03            50.038E-03         48.8281E-03 
               82.5E-03           51.6486E-03        50.4371E-03 
               85.E-03            53.2596E-03        52.0464E-03 
               87.5E-03           54.8709E-03        53.6558E-03 
               90.E-03            56.4825E-03        55.2654E-03 
               92.5E-03           58.3272E-03        57.1185E-03 
               95.E-03            60.2261E-03        59.0375E-03 
               97.5E-03           61.9711E-03        60.8107E-03 
              100.E-03            63.6048E-03        62.48E-03   
              102.5E-03           65.1814E-03        64.0972E-03 
              105.E-03            66.7312E-03        65.69E-03   
              107.5E-03           68.2687E-03        67.2718E-03 
              110.E-03            69.8009E-03        68.8485E-03 
              112.5E-03           71.3308E-03        70.423E-03  
              115.E-03            72.86E-03          71.9965E-03 
              117.5E-03           74.3891E-03        73.5697E-03 
              120.E-03            75.9184E-03        75.1428E-03 
              122.5E-03           77.4481E-03        76.7159E-03 
              125.E-03            78.9782E-03        78.289E-03  
              127.5E-03           80.5087E-03        79.8622E-03 
              130.E-03            82.0396E-03        81.4355E-03 
              132.5E-03           83.571E-03         83.0089E-03 
              135.E-03            85.1028E-03        84.5824E-03 
              137.5E-03           86.635E-03         86.156E-03  
              140.E-03            88.1677E-03        87.7296E-03 
              142.5E-03           89.7008E-03        89.3034E-03 
              145.E-03            91.2342E-03        90.8772E-03 
              147.5E-03           92.7681E-03        92.4511E-03 
              150.E-03            94.3023E-03        94.0251E-03 
              152.5E-03           95.837E-03         95.5992E-03 
              155.E-03            97.372E-03         97.1733E-03 
              157.5E-03           98.9074E-03        98.7475E-03 
              160.E-03           100.443E-03        100.322E-03  
              162.5E-03          101.979E-03        101.896E-03  
              165.E-03           103.516E-03        103.471E-03  
              167.5E-03          105.053E-03        105.045E-03  
              170.E-03           106.59E-03         106.62E-03   
              172.5E-03          108.128E-03        108.194E-03  
              175.E-03           109.665E-03        109.769E-03  
              177.5E-03          111.204E-03        111.343E-03  
              180.E-03           112.742E-03        112.918E-03  
              182.5E-03          114.322E-03        114.522E-03  
              185.E-03           116.073E-03        116.277E-03  
              187.5E-03          118.004E-03        118.199E-03  
              190.E-03           119.987E-03        120.159E-03  
              192.5E-03          121.985E-03        122.122E-03  
              195.E-03           123.986E-03        124.082E-03  
              197.5E-03          125.985E-03        126.041E-03  
              200.E-03           127.982E-03        127.999E-03  
              202.5E-03          129.976E-03        129.957E-03  
              205.E-03           131.969E-03        131.916E-03  
              207.5E-03          133.959E-03        133.875E-03  
              210.E-03           135.949E-03        135.836E-03  
              212.5E-03          137.938E-03        137.797E-03  
              215.E-03           139.925E-03        139.759E-03  
              217.5E-03          141.913E-03        141.721E-03  
              220.E-03           143.9E-03          143.684E-03  
              222.5E-03          145.887E-03        145.647E-03  
              225.E-03           147.874E-03        147.61E-03   
              227.5E-03          149.861E-03        149.574E-03  
              230.E-03           151.848E-03        151.538E-03  
              232.5E-03          153.835E-03        153.501E-03  
              235.E-03           155.822E-03        155.465E-03  
              237.5E-03          157.809E-03        157.429E-03  
              240.E-03           159.797E-03        159.392E-03  
              242.5E-03          161.785E-03        161.356E-03  
              245.E-03           163.773E-03        163.32E-03   
              247.5E-03          165.762E-03        165.283E-03  
              250.E-03           167.751E-03        167.246E-03  
              252.5E-03          169.741E-03        169.209E-03  
              255.E-03           171.731E-03        171.172E-03  
              257.5E-03          173.722E-03        173.134E-03  
              260.E-03           175.713E-03        175.097E-03  
              262.5E-03          177.704E-03        177.059E-03  
              265.E-03           179.696E-03        179.02E-03   
              267.5E-03          181.689E-03        180.982E-03  
              270.E-03           183.682E-03        182.943E-03  
              272.5E-03          185.676E-03        184.903E-03  
              275.E-03           187.649E-03        186.556E-03  
              277.5E-03          189.477E-03        188.229E-03  
              280.E-03           191.199E-03        189.921E-03  
              282.5E-03          192.887E-03        191.589E-03  
              285.E-03           194.553E-03        193.238E-03  
              287.5E-03          196.206E-03        194.874E-03  
              290.E-03           197.852E-03        196.501E-03  
              292.5E-03          199.493E-03        198.123E-03  
              295.E-03           201.132E-03        199.74E-03   
              297.5E-03          202.769E-03        201.355E-03  
              300.E-03           204.406E-03        202.968E-03  
              302.5E-03          206.042E-03        204.579E-03  
              305.E-03           207.679E-03        206.189E-03  
              307.5E-03          209.317E-03        207.797E-03  
              310.E-03           210.955E-03        209.405E-03  
              312.5E-03          212.595E-03        211.012E-03  
              315.E-03           214.235E-03        212.618E-03  
              317.5E-03          215.876E-03        214.224E-03  
              320.E-03           217.518E-03        215.828E-03  
              322.5E-03          219.161E-03        217.432E-03  
              325.E-03           220.805E-03        219.035E-03  
              327.5E-03          222.45E-03         220.637E-03  
              330.E-03           224.097E-03        222.239E-03  
              332.5E-03          225.744E-03        223.839E-03  
              335.E-03           227.393E-03        225.439E-03  
              337.5E-03          229.042E-03        227.038E-03  
              340.E-03           230.694E-03        228.636E-03  
              342.5E-03          232.346E-03        230.232E-03  
              345.E-03           233.999E-03        231.828E-03  
              347.5E-03          235.654E-03        233.423E-03  
              350.E-03           237.311E-03        235.017E-03  
              352.5E-03          238.969E-03        236.61E-03   
              355.E-03           240.628E-03        238.201E-03  
              357.5E-03          242.289E-03        239.791E-03  
              360.E-03           243.952E-03        241.381E-03  
              362.5E-03          245.616E-03        242.968E-03  
              365.E-03           247.282E-03        244.555E-03  
              367.5E-03          248.95E-03         246.14E-03   
              370.E-03           250.62E-03         247.723E-03  
              372.5E-03          252.293E-03        249.305E-03  
              375.E-03           253.967E-03        250.886E-03  
              377.5E-03          255.643E-03        252.464E-03  
              380.E-03           257.322E-03        254.041E-03  
              382.5E-03          259.003E-03        255.616E-03  
              385.E-03           260.687E-03        257.189E-03  
              387.5E-03          262.374E-03        258.76E-03   
              390.E-03           264.064E-03        260.329E-03  
              392.5E-03          265.756E-03        261.895E-03  
              395.E-03           267.452E-03        263.459E-03  
              397.5E-03          269.151E-03        265.021E-03  
              400.E-03           270.854E-03        266.579E-03  
              402.5E-03          272.561E-03        268.135E-03  
              405.E-03           274.272E-03        269.688E-03  
              407.5E-03          275.987E-03        271.237E-03  
              410.E-03           277.707E-03        272.783E-03  
              412.5E-03          279.431E-03        274.326E-03  
              415.E-03           281.161E-03        275.864E-03  
              417.5E-03          282.896E-03        277.399E-03  
              420.E-03           284.638E-03        278.929E-03  
              422.5E-03          286.385E-03        280.455E-03  
              425.E-03           288.139E-03        281.975E-03  
              427.5E-03          289.901E-03        283.491E-03  
              430.E-03           291.67E-03         285.001E-03  
              432.5E-03          293.448E-03        286.505E-03  
              435.E-03           295.234E-03        288.003E-03  
              437.5E-03          297.03E-03         289.494E-03  
              440.E-03           298.837E-03        290.978E-03  
              442.5E-03          300.654E-03        292.454E-03  
              445.E-03           302.484E-03        293.923E-03  
              447.5E-03          304.327E-03        295.382E-03  
              450.E-03           306.185E-03        296.832E-03  
              452.5E-03          308.057E-03        298.273E-03  
              455.E-03           309.602E-03        299.444E-03  
              457.5E-03          312.226E-03        301.501E-03  
              460.E-03           314.179E-03        303.486E-03  
              462.5E-03          316.051E-03        305.356E-03  
              465.E-03           317.827E-03        307.139E-03  
              467.5E-03          319.55E-03         308.871E-03  
              470.E-03           321.242E-03        310.575E-03  
              472.5E-03          322.919E-03        312.264E-03  
              475.E-03           324.587E-03        313.943E-03  
              477.5E-03          326.251E-03        315.619E-03  
              480.E-03           327.913E-03        317.292E-03  
              482.5E-03          329.574E-03        318.963E-03  
              485.E-03           331.235E-03        320.633E-03  
              487.5E-03          332.896E-03        322.303E-03  
              490.E-03           334.558E-03        323.972E-03  
              492.5E-03          336.219E-03        325.642E-03  
              495.E-03           337.882E-03        327.31E-03   
              497.5E-03          339.544E-03        328.979E-03  
              500.E-03           341.208E-03        330.647E-03  
              502.5E-03          342.871E-03        332.315E-03  
              505.E-03           344.536E-03        333.983E-03  
              507.5E-03          346.2E-03          335.65E-03   
              510.E-03           347.865E-03        337.318E-03  
              512.5E-03          349.531E-03        338.985E-03  
              515.E-03           351.197E-03        340.652E-03  
              517.5E-03          352.864E-03        342.318E-03  
              520.E-03           354.531E-03        343.984E-03  
              522.5E-03          356.199E-03        345.651E-03  
              525.E-03           357.867E-03        347.316E-03  
              527.5E-03          359.536E-03        348.982E-03  
              530.E-03           361.205E-03        350.648E-03  
              532.5E-03          362.874E-03        352.313E-03  
              535.E-03           364.544E-03        353.978E-03  
              537.5E-03          366.215E-03        355.642E-03  
              540.E-03           367.886E-03        357.307E-03  
              542.5E-03          369.557E-03        358.971E-03  
              545.E-03           371.229E-03        360.635E-03  
              547.5E-03          372.902E-03        362.299E-03  
              550.E-03           374.574E-03        363.963E-03  
              552.5E-03          376.248E-03        365.626E-03  
              555.E-03           377.922E-03        367.289E-03  
              557.5E-03          379.596E-03        368.952E-03  
              560.E-03           381.271E-03        370.615E-03  
              562.5E-03          382.946E-03        372.277E-03  
              565.E-03           384.621E-03        373.939E-03  
              567.5E-03          386.298E-03        375.601E-03  
              570.E-03           387.974E-03        377.263E-03  
              572.5E-03          389.651E-03        378.924E-03  
              575.E-03           391.329E-03        380.586E-03  
              577.5E-03          393.007E-03        382.247E-03  
              580.E-03           394.685E-03        383.908E-03  
              582.5E-03          396.364E-03        385.568E-03  
              585.E-03           398.043E-03        387.228E-03  
              587.5E-03          399.723E-03        388.888E-03  
              590.E-03           401.403E-03        390.548E-03  
              592.5E-03          403.084E-03        392.208E-03  
              595.E-03           404.765E-03        393.867E-03  
              597.5E-03          406.447E-03        395.526E-03  
              600.E-03           408.129E-03        397.185E-03  
              602.5E-03          409.811E-03        398.844E-03  
              605.E-03           411.494E-03        400.502E-03  
              607.5E-03          413.178E-03        402.161E-03  
              610.E-03           414.861E-03        403.819E-03  
              612.5E-03          416.546E-03        405.476E-03  
              615.E-03           418.231E-03        407.134E-03  
              617.5E-03          419.916E-03        408.791E-03  
              620.E-03           421.602E-03        410.448E-03  
              622.5E-03          423.288E-03        412.105E-03  
              625.E-03           424.974E-03        413.761E-03  
              627.5E-03          426.661E-03        415.417E-03  
              630.E-03           428.349E-03        417.073E-03  
              632.5E-03          430.037E-03        418.729E-03  
              635.E-03           431.725E-03        420.384E-03  
              637.5E-03          433.457E-03        422.042E-03  
              640.E-03           435.38E-03         423.756E-03  
              642.5E-03          437.528E-03        425.539E-03  
              645.E-03           439.842E-03        427.29E-03   
              647.5E-03          442.316E-03        428.979E-03  
              650.E-03           444.952E-03        430.603E-03  
              652.5E-03          447.754E-03        432.168E-03  
              655.E-03           450.723E-03        433.683E-03  
              657.5E-03          453.867E-03        435.154E-03  
              660.E-03           457.196E-03        436.583E-03  
              662.5E-03          460.728E-03        437.972E-03  
              665.E-03           464.488E-03        439.322E-03  
              667.5E-03          468.503E-03        440.631E-03  
              670.E-03           472.807E-03        441.9E-03    
              672.5E-03          477.434E-03        443.125E-03  
              675.E-03           482.42E-03         444.307E-03  
              677.5E-03          487.794E-03        445.444E-03  
              680.E-03           493.583E-03        446.538E-03  
              682.5E-03          499.805E-03        447.587E-03  
              685.E-03           506.472E-03        448.595E-03  
              687.5E-03          513.592E-03        449.561E-03  
              690.E-03           521.167E-03        450.488E-03  
              692.5E-03          529.196E-03        451.379E-03  
              695.E-03           537.676E-03        452.234E-03  
              697.5E-03          546.605E-03        453.055E-03  
              700.E-03           555.977E-03        453.845E-03  
              702.5E-03          565.788E-03        454.606E-03  
              705.E-03           576.032E-03        455.338E-03  
              707.5E-03          586.703E-03        456.043E-03  
              710.E-03           597.796E-03        456.722E-03  
              712.5E-03          609.304E-03        457.378E-03  
              715.E-03           621.22E-03         458.011E-03  
              717.5E-03          633.537E-03        458.621E-03  
              720.E-03           646.244E-03        459.212E-03  
              722.5E-03          659.333E-03        459.782E-03  
              725.E-03           672.789E-03        460.334E-03  
              727.5E-03          686.6E-03          460.868E-03  
              730.E-03           700.747E-03        461.384E-03  
              732.5E-03          715.208E-03        461.884E-03  
              735.E-03           729.958E-03        462.369E-03  
              737.5E-03          744.965E-03        462.839E-03  
              740.E-03           760.191E-03        463.295E-03  
              742.5E-03          775.588E-03        463.737E-03  
              745.E-03           791.098E-03        464.166E-03  
              747.5E-03          806.647E-03        464.583E-03  
              750.E-03           822.147E-03        464.988E-03  
              752.5E-03          837.482E-03        465.381E-03  
              755.E-03           852.501E-03        465.764E-03  
              757.5E-03          866.993E-03        466.137E-03  
              760.E-03           880.616E-03        466.5E-03    
              762.5E-03          892.846E-03        466.854E-03  
              765.E-03           905.331E-03        467.2E-03    
              767.5E-03          918.059E-03        467.537E-03  
              770.E-03           931.019E-03        467.866E-03  
              772.5E-03          944.197E-03        468.189E-03  
              775.E-03           957.575E-03        468.505E-03  
              777.5E-03          971.133E-03        468.815E-03  
              780.E-03           984.851E-03        469.119E-03  
              782.5E-03          998.707E-03        469.418E-03  
              785.E-03             1.01268          469.712E-03  
              787.5E-03            1.02676          470.002E-03  
              790.E-03             1.04093          470.289E-03  
              792.5E-03            1.05518          470.572E-03  
              795.E-03             1.0695           470.852E-03  
              797.5E-03            1.08388          471.129E-03  
              800.E-03             1.09831          471.404E-03  
              802.5E-03            1.11276          471.677E-03  
              805.E-03             1.12719          471.95E-03   
              807.5E-03            1.14164          472.22E-03   
              810.E-03             1.15606          472.49E-03   
              812.5E-03            1.17043          472.759E-03  
              815.E-03             1.18475          473.027E-03  
              817.5E-03            1.199            473.295E-03  
              820.E-03             1.21045          474.059E-03  
              822.5E-03            1.22113          474.99E-03   
              825.E-03             1.23199          475.913E-03  
              827.5E-03            1.24297          476.832E-03  
              830.E-03             1.25405          477.751E-03  
              832.5E-03            1.26522          478.669E-03  
              835.E-03             1.27647          479.587E-03  
              837.5E-03            1.28778          480.506E-03  
              840.E-03             1.29916          481.424E-03  
              842.5E-03            1.31058          482.342E-03  
              845.E-03             1.32204          483.261E-03  
              847.5E-03            1.33352          484.179E-03  
              850.E-03             1.34502          485.096E-03  
              852.5E-03            1.35652          486.013E-03  
              855.E-03             1.36801          486.93E-03   
              857.5E-03            1.37949          487.845E-03  
              860.E-03             1.39094          488.759E-03  
              862.5E-03            1.40235          489.672E-03  
              865.E-03             1.41373          490.584E-03  
              867.5E-03            1.42506          491.494E-03  
              870.E-03             1.43634          492.402E-03  
              872.5E-03            1.44756          493.309E-03  
              875.E-03             1.45872          494.213E-03  
              877.5E-03            1.46982          495.115E-03  
              880.E-03             1.48086          496.014E-03  
              882.5E-03            1.49183          496.911E-03  
              885.E-03             1.50273          497.806E-03  
              887.5E-03            1.51357          498.697E-03  
              890.E-03             1.52433          499.586E-03  
              892.5E-03            1.53502          500.472E-03  
              895.E-03             1.54565          501.355E-03  
              897.5E-03            1.5562           502.235E-03  
              900.E-03             1.56668          503.112E-03  
              902.5E-03            1.57709          503.986E-03  
              905.E-03             1.58743          504.857E-03  
              907.5E-03            1.59769          505.724E-03  
              910.E-03             1.60789          506.588E-03  
              912.5E-03            1.61801          507.449E-03  
              915.E-03             1.62807          508.307E-03  
              917.5E-03            1.63805          509.161E-03  
              920.E-03             1.64796          510.012E-03  
              922.5E-03            1.65781          510.86E-03   
              925.E-03             1.66758          511.704E-03  
              927.5E-03            1.67729          512.545E-03  
              930.E-03             1.68692          513.383E-03  
              932.5E-03            1.6965           514.218E-03  
              935.E-03             1.706            515.049E-03  
              937.5E-03            1.71544          515.877E-03  
              940.E-03             1.72481          516.702E-03  
              942.5E-03            1.73412          517.523E-03  
              945.E-03             1.74337          518.341E-03  
              947.5E-03            1.75255          519.157E-03  
              950.E-03             1.76167          519.969E-03  
              952.5E-03            1.77072          520.777E-03  
              955.E-03             1.77972          521.583E-03  
              957.5E-03            1.78865          522.386E-03  
              960.E-03             1.79753          523.185E-03  
              962.5E-03            1.80634          523.982E-03  
              965.E-03             1.8151           524.776E-03  
              967.5E-03            1.8238           525.566E-03  
              970.E-03             1.83244          526.354E-03  
              972.5E-03            1.84103          527.139E-03  
              975.E-03             1.84956          527.921E-03  
              977.5E-03            1.85803          528.7E-03    
              980.E-03             1.86645          529.476E-03  
              982.5E-03            1.87481          530.25E-03   
              985.E-03             1.88313          531.021E-03  
              987.5E-03            1.89139          531.789E-03  
              990.E-03             1.89959          532.554E-03  
              992.5E-03            1.90775          533.317E-03  
              995.E-03             1.91585          534.077E-03  
              997.5E-03            1.92391          534.835E-03  
                1.                 1.93191          535.59E-03   




