
                  X               ep1-out            ep2-out            ep3-out             ep1-in             ep2-in             ep3-in     

                0.                 0.                 0.                 0.                 0.                 0.                 0.         
                2.5E-03            0.                 0.                 0.                 0.                 0.                 0.         
                5.E-03           903.969E-06         -1.47294E-03      568.974E-06        984.274E-06         -1.58595E-03      601.673E-06  
                7.5E-03            1.89425E-03       -3.1335E-03         1.23926E-03        2.00796E-03       -3.28717E-03        1.27921E-03
               10.E-03             2.87957E-03       -4.79902E-03        1.91945E-03        3.02218E-03       -4.98828E-03        1.9661E-03 
               12.5E-03            3.86363E-03       -6.4679E-03         2.60428E-03        4.03154E-03       -6.68857E-03        2.65704E-03
               15.E-03             4.84786E-03       -8.13938E-03        3.29151E-03        5.03815E-03       -8.38797E-03        3.34982E-03
               17.5E-03            5.8328E-03        -9.81298E-03        3.98018E-03        6.04305E-03      -10.0866E-03         4.04354E-03
               20.E-03             6.8186E-03       -11.4884E-03         4.66982E-03        7.04675E-03      -11.7845E-03         4.73778E-03
               22.5E-03            7.80525E-03      -13.1654E-03         5.3602E-03         8.04959E-03      -13.482E-03          5.43238E-03
               25.E-03             8.79271E-03      -14.8439E-03         6.05118E-03        9.05174E-03      -15.179E-03          6.12724E-03
               27.5E-03            9.78091E-03      -16.5236E-03         6.74269E-03       10.0533E-03       -16.8757E-03         6.82232E-03
               30.E-03            10.7698E-03       -18.2045E-03         7.43467E-03       11.0545E-03       -18.5721E-03         7.5176E-03 
               32.5E-03           11.7593E-03       -19.8864E-03         8.12707E-03       12.0553E-03       -20.2684E-03         8.21305E-03
               35.E-03            12.7494E-03       -21.5692E-03         8.81985E-03       13.0558E-03       -21.9645E-03         8.90867E-03
               37.5E-03           13.7399E-03       -23.2529E-03         9.51298E-03       14.0561E-03       -23.6605E-03         9.60444E-03
               40.E-03            14.731E-03        -24.9374E-03        10.2064E-03        15.0561E-03       -25.3564E-03        10.3004E-03 
               42.5E-03           15.7225E-03       -26.6227E-03        10.9002E-03        16.056E-03        -27.0524E-03        10.9964E-03 
               45.E-03            16.7144E-03       -28.3086E-03        11.5942E-03        17.0557E-03       -28.7483E-03        11.6926E-03 
               47.5E-03           17.7067E-03       -29.9952E-03        12.2885E-03        18.0553E-03       -30.4442E-03        12.3889E-03 
               50.E-03            18.6993E-03       -31.6823E-03        12.983E-03         19.0548E-03       -32.1402E-03        13.0853E-03 
               52.5E-03           19.6922E-03       -33.37E-03          13.6778E-03        20.0543E-03       -33.8361E-03        13.7819E-03 
               55.E-03            20.6855E-03       -35.0582E-03        14.3727E-03        21.0536E-03       -35.5322E-03        14.4786E-03 
               57.5E-03           21.679E-03        -36.7469E-03        15.0679E-03        22.053E-03        -37.2283E-03        15.1753E-03 
               60.E-03            22.6728E-03       -38.4361E-03        15.7633E-03        23.0523E-03       -38.9244E-03        15.8722E-03 
               62.5E-03           23.6669E-03       -40.1257E-03        16.4588E-03        24.0515E-03       -40.6207E-03        16.5691E-03 
               65.E-03            24.6612E-03       -41.8157E-03        17.1545E-03        25.0508E-03       -42.317E-03         17.2662E-03 
               67.5E-03           25.6557E-03       -43.506E-03         17.8503E-03        26.05E-03         -44.0134E-03        17.9634E-03 
               70.E-03            26.6504E-03       -45.1968E-03        18.5463E-03        27.0492E-03       -45.7098E-03        18.6606E-03 
               72.5E-03           27.6453E-03       -46.8878E-03        19.2425E-03        28.0485E-03       -47.4064E-03        19.3579E-03 
               75.E-03            28.6405E-03       -48.5792E-03        19.9388E-03        29.0477E-03       -49.103E-03         20.0553E-03 
               77.5E-03           29.6357E-03       -50.2709E-03        20.6352E-03        30.0469E-03       -50.7997E-03        20.7528E-03 
               80.E-03            30.6312E-03       -51.9629E-03        21.3317E-03        31.0462E-03       -52.4966E-03        21.4504E-03 
               82.5E-03           31.6268E-03       -53.6552E-03        22.0284E-03        32.0455E-03       -54.1935E-03        22.148E-03  
               85.E-03            32.6226E-03       -55.3477E-03        22.7251E-03        33.0448E-03       -55.8905E-03        22.8457E-03 
               87.5E-03           33.6185E-03       -57.0405E-03        23.422E-03         34.0441E-03       -57.5876E-03        23.5435E-03 
               90.E-03            34.6146E-03       -58.7336E-03        24.119E-03         35.0435E-03       -59.2848E-03        24.2413E-03 
               92.5E-03           35.6108E-03       -60.4269E-03        24.816E-03         36.0428E-03       -60.9821E-03        24.9392E-03 
               95.E-03            36.6072E-03       -62.1204E-03        25.5132E-03        37.0422E-03       -62.6794E-03        25.6372E-03 
               97.5E-03           37.6036E-03       -63.8141E-03        26.2105E-03        38.0417E-03       -64.3769E-03        26.3353E-03 
              100.E-03            38.6002E-03       -65.508E-03         26.9078E-03        39.0411E-03       -66.0745E-03        27.0334E-03 
              102.5E-03           39.4138E-03       -66.891E-03         27.4771E-03        39.8571E-03       -67.4604E-03        27.6033E-03 
              105.E-03            40.3255E-03       -67.8336E-03        27.5081E-03        40.7826E-03       -68.4159E-03        27.6334E-03 
              107.5E-03           41.3245E-03       -68.6575E-03        27.3329E-03        41.8112E-03       -69.2625E-03        27.4512E-03 
              110.E-03            42.3855E-03       -69.4108E-03        27.0252E-03        42.9249E-03       -70.051E-03         27.126E-03  
              112.5E-03           43.4598E-03       -70.0979E-03        26.6381E-03        44.0771E-03       -70.7856E-03        26.7085E-03 
              115.E-03            44.5345E-03       -70.7364E-03        26.2019E-03        45.2424E-03       -71.4759E-03        26.2335E-03 
              117.5E-03           45.6115E-03       -71.3437E-03        25.7322E-03        46.4026E-03       -72.1286E-03        25.726E-03  
              120.E-03            46.6939E-03       -71.932E-03         25.2381E-03        47.5489E-03       -72.7506E-03        25.2017E-03 
              122.5E-03           47.7814E-03       -72.5079E-03        24.7265E-03        48.6816E-03       -73.3499E-03        24.6683E-03 
              125.E-03            48.8718E-03       -73.0751E-03        24.2033E-03        49.804E-03        -73.9334E-03        24.1295E-03 
              127.5E-03           49.9636E-03       -73.6358E-03        23.6722E-03        50.9194E-03       -74.5063E-03        23.5869E-03 
              130.E-03            51.0557E-03       -74.1919E-03        23.1362E-03        52.0302E-03       -75.0719E-03        23.0417E-03 
              132.5E-03           52.1477E-03       -74.7446E-03        22.5969E-03        53.1378E-03       -75.6325E-03        22.4947E-03 
              135.E-03            53.2394E-03       -75.2947E-03        22.0554E-03        54.243E-03        -76.1896E-03        21.9465E-03 
              137.5E-03           54.3308E-03       -75.8432E-03        21.5124E-03        55.3466E-03       -76.7442E-03        21.3976E-03 
              140.E-03            55.4219E-03       -76.3904E-03        20.9685E-03        56.4489E-03       -77.2971E-03        20.8482E-03 
              142.5E-03           56.5127E-03       -76.9367E-03        20.424E-03         57.5502E-03       -77.8486E-03        20.2984E-03 
              145.E-03            57.6033E-03       -77.4824E-03        19.879E-03         58.6507E-03       -78.3992E-03        19.7486E-03 
              147.5E-03           58.6938E-03       -78.0276E-03        19.3338E-03        59.7505E-03       -78.9491E-03        19.1986E-03 
              150.E-03            59.7841E-03       -78.5725E-03        18.7884E-03        60.8498E-03       -79.4985E-03        18.6487E-03 
              152.5E-03           60.8744E-03       -79.1172E-03        18.2429E-03        61.9487E-03       -80.0474E-03        18.0987E-03 
              155.E-03            61.9645E-03       -79.6618E-03        17.6973E-03        63.0472E-03       -80.5961E-03        17.5488E-03 
              157.5E-03           63.0546E-03       -80.2062E-03        17.1516E-03        64.1455E-03       -81.1445E-03        16.999E-03  
              160.E-03            64.1447E-03       -80.7506E-03        16.6059E-03        65.2435E-03       -81.6926E-03        16.4492E-03 
              162.5E-03           65.2347E-03       -81.2949E-03        16.0602E-03        66.3412E-03       -82.2407E-03        15.8994E-03 
              165.E-03            66.3248E-03       -81.8392E-03        15.5144E-03        67.4388E-03       -82.7886E-03        15.3497E-03 
              167.5E-03           67.4148E-03       -82.3835E-03        14.9687E-03        68.5363E-03       -83.3363E-03        14.8001E-03 
              170.E-03            68.5048E-03       -82.9277E-03        14.4229E-03        69.6336E-03       -83.8841E-03        14.2505E-03 
              172.5E-03           69.5949E-03       -83.472E-03         13.8771E-03        70.7308E-03       -84.4317E-03        13.7009E-03 
              175.E-03            70.685E-03        -84.0163E-03        13.3313E-03        71.8279E-03       -84.9792E-03        13.1514E-03 
              177.5E-03           71.7751E-03       -84.5606E-03        12.7855E-03        72.9249E-03       -85.5268E-03        12.6019E-03 
              180.E-03            72.8652E-03       -85.1049E-03        12.2397E-03        74.0218E-03       -86.0742E-03        12.0524E-03 
              182.5E-03           73.9554E-03       -85.6493E-03        11.6939E-03        75.1187E-03       -86.6217E-03        11.5029E-03 
              185.E-03            75.0699E-03       -86.3247E-03        11.2548E-03        76.2296E-03       -87.2946E-03        11.065E-03  
              187.5E-03           76.2803E-03       -87.2663E-03        10.986E-03         77.435E-03        -88.2318E-03        10.7968E-03 
              190.E-03            77.5302E-03       -88.3882E-03        10.858E-03         78.6818E-03       -89.3504E-03        10.6686E-03 
              192.5E-03           78.7805E-03       -89.6096E-03        10.829E-03         79.9294E-03       -90.5686E-03        10.6392E-03 
              195.E-03            80.0211E-03       -90.8831E-03        10.862E-03         81.1676E-03       -91.8392E-03        10.6716E-03 
              197.5E-03           81.2524E-03       -92.1842E-03        10.9318E-03        82.3967E-03       -93.1376E-03        10.7409E-03 
              200.E-03            82.4771E-03       -93.5002E-03        11.0232E-03        83.6193E-03       -94.451E-03         10.8317E-03 
              202.5E-03           83.6975E-03       -94.8244E-03        11.1269E-03        84.8379E-03       -95.7727E-03        10.9349E-03 
              205.E-03            84.9154E-03       -96.1531E-03        11.2378E-03        86.054E-03        -97.0991E-03        11.0452E-03 
              207.5E-03           86.1317E-03       -97.4845E-03        11.3527E-03        87.2686E-03       -98.4283E-03        11.1596E-03 
              210.E-03            87.3472E-03       -98.8173E-03        11.47E-03          88.4826E-03       -99.759E-03         11.2764E-03 
              212.5E-03           88.5622E-03      -100.151E-03         11.5887E-03        89.6961E-03      -101.091E-03         11.3945E-03 
              215.E-03            89.777E-03       -101.485E-03         11.7082E-03        90.9095E-03      -102.423E-03         11.5135E-03 
              217.5E-03           90.9916E-03      -102.82E-03          11.8281E-03        92.1228E-03      -103.756E-03         11.6329E-03 
              220.E-03            92.2061E-03      -104.154E-03         11.9483E-03        93.3361E-03      -105.089E-03         11.7525E-03 
              222.5E-03           93.4205E-03      -105.489E-03         12.0686E-03        94.5495E-03      -106.422E-03         11.8723E-03 
              225.E-03            94.635E-03       -106.824E-03         12.1891E-03        95.763E-03       -107.755E-03         11.9922E-03 
              227.5E-03           95.8495E-03      -108.159E-03         12.3096E-03        96.9765E-03      -109.089E-03         12.1122E-03 
              230.E-03            97.0639E-03      -109.494E-03         12.4301E-03        98.1901E-03      -110.422E-03         12.2322E-03 
              232.5E-03           98.2784E-03      -110.829E-03         12.5507E-03        99.4039E-03      -111.756E-03         12.3522E-03 
              235.E-03            99.4929E-03      -112.164E-03         12.6713E-03       100.618E-03       -113.09E-03          12.4723E-03 
              237.5E-03          100.707E-03       -113.499E-03         12.7919E-03       101.832E-03       -114.424E-03         12.5923E-03 
              240.E-03           101.922E-03       -114.835E-03         12.9125E-03       103.046E-03       -115.758E-03         12.7124E-03 
              242.5E-03          103.137E-03       -116.17E-03          13.0332E-03       104.26E-03        -117.092E-03         12.8325E-03 
              245.E-03           104.351E-03       -117.505E-03         13.1538E-03       105.474E-03       -118.427E-03         12.9526E-03 
              247.5E-03          105.566E-03       -118.84E-03          13.2745E-03       106.688E-03       -119.761E-03         13.0727E-03 
              250.E-03           106.78E-03        -120.175E-03         13.3952E-03       107.903E-03       -121.095E-03         13.1929E-03 
              252.5E-03          107.995E-03       -121.511E-03         13.5158E-03       109.117E-03       -122.43E-03          13.313E-03  
              255.E-03           109.21E-03        -122.846E-03         13.6365E-03       110.332E-03       -123.765E-03         13.4331E-03 
              257.5E-03          110.424E-03       -124.181E-03         13.7572E-03       111.546E-03       -125.099E-03         13.5533E-03 
              260.E-03           111.639E-03       -125.517E-03         13.8779E-03       112.761E-03       -126.434E-03         13.6734E-03 
              262.5E-03          112.854E-03       -126.852E-03         13.9987E-03       113.976E-03       -127.769E-03         13.7936E-03 
              265.E-03           114.068E-03       -128.188E-03         14.1194E-03       115.191E-03       -129.104E-03         13.9138E-03 
              267.5E-03          115.283E-03       -129.523E-03         14.2401E-03       116.405E-03       -130.439E-03         14.034E-03  
              270.E-03           116.498E-03       -130.859E-03         14.3609E-03       117.62E-03        -131.775E-03         14.1542E-03 
              272.5E-03          117.713E-03       -132.194E-03         14.4817E-03       118.835E-03       -133.11E-03          14.2744E-03 
              275.E-03           118.927E-03       -133.53E-03          14.6024E-03       120.051E-03       -134.445E-03         14.3946E-03 
              277.5E-03          120.142E-03       -134.865E-03         14.7232E-03       121.266E-03       -135.781E-03         14.5148E-03 
              280.E-03           121.357E-03       -136.201E-03         14.844E-03        122.481E-03       -137.116E-03         14.635E-03  
              282.5E-03          122.572E-03       -137.536E-03         14.9648E-03       123.696E-03       -138.452E-03         14.7552E-03 
              285.E-03           123.787E-03       -138.872E-03         15.0856E-03       124.912E-03       -139.787E-03         14.8755E-03 
              287.5E-03          125.001E-03       -140.208E-03         15.2064E-03       126.127E-03       -141.123E-03         14.9957E-03 
              290.E-03           126.216E-03       -141.543E-03         15.3272E-03       127.343E-03       -142.459E-03         15.116E-03  
              292.5E-03          127.431E-03       -142.879E-03         15.4481E-03       128.558E-03       -143.795E-03         15.2362E-03 
              295.E-03           128.646E-03       -144.215E-03         15.5689E-03       129.774E-03       -145.131E-03         15.3565E-03 
              297.5E-03          129.861E-03       -145.551E-03         15.6897E-03       130.99E-03        -146.467E-03         15.4768E-03 
              300.E-03           131.076E-03       -146.886E-03         15.8106E-03       132.206E-03       -147.803E-03         15.5971E-03 
              302.5E-03          132.291E-03       -148.222E-03         15.9314E-03       133.421E-03       -149.139E-03         15.7174E-03 
              305.E-03           133.506E-03       -149.558E-03         16.0523E-03       134.637E-03       -150.475E-03         15.8377E-03 
              307.5E-03          134.721E-03       -150.894E-03         16.1732E-03       135.853E-03       -151.811E-03         15.958E-03  
              310.E-03           135.936E-03       -152.23E-03          16.2941E-03       137.069E-03       -153.148E-03         16.0783E-03 
              312.5E-03          137.151E-03       -153.566E-03         16.4149E-03       138.285E-03       -154.484E-03         16.1986E-03 
              315.E-03           138.366E-03       -154.901E-03         16.5358E-03       139.501E-03       -155.82E-03          16.319E-03  
              317.5E-03          139.581E-03       -156.237E-03         16.6567E-03       140.718E-03       -157.157E-03         16.4393E-03 
              320.E-03           140.796E-03       -157.573E-03         16.7777E-03       141.934E-03       -158.493E-03         16.5596E-03 
              322.5E-03          142.011E-03       -158.909E-03         16.8986E-03       143.15E-03        -159.83E-03          16.68E-03   
              325.E-03           143.226E-03       -160.245E-03         17.0195E-03       144.366E-03       -161.167E-03         16.8003E-03 
              327.5E-03          144.441E-03       -161.581E-03         17.1404E-03       145.583E-03       -162.504E-03         16.9207E-03 
              330.E-03           145.656E-03       -162.917E-03         17.2614E-03       146.799E-03       -163.84E-03          17.0411E-03 
              332.5E-03          146.871E-03       -164.253E-03         17.3823E-03       148.016E-03       -165.177E-03         17.1614E-03 
              335.E-03           148.086E-03       -165.589E-03         17.5032E-03       149.232E-03       -166.514E-03         17.2818E-03 
              337.5E-03          149.301E-03       -166.925E-03         17.6242E-03       150.449E-03       -167.851E-03         17.4022E-03 
              340.E-03           150.516E-03       -168.261E-03         17.7452E-03       151.665E-03       -169.188E-03         17.5226E-03 
              342.5E-03          151.731E-03       -169.597E-03         17.8661E-03       152.882E-03       -170.525E-03         17.643E-03  
              345.E-03           152.946E-03       -170.934E-03         17.9871E-03       154.099E-03       -171.862E-03         17.7634E-03 
              347.5E-03          154.162E-03       -172.27E-03          18.1081E-03       155.315E-03       -173.199E-03         17.8838E-03 
              350.E-03           155.377E-03       -173.606E-03         18.2291E-03       156.532E-03       -174.537E-03         18.0042E-03 
              352.5E-03          156.592E-03       -174.942E-03         18.35E-03         157.749E-03       -175.874E-03         18.1247E-03 
              355.E-03           157.807E-03       -176.278E-03         18.471E-03        158.966E-03       -177.211E-03         18.2451E-03 
              357.5E-03          159.022E-03       -177.614E-03         18.592E-03        160.183E-03       -178.548E-03         18.3655E-03 
              360.E-03           160.238E-03       -178.951E-03         18.713E-03        161.4E-03         -179.886E-03         18.486E-03  
              362.5E-03          161.453E-03       -180.287E-03         18.8341E-03       162.617E-03       -181.223E-03         18.6064E-03 
              365.E-03           162.668E-03       -181.623E-03         18.9551E-03       163.834E-03       -182.561E-03         18.7269E-03 
              367.5E-03          163.883E-03       -182.959E-03         19.0761E-03       165.051E-03       -183.898E-03         18.8473E-03 
              370.E-03           165.098E-03       -184.296E-03         19.1971E-03       166.268E-03       -185.236E-03         18.9678E-03 
              372.5E-03          166.314E-03       -185.632E-03         19.3182E-03       167.485E-03       -186.573E-03         19.0882E-03 
              375.E-03           167.529E-03       -186.968E-03         19.4392E-03       168.702E-03       -187.911E-03         19.2087E-03 
              377.5E-03          168.744E-03       -188.304E-03         19.5602E-03       169.92E-03        -189.249E-03         19.3292E-03 
              380.E-03           169.959E-03       -189.641E-03         19.6813E-03       171.137E-03       -190.587E-03         19.4497E-03 
              382.5E-03          171.175E-03       -190.977E-03         19.8023E-03       172.354E-03       -191.924E-03         19.5702E-03 
              385.E-03           172.39E-03        -192.313E-03         19.9234E-03       173.572E-03       -193.262E-03         19.6906E-03 
              387.5E-03          173.605E-03       -193.65E-03          20.0444E-03       174.789E-03       -194.6E-03           19.8111E-03 
              390.E-03           174.821E-03       -194.986E-03         20.1655E-03       176.006E-03       -195.938E-03         19.9316E-03 
              392.5E-03          176.036E-03       -196.322E-03         20.2866E-03       177.224E-03       -197.276E-03         20.0522E-03 
              395.E-03           177.251E-03       -197.659E-03         20.4077E-03       178.441E-03       -198.614E-03         20.1727E-03 
              397.5E-03          178.467E-03       -198.995E-03         20.5287E-03       179.659E-03       -199.952E-03         20.2932E-03 
              400.E-03           179.682E-03       -200.332E-03         20.6498E-03       180.876E-03       -201.29E-03          20.4137E-03 
              402.5E-03          180.897E-03       -201.668E-03         20.7709E-03       182.094E-03       -202.628E-03         20.5342E-03 
              405.E-03           182.113E-03       -203.005E-03         20.892E-03        183.312E-03       -203.966E-03         20.6548E-03 
              407.5E-03          183.328E-03       -204.341E-03         21.0131E-03       184.529E-03       -205.305E-03         20.7753E-03 
              410.E-03           184.543E-03       -205.678E-03         21.1342E-03       185.747E-03       -206.643E-03         20.8958E-03 
              412.5E-03          185.759E-03       -207.014E-03         21.2553E-03       186.965E-03       -207.981E-03         21.0164E-03 
              415.E-03           186.974E-03       -208.351E-03         21.3764E-03       188.183E-03       -209.32E-03          21.1369E-03 
              417.5E-03          188.189E-03       -209.687E-03         21.4976E-03       189.4E-03         -210.658E-03         21.2575E-03 
              420.E-03           189.405E-03       -211.024E-03         21.6187E-03       190.618E-03       -211.996E-03         21.3781E-03 
              422.5E-03          190.62E-03        -212.36E-03          21.7398E-03       191.836E-03       -213.335E-03         21.4986E-03 
              425.E-03           191.836E-03       -213.697E-03         21.8609E-03       193.054E-03       -214.673E-03         21.6192E-03 
              427.5E-03          193.051E-03       -215.033E-03         21.9821E-03       194.272E-03       -216.012E-03         21.7398E-03 
              430.E-03           194.267E-03       -216.37E-03          22.1032E-03       195.49E-03        -217.35E-03          21.8603E-03 
              432.5E-03          195.482E-03       -217.706E-03         22.2243E-03       196.708E-03       -218.689E-03         21.9809E-03 
              435.E-03           196.697E-03       -219.043E-03         22.3455E-03       197.926E-03       -220.027E-03         22.1015E-03 
              437.5E-03          197.913E-03       -220.379E-03         22.4666E-03       199.144E-03       -221.366E-03         22.2221E-03 
              440.E-03           199.128E-03       -221.716E-03         22.5878E-03       200.362E-03       -222.705E-03         22.3427E-03 
              442.5E-03          200.344E-03       -223.053E-03         22.7089E-03       201.58E-03        -224.043E-03         22.4633E-03 
              445.E-03           201.559E-03       -224.389E-03         22.8301E-03       202.798E-03       -225.382E-03         22.5839E-03 
              447.5E-03          202.775E-03       -225.726E-03         22.9513E-03       204.016E-03       -226.721E-03         22.7045E-03 
              450.E-03           203.99E-03        -227.063E-03         23.0724E-03       205.235E-03       -228.06E-03          22.8251E-03 
              452.5E-03          205.206E-03       -228.399E-03         23.1936E-03       206.453E-03       -229.398E-03         22.9457E-03 
              455.E-03           206.421E-03       -229.736E-03         23.3148E-03       207.671E-03       -230.737E-03         23.0664E-03 
              457.5E-03          207.637E-03       -231.073E-03         23.4359E-03       208.889E-03       -232.076E-03         23.187E-03  
              460.E-03           208.852E-03       -232.409E-03         23.5571E-03       210.108E-03       -233.415E-03         23.3076E-03 
              462.5E-03          210.068E-03       -233.746E-03         23.6783E-03       211.326E-03       -234.754E-03         23.4282E-03 
              465.E-03           211.283E-03       -235.083E-03         23.7995E-03       212.544E-03       -236.093E-03         23.5489E-03 
              467.5E-03          212.499E-03       -236.419E-03         23.9207E-03       213.763E-03       -237.432E-03         23.6695E-03 
              470.E-03           213.714E-03       -237.756E-03         24.0419E-03       214.981E-03       -238.771E-03         23.7902E-03 
              472.5E-03          214.93E-03        -239.093E-03         24.1631E-03       216.2E-03         -240.11E-03          23.9108E-03 
              475.E-03           216.145E-03       -240.43E-03          24.2843E-03       217.418E-03       -241.449E-03         24.0314E-03 
              477.5E-03          217.361E-03       -241.766E-03         24.4055E-03       218.637E-03       -242.789E-03         24.1521E-03 
              480.E-03           218.576E-03       -243.103E-03         24.5267E-03       219.855E-03       -244.128E-03         24.2728E-03 
              482.5E-03          219.792E-03       -244.44E-03          24.6479E-03       221.074E-03       -245.467E-03         24.3934E-03 
              485.E-03           221.008E-03       -245.777E-03         24.7691E-03       222.292E-03       -246.806E-03         24.5141E-03 
              487.5E-03          222.223E-03       -247.113E-03         24.8903E-03       223.511E-03       -248.145E-03         24.6348E-03 
              490.E-03           223.439E-03       -248.45E-03          25.0116E-03       224.729E-03       -249.485E-03         24.7554E-03 
              492.5E-03          224.654E-03       -249.787E-03         25.1328E-03       225.948E-03       -250.824E-03         24.8761E-03 
              495.E-03           225.87E-03        -251.124E-03         25.254E-03        227.167E-03       -252.163E-03         24.9968E-03 
              497.5E-03          227.085E-03       -252.461E-03         25.3752E-03       228.385E-03       -253.503E-03         25.1175E-03 
              500.E-03           228.301E-03       -253.797E-03         25.4965E-03       229.604E-03       -254.842E-03         25.2382E-03 
              502.5E-03          229.517E-03       -255.134E-03         25.6177E-03       230.823E-03       -256.182E-03         25.3589E-03 
              505.E-03           230.732E-03       -256.471E-03         25.739E-03        232.042E-03       -257.521E-03         25.4795E-03 
              507.5E-03          231.948E-03       -257.808E-03         25.8602E-03       233.26E-03        -258.861E-03         25.6002E-03 
              510.E-03           233.163E-03       -259.145E-03         25.9814E-03       234.479E-03       -260.2E-03           25.7209E-03 
              512.5E-03          234.379E-03       -260.482E-03         26.1027E-03       235.698E-03       -261.54E-03          25.8417E-03 
              515.E-03           235.595E-03       -261.819E-03         26.2239E-03       236.917E-03       -262.879E-03         25.9624E-03 
              517.5E-03          236.81E-03        -263.155E-03         26.3452E-03       238.136E-03       -264.219E-03         26.0831E-03 
              520.E-03           238.026E-03       -264.492E-03         26.4665E-03       239.355E-03       -265.558E-03         26.2038E-03 
              522.5E-03          239.241E-03       -265.829E-03         26.5877E-03       240.574E-03       -266.898E-03         26.3245E-03 
              525.E-03           240.457E-03       -267.166E-03         26.709E-03        241.793E-03       -268.238E-03         26.4452E-03 
              527.5E-03          241.673E-03       -268.503E-03         26.8302E-03       243.012E-03       -269.578E-03         26.566E-03  
              530.E-03           242.888E-03       -269.84E-03          26.9515E-03       244.231E-03       -270.917E-03         26.6867E-03 
              532.5E-03          244.104E-03       -271.177E-03         27.0728E-03       245.45E-03        -272.257E-03         26.8074E-03 
              535.E-03           245.32E-03        -272.514E-03         27.194E-03        246.669E-03       -273.597E-03         26.9281E-03 
              537.5E-03          246.535E-03       -273.851E-03         27.3153E-03       247.888E-03       -274.937E-03         27.0489E-03 
              540.E-03           247.751E-03       -275.188E-03         27.4366E-03       249.107E-03       -276.276E-03         27.1696E-03 
              542.5E-03          248.967E-03       -276.525E-03         27.5579E-03       250.326E-03       -277.616E-03         27.2904E-03 
              545.E-03           250.182E-03       -277.861E-03         27.6792E-03       251.545E-03       -278.956E-03         27.4111E-03 
              547.5E-03          251.398E-03       -279.198E-03         27.8004E-03       252.764E-03       -280.296E-03         27.5319E-03 
              550.E-03           252.614E-03       -280.535E-03         27.9217E-03       253.983E-03       -281.636E-03         27.6526E-03 
              552.5E-03          253.829E-03       -281.872E-03         28.043E-03        255.203E-03       -282.976E-03         27.7734E-03 
              555.E-03           255.045E-03       -283.209E-03         28.1643E-03       256.422E-03       -284.316E-03         27.8941E-03 
              557.5E-03          256.261E-03       -284.546E-03         28.2856E-03       257.641E-03       -285.656E-03         28.0149E-03 
              560.E-03           257.476E-03       -285.883E-03         28.4069E-03       258.86E-03        -286.996E-03         28.1357E-03 
              562.5E-03          258.692E-03       -287.22E-03          28.5282E-03       260.08E-03        -288.336E-03         28.2564E-03 
              565.E-03           259.908E-03       -288.557E-03         28.6495E-03       261.299E-03       -289.676E-03         28.3772E-03 
              567.5E-03          261.123E-03       -289.894E-03         28.7708E-03       262.518E-03       -291.016E-03         28.498E-03  
              570.E-03           262.339E-03       -291.231E-03         28.8921E-03       263.738E-03       -292.356E-03         28.6188E-03 
              572.5E-03          263.555E-03       -292.568E-03         29.0134E-03       264.957E-03       -293.696E-03         28.7396E-03 
              575.E-03           264.771E-03       -293.905E-03         29.1347E-03       266.176E-03       -295.037E-03         28.8603E-03 
              577.5E-03          265.986E-03       -295.242E-03         29.2561E-03       267.396E-03       -296.377E-03         28.9811E-03 
              580.E-03           267.202E-03       -296.579E-03         29.3774E-03       268.615E-03       -297.717E-03         29.1019E-03 
              582.5E-03          268.418E-03       -297.916E-03         29.4987E-03       269.835E-03       -299.057E-03         29.2227E-03 
              585.E-03           269.633E-03       -299.253E-03         29.62E-03         271.054E-03       -300.398E-03         29.3435E-03 
              587.5E-03          270.849E-03       -300.59E-03          29.7413E-03       272.273E-03       -301.738E-03         29.4643E-03 
              590.E-03           272.065E-03       -301.927E-03         29.8627E-03       273.493E-03       -303.078E-03         29.5851E-03 
              592.5E-03          273.281E-03       -303.265E-03         29.984E-03        274.712E-03       -304.418E-03         29.7059E-03 
              595.E-03           274.496E-03       -304.602E-03         30.1053E-03       275.932E-03       -305.759E-03         29.8267E-03 
              597.5E-03          275.712E-03       -305.939E-03         30.2266E-03       277.152E-03       -307.099E-03         29.9475E-03 
              600.E-03           276.928E-03       -307.276E-03         30.348E-03        278.371E-03       -308.44E-03          30.0684E-03 
              602.5E-03          278.143E-03       -308.613E-03         30.4693E-03       279.591E-03       -309.78E-03          30.1892E-03 
              605.E-03           279.359E-03       -309.95E-03          30.5907E-03       280.81E-03        -311.12E-03          30.31E-03   
              607.5E-03          280.575E-03       -311.287E-03         30.712E-03        282.03E-03        -312.461E-03         30.4308E-03 
              610.E-03           281.791E-03       -312.624E-03         30.8333E-03       283.25E-03        -313.801E-03         30.5516E-03 
              612.5E-03          283.006E-03       -313.961E-03         30.9547E-03       284.469E-03       -315.142E-03         30.6725E-03 
              615.E-03           284.222E-03       -315.298E-03         31.076E-03        285.689E-03       -316.482E-03         30.7933E-03 
              617.5E-03          285.438E-03       -316.635E-03         31.1974E-03       286.909E-03       -317.823E-03         30.9141E-03 
              620.E-03           286.654E-03       -317.972E-03         31.3187E-03       288.129E-03       -319.163E-03         31.035E-03  
              622.5E-03          287.869E-03       -319.31E-03          31.4401E-03       289.348E-03       -320.504E-03         31.1558E-03 
              625.E-03           289.085E-03       -320.647E-03         31.5614E-03       290.568E-03       -321.845E-03         31.2767E-03 
              627.5E-03          290.301E-03       -321.984E-03         31.6828E-03       291.788E-03       -323.185E-03         31.3975E-03 
              630.E-03           291.517E-03       -323.321E-03         31.8041E-03       293.008E-03       -324.526E-03         31.5184E-03 
              632.5E-03          292.733E-03       -324.658E-03         31.9255E-03       294.227E-03       -325.867E-03         31.6392E-03 
              635.E-03           293.948E-03       -325.995E-03         32.0469E-03       295.447E-03       -327.207E-03         31.7601E-03 
              637.5E-03          295.164E-03       -327.332E-03         32.1682E-03       296.667E-03       -328.548E-03         31.8809E-03 
              640.E-03           296.38E-03        -328.669E-03         32.2896E-03       297.887E-03       -329.889E-03         32.0018E-03 
              642.5E-03          297.596E-03       -330.007E-03         32.4109E-03       299.107E-03       -331.229E-03         32.1227E-03 
              645.E-03           298.811E-03       -331.344E-03         32.5323E-03       300.327E-03       -332.57E-03          32.2435E-03 
              647.5E-03          300.027E-03       -332.681E-03         32.6537E-03       301.547E-03       -333.911E-03         32.3644E-03 
              650.E-03           301.243E-03       -334.018E-03         32.7751E-03       302.767E-03       -335.252E-03         32.4853E-03 
              652.5E-03          302.459E-03       -335.355E-03         32.8964E-03       303.987E-03       -336.593E-03         32.6061E-03 
              655.E-03           303.675E-03       -336.692E-03         33.0178E-03       305.207E-03       -337.934E-03         32.727E-03  
              657.5E-03          304.89E-03        -338.03E-03          33.1392E-03       306.426E-03       -339.274E-03         32.8479E-03 
              660.E-03           306.106E-03       -339.367E-03         33.2606E-03       307.647E-03       -340.615E-03         32.9688E-03 
              662.5E-03          307.322E-03       -340.704E-03         33.3819E-03       308.867E-03       -341.956E-03         33.0897E-03 
              665.E-03           308.538E-03       -342.041E-03         33.5033E-03       310.087E-03       -343.297E-03         33.2105E-03 
              667.5E-03          309.754E-03       -343.378E-03         33.6247E-03       311.307E-03       -344.638E-03         33.3314E-03 
              670.E-03           310.969E-03       -344.715E-03         33.7461E-03       312.527E-03       -345.979E-03         33.4523E-03 
              672.5E-03          312.185E-03       -346.053E-03         33.8675E-03       313.747E-03       -347.32E-03          33.5732E-03 
              675.E-03           313.401E-03       -347.39E-03          33.9889E-03       314.967E-03       -348.661E-03         33.6941E-03 
              677.5E-03          314.617E-03       -348.727E-03         34.1102E-03       316.187E-03       -350.002E-03         33.815E-03  
              680.E-03           315.833E-03       -350.064E-03         34.2316E-03       317.407E-03       -351.343E-03         33.9359E-03 
              682.5E-03          317.048E-03       -351.401E-03         34.353E-03        318.627E-03       -352.684E-03         34.0568E-03 
              685.E-03           318.264E-03       -352.739E-03         34.4744E-03       319.847E-03       -354.025E-03         34.1777E-03 
              687.5E-03          319.48E-03        -354.076E-03         34.5958E-03       321.068E-03       -355.366E-03         34.2987E-03 
              690.E-03           320.696E-03       -355.413E-03         34.7172E-03       322.288E-03       -356.707E-03         34.4196E-03 
              692.5E-03          321.912E-03       -356.75E-03          34.8386E-03       323.508E-03       -358.049E-03         34.5405E-03 
              695.E-03           323.127E-03       -358.087E-03         34.96E-03         324.728E-03       -359.39E-03          34.6614E-03 
              697.5E-03          324.343E-03       -359.425E-03         35.0814E-03       325.949E-03       -360.731E-03         34.7823E-03 
              700.E-03           325.559E-03       -360.762E-03         35.2028E-03       327.169E-03       -362.072E-03         34.9032E-03 
              702.5E-03          326.775E-03       -362.099E-03         35.3242E-03       328.389E-03       -363.413E-03         35.0242E-03 
              705.E-03           327.991E-03       -363.436E-03         35.4456E-03       329.609E-03       -364.754E-03         35.1451E-03 
              707.5E-03          329.207E-03       -364.774E-03         35.567E-03        330.83E-03        -366.096E-03         35.266E-03  
              710.E-03           330.422E-03       -366.111E-03         35.6884E-03       332.05E-03        -367.437E-03         35.387E-03  
              712.5E-03          331.638E-03       -367.448E-03         35.8098E-03       333.27E-03        -368.778E-03         35.5079E-03 
              715.E-03           332.854E-03       -368.785E-03         35.9313E-03       334.491E-03       -370.12E-03          35.6289E-03 
              717.5E-03          334.07E-03        -370.123E-03         36.0527E-03       335.711E-03       -371.461E-03         35.7498E-03 
              720.E-03           335.286E-03       -371.46E-03          36.1741E-03       336.931E-03       -372.802E-03         35.8707E-03 
              722.5E-03          336.502E-03       -372.797E-03         36.2955E-03       338.152E-03       -374.144E-03         35.9917E-03 
              725.E-03           337.717E-03       -374.134E-03         36.4169E-03       339.372E-03       -375.485E-03         36.1126E-03 
              727.5E-03          338.933E-03       -375.472E-03         36.5383E-03       340.593E-03       -376.826E-03         36.2336E-03 
              730.E-03           340.149E-03       -376.809E-03         36.6597E-03       341.813E-03       -378.168E-03         36.3545E-03 
              732.5E-03          341.365E-03       -378.146E-03         36.7812E-03       343.034E-03       -379.509E-03         36.4755E-03 
              735.E-03           342.581E-03       -379.483E-03         36.9026E-03       344.254E-03       -380.851E-03         36.5965E-03 
              737.5E-03          343.797E-03       -380.821E-03         37.024E-03        345.475E-03       -382.192E-03         36.7174E-03 
              740.E-03           345.012E-03       -382.158E-03         37.1454E-03       346.695E-03       -383.534E-03         36.8384E-03 
              742.5E-03          346.228E-03       -383.495E-03         37.2669E-03       347.916E-03       -384.875E-03         36.9594E-03 
              745.E-03           347.444E-03       -384.832E-03         37.3883E-03       349.136E-03       -386.216E-03         37.0803E-03 
              747.5E-03          348.66E-03        -386.17E-03          37.5097E-03       350.357E-03       -387.558E-03         37.2013E-03 
              750.E-03           349.876E-03       -387.507E-03         37.6311E-03       351.577E-03       -388.9E-03           37.3223E-03 
              752.5E-03          351.092E-03       -388.844E-03         37.7526E-03       352.798E-03       -390.241E-03         37.4433E-03 
              755.E-03           352.308E-03       -390.182E-03         37.874E-03        354.018E-03       -391.583E-03         37.5643E-03 
              757.5E-03          353.523E-03       -391.519E-03         37.9954E-03       355.239E-03       -392.924E-03         37.6852E-03 
              760.E-03           354.739E-03       -392.856E-03         38.1169E-03       356.46E-03        -394.266E-03         37.8062E-03 
              762.5E-03          355.955E-03       -394.193E-03         38.2383E-03       357.68E-03        -395.608E-03         37.9272E-03 
              765.E-03           357.171E-03       -395.531E-03         38.3597E-03       358.901E-03       -396.949E-03         38.0482E-03 
              767.5E-03          358.387E-03       -396.868E-03         38.4812E-03       360.122E-03       -398.291E-03         38.1692E-03 
              770.E-03           359.603E-03       -398.205E-03         38.6026E-03       361.342E-03       -399.632E-03         38.2902E-03 
              772.5E-03          360.819E-03       -399.543E-03         38.724E-03        362.563E-03       -400.974E-03         38.4112E-03 
              775.E-03           362.034E-03       -400.88E-03          38.8455E-03       363.784E-03       -402.316E-03         38.5322E-03 
              777.5E-03          363.25E-03        -402.217E-03         38.9669E-03       365.004E-03       -403.658E-03         38.6532E-03 
              780.E-03           364.466E-03       -403.555E-03         39.0884E-03       366.225E-03       -404.999E-03         38.7742E-03 
              782.5E-03          365.682E-03       -404.892E-03         39.2098E-03       367.446E-03       -406.341E-03         38.8952E-03 
              785.E-03           366.898E-03       -406.229E-03         39.3312E-03       368.667E-03       -407.683E-03         39.0162E-03 
              787.5E-03          368.114E-03       -407.566E-03         39.4527E-03       369.887E-03       -409.025E-03         39.1373E-03 
              790.E-03           369.33E-03        -408.904E-03         39.5741E-03       371.108E-03       -410.366E-03         39.2583E-03 
              792.5E-03          370.545E-03       -410.241E-03         39.6956E-03       372.329E-03       -411.708E-03         39.3793E-03 
              795.E-03           371.761E-03       -411.578E-03         39.817E-03        373.55E-03        -413.05E-03          39.5003E-03 
              797.5E-03          372.977E-03       -412.916E-03         39.9385E-03       374.771E-03       -414.392E-03         39.6213E-03 
              800.E-03           374.193E-03       -414.253E-03         40.0599E-03       375.991E-03       -415.734E-03         39.7424E-03 
              802.5E-03          375.409E-03       -415.59E-03          40.1814E-03       377.212E-03       -417.076E-03         39.8634E-03 
              805.E-03           376.625E-03       -416.928E-03         40.3028E-03       378.433E-03       -418.418E-03         39.9844E-03 
              807.5E-03          377.841E-03       -418.265E-03         40.4243E-03       379.654E-03       -419.759E-03         40.1055E-03 
              810.E-03           379.057E-03       -419.602E-03         40.5457E-03       380.875E-03       -421.101E-03         40.2265E-03 
              812.5E-03          380.272E-03       -420.94E-03          40.6672E-03       382.096E-03       -422.443E-03         40.3475E-03 
              815.E-03           381.488E-03       -422.277E-03         40.7886E-03       383.317E-03       -423.785E-03         40.4686E-03 
              817.5E-03          382.704E-03       -423.614E-03         40.9101E-03       384.538E-03       -425.127E-03         40.5896E-03 
              820.E-03           383.92E-03        -424.952E-03         41.0315E-03       385.759E-03       -426.469E-03         40.7107E-03 
              822.5E-03          385.136E-03       -426.289E-03         41.153E-03        386.98E-03        -427.811E-03         40.8317E-03 
              825.E-03           386.352E-03       -427.626E-03         41.2745E-03       388.201E-03       -429.153E-03         40.9528E-03 
              827.5E-03          387.568E-03       -428.964E-03         41.3959E-03       389.421E-03       -430.495E-03         41.0739E-03 
              830.E-03           388.784E-03       -430.301E-03         41.5174E-03       390.642E-03       -431.837E-03         41.1949E-03 
              832.5E-03          389.999E-03       -431.638E-03         41.6388E-03       391.863E-03       -433.179E-03         41.316E-03  
              835.E-03           391.215E-03       -432.976E-03         41.7603E-03       393.084E-03       -434.521E-03         41.437E-03  
              837.5E-03          392.431E-03       -434.313E-03         41.8818E-03       394.306E-03       -435.864E-03         41.5581E-03 
              840.E-03           393.647E-03       -435.65E-03          42.0032E-03       395.527E-03       -437.206E-03         41.6792E-03 
              842.5E-03          394.863E-03       -436.988E-03         42.1247E-03       396.748E-03       -438.548E-03         41.8003E-03 
              845.E-03           396.079E-03       -438.325E-03         42.2461E-03       397.969E-03       -439.89E-03          41.9213E-03 
              847.5E-03          397.295E-03       -439.662E-03         42.3676E-03       399.19E-03        -441.232E-03         42.0424E-03 
              850.E-03           398.511E-03       -441.E-03            42.4891E-03       400.411E-03       -442.574E-03         42.1635E-03 
              852.5E-03          399.727E-03       -442.337E-03         42.6105E-03       401.632E-03       -443.916E-03         42.2846E-03 
              855.E-03           400.942E-03       -443.674E-03         42.732E-03        402.853E-03       -445.259E-03         42.4057E-03 
              857.5E-03          402.158E-03       -445.012E-03         42.8535E-03       404.074E-03       -446.601E-03         42.5267E-03 
              860.E-03           403.374E-03       -446.349E-03         42.9749E-03       405.295E-03       -447.943E-03         42.6478E-03 
              862.5E-03          404.59E-03        -447.687E-03         43.0964E-03       406.516E-03       -449.285E-03         42.7689E-03 
              865.E-03           405.806E-03       -449.024E-03         43.2179E-03       407.738E-03       -450.628E-03         42.89E-03   
              867.5E-03          407.022E-03       -450.361E-03         43.3393E-03       408.959E-03       -451.97E-03          43.0111E-03 
              870.E-03           408.238E-03       -451.699E-03         43.4608E-03       410.18E-03        -453.312E-03         43.1322E-03 
              872.5E-03          409.454E-03       -453.036E-03         43.5823E-03       411.401E-03       -454.654E-03         43.2533E-03 
              875.E-03           410.67E-03        -454.373E-03         43.7038E-03       412.622E-03       -455.997E-03         43.3744E-03 
              877.5E-03          411.885E-03       -455.711E-03         43.8252E-03       413.844E-03       -457.339E-03         43.4955E-03 
              880.E-03           413.101E-03       -457.048E-03         43.9467E-03       415.065E-03       -458.681E-03         43.6167E-03 
              882.5E-03          414.317E-03       -458.385E-03         44.0682E-03       416.286E-03       -460.024E-03         43.7378E-03 
              885.E-03           415.533E-03       -459.723E-03         44.1897E-03       417.507E-03       -461.366E-03         43.8589E-03 
              887.5E-03          416.749E-03       -461.06E-03          44.3111E-03       418.729E-03       -462.709E-03         43.98E-03   
              890.E-03           417.965E-03       -462.398E-03         44.4326E-03       419.95E-03        -464.051E-03         44.1011E-03 
              892.5E-03          419.181E-03       -463.735E-03         44.5541E-03       421.171E-03       -465.393E-03         44.2223E-03 
              895.E-03           420.397E-03       -465.072E-03         44.6756E-03       422.392E-03       -466.736E-03         44.3434E-03 
              897.5E-03          421.613E-03       -466.41E-03          44.797E-03        423.614E-03       -468.078E-03         44.4645E-03 
              900.E-03           422.829E-03       -467.747E-03         44.9185E-03       424.835E-03       -469.421E-03         44.5857E-03 
              902.5E-03          424.044E-03       -469.084E-03         45.04E-03         426.056E-03       -470.763E-03         44.7068E-03 
              905.E-03           425.26E-03        -470.422E-03         45.1615E-03       427.278E-03       -472.106E-03         44.8279E-03 
              907.5E-03          426.476E-03       -471.759E-03         45.2829E-03       428.499E-03       -473.448E-03         44.9491E-03 
              910.E-03           427.692E-03       -473.097E-03         45.4044E-03       429.72E-03        -474.791E-03         45.0702E-03 
              912.5E-03          428.908E-03       -474.434E-03         45.5259E-03       430.942E-03       -476.133E-03         45.1914E-03 
              915.E-03           430.124E-03       -475.771E-03         45.6474E-03       432.163E-03       -477.476E-03         45.3125E-03 
              917.5E-03          431.34E-03        -477.109E-03         45.7689E-03       433.385E-03       -478.818E-03         45.4337E-03 
              920.E-03           432.556E-03       -478.446E-03         45.8903E-03       434.606E-03       -480.161E-03         45.5548E-03 
              922.5E-03          433.772E-03       -479.783E-03         46.0118E-03       435.827E-03       -481.503E-03         45.676E-03  
              925.E-03           434.988E-03       -481.121E-03         46.1333E-03       437.049E-03       -482.846E-03         45.7971E-03 
              927.5E-03          436.203E-03       -482.458E-03         46.2548E-03       438.27E-03        -484.189E-03         45.9183E-03 
              930.E-03           437.419E-03       -483.796E-03         46.3763E-03       439.492E-03       -485.531E-03         46.0395E-03 
              932.5E-03          438.635E-03       -485.133E-03         46.4978E-03       440.713E-03       -486.874E-03         46.1606E-03 
              935.E-03           439.851E-03       -486.47E-03          46.6192E-03       441.935E-03       -488.217E-03         46.2818E-03 
              937.5E-03          441.067E-03       -487.808E-03         46.7407E-03       443.156E-03       -489.559E-03         46.403E-03  
              940.E-03           442.283E-03       -489.145E-03         46.8622E-03       444.378E-03       -490.902E-03         46.5242E-03 
              942.5E-03          443.499E-03       -490.483E-03         46.9837E-03       445.599E-03       -492.245E-03         46.6454E-03 
              945.E-03           444.715E-03       -491.82E-03          47.1052E-03       446.821E-03       -493.587E-03         46.7665E-03 
              947.5E-03          445.931E-03       -493.157E-03         47.2267E-03       448.042E-03       -494.93E-03          46.8877E-03 
              950.E-03           447.147E-03       -494.495E-03         47.3481E-03       449.264E-03       -496.273E-03         47.0089E-03 
              952.5E-03          448.362E-03       -495.832E-03         47.4696E-03       450.485E-03       -497.615E-03         47.1301E-03 
              955.E-03           449.578E-03       -497.169E-03         47.5911E-03       451.707E-03       -498.958E-03         47.2513E-03 
              957.5E-03          450.794E-03       -498.507E-03         47.7126E-03       452.928E-03       -500.301E-03         47.3725E-03 
              960.E-03           452.01E-03        -499.844E-03         47.8341E-03       454.15E-03        -501.644E-03         47.4937E-03 
              962.5E-03          453.226E-03       -501.182E-03         47.9556E-03       455.372E-03       -502.986E-03         47.6149E-03 
              965.E-03           454.442E-03       -502.519E-03         48.0771E-03       456.593E-03       -504.329E-03         47.7361E-03 
              967.5E-03          455.658E-03       -503.856E-03         48.1986E-03       457.815E-03       -505.672E-03         47.8573E-03 
              970.E-03           456.874E-03       -505.194E-03         48.32E-03         459.036E-03       -507.015E-03         47.9785E-03 
              972.5E-03          458.09E-03        -506.531E-03         48.4415E-03       460.258E-03       -508.358E-03         48.0998E-03 
              975.E-03           459.306E-03       -507.869E-03         48.563E-03        461.48E-03        -509.701E-03         48.221E-03  
              977.5E-03          460.522E-03       -509.206E-03         48.6845E-03       462.701E-03       -511.044E-03         48.3422E-03 
              980.E-03           461.737E-03       -510.543E-03         48.806E-03        463.923E-03       -512.386E-03         48.4634E-03 
              982.5E-03          462.953E-03       -511.881E-03         48.9275E-03       465.145E-03       -513.729E-03         48.5846E-03 
              985.E-03           464.169E-03       -513.218E-03         49.049E-03        466.366E-03       -515.072E-03         48.7059E-03 
              987.5E-03          465.385E-03       -514.556E-03         49.1705E-03       467.588E-03       -516.415E-03         48.8271E-03 
              990.E-03           466.601E-03       -515.893E-03         49.292E-03        468.81E-03        -517.758E-03         48.9483E-03 
              992.5E-03          467.817E-03       -517.23E-03          49.4134E-03       470.031E-03       -519.101E-03         49.0696E-03 
              995.E-03           469.033E-03       -518.568E-03         49.5349E-03       471.253E-03       -520.444E-03         49.1908E-03 
              997.5E-03          470.249E-03       -519.905E-03         49.6564E-03       472.475E-03       -521.787E-03         49.3121E-03 
                1.               471.465E-03       -521.243E-03         49.7779E-03       473.697E-03       -523.13E-03          49.4333E-03 




