
                  X               ep1-out            ep2-out            ep3-out             ep1-in             ep2-in             ep3-in     

                0.                 0.                 0.                 0.                 0.                 0.                 0.         
                2.5E-03            0.                 0.                 0.                 0.                 0.                 0.         
                5.E-03             1.11149E-03     -673.27E-06        -438.219E-06          1.18391E-03     -702.336E-06       -481.575E-06  
                7.5E-03            2.29978E-03       -1.33512E-03     -964.665E-06          2.40394E-03       -1.36637E-03       -1.03757E-03
               10.E-03             3.49716E-03       -1.97655E-03       -1.52061E-03        3.63203E-03       -2.0093E-03        -1.62273E-03
               12.5E-03            4.69975E-03       -2.60556E-03       -2.09419E-03        4.86358E-03       -2.63934E-03       -2.22424E-03
               15.E-03             5.90561E-03       -3.22714E-03       -2.67847E-03        6.09647E-03       -3.26168E-03       -2.83479E-03
               17.5E-03            7.11369E-03       -3.84433E-03       -3.26936E-03        7.32968E-03       -3.87949E-03       -3.45019E-03
               20.E-03             8.3234E-03        -4.45894E-03       -3.86445E-03        8.56272E-03       -4.49465E-03       -4.06807E-03
               22.5E-03            9.53435E-03       -5.07207E-03       -4.46228E-03        9.79537E-03       -5.10829E-03       -4.68708E-03
               25.E-03            10.7463E-03        -5.68434E-03       -5.06197E-03       11.0275E-03        -5.72107E-03       -5.30647E-03
               27.5E-03           11.9591E-03        -6.29616E-03       -5.66297E-03       12.2592E-03        -6.33339E-03       -5.92583E-03
               30.E-03            13.1727E-03        -6.90774E-03       -6.26494E-03       13.4904E-03        -6.94547E-03       -6.54495E-03
               32.5E-03           14.3869E-03        -7.51922E-03       -6.86766E-03       14.7212E-03        -7.55746E-03       -7.16371E-03
               35.E-03            15.6017E-03        -8.13067E-03       -7.47099E-03       15.9515E-03        -8.16942E-03       -7.78208E-03
               37.5E-03           16.817E-03         -8.74215E-03       -8.07483E-03       17.1815E-03        -8.78141E-03       -8.40005E-03
               40.E-03            18.0328E-03        -9.35368E-03       -8.6791E-03        18.4111E-03        -9.39345E-03       -9.01764E-03
               42.5E-03           19.249E-03         -9.96526E-03       -9.28376E-03       19.6404E-03       -10.0055E-03        -9.63486E-03
               45.E-03            20.4657E-03       -10.5769E-03        -9.88876E-03       20.8695E-03       -10.6177E-03       -10.2517E-03 
               47.5E-03           21.6827E-03       -11.1886E-03       -10.4941E-03        22.0983E-03       -11.2299E-03       -10.8683E-03 
               50.E-03            22.9001E-03       -11.8004E-03       -11.0997E-03        23.3269E-03       -11.8422E-03       -11.4846E-03 
               52.5E-03           24.1179E-03       -12.4123E-03       -11.7056E-03        24.5552E-03       -12.4546E-03       -12.1006E-03 
               55.E-03            25.336E-03        -13.0242E-03       -12.3117E-03        25.7835E-03       -13.067E-03        -12.7164E-03 
               57.5E-03           26.5543E-03       -13.6362E-03       -12.9181E-03        27.0115E-03       -13.6795E-03       -13.332E-03  
               60.E-03            27.773E-03        -14.2483E-03       -13.5247E-03        28.2395E-03       -14.2921E-03       -13.9474E-03 
               62.5E-03           28.9919E-03       -14.8604E-03       -14.1315E-03        29.4673E-03       -14.9047E-03       -14.5626E-03 
               65.E-03            30.2111E-03       -15.4726E-03       -14.7385E-03        30.695E-03        -15.5173E-03       -15.1776E-03 
               67.5E-03           31.4305E-03       -16.0848E-03       -15.3457E-03        31.9225E-03       -16.13E-03         -15.7925E-03 
               70.E-03            32.6502E-03       -16.6971E-03       -15.953E-03         33.15E-03         -16.7427E-03       -16.4073E-03 
               72.5E-03           33.87E-03         -17.3094E-03       -16.5606E-03        34.3775E-03       -17.3555E-03       -17.0219E-03 
               75.E-03            35.0901E-03       -17.9218E-03       -17.1683E-03        35.6048E-03       -17.9684E-03       -17.6364E-03 
               77.5E-03           36.3103E-03       -18.5342E-03       -17.7761E-03        36.8321E-03       -18.5812E-03       -18.2509E-03 
               80.E-03            37.5308E-03       -19.1467E-03       -18.3841E-03        38.0593E-03       -19.1942E-03       -18.8652E-03 
               82.5E-03           38.7514E-03       -19.7592E-03       -18.9922E-03        39.2865E-03       -19.8071E-03       -19.4794E-03 
               85.E-03            39.9722E-03       -20.3718E-03       -19.6005E-03        40.5137E-03       -20.4201E-03       -20.0936E-03 
               87.5E-03           41.1932E-03       -20.9844E-03       -20.2088E-03        41.7408E-03       -21.0331E-03       -20.7076E-03 
               90.E-03            42.4143E-03       -21.597E-03        -20.8173E-03        42.9678E-03       -21.6462E-03       -21.3217E-03 
               92.5E-03           43.6356E-03       -22.2097E-03       -21.4259E-03        44.1949E-03       -22.2593E-03       -21.9356E-03 
               95.E-03            44.8571E-03       -22.8224E-03       -22.0347E-03        45.4219E-03       -22.8724E-03       -22.5495E-03 
               97.5E-03           46.0786E-03       -23.4351E-03       -22.6435E-03        46.6489E-03       -23.4855E-03       -23.1633E-03 
              100.E-03            47.3003E-03       -24.0479E-03       -23.2524E-03        47.8759E-03       -24.0987E-03       -23.7771E-03 
              102.5E-03           48.5222E-03       -24.6607E-03       -23.8615E-03        49.1028E-03       -24.7119E-03       -24.3909E-03 
              105.E-03            49.7441E-03       -25.2735E-03       -24.4706E-03        50.3298E-03       -25.3252E-03       -25.0046E-03 
              107.5E-03           50.9662E-03       -25.8864E-03       -25.0798E-03        51.5567E-03       -25.9384E-03       -25.6183E-03 
              110.E-03            52.1884E-03       -26.4993E-03       -25.6891E-03        52.7837E-03       -26.5517E-03       -26.2319E-03 
              112.5E-03           53.4107E-03       -27.1122E-03       -26.2985E-03        54.0106E-03       -27.165E-03        -26.8456E-03 
              115.E-03            54.6331E-03       -27.7252E-03       -26.9079E-03        55.2375E-03       -27.7784E-03       -27.4592E-03 
              117.5E-03           55.8556E-03       -28.3381E-03       -27.5175E-03        56.4644E-03       -28.3917E-03       -28.0727E-03 
              120.E-03            57.0782E-03       -28.9511E-03       -28.1271E-03        57.6914E-03       -29.0051E-03       -28.6863E-03 
              122.5E-03           58.3009E-03       -29.5641E-03       -28.7368E-03        58.9183E-03       -29.6185E-03       -29.2998E-03 
              125.E-03            59.5237E-03       -30.1772E-03       -29.3465E-03        60.1452E-03       -30.2319E-03       -29.9133E-03 
              127.5E-03           60.7466E-03       -30.7903E-03       -29.9564E-03        61.3722E-03       -30.8454E-03       -30.5268E-03 
              130.E-03            61.9696E-03       -31.4033E-03       -30.5663E-03        62.5991E-03       -31.4588E-03       -31.1403E-03 
              132.5E-03           63.1927E-03       -32.0165E-03       -31.1762E-03        63.8261E-03       -32.0723E-03       -31.7538E-03 
              135.E-03            64.4158E-03       -32.6296E-03       -31.7862E-03        65.053E-03        -32.6858E-03       -32.3672E-03 
              137.5E-03           65.6391E-03       -33.2427E-03       -32.3963E-03        66.28E-03         -33.2993E-03       -32.9807E-03 
              140.E-03            66.8624E-03       -33.8559E-03       -33.0064E-03        67.507E-03        -33.9129E-03       -33.5941E-03 
              142.5E-03           68.0858E-03       -34.4691E-03       -33.6166E-03        68.734E-03        -34.5264E-03       -34.2076E-03 
              145.E-03            69.3092E-03       -35.0823E-03       -34.2269E-03        69.961E-03        -35.14E-03         -34.821E-03  
              147.5E-03           70.5327E-03       -35.6956E-03       -34.8372E-03        71.188E-03        -35.7536E-03       -35.4344E-03 
              150.E-03            71.7563E-03       -36.3088E-03       -35.4475E-03        72.415E-03        -36.3672E-03       -36.0478E-03 
              152.5E-03           72.98E-03         -36.9221E-03       -36.0579E-03        73.6421E-03       -36.9808E-03       -36.6613E-03 
              155.E-03            74.2038E-03       -37.5354E-03       -36.6684E-03        74.8691E-03       -37.5945E-03       -37.2747E-03 
              157.5E-03           75.4275E-03       -38.1487E-03       -37.2789E-03        76.0962E-03       -38.2081E-03       -37.8881E-03 
              160.E-03            76.6514E-03       -38.762E-03        -37.8894E-03        77.3233E-03       -38.8218E-03       -38.5015E-03 
              162.5E-03           77.8753E-03       -39.3753E-03       -38.5E-03           78.5504E-03       -39.4355E-03       -39.115E-03  
              165.E-03            79.0993E-03       -39.9887E-03       -39.1107E-03        79.7776E-03       -40.0492E-03       -39.7284E-03 
              167.5E-03           80.3234E-03       -40.602E-03        -39.7213E-03        81.0047E-03       -40.6629E-03       -40.3418E-03 
              170.E-03            81.5474E-03       -41.2154E-03       -40.332E-03         82.2319E-03       -41.2766E-03       -40.9553E-03 
              172.5E-03           82.7716E-03       -41.8288E-03       -40.9428E-03        83.459E-03        -41.8904E-03       -41.5687E-03 
              175.E-03            83.9958E-03       -42.4422E-03       -41.5536E-03        84.6862E-03       -42.5041E-03       -42.1821E-03 
              177.5E-03           85.2201E-03       -43.0556E-03       -42.1644E-03        85.9135E-03       -43.1179E-03       -42.7956E-03 
              180.E-03            86.4444E-03       -43.6691E-03       -42.7753E-03        87.1407E-03       -43.7317E-03       -43.409E-03  
              182.5E-03           87.6687E-03       -44.2825E-03       -43.3862E-03        88.3679E-03       -44.3455E-03       -44.0225E-03 
              185.E-03            88.8931E-03       -44.896E-03        -43.9972E-03        89.5952E-03       -44.9593E-03       -44.636E-03  
              187.5E-03           90.1176E-03       -45.5094E-03       -44.6081E-03        90.8225E-03       -45.5731E-03       -45.2494E-03 
              190.E-03            91.3421E-03       -46.1229E-03       -45.2191E-03        92.0498E-03       -46.1869E-03       -45.8629E-03 
              192.5E-03           92.5666E-03       -46.7364E-03       -45.8302E-03        93.2771E-03       -46.8007E-03       -46.4764E-03 
              195.E-03            93.7912E-03       -47.3499E-03       -46.4413E-03        94.5045E-03       -47.4146E-03       -47.0899E-03 
              197.5E-03           95.0158E-03       -47.9635E-03       -47.0524E-03        95.7319E-03       -48.0285E-03       -47.7034E-03 
              200.E-03            96.2405E-03       -48.577E-03        -47.6635E-03        96.9593E-03       -48.6423E-03       -48.3169E-03 
              202.5E-03           97.4652E-03       -49.1905E-03       -48.2747E-03        98.1867E-03       -49.2562E-03       -48.9304E-03 
              205.E-03            98.69E-03         -49.8041E-03       -48.8859E-03        99.4141E-03       -49.8701E-03       -49.544E-03  
              207.5E-03           99.9148E-03       -50.4177E-03       -49.4971E-03       100.642E-03        -50.484E-03        -50.1575E-03 
              210.E-03           101.14E-03         -51.0312E-03       -50.1084E-03       101.869E-03        -51.098E-03        -50.771E-03  
              212.5E-03          102.364E-03        -51.6448E-03       -50.7197E-03       103.096E-03        -51.7119E-03       -51.3846E-03 
              215.E-03           103.589E-03        -52.2584E-03       -51.331E-03        104.324E-03        -52.3258E-03       -51.9982E-03 
              217.5E-03          104.814E-03        -52.872E-03        -51.9423E-03       105.552E-03        -52.9398E-03       -52.6118E-03 
              220.E-03           106.039E-03        -53.4856E-03       -52.5537E-03       106.779E-03        -53.5537E-03       -53.2254E-03 
              222.5E-03          107.264E-03        -54.0993E-03       -53.165E-03        108.007E-03        -54.1677E-03       -53.839E-03  
              225.E-03           108.489E-03        -54.7129E-03       -53.7765E-03       109.234E-03        -54.7817E-03       -54.4526E-03 
              227.5E-03          109.714E-03        -55.3265E-03       -54.3879E-03       110.462E-03        -55.3957E-03       -55.0662E-03 
              230.E-03           110.94E-03         -55.9402E-03       -54.9994E-03       111.69E-03         -56.0097E-03       -55.6798E-03 
              232.5E-03          112.165E-03        -56.5539E-03       -55.6108E-03       112.917E-03        -56.6237E-03       -56.2935E-03 
              235.E-03           113.39E-03         -57.1675E-03       -56.2223E-03       114.145E-03        -57.2377E-03       -56.9071E-03 
              237.5E-03          114.615E-03        -57.7812E-03       -56.8339E-03       115.373E-03        -57.8517E-03       -57.5208E-03 
              240.E-03           115.84E-03         -58.3949E-03       -57.4454E-03       116.6E-03          -58.4658E-03       -58.1345E-03 
              242.5E-03          117.066E-03        -59.0086E-03       -58.057E-03        117.828E-03        -59.0798E-03       -58.7482E-03 
              245.E-03           118.291E-03        -59.6223E-03       -58.6686E-03       119.056E-03        -59.6939E-03       -59.3619E-03 
              247.5E-03          119.516E-03        -60.236E-03        -59.2802E-03       120.284E-03        -60.3079E-03       -59.9756E-03 
              250.E-03           120.742E-03        -60.8497E-03       -59.8918E-03       121.511E-03        -60.922E-03        -60.5894E-03 
              252.5E-03          121.967E-03        -61.4634E-03       -60.5035E-03       122.739E-03        -61.5361E-03       -61.2031E-03 
              255.E-03           123.192E-03        -62.0772E-03       -61.1152E-03       123.967E-03        -62.1502E-03       -61.8169E-03 
              257.5E-03          124.418E-03        -62.6909E-03       -61.7269E-03       125.195E-03        -62.7643E-03       -62.4306E-03 
              260.E-03           125.643E-03        -63.3047E-03       -62.3386E-03       126.423E-03        -63.3784E-03       -63.0444E-03 
              262.5E-03          126.869E-03        -63.9184E-03       -62.9503E-03       127.651E-03        -63.9925E-03       -63.6582E-03 
              265.E-03           128.094E-03        -64.5322E-03       -63.562E-03        128.879E-03        -64.6066E-03       -64.272E-03  
              267.5E-03          129.32E-03         -65.146E-03        -64.1738E-03       130.107E-03        -65.2207E-03       -64.8859E-03 
              270.E-03           130.545E-03        -65.7597E-03       -64.7856E-03       131.335E-03        -65.8349E-03       -65.4997E-03 
              272.5E-03          131.771E-03        -66.3735E-03       -65.3974E-03       132.563E-03        -66.449E-03        -66.1135E-03 
              275.E-03           133.071E-03        -66.8167E-03       -66.2547E-03       133.875E-03        -66.9804E-03       -66.8947E-03 
              277.5E-03          134.437E-03        -67.3261E-03       -67.1107E-03       135.286E-03        -68.0915E-03       -67.1947E-03 
              280.E-03           135.792E-03        -68.5016E-03       -67.2905E-03       136.775E-03        -69.3894E-03       -67.3855E-03 
              282.5E-03          137.058E-03        -69.6659E-03       -67.3925E-03       138.396E-03        -70.8896E-03       -67.5068E-03 
              285.E-03           138.33E-03         -70.877E-03        -67.4533E-03       139.965E-03        -72.389E-03        -67.5761E-03 
              287.5E-03          139.689E-03        -72.1981E-03       -67.4914E-03       141.394E-03        -73.7806E-03       -67.6136E-03 
              290.E-03           141.064E-03        -73.5497E-03       -67.514E-03        142.788E-03        -75.152E-03        -67.6355E-03 
              292.5E-03          142.437E-03        -74.9095E-03       -67.5275E-03       144.172E-03        -76.5233E-03       -67.6487E-03 
              295.E-03           143.807E-03        -76.2717E-03       -67.5357E-03       145.555E-03        -77.898E-03        -67.6568E-03 
              297.5E-03          145.175E-03        -77.6346E-03       -67.5407E-03       146.938E-03        -79.2754E-03       -67.6622E-03 
              300.E-03           146.542E-03        -78.9976E-03       -67.5439E-03       148.321E-03        -80.655E-03        -67.6659E-03 
              302.5E-03          147.906E-03        -80.3603E-03       -67.546E-03        149.705E-03        -82.0363E-03       -67.6687E-03 
              305.E-03           149.27E-03         -81.7226E-03       -67.5475E-03       151.09E-03         -83.4189E-03       -67.671E-03  
              307.5E-03          150.633E-03        -83.0843E-03       -67.5486E-03       152.476E-03        -84.8028E-03       -67.673E-03  
              310.E-03           151.995E-03        -84.4455E-03       -67.5495E-03       153.862E-03        -86.1876E-03       -67.6748E-03 
              312.5E-03          153.356E-03        -85.8061E-03       -67.5502E-03       155.25E-03         -87.5735E-03       -67.6766E-03 
              315.E-03           154.717E-03        -87.1663E-03       -67.5509E-03       156.639E-03        -88.9602E-03       -67.6784E-03 
              317.5E-03          156.077E-03        -88.5258E-03       -67.5514E-03       158.028E-03        -90.3477E-03       -67.6801E-03 
              320.E-03           157.437E-03        -89.8849E-03       -67.5519E-03       159.418E-03        -91.7361E-03       -67.6819E-03 
              322.5E-03          158.796E-03        -91.2435E-03       -67.5524E-03       160.809E-03        -93.1254E-03       -67.6836E-03 
              325.E-03           160.154E-03        -92.6015E-03       -67.5528E-03       162.201E-03        -94.5154E-03       -67.6854E-03 
              327.5E-03          161.512E-03        -93.959E-03        -67.5531E-03       163.594E-03        -95.9064E-03       -67.6872E-03 
              330.E-03           162.869E-03        -95.316E-03        -67.5535E-03       164.987E-03        -97.2982E-03       -67.689E-03  
              332.5E-03          164.226E-03        -96.6723E-03       -67.5538E-03       166.382E-03        -98.691E-03        -67.6909E-03 
              335.E-03           165.582E-03        -98.0281E-03       -67.554E-03        167.777E-03       -100.085E-03        -67.6928E-03 
              337.5E-03          166.938E-03        -99.3832E-03       -67.5543E-03       169.174E-03       -101.479E-03        -67.6947E-03 
              340.E-03           168.292E-03       -100.738E-03        -67.5545E-03       170.572E-03       -102.875E-03        -67.6967E-03 
              342.5E-03          169.646E-03       -102.092E-03        -67.5546E-03       171.97E-03        -104.272E-03        -67.6987E-03 
              345.E-03           170.999E-03       -103.445E-03        -67.5548E-03       173.37E-03        -105.669E-03        -67.7007E-03 
              347.5E-03          172.352E-03       -104.797E-03        -67.5548E-03       174.771E-03       -107.068E-03        -67.7028E-03 
              350.E-03           173.703E-03       -106.148E-03        -67.5549E-03       176.174E-03       -108.469E-03        -67.7049E-03 
              352.5E-03          175.054E-03       -107.499E-03        -67.5549E-03       177.577E-03       -109.87E-03         -67.707E-03  
              355.E-03           176.403E-03       -108.848E-03        -67.5548E-03       178.982E-03       -111.273E-03        -67.7093E-03 
              357.5E-03          177.752E-03       -110.197E-03        -67.5547E-03       180.389E-03       -112.677E-03        -67.7115E-03 
              360.E-03           179.099E-03       -111.545E-03        -67.5545E-03       181.797E-03       -114.083E-03        -67.7139E-03 
              362.5E-03          180.445E-03       -112.891E-03        -67.5543E-03       183.207E-03       -115.49E-03         -67.7163E-03 
              365.E-03           181.79E-03        -114.236E-03        -67.554E-03        184.618E-03       -116.899E-03        -67.7187E-03 
              367.5E-03          183.134E-03       -115.58E-03         -67.5537E-03       186.032E-03       -118.31E-03         -67.7212E-03 
              370.E-03           184.476E-03       -116.923E-03        -67.5533E-03       187.447E-03       -119.723E-03        -67.7238E-03 
              372.5E-03          185.816E-03       -118.264E-03        -67.5528E-03       188.864E-03       -121.138E-03        -67.7265E-03 
              375.E-03           187.155E-03       -119.603E-03        -67.5523E-03       190.284E-03       -122.555E-03        -67.7293E-03 
              377.5E-03          188.492E-03       -120.941E-03        -67.5517E-03       191.706E-03       -123.974E-03        -67.7321E-03 
              380.E-03           189.827E-03       -122.277E-03        -67.551E-03        193.131E-03       -125.396E-03        -67.7351E-03 
              382.5E-03          191.161E-03       -123.61E-03         -67.5502E-03       194.558E-03       -126.82E-03         -67.7381E-03 
              385.E-03           192.491E-03       -124.942E-03        -67.5493E-03       195.988E-03       -128.247E-03        -67.7413E-03 
              387.5E-03          193.82E-03        -126.272E-03        -67.5483E-03       197.422E-03       -129.677E-03        -67.7446E-03 
              390.E-03           195.146E-03       -127.599E-03        -67.5471E-03       198.859E-03       -131.111E-03        -67.748E-03  
              392.5E-03          196.469E-03       -128.923E-03        -67.5459E-03       200.299E-03       -132.547E-03        -67.7516E-03 
              395.E-03           197.789E-03       -130.244E-03        -67.5446E-03       201.743E-03       -133.988E-03        -67.7554E-03 
              397.5E-03          199.106E-03       -131.563E-03        -67.5431E-03       203.192E-03       -135.433E-03        -67.7593E-03 
              400.E-03           200.419E-03       -132.878E-03        -67.5414E-03       204.645E-03       -136.882E-03        -67.7633E-03 
              402.5E-03          201.729E-03       -134.189E-03        -67.5396E-03       206.103E-03       -138.335E-03        -67.7676E-03 
              405.E-03           203.034E-03       -135.497E-03        -67.5376E-03       207.566E-03       -139.794E-03        -67.7721E-03 
              407.5E-03          204.335E-03       -136.8E-03          -67.5354E-03       209.035E-03       -141.258E-03        -67.7768E-03 
              410.E-03           205.632E-03       -138.099E-03        -67.5331E-03       210.511E-03       -142.729E-03        -67.7818E-03 
              412.5E-03          206.923E-03       -139.392E-03        -67.5305E-03       211.993E-03       -144.206E-03        -67.7871E-03 
              415.E-03           208.208E-03       -140.68E-03         -67.5276E-03       213.482E-03       -145.69E-03         -67.7926E-03 
              417.5E-03          209.487E-03       -141.963E-03        -67.5246E-03       214.98E-03        -147.182E-03        -67.7985E-03 
              420.E-03           210.759E-03       -143.238E-03        -67.5212E-03       216.487E-03       -148.682E-03        -67.8048E-03 
              422.5E-03          212.024E-03       -144.507E-03        -67.5175E-03       218.003E-03       -150.192E-03        -67.8115E-03 
              425.E-03           213.282E-03       -145.768E-03        -67.5135E-03       219.53E-03        -151.712E-03        -67.8186E-03 
              427.5E-03          214.53E-03        -147.021E-03        -67.5091E-03       221.069E-03       -153.243E-03        -67.8261E-03 
              430.E-03           215.769E-03       -148.264E-03        -67.5044E-03       222.621E-03       -154.787E-03        -67.8343E-03 
              432.5E-03          216.997E-03       -149.498E-03        -67.4992E-03       224.187E-03       -156.344E-03        -67.843E-03  
              435.E-03           218.214E-03       -150.721E-03        -67.4935E-03       225.77E-03        -157.917E-03        -67.8524E-03 
              437.5E-03          219.419E-03       -151.931E-03        -67.4874E-03       227.369E-03       -159.507E-03        -67.8625E-03 
              440.E-03           220.61E-03        -153.129E-03        -67.4807E-03       228.989E-03       -161.116E-03        -67.8735E-03 
              442.5E-03          221.787E-03       -154.313E-03        -67.4734E-03       230.631E-03       -162.745E-03        -67.8853E-03 
              445.E-03           222.947E-03       -155.482E-03        -67.4654E-03       232.297E-03       -164.398E-03        -67.8982E-03 
              447.5E-03          224.09E-03        -156.634E-03        -67.4567E-03       233.99E-03        -166.078E-03        -67.9123E-03 
              450.E-03           225.215E-03       -157.767E-03        -67.4473E-03       235.714E-03       -167.787E-03        -67.9276E-03 
              452.5E-03          226.318E-03       -158.881E-03        -67.4371E-03       237.473E-03       -169.528E-03        -67.9444E-03 
              455.E-03           227.205E-03       -159.777E-03        -67.4281E-03       238.941E-03       -170.981E-03        -67.9594E-03 
              457.5E-03          228.884E-03       -161.753E-03        -67.1312E-03       240.478E-03       -172.783E-03        -67.6949E-03 
              460.E-03           230.218E-03       -163.45E-03         -66.7676E-03       241.839E-03       -174.506E-03        -67.3322E-03 
              462.5E-03          231.527E-03       -165.191E-03        -66.3361E-03       243.165E-03       -176.262E-03        -66.9027E-03 
              465.E-03           232.815E-03       -166.946E-03        -65.869E-03        244.473E-03       -178.037E-03        -66.4361E-03 
              467.5E-03          234.093E-03       -168.71E-03         -65.3826E-03       245.771E-03       -179.821E-03        -65.9498E-03 
              470.E-03           235.364E-03       -170.478E-03        -64.8857E-03       247.063E-03       -181.61E-03         -65.4529E-03 
              472.5E-03          236.631E-03       -172.248E-03        -64.3833E-03       248.353E-03       -183.403E-03        -64.9503E-03 
              475.E-03           237.896E-03       -174.018E-03        -63.878E-03        249.641E-03       -185.197E-03        -64.4446E-03 
              477.5E-03          239.16E-03        -175.789E-03        -63.3709E-03       250.93E-03        -186.992E-03        -63.9372E-03 
              480.E-03           240.423E-03       -177.559E-03        -62.8631E-03       252.218E-03       -188.789E-03        -63.429E-03  
              482.5E-03          241.684E-03       -179.33E-03         -62.3547E-03       253.507E-03       -190.587E-03        -62.9202E-03 
              485.E-03           242.946E-03       -181.1E-03          -61.8461E-03       254.796E-03       -192.385E-03        -62.4112E-03 
              487.5E-03          244.207E-03       -182.869E-03        -61.3373E-03       256.086E-03       -194.184E-03        -61.9021E-03 
              490.E-03           245.467E-03       -184.639E-03        -60.8285E-03       257.377E-03       -195.984E-03        -61.3928E-03 
              492.5E-03          246.727E-03       -186.407E-03        -60.3196E-03       258.668E-03       -197.784E-03        -60.8835E-03 
              495.E-03           247.986E-03       -188.176E-03        -59.8107E-03       259.96E-03        -199.586E-03        -60.3742E-03 
              497.5E-03          249.246E-03       -189.944E-03        -59.3018E-03       261.252E-03       -201.388E-03        -59.8648E-03 
              500.E-03           250.504E-03       -191.711E-03        -58.7928E-03       262.546E-03       -203.19E-03         -59.3555E-03 
              502.5E-03          251.762E-03       -193.479E-03        -58.2839E-03       263.84E-03        -204.994E-03        -58.8461E-03 
              505.E-03           253.02E-03        -195.245E-03        -57.7749E-03       265.134E-03       -206.798E-03        -58.3367E-03 
              507.5E-03          254.278E-03       -197.012E-03        -57.266E-03        266.43E-03        -208.602E-03        -57.8273E-03 
              510.E-03           255.535E-03       -198.778E-03        -56.757E-03        267.726E-03       -210.408E-03        -57.3179E-03 
              512.5E-03          256.791E-03       -200.543E-03        -56.248E-03        269.023E-03       -212.214E-03        -56.8084E-03 
              515.E-03           258.048E-03       -202.308E-03        -55.739E-03        270.32E-03        -214.021E-03        -56.299E-03  
              517.5E-03          259.303E-03       -204.073E-03        -55.23E-03         271.618E-03       -215.829E-03        -55.7895E-03 
              520.E-03           260.559E-03       -205.838E-03        -54.721E-03        272.917E-03       -217.637E-03        -55.2801E-03 
              522.5E-03          261.814E-03       -207.602E-03        -54.212E-03        274.216E-03       -219.446E-03        -54.7706E-03 
              525.E-03           263.068E-03       -209.365E-03        -53.703E-03        275.517E-03       -221.255E-03        -54.2611E-03 
              527.5E-03          264.322E-03       -211.128E-03        -53.194E-03        276.817E-03       -223.066E-03        -53.7517E-03 
              530.E-03           265.576E-03       -212.891E-03        -52.685E-03        278.119E-03       -224.877E-03        -53.2422E-03 
              532.5E-03          266.829E-03       -214.653E-03        -52.176E-03        279.421E-03       -226.689E-03        -52.7327E-03 
              535.E-03           268.082E-03       -216.415E-03        -51.6669E-03       280.724E-03       -228.501E-03        -52.2231E-03 
              537.5E-03          269.334E-03       -218.177E-03        -51.1579E-03       282.028E-03       -230.314E-03        -51.7136E-03 
              540.E-03           270.586E-03       -219.938E-03        -50.6489E-03       283.332E-03       -232.128E-03        -51.2041E-03 
              542.5E-03          271.838E-03       -221.698E-03        -50.1398E-03       284.637E-03       -233.942E-03        -50.6945E-03 
              545.E-03           273.089E-03       -223.458E-03        -49.6308E-03       285.943E-03       -235.758E-03        -50.185E-03  
              547.5E-03          274.34E-03        -225.218E-03        -49.1217E-03       287.249E-03       -237.574E-03        -49.6754E-03 
              550.E-03           275.59E-03        -226.978E-03        -48.6127E-03       288.556E-03       -239.39E-03         -49.1658E-03 
              552.5E-03          276.84E-03        -228.737E-03        -48.1036E-03       289.864E-03       -241.208E-03        -48.6562E-03 
              555.E-03           278.09E-03        -230.495E-03        -47.5945E-03       291.172E-03       -243.026E-03        -48.1466E-03 
              557.5E-03          279.339E-03       -232.253E-03        -47.0855E-03       292.482E-03       -244.845E-03        -47.637E-03  
              560.E-03           280.587E-03       -234.011E-03        -46.5764E-03       293.792E-03       -246.664E-03        -47.1274E-03 
              562.5E-03          281.835E-03       -235.768E-03        -46.0673E-03       295.102E-03       -248.484E-03        -46.6178E-03 
              565.E-03           283.083E-03       -237.525E-03        -45.5582E-03       296.413E-03       -250.305E-03        -46.1082E-03 
              567.5E-03          284.33E-03        -239.281E-03        -45.0492E-03       297.726E-03       -252.127E-03        -45.5985E-03 
              570.E-03           285.577E-03       -241.037E-03        -44.5401E-03       299.038E-03       -253.949E-03        -45.0888E-03 
              572.5E-03          286.824E-03       -242.793E-03        -44.031E-03        300.352E-03       -255.773E-03        -44.5792E-03 
              575.E-03           288.069E-03       -244.548E-03        -43.5219E-03       301.666E-03       -257.597E-03        -44.0695E-03 
              577.5E-03          289.315E-03       -246.302E-03        -43.0128E-03       302.981E-03       -259.421E-03        -43.5598E-03 
              580.E-03           290.56E-03        -248.056E-03        -42.5037E-03       304.297E-03       -261.247E-03        -43.0501E-03 
              582.5E-03          291.805E-03       -249.81E-03         -41.9946E-03       305.613E-03       -263.073E-03        -42.5404E-03 
              585.E-03           293.049E-03       -251.563E-03        -41.4855E-03       306.93E-03        -264.9E-03          -42.0307E-03 
              587.5E-03          294.292E-03       -253.316E-03        -40.9764E-03       308.248E-03       -266.727E-03        -41.521E-03  
              590.E-03           295.536E-03       -255.068E-03        -40.4673E-03       309.567E-03       -268.556E-03        -41.0112E-03 
              592.5E-03          296.778E-03       -256.82E-03         -39.9582E-03       310.887E-03       -270.385E-03        -40.5015E-03 
              595.E-03           298.02E-03        -258.571E-03        -39.4491E-03       312.207E-03       -272.215E-03        -39.9917E-03 
              597.5E-03          299.262E-03       -260.322E-03        -38.94E-03         313.528E-03       -274.046E-03        -39.4819E-03 
              600.E-03           300.504E-03       -262.073E-03        -38.4309E-03       314.85E-03        -275.877E-03        -38.9722E-03 
              602.5E-03          301.744E-03       -263.823E-03        -37.9217E-03       316.172E-03       -277.71E-03         -38.4624E-03 
              605.E-03           302.985E-03       -265.572E-03        -37.4126E-03       317.495E-03       -279.543E-03        -37.9526E-03 
              607.5E-03          304.225E-03       -267.321E-03        -36.9035E-03       318.82E-03        -281.377E-03        -37.4428E-03 
              610.E-03           305.464E-03       -269.069E-03        -36.3944E-03       320.145E-03       -283.212E-03        -36.9329E-03 
              612.5E-03          306.703E-03       -270.817E-03        -35.8853E-03       321.47E-03        -285.047E-03        -36.4231E-03 
              615.E-03           307.941E-03       -272.565E-03        -35.3761E-03       322.797E-03       -286.884E-03        -35.9133E-03 
              617.5E-03          309.179E-03       -274.312E-03        -34.867E-03        324.124E-03       -288.721E-03        -35.4034E-03 
              620.E-03           310.416E-03       -276.058E-03        -34.3579E-03       325.453E-03       -290.559E-03        -34.8936E-03 
              622.5E-03          311.653E-03       -277.804E-03        -33.8488E-03       326.782E-03       -292.398E-03        -34.3837E-03 
              625.E-03           312.889E-03       -279.55E-03         -33.3396E-03       328.112E-03       -294.238E-03        -33.8738E-03 
              627.5E-03          314.125E-03       -281.295E-03        -32.8305E-03       329.442E-03       -296.078E-03        -33.3639E-03 
              630.E-03           315.36E-03        -283.039E-03        -32.3214E-03       330.774E-03       -297.92E-03         -32.854E-03  
              632.5E-03          316.595E-03       -284.783E-03        -31.8122E-03       332.107E-03       -299.762E-03        -32.3441E-03 
              635.E-03           317.829E-03       -286.526E-03        -31.3031E-03       333.44E-03        -301.606E-03        -31.8341E-03 
              637.5E-03          319.063E-03       -288.269E-03        -30.794E-03        334.774E-03       -303.45E-03         -31.3242E-03 
              640.E-03           320.296E-03       -290.011E-03        -30.2848E-03       336.109E-03       -305.295E-03        -30.8143E-03 
              642.5E-03          321.529E-03       -291.753E-03        -29.7757E-03       337.445E-03       -307.141E-03        -30.3043E-03 
              645.E-03           322.761E-03       -293.494E-03        -29.2666E-03       338.782E-03       -308.988E-03        -29.7943E-03 
              647.5E-03          323.992E-03       -295.235E-03        -28.7575E-03       340.12E-03        -310.836E-03        -29.2843E-03 
              650.E-03           325.223E-03       -296.975E-03        -28.2483E-03       341.459E-03       -312.685E-03        -28.7743E-03 
              652.5E-03          326.454E-03       -298.714E-03        -27.7392E-03       342.799E-03       -314.534E-03        -28.2643E-03 
              655.E-03           327.683E-03       -300.453E-03        -27.2301E-03       344.139E-03       -316.385E-03        -27.7543E-03 
              657.5E-03          328.913E-03       -302.192E-03        -26.7209E-03       345.481E-03       -318.237E-03        -27.2443E-03 
              660.E-03           330.141E-03       -303.929E-03        -26.2118E-03       346.824E-03       -320.089E-03        -26.7342E-03 
              662.5E-03          331.369E-03       -305.666E-03        -25.7027E-03       348.167E-03       -321.943E-03        -26.2242E-03 
              665.E-03           332.597E-03       -307.403E-03        -25.1935E-03       349.512E-03       -323.798E-03        -25.7141E-03 
              667.5E-03          333.823E-03       -309.139E-03        -24.6844E-03       350.857E-03       -325.653E-03        -25.204E-03  
              670.E-03           335.05E-03        -310.874E-03        -24.1753E-03       352.204E-03       -327.51E-03         -24.694E-03  
              672.5E-03          336.275E-03       -312.609E-03        -23.6662E-03       353.552E-03       -329.368E-03        -24.1839E-03 
              675.E-03           337.5E-03         -314.343E-03        -23.157E-03        354.9E-03         -331.226E-03        -23.6737E-03 
              677.5E-03          338.725E-03       -316.077E-03        -22.6479E-03       356.25E-03        -333.086E-03        -23.1636E-03 
              680.E-03           339.948E-03       -317.81E-03         -22.1388E-03       357.601E-03       -334.947E-03        -22.6535E-03 
              682.5E-03          341.172E-03       -319.542E-03        -21.6297E-03       358.952E-03       -336.809E-03        -22.1433E-03 
              685.E-03           342.394E-03       -321.273E-03        -21.1205E-03       360.305E-03       -338.672E-03        -21.6332E-03 
              687.5E-03          343.616E-03       -323.004E-03        -20.6114E-03       361.659E-03       -340.536E-03        -21.123E-03  
              690.E-03           344.837E-03       -324.735E-03        -20.1023E-03       363.014E-03       -342.401E-03        -20.6128E-03 
              692.5E-03          346.058E-03       -326.464E-03        -19.5932E-03       364.37E-03        -344.268E-03        -20.1026E-03 
              695.E-03           347.277E-03       -328.193E-03        -19.0841E-03       365.728E-03       -346.135E-03        -19.5924E-03 
              697.5E-03          348.497E-03       -329.922E-03        -18.575E-03        367.086E-03       -348.004E-03        -19.0822E-03 
              700.E-03           349.715E-03       -331.649E-03        -18.0659E-03       368.446E-03       -349.874E-03        -18.5719E-03 
              702.5E-03          350.933E-03       -333.376E-03        -17.5568E-03       369.807E-03       -351.745E-03        -18.0617E-03 
              705.E-03           352.15E-03        -335.102E-03        -17.0477E-03       371.169E-03       -353.617E-03        -17.5514E-03 
              707.5E-03          353.366E-03       -336.828E-03        -16.5386E-03       372.532E-03       -355.491E-03        -17.0411E-03 
              710.E-03           354.582E-03       -338.553E-03        -16.0295E-03       373.896E-03       -357.365E-03        -16.5308E-03 
              712.5E-03          355.797E-03       -340.277E-03        -15.5204E-03       375.262E-03       -359.241E-03        -16.0205E-03 
              715.E-03           357.011E-03       -342.E-03           -15.0113E-03       376.629E-03       -361.118E-03        -15.5102E-03 
              717.5E-03          358.225E-03       -343.723E-03        -14.5022E-03       377.997E-03       -362.997E-03        -14.9999E-03 
              720.E-03           359.438E-03       -345.445E-03        -13.9931E-03       379.366E-03       -364.876E-03        -14.4895E-03 
              722.5E-03          360.65E-03        -347.166E-03        -13.484E-03        380.737E-03       -366.758E-03        -13.9792E-03 
              725.E-03           361.861E-03       -348.886E-03        -12.975E-03        382.109E-03       -368.64E-03         -13.4688E-03 
              727.5E-03          363.072E-03       -350.606E-03        -12.4659E-03       383.482E-03       -370.524E-03        -12.9584E-03 
              730.E-03           364.282E-03       -352.325E-03        -11.9568E-03       384.857E-03       -372.409E-03        -12.448E-03  
              732.5E-03          365.491E-03       -354.043E-03        -11.4477E-03       386.233E-03       -374.295E-03        -11.9376E-03 
              735.E-03           366.699E-03       -355.76E-03         -10.9387E-03       387.61E-03        -376.183E-03        -11.4271E-03 
              737.5E-03          367.906E-03       -357.477E-03        -10.4296E-03       388.989E-03       -378.072E-03        -10.9167E-03 
              740.E-03           369.113E-03       -359.193E-03         -9.92057E-03      390.369E-03       -379.963E-03        -10.4062E-03 
              742.5E-03          370.319E-03       -360.907E-03         -9.41152E-03      391.751E-03       -381.855E-03         -9.89575E-03
              745.E-03           371.524E-03       -362.622E-03         -8.90247E-03      393.134E-03       -383.749E-03         -9.38525E-03
              747.5E-03          372.728E-03       -364.335E-03         -8.39343E-03      394.518E-03       -385.644E-03         -8.87474E-03
              750.E-03           373.932E-03       -366.047E-03         -7.8844E-03       395.904E-03       -387.54E-03          -8.36421E-03
              752.5E-03          375.134E-03       -367.759E-03         -7.37537E-03      397.292E-03       -389.438E-03         -7.85367E-03
              755.E-03           376.336E-03       -369.47E-03          -6.86634E-03      398.681E-03       -391.338E-03         -7.34311E-03
              757.5E-03          377.537E-03       -371.179E-03         -6.35732E-03      400.072E-03       -393.239E-03         -6.83253E-03
              760.E-03           378.737E-03       -372.888E-03         -5.8483E-03       401.464E-03       -395.142E-03         -6.32194E-03
              762.5E-03          379.936E-03       -374.596E-03         -5.33929E-03      402.858E-03       -397.047E-03         -5.81133E-03
              765.E-03           381.134E-03       -376.304E-03         -4.83029E-03      404.253E-03       -398.953E-03         -5.30071E-03
              767.5E-03          382.331E-03       -378.01E-03          -4.32129E-03      405.65E-03        -400.86E-03          -4.79007E-03
              770.E-03           383.528E-03       -379.715E-03         -3.8123E-03       407.049E-03       -402.77E-03          -4.2794E-03 
              772.5E-03          384.723E-03       -381.42E-03          -3.30331E-03      408.45E-03        -404.681E-03         -3.76873E-03
              775.E-03           385.918E-03       -383.123E-03         -2.79434E-03      409.852E-03       -406.594E-03         -3.25803E-03
              777.5E-03          387.111E-03       -384.826E-03         -2.28536E-03      411.256E-03       -408.508E-03         -2.74732E-03
              780.E-03           388.304E-03       -386.528E-03         -1.7764E-03       412.661E-03       -410.425E-03         -2.23659E-03
              782.5E-03          389.496E-03       -388.228E-03         -1.26744E-03      414.069E-03       -412.343E-03         -1.72584E-03
              785.E-03           390.687E-03       -389.928E-03       -758.483E-06        415.478E-03       -414.263E-03         -1.21507E-03
              787.5E-03          391.876E-03       -391.627E-03       -249.537E-06        416.889E-03       -416.185E-03       -704.282E-06  
              790.E-03           393.065E-03       -393.325E-03        259.401E-06        418.302E-03       -418.109E-03       -193.475E-06  
              792.5E-03          394.253E-03       -395.021E-03        768.332E-06        419.717E-03       -420.034E-03        317.35E-06   
              795.E-03           395.44E-03        -396.717E-03          1.27726E-03      421.134E-03       -421.962E-03        828.195E-06  
              797.5E-03          396.626E-03       -398.412E-03          1.78617E-03      422.553E-03       -423.892E-03          1.33906E-03
              800.E-03           397.81E-03        -400.105E-03          2.29508E-03      423.973E-03       -425.823E-03          1.84995E-03
              802.5E-03          398.994E-03       -401.798E-03          2.80398E-03      425.396E-03       -427.757E-03          2.36085E-03
              805.E-03           400.177E-03       -403.49E-03           3.31287E-03      426.821E-03       -429.693E-03          2.87178E-03
              807.5E-03          401.358E-03       -405.18E-03           3.82175E-03      428.248E-03       -431.631E-03          3.38272E-03
              810.E-03           402.539E-03       -406.87E-03           4.33063E-03      429.677E-03       -433.571E-03          3.89369E-03
              812.5E-03          403.718E-03       -408.558E-03          4.83949E-03      431.108E-03       -435.513E-03          4.40468E-03
              815.E-03           404.897E-03       -410.245E-03          5.34835E-03      432.541E-03       -437.457E-03          4.91569E-03
              817.5E-03          406.074E-03       -411.931E-03          5.8572E-03       433.977E-03       -439.404E-03          5.42673E-03
              820.E-03           407.25E-03        -413.616E-03          6.36603E-03      435.415E-03       -441.353E-03          5.93778E-03
              822.5E-03          408.425E-03       -415.3E-03            6.87486E-03      436.855E-03       -443.304E-03          6.44886E-03
              825.E-03           409.599E-03       -416.983E-03          7.38368E-03      438.297E-03       -445.257E-03          6.95996E-03
              827.5E-03          410.772E-03       -418.664E-03          7.89249E-03      439.742E-03       -447.213E-03          7.47109E-03
              830.E-03           411.943E-03       -420.344E-03          8.40129E-03      441.189E-03       -449.171E-03          7.98223E-03
              832.5E-03          413.113E-03       -422.024E-03          8.91008E-03      442.639E-03       -451.132E-03          8.49341E-03
              835.E-03           414.283E-03       -423.701E-03          9.41885E-03      444.091E-03       -453.095E-03          9.0046E-03 
              837.5E-03          415.451E-03       -425.378E-03          9.92762E-03      445.545E-03       -455.061E-03          9.51583E-03
              840.E-03           416.617E-03       -427.054E-03         10.4364E-03       447.002E-03       -457.029E-03         10.0271E-03 
              842.5E-03          417.783E-03       -428.728E-03         10.9451E-03       448.462E-03       -459.E-03            10.5383E-03 
              845.E-03           418.947E-03       -430.401E-03         11.4538E-03       449.924E-03       -460.974E-03         11.0496E-03 
              847.5E-03          420.11E-03        -432.072E-03         11.9626E-03       451.389E-03       -462.95E-03          11.561E-03  
              850.E-03           421.271E-03       -433.743E-03         12.4713E-03       452.857E-03       -464.929E-03         12.0723E-03 
              852.5E-03          422.432E-03       -435.412E-03         12.98E-03         454.328E-03       -466.911E-03         12.5837E-03 
              855.E-03           423.591E-03       -437.08E-03          13.4887E-03       455.801E-03       -468.896E-03         13.0951E-03 
              857.5E-03          424.749E-03       -438.746E-03         13.9973E-03       457.277E-03       -470.884E-03         13.6065E-03 
              860.E-03           425.905E-03       -440.411E-03         14.506E-03        458.756E-03       -472.874E-03         14.118E-03  
              862.5E-03          427.06E-03        -442.075E-03         15.0146E-03       460.238E-03       -474.868E-03         14.6295E-03 
              865.E-03           428.214E-03       -443.737E-03         15.5233E-03       461.724E-03       -476.865E-03         15.141E-03  
              867.5E-03          429.366E-03       -445.398E-03         16.0319E-03       463.212E-03       -478.864E-03         15.6526E-03 
              870.E-03           430.517E-03       -447.057E-03         16.5405E-03       464.703E-03       -480.867E-03         16.1641E-03 
              872.5E-03          431.666E-03       -448.715E-03         17.0491E-03       466.198E-03       -482.873E-03         16.6758E-03 
              875.E-03           432.814E-03       -450.372E-03         17.5576E-03       467.695E-03       -484.883E-03         17.1874E-03 
              877.5E-03          433.961E-03       -452.027E-03         18.0662E-03       469.196E-03       -486.896E-03         17.6991E-03 
              880.E-03           435.106E-03       -453.681E-03         18.5747E-03       470.701E-03       -488.912E-03         18.2108E-03 
              882.5E-03          436.25E-03        -455.333E-03         19.0833E-03       472.209E-03       -490.931E-03         18.7225E-03 
              885.E-03           437.392E-03       -456.984E-03         19.5918E-03       473.72E-03        -492.954E-03         19.2343E-03 
              887.5E-03          438.533E-03       -458.633E-03         20.1003E-03       475.235E-03       -494.981E-03         19.7461E-03 
              890.E-03           439.672E-03       -460.281E-03         20.6088E-03       476.754E-03       -497.011E-03         20.2579E-03 
              892.5E-03          440.81E-03        -461.927E-03         21.1172E-03       478.276E-03       -499.046E-03         20.7698E-03 
              895.E-03           441.946E-03       -463.571E-03         21.6257E-03       479.802E-03       -501.083E-03         21.2817E-03 
              897.5E-03          443.08E-03        -465.214E-03         22.1341E-03       481.332E-03       -503.125E-03         21.7937E-03 
              900.E-03           444.213E-03       -466.855E-03         22.6425E-03       482.865E-03       -505.171E-03         22.3057E-03 
              902.5E-03          445.344E-03       -468.495E-03         23.1509E-03       484.403E-03       -507.221E-03         22.8177E-03 
              905.E-03           446.474E-03       -470.133E-03         23.6593E-03       485.945E-03       -509.274E-03         23.3298E-03 
              907.5E-03          447.602E-03       -471.769E-03         24.1677E-03       487.491E-03       -511.332E-03         23.8419E-03 
              910.E-03           448.728E-03       -473.404E-03         24.676E-03        489.041E-03       -513.395E-03         24.354E-03  
              912.5E-03          449.853E-03       -475.037E-03         25.1843E-03       490.595E-03       -515.461E-03         24.8662E-03 
              915.E-03           450.975E-03       -476.668E-03         25.6926E-03       492.154E-03       -517.532E-03         25.3784E-03 
              917.5E-03          452.097E-03       -478.298E-03         26.2009E-03       493.717E-03       -519.608E-03         25.8907E-03 
              920.E-03           453.216E-03       -479.925E-03         26.7091E-03       495.285E-03       -521.688E-03         26.403E-03  
              922.5E-03          454.334E-03       -481.551E-03         27.2174E-03       496.858E-03       -523.773E-03         26.9154E-03 
              925.E-03           455.45E-03        -483.175E-03         27.7256E-03       498.435E-03       -525.863E-03         27.4278E-03 
              927.5E-03          456.564E-03       -484.797E-03         28.2338E-03       500.017E-03       -527.958E-03         27.9402E-03 
              930.E-03           457.676E-03       -486.418E-03         28.742E-03        501.604E-03       -530.057E-03         28.4527E-03 
              932.5E-03          458.786E-03       -488.036E-03         29.2501E-03       503.197E-03       -532.162E-03         28.9653E-03 
              935.E-03           459.895E-03       -489.653E-03         29.7582E-03       504.794E-03       -534.272E-03         29.4779E-03 
              937.5E-03          461.001E-03       -491.268E-03         30.2663E-03       506.397E-03       -536.387E-03         29.9905E-03 
              940.E-03           462.106E-03       -492.88E-03          30.7744E-03       508.005E-03       -538.508E-03         30.5032E-03 
              942.5E-03          463.209E-03       -494.491E-03         31.2825E-03       509.619E-03       -540.635E-03         31.016E-03  
              945.E-03           464.309E-03       -496.1E-03           31.7905E-03       511.238E-03       -542.767E-03         31.5288E-03 
              947.5E-03          465.408E-03       -497.707E-03         32.2985E-03       512.863E-03       -544.905E-03         32.0416E-03 
              950.E-03           466.505E-03       -499.311E-03         32.8065E-03       514.495E-03       -547.049E-03         32.5545E-03 
              952.5E-03          467.6E-03         -500.914E-03         33.3144E-03       516.132E-03       -549.199E-03         33.0675E-03 
              955.E-03           468.692E-03       -502.515E-03         33.8224E-03       517.775E-03       -551.356E-03         33.5805E-03 
              957.5E-03          469.783E-03       -504.113E-03         34.3303E-03       519.425E-03       -553.519E-03         34.0936E-03 
              960.E-03           470.871E-03       -505.709E-03         34.8381E-03       521.081E-03       -555.688E-03         34.6068E-03 
              962.5E-03          471.958E-03       -507.304E-03         35.346E-03        522.744E-03       -557.864E-03         35.12E-03   
              965.E-03           473.042E-03       -508.896E-03         35.8538E-03       524.414E-03       -560.047E-03         35.6333E-03 
              967.5E-03          474.124E-03       -510.485E-03         36.3616E-03       526.091E-03       -562.238E-03         36.1466E-03 
              970.E-03           475.203E-03       -512.073E-03         36.8693E-03       527.775E-03       -564.435E-03         36.6601E-03 
              972.5E-03          476.281E-03       -513.658E-03         37.3771E-03       529.466E-03       -566.64E-03          37.1735E-03 
              975.E-03           477.356E-03       -515.241E-03         37.8847E-03       531.165E-03       -568.852E-03         37.6871E-03 
              977.5E-03          478.429E-03       -516.822E-03         38.3924E-03       532.872E-03       -571.073E-03         38.2007E-03 
              980.E-03           479.5E-03         -518.4E-03           38.9E-03          534.586E-03       -573.301E-03         38.7144E-03 
              982.5E-03          480.568E-03       -519.976E-03         39.4076E-03       536.309E-03       -575.537E-03         39.2282E-03 
              985.E-03           481.634E-03       -521.549E-03         39.9152E-03       538.04E-03        -577.783E-03         39.7421E-03 
              987.5E-03          482.697E-03       -523.12E-03          40.4227E-03       539.78E-03        -580.036E-03         40.256E-03  
              990.E-03           483.758E-03       -524.689E-03         40.9302E-03       541.529E-03       -582.299E-03         40.7701E-03 
              992.5E-03          484.817E-03       -526.255E-03         41.4376E-03       543.287E-03       -584.571E-03         41.2842E-03 
              995.E-03           485.873E-03       -527.818E-03         41.945E-03        545.054E-03       -586.852E-03         41.7984E-03 
              997.5E-03          486.926E-03       -529.379E-03         42.4524E-03       546.831E-03       -589.143E-03         42.3127E-03 
                1.               487.977E-03       -530.937E-03         42.9597E-03       548.617E-03       -591.444E-03         42.8271E-03 




