
                  X               ep1-out            ep2-out            ep3-out             ep1-in             ep2-in             ep3-in     

                0.                 0.                 0.                 0.                 0.                 0.                 0.         
                2.5E-03           16.7149E-06       -31.0066E-06        14.2916E-06        54.8576E-06       -98.6355E-06        43.7779E-06 
                5.E-03             1.01871E-03       -1.91977E-03      901.066E-06          1.11597E-03       -2.04362E-03      927.645E-06  
                7.5E-03            2.01591E-03       -3.81447E-03        1.79856E-03        2.15982E-03       -3.98241E-03        1.8226E-03 
               10.E-03             3.01352E-03       -5.71308E-03        2.69956E-03        3.19754E-03       -5.91926E-03        2.72172E-03
               12.5E-03            4.01238E-03       -7.61489E-03        3.60251E-03        4.23135E-03       -7.85461E-03        3.62326E-03
               15.E-03             5.01266E-03       -9.51942E-03        4.50677E-03        5.26238E-03       -9.7888E-03         4.52642E-03
               17.5E-03            6.01429E-03      -11.4263E-03         5.41201E-03        6.29132E-03      -11.7221E-03         5.43079E-03
               20.E-03             7.01715E-03      -13.3352E-03         6.31805E-03        7.31861E-03      -13.6548E-03         6.33616E-03
               22.5E-03            8.0211E-03       -15.2459E-03         7.22479E-03        8.34457E-03      -15.5869E-03         7.24235E-03
               25.E-03             9.02604E-03      -17.1582E-03         8.13214E-03        9.36943E-03      -17.5187E-03         8.14927E-03
               27.5E-03           10.0318E-03       -19.0719E-03         9.04004E-03       10.3934E-03       -19.4502E-03         9.05682E-03
               30.E-03            11.0384E-03       -20.9869E-03         9.94843E-03       11.4166E-03       -21.3815E-03         9.96494E-03
               32.5E-03           12.0457E-03       -22.903E-03         10.8573E-03        12.4391E-03       -23.3127E-03        10.8736E-03 
               35.E-03            13.0536E-03       -24.8202E-03        11.7665E-03        13.4611E-03       -25.2438E-03        11.7827E-03 
               37.5E-03           14.0621E-03       -26.7383E-03        12.6762E-03        14.4827E-03       -27.1748E-03        12.6922E-03 
               40.E-03            15.0711E-03       -28.6573E-03        13.5862E-03        15.5038E-03       -29.1058E-03        13.602E-03  
               42.5E-03           16.0807E-03       -30.5771E-03        14.4965E-03        16.5246E-03       -31.0369E-03        14.5123E-03 
               45.E-03            17.0906E-03       -32.4977E-03        15.4071E-03        17.5451E-03       -32.968E-03         15.4228E-03 
               47.5E-03           18.1009E-03       -34.419E-03         16.318E-03         18.5654E-03       -34.8991E-03        16.3337E-03 
               50.E-03            19.1117E-03       -36.3408E-03        17.2292E-03        19.5855E-03       -36.8303E-03        17.2448E-03 
               52.5E-03           20.1228E-03       -38.2633E-03        18.1406E-03        20.6053E-03       -38.7615E-03        18.1562E-03 
               55.E-03            21.1342E-03       -40.1864E-03        19.0522E-03        21.625E-03        -40.6929E-03        19.0679E-03 
               57.5E-03           22.1459E-03       -42.1099E-03        19.9641E-03        22.6446E-03       -42.6243E-03        19.9797E-03 
               60.E-03            23.1579E-03       -44.034E-03         20.8761E-03        23.6641E-03       -44.5559E-03        20.8918E-03 
               62.5E-03           24.1701E-03       -45.9585E-03        21.7884E-03        24.6834E-03       -46.4875E-03        21.8041E-03 
               65.E-03            25.1827E-03       -47.8835E-03        22.7008E-03        25.7027E-03       -48.4193E-03        22.7165E-03 
               67.5E-03           26.1954E-03       -49.8088E-03        23.6134E-03        26.7219E-03       -50.3511E-03        23.6292E-03 
               70.E-03            27.2084E-03       -51.7346E-03        24.5262E-03        27.7411E-03       -52.2831E-03        24.542E-03  
               72.5E-03           28.2216E-03       -53.6607E-03        25.4391E-03        28.7602E-03       -54.2152E-03        25.455E-03  
               75.E-03            29.2349E-03       -55.5871E-03        26.3522E-03        29.7793E-03       -56.1474E-03        26.3681E-03 
               77.5E-03           30.2485E-03       -57.5139E-03        27.2654E-03        30.7983E-03       -58.0797E-03        27.2813E-03 
               80.E-03            31.2623E-03       -59.441E-03         28.1788E-03        31.8173E-03       -60.0121E-03        28.1947E-03 
               82.5E-03           32.2762E-03       -61.3684E-03        29.0923E-03        32.8363E-03       -61.9446E-03        29.1083E-03 
               85.E-03            33.2902E-03       -63.2961E-03        30.0059E-03        33.8553E-03       -63.8772E-03        30.0219E-03 
               87.5E-03           34.3045E-03       -65.2241E-03        30.9196E-03        34.8743E-03       -65.81E-03          30.9357E-03 
               90.E-03            35.3188E-03       -67.1523E-03        31.8334E-03        35.8932E-03       -67.7429E-03        31.8496E-03 
               92.5E-03           36.0049E-03       -68.0358E-03        32.0309E-03        36.6032E-03       -68.6537E-03        32.0505E-03 
               95.E-03            36.7547E-03       -68.6326E-03        31.8779E-03        37.4735E-03       -69.3507E-03        31.8772E-03 
               97.5E-03           37.7872E-03       -69.2227E-03        31.4355E-03        38.4868E-03       -69.9306E-03        31.4438E-03 
              100.E-03            38.8736E-03       -69.6916E-03        30.818E-03         39.577E-03        -70.4024E-03        30.8254E-03 
              102.5E-03           39.9657E-03       -70.0586E-03        30.0928E-03        40.6686E-03       -70.7699E-03        30.1013E-03 
              105.E-03            41.0466E-03       -70.3485E-03        29.3019E-03        41.75E-03         -71.0606E-03        29.3106E-03 
              107.5E-03           42.114E-03        -70.5831E-03        28.4691E-03        42.8177E-03       -71.2957E-03        28.478E-03  
              110.E-03            43.1691E-03       -70.7784E-03        27.6094E-03        43.8731E-03       -71.4914E-03        27.6183E-03 
              112.5E-03           44.2144E-03       -70.946E-03         26.7316E-03        44.9188E-03       -71.6594E-03        26.7406E-03 
              115.E-03            45.2522E-03       -71.0941E-03        25.8419E-03        45.957E-03        -71.8078E-03        25.8508E-03 
              117.5E-03           46.2846E-03       -71.2284E-03        24.9439E-03        46.9896E-03       -71.9424E-03        24.9528E-03 
              120.E-03            47.3129E-03       -71.3531E-03        24.0402E-03        48.0183E-03       -72.0673E-03        24.049E-03  
              122.5E-03           48.3383E-03       -71.471E-03         23.1326E-03        49.044E-03        -72.1854E-03        23.1413E-03 
              125.E-03            49.3617E-03       -71.584E-03         22.2223E-03        50.0677E-03       -72.2986E-03        22.2309E-03 
              127.5E-03           50.3836E-03       -71.6937E-03        21.3101E-03        51.0899E-03       -72.4085E-03        21.3186E-03 
              130.E-03            51.4045E-03       -71.801E-03         20.3965E-03        52.1111E-03       -72.516E-03         20.4048E-03 
              132.5E-03           52.4247E-03       -71.9066E-03        19.4819E-03        53.1316E-03       -72.6218E-03        19.4902E-03 
              135.E-03            53.4444E-03       -72.011E-03         18.5666E-03        54.1516E-03       -72.7263E-03        18.5748E-03 
              137.5E-03           54.4637E-03       -72.1146E-03        17.6509E-03        55.1712E-03       -72.8301E-03        17.6589E-03 
              140.E-03            55.4828E-03       -72.2176E-03        16.7348E-03        56.1906E-03       -72.9332E-03        16.7427E-03 
              142.5E-03           56.5017E-03       -72.3201E-03        15.8184E-03        57.2098E-03       -73.036E-03         15.8262E-03 
              145.E-03            57.5205E-03       -72.4224E-03        14.9019E-03        58.2289E-03       -73.1384E-03        14.9095E-03 
              147.5E-03           58.5393E-03       -72.5244E-03        13.9852E-03        59.2479E-03       -73.2406E-03        13.9927E-03 
              150.E-03            59.558E-03        -72.6264E-03        13.0684E-03        60.2669E-03       -73.3427E-03        13.0758E-03 
              152.5E-03           60.5767E-03       -72.7282E-03        12.1515E-03        61.2859E-03       -73.4446E-03        12.1587E-03 
              155.E-03            61.5953E-03       -72.8299E-03        11.2346E-03        62.3049E-03       -73.5465E-03        11.2417E-03 
              157.5E-03           62.614E-03        -72.9316E-03        10.3176E-03        63.3238E-03       -73.6484E-03        10.3245E-03 
              160.E-03            63.6327E-03       -73.0333E-03         9.40053E-03       64.3428E-03       -73.7502E-03         9.40737E-03
              162.5E-03           64.6514E-03       -73.1349E-03         8.48346E-03       65.3618E-03       -73.852E-03          8.49016E-03
              165.E-03            65.6702E-03       -73.2365E-03         7.56636E-03       66.3808E-03       -73.9537E-03         7.57292E-03
              167.5E-03           66.6889E-03       -73.3381E-03         6.64923E-03       67.3998E-03       -74.0555E-03         6.65565E-03
              170.E-03            67.7076E-03       -73.4397E-03         5.73207E-03       68.4189E-03       -74.1572E-03         5.73836E-03
              172.5E-03           68.7264E-03       -73.5413E-03         4.81489E-03       69.438E-03        -74.259E-03          4.82104E-03
              175.E-03            69.7452E-03       -73.6429E-03         3.89769E-03       70.457E-03        -74.3607E-03         3.9037E-03 
              177.5E-03           70.764E-03        -73.7445E-03         2.98047E-03       71.4761E-03       -74.4625E-03         2.98634E-03
              180.E-03            71.7829E-03       -73.8461E-03         2.06322E-03       72.4953E-03       -74.5642E-03         2.06895E-03
              182.5E-03           72.8017E-03       -73.9477E-03         1.14596E-03       73.5144E-03       -74.666E-03          1.15155E-03
              185.E-03            73.8206E-03       -74.0493E-03       228.678E-06         74.5336E-03       -74.7677E-03       234.129E-06  
              187.5E-03           74.8395E-03       -74.1509E-03      -688.621E-06         75.5528E-03       -74.8694E-03      -683.312E-06  
              190.E-03            75.8584E-03       -74.2525E-03        -1.60594E-03       76.572E-03        -74.9712E-03        -1.60077E-03
              192.5E-03           76.8774E-03       -74.3541E-03        -2.52327E-03       77.5912E-03       -75.0729E-03        -2.51825E-03
              195.E-03            77.8963E-03       -74.4557E-03        -3.44063E-03       78.6104E-03       -75.1747E-03        -3.43574E-03
              197.5E-03           78.9153E-03       -74.5573E-03        -4.35799E-03       79.6297E-03       -75.2765E-03        -4.35326E-03
              200.E-03            79.9343E-03       -74.659E-03         -5.27538E-03       80.649E-03        -75.3782E-03        -5.27079E-03
              202.5E-03           80.9534E-03       -74.7606E-03        -6.19278E-03       81.6683E-03       -75.48E-03          -6.18833E-03
              205.E-03            81.9724E-03       -74.8622E-03        -7.1102E-03        82.6876E-03       -75.5817E-03        -7.10589E-03
              207.5E-03           82.9914E-03       -74.9638E-03        -8.02763E-03       83.707E-03        -75.6835E-03        -8.02347E-03
              210.E-03            84.0105E-03       -75.0655E-03        -8.94508E-03       84.7263E-03       -75.7853E-03        -8.94107E-03
              212.5E-03           85.0296E-03       -75.1671E-03        -9.86254E-03       85.7457E-03       -75.887E-03         -9.85868E-03
              215.E-03            86.0487E-03       -75.2687E-03       -10.78E-03          86.7651E-03       -75.9888E-03       -10.7763E-03 
              217.5E-03           87.0679E-03       -75.3703E-03       -11.6975E-03        87.7845E-03       -76.0906E-03       -11.6939E-03 
              220.E-03            88.087E-03        -75.472E-03        -12.615E-03         88.804E-03        -76.1924E-03       -12.6116E-03 
              222.5E-03           89.1062E-03       -75.5736E-03       -13.5325E-03        89.8234E-03       -76.2942E-03       -13.5293E-03 
              225.E-03            90.1254E-03       -75.6753E-03       -14.4501E-03        90.8429E-03       -76.3959E-03       -14.447E-03  
              227.5E-03           91.1446E-03       -75.7769E-03       -15.3676E-03        91.8624E-03       -76.4977E-03       -15.3647E-03 
              230.E-03            92.1638E-03       -75.8786E-03       -16.2852E-03        92.8819E-03       -76.5995E-03       -16.2824E-03 
              232.5E-03           93.183E-03        -75.9802E-03       -17.2028E-03        93.9014E-03       -76.7013E-03       -17.2001E-03 
              235.E-03            94.2022E-03       -76.0819E-03       -18.1204E-03        94.921E-03        -76.8031E-03       -18.1178E-03 
              237.5E-03           95.2215E-03       -76.1835E-03       -19.038E-03         95.9405E-03       -76.9049E-03       -19.0356E-03 
              240.E-03            96.2408E-03       -76.2852E-03       -19.9556E-03        96.9601E-03       -77.0067E-03       -19.9534E-03 
              242.5E-03           97.2601E-03       -76.3869E-03       -20.8732E-03        97.9797E-03       -77.1085E-03       -20.8712E-03 
              245.E-03            98.2794E-03       -76.4885E-03       -21.7909E-03        98.9993E-03       -77.2103E-03       -21.789E-03  
              247.5E-03           99.2987E-03       -76.5902E-03       -22.7085E-03       100.019E-03        -77.3121E-03       -22.7068E-03 
              250.E-03           100.318E-03        -76.6919E-03       -23.6262E-03       101.039E-03        -77.4139E-03       -23.6246E-03 
              252.5E-03          101.337E-03        -76.7935E-03       -24.5439E-03       102.058E-03        -77.5157E-03       -24.5424E-03 
              255.E-03           102.357E-03        -76.8952E-03       -25.4616E-03       103.078E-03        -77.6176E-03       -25.4603E-03 
              257.5E-03          103.376E-03        -76.9969E-03       -26.3793E-03       104.098E-03        -77.7194E-03       -26.3781E-03 
              260.E-03           104.396E-03        -77.0986E-03       -27.297E-03        105.117E-03        -77.8212E-03       -27.296E-03  
              262.5E-03          105.415E-03        -77.2002E-03       -28.2147E-03       106.137E-03        -77.923E-03        -28.2139E-03 
              265.E-03           106.434E-03        -77.3019E-03       -29.1324E-03       107.157E-03        -78.0248E-03       -29.1318E-03 
              267.5E-03          107.454E-03        -77.4036E-03       -30.0502E-03       108.176E-03        -78.1267E-03       -30.0497E-03 
              270.E-03           108.473E-03        -77.5053E-03       -30.9679E-03       109.196E-03        -78.2285E-03       -30.9676E-03 
              272.5E-03          109.493E-03        -77.607E-03        -31.8857E-03       110.216E-03        -78.3303E-03       -31.8855E-03 
              275.E-03           110.478E-03        -78.0136E-03       -32.4644E-03       111.204E-03        -78.7385E-03       -32.4654E-03 
              277.5E-03          111.725E-03        -78.8215E-03       -32.9035E-03       112.463E-03        -79.5556E-03       -32.9074E-03 
              280.E-03           113.081E-03        -79.9232E-03       -33.1582E-03       113.888E-03        -80.7173E-03       -33.1704E-03 
              282.5E-03          114.321E-03        -81.0671E-03       -33.2539E-03       115.595E-03        -82.3032E-03       -33.2922E-03 
              285.E-03           115.537E-03        -82.279E-03        -33.2575E-03       117.283E-03        -83.9841E-03       -33.2987E-03 
              287.5E-03          116.929E-03        -83.7272E-03       -33.2015E-03       118.666E-03        -85.4228E-03       -33.2435E-03 
              290.E-03           118.305E-03        -85.194E-03        -33.111E-03        120.062E-03        -86.9093E-03       -33.153E-03  
              292.5E-03          119.675E-03        -86.6741E-03       -33.0008E-03       121.443E-03        -88.3997E-03       -33.0432E-03 
              295.E-03           121.04E-03         -88.161E-03        -32.8794E-03       122.82E-03         -89.8977E-03       -32.9221E-03 
              297.5E-03          122.403E-03        -89.6517E-03       -32.7518E-03       124.195E-03        -91.4002E-03       -32.7948E-03 
              300.E-03           123.765E-03        -91.1442E-03       -32.6206E-03       125.569E-03        -92.9053E-03       -32.664E-03  
              302.5E-03          125.125E-03        -92.6377E-03       -32.4875E-03       126.943E-03        -94.4122E-03       -32.5313E-03 
              305.E-03           126.485E-03        -94.1316E-03       -32.3532E-03       128.318E-03        -95.9203E-03       -32.3974E-03 
              307.5E-03          127.844E-03        -95.6255E-03       -32.2184E-03       129.692E-03        -97.4294E-03       -32.2629E-03 
              310.E-03           129.202E-03        -97.1194E-03       -32.0831E-03       131.067E-03        -98.9394E-03       -32.128E-03  
              312.5E-03          130.561E-03        -98.6131E-03       -31.9477E-03       132.443E-03       -100.45E-03         -31.993E-03  
              315.E-03           131.919E-03       -100.107E-03        -31.8121E-03       133.819E-03       -101.961E-03        -31.8578E-03 
              317.5E-03          133.276E-03       -101.6E-03          -31.6764E-03       135.196E-03       -103.473E-03        -31.7226E-03 
              320.E-03           134.633E-03       -103.093E-03        -31.5407E-03       136.573E-03       -104.986E-03        -31.5874E-03 
              322.5E-03          135.99E-03        -104.585E-03        -31.4049E-03       137.951E-03       -106.499E-03        -31.4521E-03 
              325.E-03           137.347E-03       -106.078E-03        -31.2691E-03       139.329E-03       -108.012E-03        -31.3169E-03 
              327.5E-03          138.703E-03       -107.57E-03         -31.1333E-03       140.708E-03       -109.526E-03        -31.1816E-03 
              330.E-03           140.059E-03       -109.062E-03        -30.9975E-03       142.088E-03       -111.041E-03        -31.0464E-03 
              332.5E-03          141.415E-03       -110.553E-03        -30.8616E-03       143.468E-03       -112.557E-03        -30.9111E-03 
              335.E-03           142.77E-03        -112.044E-03        -30.7258E-03       144.848E-03       -114.073E-03        -30.7759E-03 
              337.5E-03          144.125E-03       -113.535E-03        -30.5899E-03       146.23E-03        -115.589E-03        -30.6406E-03 
              340.E-03           145.48E-03        -115.026E-03        -30.454E-03        147.612E-03       -117.106E-03        -30.5054E-03 
              342.5E-03          146.834E-03       -116.516E-03        -30.3181E-03       148.994E-03       -118.624E-03        -30.3701E-03 
              345.E-03           148.188E-03       -118.006E-03        -30.1821E-03       150.377E-03       -120.142E-03        -30.2349E-03 
              347.5E-03          149.542E-03       -119.495E-03        -30.0462E-03       151.761E-03       -121.661E-03        -30.0997E-03 
              350.E-03           150.895E-03       -120.985E-03        -29.9102E-03       153.145E-03       -123.181E-03        -29.9645E-03 
              352.5E-03          152.248E-03       -122.474E-03        -29.7742E-03       154.53E-03        -124.701E-03        -29.8293E-03 
              355.E-03           153.6E-03         -123.962E-03        -29.6382E-03       155.916E-03       -126.222E-03        -29.6941E-03 
              357.5E-03          154.952E-03       -125.45E-03         -29.5022E-03       157.302E-03       -127.743E-03        -29.5589E-03 
              360.E-03           156.304E-03       -126.938E-03        -29.3662E-03       158.689E-03       -129.265E-03        -29.4237E-03 
              362.5E-03          157.655E-03       -128.425E-03        -29.2301E-03       160.077E-03       -130.788E-03        -29.2885E-03 
              365.E-03           159.006E-03       -129.912E-03        -29.094E-03        161.465E-03       -132.312E-03        -29.1534E-03 
              367.5E-03          160.357E-03       -131.399E-03        -28.958E-03        162.854E-03       -133.836E-03        -29.0182E-03 
              370.E-03           161.707E-03       -132.885E-03        -28.8218E-03       164.244E-03       -135.361E-03        -28.8831E-03 
              372.5E-03          163.056E-03       -134.37E-03         -28.6857E-03       165.635E-03       -136.887E-03        -28.748E-03  
              375.E-03           164.405E-03       -135.855E-03        -28.5496E-03       167.026E-03       -138.413E-03        -28.6129E-03 
              377.5E-03          165.754E-03       -137.34E-03         -28.4134E-03       168.418E-03       -139.941E-03        -28.4778E-03 
              380.E-03           167.102E-03       -138.824E-03        -28.2772E-03       169.811E-03       -141.469E-03        -28.3427E-03 
              382.5E-03          168.449E-03       -140.308E-03        -28.141E-03        171.205E-03       -142.998E-03        -28.2076E-03 
              385.E-03           169.796E-03       -141.791E-03        -28.0048E-03       172.6E-03         -144.528E-03        -28.0725E-03 
              387.5E-03          171.142E-03       -143.274E-03        -27.8686E-03       173.996E-03       -146.059E-03        -27.9375E-03 
              390.E-03           172.488E-03       -144.756E-03        -27.7323E-03       175.393E-03       -147.59E-03         -27.8025E-03 
              392.5E-03          173.833E-03       -146.237E-03        -27.596E-03        176.79E-03        -149.123E-03        -27.6675E-03 
              395.E-03           175.178E-03       -147.718E-03        -27.4597E-03       178.189E-03       -150.656E-03        -27.5325E-03 
              397.5E-03          176.522E-03       -149.198E-03        -27.3234E-03       179.589E-03       -152.191E-03        -27.3975E-03 
              400.E-03           177.865E-03       -150.678E-03        -27.187E-03        180.989E-03       -153.727E-03        -27.2625E-03 
              402.5E-03          179.207E-03       -152.157E-03        -27.0507E-03       182.391E-03       -155.264E-03        -27.1276E-03 
              405.E-03           180.549E-03       -153.635E-03        -26.9143E-03       183.794E-03       -156.801E-03        -26.9927E-03 
              407.5E-03          181.89E-03        -155.113E-03        -26.7778E-03       185.198E-03       -158.34E-03         -26.8578E-03 
              410.E-03           183.231E-03       -156.589E-03        -26.6414E-03       186.604E-03       -159.881E-03        -26.7229E-03 
              412.5E-03          184.57E-03        -158.065E-03        -26.5049E-03       188.01E-03        -161.422E-03        -26.5881E-03 
              415.E-03           185.909E-03       -159.54E-03         -26.3684E-03       189.418E-03       -162.965E-03        -26.4533E-03 
              417.5E-03          187.247E-03       -161.015E-03        -26.2319E-03       190.827E-03       -164.509E-03        -26.3185E-03 
              420.E-03           188.584E-03       -162.488E-03        -26.0954E-03       192.238E-03       -166.054E-03        -26.1838E-03 
              422.5E-03          189.92E-03        -163.961E-03        -25.9588E-03       193.65E-03        -167.601E-03        -26.049E-03  
              425.E-03           191.255E-03       -165.433E-03        -25.8222E-03       195.064E-03       -169.149E-03        -25.9143E-03 
              427.5E-03          192.589E-03       -166.903E-03        -25.6855E-03       196.479E-03       -170.699E-03        -25.7797E-03 
              430.E-03           193.922E-03       -168.373E-03        -25.5489E-03       197.895E-03       -172.25E-03         -25.645E-03  
              432.5E-03          195.254E-03       -169.842E-03        -25.4122E-03       199.314E-03       -173.803E-03        -25.5104E-03 
              435.E-03           196.585E-03       -171.309E-03        -25.2755E-03       200.734E-03       -175.358E-03        -25.3759E-03 
              437.5E-03          197.914E-03       -172.776E-03        -25.1387E-03       202.156E-03       -176.914E-03        -25.2414E-03 
              440.E-03           199.243E-03       -174.241E-03        -25.0019E-03       203.58E-03        -178.473E-03        -25.1069E-03 
              442.5E-03          200.57E-03        -175.705E-03        -24.8651E-03       205.005E-03       -180.033E-03        -24.9725E-03 
              445.E-03           201.896E-03       -177.168E-03        -24.7282E-03       206.433E-03       -181.595E-03        -24.8381E-03 
              447.5E-03          203.221E-03       -178.63E-03         -24.5913E-03       207.863E-03       -183.159E-03        -24.7037E-03 
              450.E-03           204.544E-03       -180.09E-03         -24.4543E-03       209.295E-03       -184.725E-03        -24.5694E-03 
              452.5E-03          205.866E-03       -181.549E-03        -24.3173E-03       210.729E-03       -186.294E-03        -24.4352E-03 
              455.E-03           206.946E-03       -182.741E-03        -24.2052E-03       211.904E-03       -187.579E-03        -24.3254E-03 
              457.5E-03          207.951E-03       -183.591E-03        -24.3603E-03       213.677E-03       -189.101E-03        -24.5754E-03 
              460.E-03           209.179E-03       -184.491E-03        -24.6881E-03       214.836E-03       -189.957E-03        -24.879E-03  
              462.5E-03          210.405E-03       -185.3E-03          -25.105E-03        216.066E-03       -190.773E-03        -25.2926E-03 
              465.E-03           211.641E-03       -186.056E-03        -25.5851E-03       217.306E-03       -191.535E-03        -25.7706E-03 
              467.5E-03          212.877E-03       -186.77E-03         -26.1065E-03       218.548E-03       -192.257E-03        -26.2917E-03 
              470.E-03           214.112E-03       -187.455E-03        -26.6561E-03       219.79E-03        -192.948E-03        -26.8414E-03 
              472.5E-03          215.344E-03       -188.12E-03         -27.2249E-03       221.029E-03       -193.619E-03        -27.4107E-03 
              475.E-03           216.576E-03       -188.768E-03        -27.807E-03        222.267E-03       -194.274E-03        -27.9935E-03 
              477.5E-03          217.805E-03       -189.407E-03        -28.3985E-03       223.504E-03       -194.918E-03        -28.5857E-03 
              480.E-03           219.033E-03       -190.037E-03        -28.9964E-03       224.739E-03       -195.555E-03        -29.1846E-03 
              482.5E-03          220.261E-03       -190.662E-03        -29.599E-03        225.974E-03       -196.186E-03        -29.7881E-03 
              485.E-03           221.487E-03       -191.283E-03        -30.2048E-03       227.208E-03       -196.813E-03        -30.395E-03  
              487.5E-03          222.714E-03       -191.901E-03        -30.8129E-03       228.441E-03       -197.437E-03        -31.0043E-03 
              490.E-03           223.939E-03       -192.517E-03        -31.4227E-03       229.674E-03       -198.059E-03        -31.6152E-03 
              492.5E-03          225.165E-03       -193.131E-03        -32.0337E-03       230.907E-03       -198.68E-03         -32.2273E-03 
              495.E-03           226.39E-03        -193.745E-03        -32.6455E-03       232.14E-03        -199.3E-03          -32.8403E-03 
              497.5E-03          227.615E-03       -194.357E-03        -33.2578E-03       233.373E-03       -199.919E-03        -33.4539E-03 
              500.E-03           228.84E-03        -194.969E-03        -33.8706E-03       234.605E-03       -200.537E-03        -34.068E-03  
              502.5E-03          230.065E-03       -195.581E-03        -34.4837E-03       235.838E-03       -201.156E-03        -34.6824E-03 
              505.E-03           231.29E-03        -196.193E-03        -35.0971E-03       237.071E-03       -201.774E-03        -35.297E-03  
              507.5E-03          232.514E-03       -196.804E-03        -35.7105E-03       238.304E-03       -202.392E-03        -35.9118E-03 
              510.E-03           233.739E-03       -197.415E-03        -36.3241E-03       239.537E-03       -203.01E-03         -36.5267E-03 
              512.5E-03          234.963E-03       -198.026E-03        -36.9377E-03       240.77E-03        -203.628E-03        -37.1417E-03 
              515.E-03           236.188E-03       -198.637E-03        -37.5514E-03       242.003E-03       -204.246E-03        -37.7568E-03 
              517.5E-03          237.412E-03       -199.247E-03        -38.1652E-03       243.236E-03       -204.864E-03        -38.3719E-03 
              520.E-03           238.637E-03       -199.858E-03        -38.7789E-03       244.469E-03       -205.482E-03        -38.9871E-03 
              522.5E-03          239.861E-03       -200.468E-03        -39.3927E-03       245.702E-03       -206.1E-03          -39.6023E-03 
              525.E-03           241.086E-03       -201.079E-03        -40.0065E-03       246.935E-03       -206.718E-03        -40.2176E-03 
              527.5E-03          242.31E-03        -201.69E-03         -40.6203E-03       248.169E-03       -207.336E-03        -40.8329E-03 
              530.E-03           243.534E-03       -202.3E-03          -41.2341E-03       249.402E-03       -207.954E-03        -41.4482E-03 
              532.5E-03          244.758E-03       -202.91E-03         -41.8479E-03       250.636E-03       -208.572E-03        -42.0635E-03 
              535.E-03           245.983E-03       -203.521E-03        -42.4617E-03       251.869E-03       -209.19E-03         -42.6788E-03 
              537.5E-03          247.207E-03       -204.131E-03        -43.0755E-03       253.103E-03       -209.809E-03        -43.2941E-03 
              540.E-03           248.431E-03       -204.742E-03        -43.6893E-03       254.337E-03       -210.427E-03        -43.9095E-03 
              542.5E-03          249.655E-03       -205.352E-03        -44.303E-03        255.57E-03        -211.046E-03        -44.5249E-03 
              545.E-03           250.879E-03       -205.962E-03        -44.9168E-03       256.804E-03       -211.664E-03        -45.1403E-03 
              547.5E-03          252.103E-03       -206.572E-03        -45.5306E-03       258.038E-03       -212.283E-03        -45.7557E-03 
              550.E-03           253.327E-03       -207.183E-03        -46.1444E-03       259.272E-03       -212.901E-03        -46.3711E-03 
              552.5E-03          254.551E-03       -207.793E-03        -46.7581E-03       260.507E-03       -213.52E-03         -46.9866E-03 
              555.E-03           255.775E-03       -208.403E-03        -47.3719E-03       261.741E-03       -214.139E-03        -47.602E-03  
              557.5E-03          256.999E-03       -209.013E-03        -47.9856E-03       262.975E-03       -214.758E-03        -48.2175E-03 
              560.E-03           258.223E-03       -209.623E-03        -48.5994E-03       264.21E-03        -215.377E-03        -48.833E-03  
              562.5E-03          259.446E-03       -210.233E-03        -49.2131E-03       265.444E-03       -215.996E-03        -49.4485E-03 
              565.E-03           260.67E-03        -210.843E-03        -49.8269E-03       266.679E-03       -216.615E-03        -50.064E-03  
              567.5E-03          261.894E-03       -211.453E-03        -50.4406E-03       267.913E-03       -217.234E-03        -50.6795E-03 
              570.E-03           263.118E-03       -212.063E-03        -51.0543E-03       269.148E-03       -217.853E-03        -51.295E-03  
              572.5E-03          264.341E-03       -212.673E-03        -51.668E-03        270.383E-03       -218.472E-03        -51.9106E-03 
              575.E-03           265.565E-03       -213.283E-03        -52.2817E-03       271.618E-03       -219.092E-03        -52.5262E-03 
              577.5E-03          266.789E-03       -213.893E-03        -52.8955E-03       272.853E-03       -219.711E-03        -53.1418E-03 
              580.E-03           268.012E-03       -214.503E-03        -53.5091E-03       274.088E-03       -220.331E-03        -53.7574E-03 
              582.5E-03          269.236E-03       -215.113E-03        -54.1228E-03       275.323E-03       -220.95E-03         -54.373E-03  
              585.E-03           270.459E-03       -215.723E-03        -54.7365E-03       276.558E-03       -221.57E-03         -54.9886E-03 
              587.5E-03          271.682E-03       -216.332E-03        -55.3502E-03       277.794E-03       -222.189E-03        -55.6043E-03 
              590.E-03           272.906E-03       -216.942E-03        -55.9639E-03       279.029E-03       -222.809E-03        -56.22E-03   
              592.5E-03          274.129E-03       -217.552E-03        -56.5775E-03       280.265E-03       -223.429E-03        -56.8356E-03 
              595.E-03           275.353E-03       -218.161E-03        -57.1912E-03       281.5E-03         -224.049E-03        -57.4513E-03 
              597.5E-03          276.576E-03       -218.771E-03        -57.8048E-03       282.736E-03       -224.669E-03        -58.0671E-03 
              600.E-03           277.799E-03       -219.381E-03        -58.4185E-03       283.972E-03       -225.289E-03        -58.6828E-03 
              602.5E-03          279.022E-03       -219.99E-03         -59.0321E-03       285.207E-03       -225.909E-03        -59.2985E-03 
              605.E-03           280.245E-03       -220.6E-03          -59.6457E-03       286.443E-03       -226.529E-03        -59.9143E-03 
              607.5E-03          281.468E-03       -221.209E-03        -60.2594E-03       287.679E-03       -227.149E-03        -60.5301E-03 
              610.E-03           282.692E-03       -221.819E-03        -60.873E-03        288.915E-03       -227.77E-03         -61.1459E-03 
              612.5E-03          283.915E-03       -222.428E-03        -61.4866E-03       290.152E-03       -228.39E-03         -61.7617E-03 
              615.E-03           285.138E-03       -223.037E-03        -62.1002E-03       291.388E-03       -229.01E-03         -62.3775E-03 
              617.5E-03          286.361E-03       -223.647E-03        -62.7138E-03       292.624E-03       -229.631E-03        -62.9934E-03 
              620.E-03           287.583E-03       -224.256E-03        -63.3273E-03       293.861E-03       -230.251E-03        -63.6093E-03 
              622.5E-03          288.806E-03       -224.865E-03        -63.9409E-03       295.097E-03       -230.872E-03        -64.2251E-03 
              625.E-03           290.029E-03       -225.475E-03        -64.5545E-03       296.334E-03       -231.493E-03        -64.841E-03  
              627.5E-03          291.252E-03       -226.084E-03        -65.168E-03        297.571E-03       -232.114E-03        -65.457E-03  
              630.E-03           292.475E-03       -226.693E-03        -65.7816E-03       298.807E-03       -232.734E-03        -66.0729E-03 
              632.5E-03          293.697E-03       -227.302E-03        -66.3951E-03       300.044E-03       -233.355E-03        -66.6889E-03 
              635.E-03           294.92E-03        -227.911E-03        -67.0087E-03       301.281E-03       -233.976E-03        -67.3048E-03 
              637.5E-03          296.162E-03       -228.617E-03        -67.5451E-03       302.557E-03       -234.707E-03        -67.8496E-03 
              640.E-03           297.458E-03       -229.527E-03        -67.9305E-03       303.987E-03       -235.725E-03        -68.2617E-03 
              642.5E-03          298.665E-03       -230.489E-03        -68.1763E-03       305.712E-03       -237.134E-03        -68.5786E-03 
              645.E-03           298.957E-03       -230.736E-03        -68.2218E-03       310.461E-03       -241.427E-03        -69.0335E-03 
              647.5E-03          298.957E-03       -230.736E-03        -68.2218E-03       317.745E-03       -248.253E-03        -69.4917E-03 
              650.E-03           298.957E-03       -230.736E-03        -68.2218E-03       325.277E-03       -255.439E-03        -69.8386E-03 
              652.5E-03          298.957E-03       -230.736E-03        -68.2218E-03       332.93E-03        -262.77E-03         -70.1598E-03 
              655.E-03           298.957E-03       -230.736E-03        -68.2218E-03       340.595E-03       -270.124E-03        -70.4715E-03 
              657.5E-03          298.957E-03       -230.736E-03        -68.2218E-03       348.442E-03       -277.657E-03        -70.7844E-03 
              660.E-03           298.957E-03       -230.736E-03        -68.2218E-03       356.386E-03       -285.288E-03        -71.0983E-03 
              662.5E-03          298.957E-03       -230.736E-03        -68.2218E-03       364.39E-03        -292.977E-03        -71.4132E-03 
              665.E-03           299.012E-03       -230.797E-03        -68.2141E-03       372.312E-03       -300.59E-03         -71.7219E-03 
              667.5E-03          299.248E-03       -231.071E-03        -68.1768E-03       379.912E-03       -307.899E-03        -72.0127E-03 
              670.E-03           299.526E-03       -231.396E-03        -68.1304E-03       387.511E-03       -315.21E-03         -72.3012E-03 
              672.5E-03          299.772E-03       -231.685E-03        -68.0867E-03       395.43E-03        -322.827E-03        -72.6025E-03 
              675.E-03           300.006E-03       -231.963E-03        -68.0423E-03       403.604E-03       -330.689E-03        -72.9149E-03 
              677.5E-03          300.229E-03       -232.232E-03        -67.9971E-03       412.034E-03       -338.795E-03        -73.2387E-03 
              680.E-03           300.443E-03       -232.491E-03        -67.9513E-03       420.722E-03       -347.148E-03        -73.5739E-03 
              682.5E-03          300.647E-03       -232.742E-03        -67.9048E-03       429.669E-03       -355.749E-03        -73.9209E-03 
              685.E-03           300.843E-03       -232.985E-03        -67.8577E-03       438.881E-03       -364.601E-03        -74.2799E-03 
              687.5E-03          301.031E-03       -233.221E-03        -67.81E-03         448.358E-03       -373.707E-03        -74.651E-03  
              690.E-03           301.211E-03       -233.449E-03        -67.7618E-03       458.105E-03       -383.071E-03        -75.0344E-03 
              692.5E-03          301.384E-03       -233.671E-03        -67.7131E-03       468.126E-03       -392.695E-03        -75.4304E-03 
              695.E-03           301.551E-03       -233.887E-03        -67.664E-03        478.423E-03       -402.584E-03        -75.8389E-03 
              697.5E-03          301.71E-03        -234.096E-03        -67.6143E-03       489.002E-03       -412.742E-03        -76.2601E-03 
              700.E-03           301.864E-03       -234.3E-03          -67.5642E-03       499.867E-03       -423.173E-03        -76.6943E-03 
              702.5E-03          302.012E-03       -234.498E-03        -67.5137E-03       511.024E-03       -433.883E-03        -77.1414E-03 
              705.E-03           302.154E-03       -234.691E-03        -67.4628E-03       522.478E-03       -444.877E-03        -77.6017E-03 
              707.5E-03          302.29E-03        -234.879E-03        -67.4115E-03       534.236E-03       -456.161E-03        -78.0752E-03 
              710.E-03           302.422E-03       -235.062E-03        -67.3598E-03       546.302E-03       -467.741E-03        -78.5619E-03 
              712.5E-03          302.549E-03       -235.241E-03        -67.3078E-03       558.685E-03       -479.623E-03        -79.062E-03  
              715.E-03           302.671E-03       -235.416E-03        -67.2553E-03       571.389E-03       -491.814E-03        -79.5755E-03 
              717.5E-03          302.789E-03       -235.586E-03        -67.2025E-03       584.421E-03       -504.319E-03        -80.1026E-03 
              720.E-03           302.902E-03       -235.753E-03        -67.1494E-03       597.786E-03       -517.142E-03        -80.6432E-03 
              722.5E-03          303.011E-03       -235.915E-03        -67.0959E-03       611.486E-03       -530.289E-03        -81.1976E-03 
              725.E-03           303.116E-03       -236.074E-03        -67.042E-03        625.526E-03       -543.76E-03         -81.7658E-03 
              727.5E-03          303.218E-03       -236.23E-03         -66.9878E-03       639.904E-03       -557.556E-03        -82.348E-03  
              730.E-03           303.316E-03       -236.382E-03        -66.9333E-03       654.618E-03       -571.673E-03        -82.9443E-03 
              732.5E-03          303.41E-03        -236.531E-03        -66.8784E-03       669.662E-03       -586.107E-03        -83.5549E-03 
              735.E-03           303.5E-03         -236.677E-03        -66.8232E-03       685.025E-03       -600.846E-03        -84.1799E-03 
              737.5E-03          303.588E-03       -236.82E-03         -66.7677E-03       700.692E-03       -615.873E-03        -84.8194E-03 
              740.E-03           303.672E-03       -236.96E-03         -66.7118E-03       716.639E-03       -631.166E-03        -85.4732E-03 
              742.5E-03          303.753E-03       -237.098E-03        -66.6555E-03       732.842E-03       -646.7E-03          -86.1414E-03 
              745.E-03           303.832E-03       -237.233E-03        -66.5988E-03       749.27E-03        -662.447E-03        -86.8236E-03 
              747.5E-03          303.907E-03       -237.365E-03        -66.5417E-03       765.898E-03       -678.378E-03        -87.5193E-03 
              750.E-03           303.98E-03        -237.495E-03        -66.4842E-03       782.698E-03       -694.47E-03         -88.228E-03  
              752.5E-03          304.05E-03        -237.624E-03        -66.4263E-03       799.644E-03       -710.695E-03        -88.949E-03  
              755.E-03           304.117E-03       -237.75E-03         -66.3679E-03       816.707E-03       -727.026E-03        -89.681E-03  
              757.5E-03          304.183E-03       -237.874E-03        -66.309E-03        833.852E-03       -743.429E-03        -90.423E-03  
              760.E-03           304.245E-03       -237.996E-03        -66.2495E-03       851.043E-03       -759.869E-03        -91.1733E-03 
              762.5E-03          304.307E-03       -238.118E-03        -66.189E-03        868.201E-03       -776.272E-03        -91.9287E-03 
              765.E-03           304.365E-03       -238.237E-03        -66.1284E-03       885.363E-03       -792.673E-03        -92.6902E-03 
              767.5E-03          304.422E-03       -238.355E-03        -66.0672E-03       902.497E-03       -809.042E-03        -93.4555E-03 
              770.E-03           304.477E-03       -238.471E-03        -66.0053E-03       919.602E-03       -825.378E-03        -94.2238E-03 
              772.5E-03          304.529E-03       -238.586E-03        -65.9428E-03       936.676E-03       -841.682E-03        -94.9944E-03 
              775.E-03           304.58E-03        -238.7E-03          -65.8796E-03       953.709E-03       -857.943E-03        -95.766E-03  
              777.5E-03          304.629E-03       -238.813E-03        -65.8158E-03       970.71E-03        -874.172E-03        -96.5383E-03 
              780.E-03           304.676E-03       -238.925E-03        -65.7512E-03       987.667E-03       -890.357E-03        -97.3098E-03 
              782.5E-03          304.722E-03       -239.036E-03        -65.6859E-03         1.00456         -906.484E-03        -98.0791E-03 
              785.E-03           304.766E-03       -239.146E-03        -65.6198E-03         1.02138         -922.532E-03        -98.8444E-03 
              787.5E-03          304.808E-03       -239.255E-03        -65.553E-03          1.03808         -938.478E-03        -99.6038E-03 
              790.E-03           304.849E-03       -239.364E-03        -65.4853E-03         1.05463         -954.28E-03        -100.354E-03  
              792.5E-03          304.889E-03       -239.472E-03        -65.4168E-03         1.07103         -969.937E-03       -101.096E-03  
              795.E-03           304.927E-03       -239.579E-03        -65.3474E-03         1.08728         -985.454E-03       -101.828E-03  
              797.5E-03          304.963E-03       -239.686E-03        -65.2773E-03         1.10339           -1.00084         -102.551E-03  
              800.E-03           304.998E-03       -239.792E-03        -65.2063E-03         1.11936           -1.01609         -103.265E-03  
              802.5E-03          305.032E-03       -239.898E-03        -65.1345E-03         1.13519           -1.03123         -103.97E-03   
              805.E-03           305.065E-03       -240.002E-03        -65.0622E-03         1.15093           -1.04626         -104.665E-03  
              807.5E-03          305.096E-03       -240.107E-03        -64.9888E-03         1.16652           -1.06117         -105.35E-03   
              810.E-03           305.126E-03       -240.212E-03        -64.9143E-03         1.18197           -1.07595         -106.024E-03  
              812.5E-03          305.154E-03       -240.315E-03        -64.8397E-03         1.19734           -1.09065         -106.689E-03  
              815.E-03           305.182E-03       -240.418E-03        -64.764E-03          1.21259           -1.10524         -107.342E-03  
              817.5E-03          305.208E-03       -240.52E-03         -64.6876E-03         1.22772           -1.11973         -107.984E-03  
              820.E-03           305.233E-03       -240.623E-03        -64.6101E-03         1.24271           -1.1341          -108.612E-03  
              822.5E-03          305.257E-03       -240.725E-03        -64.5321E-03         1.2576            -1.14837         -109.227E-03  
              825.E-03           305.28E-03        -240.826E-03        -64.4534E-03         1.27235           -1.16252         -109.828E-03  
              827.5E-03          305.301E-03       -240.927E-03        -64.3739E-03         1.28695           -1.17653         -110.412E-03  
              830.E-03           305.322E-03       -241.028E-03        -64.2936E-03         1.30136           -1.19039         -110.977E-03  
              832.5E-03          305.342E-03       -241.129E-03        -64.2125E-03         1.3156            -1.20407         -111.524E-03  
              835.E-03           305.36E-03        -241.23E-03         -64.1306E-03         1.32964           -1.21759         -112.057E-03  
              837.5E-03          305.378E-03       -241.33E-03         -64.0483E-03         1.34352           -1.23095         -112.575E-03  
              840.E-03           305.395E-03       -241.43E-03         -63.965E-03          1.35722           -1.24413         -113.08E-03   
              842.5E-03          305.411E-03       -241.53E-03         -63.8811E-03         1.37074           -1.25716         -113.573E-03  
              845.E-03           305.426E-03       -241.629E-03        -63.7965E-03         1.3841            -1.27004         -114.054E-03  
              847.5E-03          305.44E-03        -241.729E-03        -63.7114E-03         1.3973            -1.28277         -114.523E-03  
              850.E-03           305.453E-03       -241.828E-03        -63.6257E-03         1.41034           -1.29536         -114.98E-03   
              852.5E-03          305.466E-03       -241.927E-03        -63.5394E-03         1.42323           -1.3078          -115.427E-03  
              855.E-03           305.478E-03       -242.025E-03        -63.4526E-03         1.43597           -1.32011         -115.862E-03  
              857.5E-03          305.489E-03       -242.124E-03        -63.3653E-03         1.44857           -1.33229         -116.287E-03  
              860.E-03           305.499E-03       -242.222E-03        -63.2775E-03         1.46103           -1.34433         -116.702E-03  
              862.5E-03          305.509E-03       -242.32E-03         -63.1893E-03         1.47335           -1.35625         -117.106E-03  
              865.E-03           305.518E-03       -242.417E-03        -63.1005E-03         1.48554           -1.36804         -117.5E-03    
              867.5E-03          305.526E-03       -242.515E-03        -63.0113E-03         1.49759           -1.37971         -117.884E-03  
              870.E-03           305.534E-03       -242.612E-03        -62.9217E-03         1.50952           -1.39126         -118.259E-03  
              872.5E-03          305.541E-03       -242.709E-03        -62.8316E-03         1.52132           -1.40269         -118.624E-03  
              875.E-03           305.547E-03       -242.806E-03        -62.7412E-03         1.53299           -1.41401         -118.981E-03  
              877.5E-03          305.553E-03       -242.903E-03        -62.6503E-03         1.54455           -1.42522         -119.328E-03  
              880.E-03           305.558E-03       -242.999E-03        -62.559E-03          1.55599           -1.43632         -119.667E-03  
              882.5E-03          305.563E-03       -243.095E-03        -62.4673E-03         1.56731           -1.44732         -119.997E-03  
              885.E-03           305.567E-03       -243.191E-03        -62.3752E-03         1.57853           -1.45821         -120.319E-03  
              887.5E-03          305.57E-03        -243.287E-03        -62.2828E-03         1.58963           -1.469           -120.633E-03  
              890.E-03           305.573E-03       -243.383E-03        -62.19E-03           1.60062           -1.47968         -120.938E-03  
              892.5E-03          305.575E-03       -243.478E-03        -62.0968E-03         1.61151           -1.49027         -121.236E-03  
              895.E-03           305.577E-03       -243.574E-03        -62.0032E-03         1.62229           -1.50077         -121.525E-03  
              897.5E-03          305.578E-03       -243.669E-03        -61.9094E-03         1.63297           -1.51116         -121.808E-03  
              900.E-03           305.579E-03       -243.764E-03        -61.8151E-03         1.64355           -1.52147         -122.082E-03  
              902.5E-03          305.579E-03       -243.859E-03        -61.7205E-03         1.65404           -1.53169         -122.35E-03   
              905.E-03           305.579E-03       -243.954E-03        -61.6256E-03         1.66442           -1.54181         -122.61E-03   
              907.5E-03          305.578E-03       -244.048E-03        -61.5303E-03         1.67471           -1.55185         -122.863E-03  
              910.E-03           305.577E-03       -244.143E-03        -61.4348E-03         1.68491           -1.5618          -123.109E-03  
              912.5E-03          305.576E-03       -244.237E-03        -61.3388E-03         1.69502           -1.57167         -123.349E-03  
              915.E-03           305.574E-03       -244.331E-03        -61.2426E-03         1.70504           -1.58146         -123.582E-03  
              917.5E-03          305.571E-03       -244.425E-03        -61.146E-03          1.71497           -1.59116         -123.808E-03  
              920.E-03           305.568E-03       -244.519E-03        -61.0492E-03         1.72482           -1.60079         -124.027E-03  
              922.5E-03          305.565E-03       -244.613E-03        -60.952E-03          1.73458           -1.61034         -124.241E-03  
              925.E-03           305.561E-03       -244.707E-03        -60.8545E-03         1.74425           -1.61981         -124.448E-03  
              927.5E-03          305.557E-03       -244.801E-03        -60.7567E-03         1.75385           -1.6292          -124.649E-03  
              930.E-03           305.553E-03       -244.894E-03        -60.6585E-03         1.76336           -1.63852         -124.844E-03  
              932.5E-03          305.548E-03       -244.988E-03        -60.5601E-03         1.7728            -1.64777         -125.034E-03  
              935.E-03           305.543E-03       -245.081E-03        -60.4614E-03         1.78216           -1.65694         -125.217E-03  
              937.5E-03          305.537E-03       -245.175E-03        -60.3624E-03         1.79144           -1.66605         -125.395E-03  
              940.E-03           305.531E-03       -245.268E-03        -60.263E-03          1.80065           -1.67508         -125.567E-03  
              942.5E-03          305.525E-03       -245.361E-03        -60.1634E-03         1.80978           -1.68405         -125.733E-03  
              945.E-03           305.518E-03       -245.454E-03        -60.0635E-03         1.81884           -1.69295         -125.895E-03  
              947.5E-03          305.511E-03       -245.547E-03        -59.9633E-03         1.82783           -1.70178         -126.051E-03  
              950.E-03           305.503E-03       -245.64E-03         -59.8628E-03         1.83675           -1.71055         -126.201E-03  
              952.5E-03          305.495E-03       -245.733E-03        -59.762E-03          1.8456            -1.71925         -126.347E-03  
              955.E-03           305.487E-03       -245.826E-03        -59.6609E-03         1.85438           -1.7279          -126.487E-03  
              957.5E-03          305.479E-03       -245.919E-03        -59.5595E-03         1.8631            -1.73648         -126.622E-03  
              960.E-03           305.47E-03        -246.012E-03        -59.4579E-03         1.87175           -1.74499         -126.753E-03  
              962.5E-03          305.461E-03       -246.105E-03        -59.3559E-03         1.88033           -1.75345         -126.879E-03  
              965.E-03           305.451E-03       -246.198E-03        -59.2537E-03         1.88885           -1.76185         -127.E-03     
              967.5E-03          305.442E-03       -246.29E-03         -59.1511E-03         1.89731           -1.77019         -127.116E-03  
              970.E-03           305.431E-03       -246.383E-03        -59.0483E-03         1.9057            -1.77848         -127.227E-03  
              972.5E-03          305.421E-03       -246.476E-03        -58.9452E-03         1.91404           -1.7867          -127.335E-03  
              975.E-03           305.41E-03        -246.569E-03        -58.8419E-03         1.92231           -1.79488         -127.437E-03  
              977.5E-03          305.399E-03       -246.661E-03        -58.7382E-03         1.93053           -1.80299         -127.535E-03  
              980.E-03           305.388E-03       -246.754E-03        -58.6343E-03         1.93869           -1.81106         -127.629E-03  
              982.5E-03          305.377E-03       -246.847E-03        -58.5301E-03         1.94678           -1.81907         -127.719E-03  
              985.E-03           305.365E-03       -246.939E-03        -58.4255E-03         1.95483           -1.82702         -127.804E-03  
              987.5E-03          305.353E-03       -247.032E-03        -58.3208E-03         1.96281           -1.83493         -127.886E-03  
              990.E-03           305.34E-03        -247.124E-03        -58.2157E-03         1.97075           -1.84278         -127.963E-03  
              992.5E-03          305.327E-03       -247.217E-03        -58.1104E-03         1.97862           -1.85059         -128.036E-03  
              995.E-03           305.314E-03       -247.31E-03         -58.0047E-03         1.98645           -1.85834         -128.105E-03  
              997.5E-03          305.301E-03       -247.402E-03        -57.8988E-03         1.99422           -1.86605         -128.17E-03   
                1.               305.288E-03       -247.495E-03        -57.7927E-03         2.00194           -1.87371         -128.232E-03  




