
                  X              SENER-out           SENER-in    

                0.                 0.                 0.         
                2.5E-03          183.216E+03        179.842E+03  
                5.E-03           198.872E+03        195.721E+03  
                7.5E-03          210.568E+03        207.63E+03   
               10.E-03           220.733E+03        217.978E+03  
               12.5E-03          229.963E+03        227.365E+03  
               15.E-03           238.55E+03         236.088E+03  
               17.5E-03          246.647E+03        244.305E+03  
               20.E-03           254.346E+03        252.108E+03  
               22.5E-03          261.703E+03        259.558E+03  
               25.E-03           268.761E+03        266.699E+03  
               27.5E-03          275.552E+03        273.566E+03  
               30.E-03           282.102E+03        280.185E+03  
               32.5E-03          288.433E+03        286.579E+03  
               35.E-03           294.565E+03        292.768E+03  
               37.5E-03          300.512E+03        298.768E+03  
               40.E-03           306.289E+03        304.593E+03  
               42.5E-03          311.908E+03        310.258E+03  
               45.E-03           317.38E+03         315.773E+03  
               47.5E-03          322.716E+03        321.148E+03  
               50.E-03           327.923E+03        326.393E+03  
               52.5E-03          333.01E+03         331.515E+03  
               55.E-03           337.984E+03        336.521E+03  
               57.5E-03          342.851E+03        341.419E+03  
               60.E-03           347.618E+03        346.215E+03  
               62.5E-03          352.289E+03        350.914E+03  
               65.E-03           356.869E+03        355.52E+03   
               67.5E-03          361.363E+03        360.04E+03   
               70.E-03           365.776E+03        364.476E+03  
               72.5E-03          370.11E+03         368.833E+03  
               75.E-03           374.37E+03         373.115E+03  
               77.5E-03          378.56E+03         377.325E+03  
               80.E-03           382.68E+03         381.466E+03  
               82.5E-03          386.736E+03        385.54E+03   
               85.E-03           390.73E+03         389.552E+03  
               87.5E-03          394.663E+03        393.503E+03  
               90.E-03           398.539E+03        397.395E+03  
               92.5E-03          402.359E+03        401.232E+03  
               95.E-03           406.126E+03        405.014E+03  
               97.5E-03          409.841E+03        408.745E+03  
              100.E-03           413.507E+03        412.425E+03  
              102.5E-03          417.125E+03        416.057E+03  
              105.E-03           420.696E+03        419.642E+03  
              107.5E-03          424.223E+03        423.182E+03  
              110.E-03           427.707E+03        426.679E+03  
              112.5E-03          431.149E+03        430.133E+03  
              115.E-03           434.55E+03         433.546E+03  
              117.5E-03          437.912E+03        436.919E+03  
              120.E-03           441.236E+03        440.254E+03  
              122.5E-03          444.523E+03        443.552E+03  
              125.E-03           447.774E+03        446.813E+03  
              127.5E-03          450.99E+03         450.04E+03   
              130.E-03           454.172E+03        453.232E+03  
              132.5E-03          457.321E+03        456.391E+03  
              135.E-03           460.438E+03        459.517E+03  
              137.5E-03          463.524E+03        462.612E+03  
              140.E-03           466.579E+03        465.676E+03  
              142.5E-03          469.605E+03        468.711E+03  
              145.E-03           472.602E+03        471.716E+03  
              147.5E-03          475.571E+03        474.694E+03  
              150.E-03           478.512E+03        477.643E+03  
              152.5E-03          481.427E+03        480.565E+03  
              155.E-03           484.315E+03        483.462E+03  
              157.5E-03          487.178E+03        486.332E+03  
              160.E-03           490.016E+03        489.177E+03  
              162.5E-03          492.83E+03         491.998E+03  
              165.E-03           495.62E+03         494.795E+03  
              167.5E-03          498.386E+03        497.568E+03  
              170.E-03           501.13E+03         500.319E+03  
              172.5E-03          503.852E+03        503.047E+03  
              175.E-03           506.551E+03        505.753E+03  
              177.5E-03          509.23E+03         508.438E+03  
              180.E-03           511.887E+03        511.101E+03  
              182.5E-03          514.524E+03        513.744E+03  
              185.E-03           517.141E+03        516.367E+03  
              187.5E-03          519.738E+03        518.97E+03   
              190.E-03           522.316E+03        521.554E+03  
              192.5E-03          524.875E+03        524.119E+03  
              195.E-03           527.416E+03        526.665E+03  
              197.5E-03          529.938E+03        529.192E+03  
              200.E-03           532.443E+03        531.702E+03  
              202.5E-03          534.93E+03         534.194E+03  
              205.E-03           537.4E+03          536.669E+03  
              207.5E-03          539.853E+03        539.127E+03  
              210.E-03           542.289E+03        541.569E+03  
              212.5E-03          544.71E+03         543.994E+03  
              215.E-03           547.114E+03        546.403E+03  
              217.5E-03          549.502E+03        548.796E+03  
              220.E-03           551.875E+03        551.173E+03  
              222.5E-03          554.233E+03        553.536E+03  
              225.E-03           556.576E+03        555.883E+03  
              227.5E-03          558.905E+03        558.216E+03  
              230.E-03           561.219E+03        560.534E+03  
              232.5E-03          563.518E+03        562.838E+03  
              235.E-03           565.804E+03        565.128E+03  
              237.5E-03          568.076E+03        567.404E+03  
              240.E-03           570.335E+03        569.666E+03  
              242.5E-03          572.58E+03         571.916E+03  
              245.E-03           574.812E+03        574.152E+03  
              247.5E-03          577.031E+03        576.375E+03  
              250.E-03           579.238E+03        578.585E+03  
              252.5E-03          581.432E+03        580.783E+03  
              255.E-03           583.614E+03        582.968E+03  
              257.5E-03          585.783E+03        585.141E+03  
              260.E-03           587.941E+03        587.302E+03  
              262.5E-03          590.087E+03        589.451E+03  
              265.E-03           592.221E+03        591.589E+03  
              267.5E-03          594.344E+03        593.715E+03  
              270.E-03           596.455E+03        595.83E+03   
              272.5E-03          598.555E+03        597.934E+03  
              275.E-03           600.645E+03        600.026E+03  
              277.5E-03          602.723E+03        602.108E+03  
              280.E-03           604.791E+03        604.179E+03  
              282.5E-03          606.848E+03        606.24E+03   
              285.E-03           608.895E+03        608.289E+03  
              287.5E-03          610.932E+03        610.329E+03  
              290.E-03           612.959E+03        612.359E+03  
              292.5E-03          614.975E+03        614.378E+03  
              295.E-03           616.982E+03        616.388E+03  
              297.5E-03          618.979E+03        618.388E+03  
              300.E-03           620.967E+03        620.378E+03  
              302.5E-03          622.945E+03        622.359E+03  
              305.E-03           624.913E+03        624.33E+03   
              307.5E-03          626.873E+03        626.292E+03  
              310.E-03           628.823E+03        628.245E+03  
              312.5E-03          630.764E+03        630.189E+03  
              315.E-03           632.696E+03        632.124E+03  
              317.5E-03          634.62E+03         634.05E+03   
              320.E-03           636.535E+03        635.968E+03  
              322.5E-03          638.441E+03        637.877E+03  
              325.E-03           640.339E+03        639.777E+03  
              327.5E-03          642.228E+03        641.669E+03  
              330.E-03           644.109E+03        643.552E+03  
              332.5E-03          645.982E+03        645.428E+03  
              335.E-03           647.847E+03        647.295E+03  
              337.5E-03          649.704E+03        649.154E+03  
              340.E-03           651.553E+03        651.005E+03  
              342.5E-03          653.394E+03        652.849E+03  
              345.E-03           655.227E+03        654.684E+03  
              347.5E-03          657.053E+03        656.512E+03  
              350.E-03           658.871E+03        658.333E+03  
              352.5E-03          660.682E+03        660.146E+03  
              355.E-03           662.485E+03        661.951E+03  
              357.5E-03          664.281E+03        663.749E+03  
              360.E-03           666.07E+03         665.54E+03   
              362.5E-03          667.851E+03        667.324E+03  
              365.E-03           669.626E+03        669.1E+03    
              367.5E-03          671.393E+03        670.87E+03   
              370.E-03           673.154E+03        672.632E+03  
              372.5E-03          674.907E+03        674.388E+03  
              375.E-03           676.654E+03        676.137E+03  
              377.5E-03          678.394E+03        677.879E+03  
              380.E-03           680.128E+03        679.614E+03  
              382.5E-03          681.855E+03        681.343E+03  
              385.E-03           683.575E+03        683.065E+03  
              387.5E-03          685.289E+03        684.781E+03  
              390.E-03           686.996E+03        686.491E+03  
              392.5E-03          688.697E+03        688.194E+03  
              395.E-03           690.392E+03        689.89E+03   
              397.5E-03          692.081E+03        691.581E+03  
              400.E-03           693.763E+03        693.265E+03  
              402.5E-03          695.44E+03         694.944E+03  
              405.E-03           697.11E+03         696.616E+03  
              407.5E-03          698.775E+03        698.282E+03  
              410.E-03           700.433E+03        699.942E+03  
              412.5E-03          702.086E+03        701.597E+03  
              415.E-03           703.733E+03        703.245E+03  
              417.5E-03          705.374E+03        704.888E+03  
              420.E-03           707.009E+03        706.525E+03  
              422.5E-03          708.639E+03        708.156E+03  
              425.E-03           710.263E+03        709.782E+03  
              427.5E-03          711.882E+03        711.403E+03  
              430.E-03           713.495E+03        713.017E+03  
              432.5E-03          715.103E+03        714.627E+03  
              435.E-03           716.705E+03        716.231E+03  
              437.5E-03          718.302E+03        717.829E+03  
              440.E-03           719.894E+03        719.422E+03  
              442.5E-03          721.48E+03         721.01E+03   
              445.E-03           723.061E+03        722.593E+03  
              447.5E-03          724.637E+03        724.17E+03   
              450.E-03           726.208E+03        725.743E+03  
              452.5E-03          727.774E+03        727.31E+03   
              455.E-03           729.335E+03        728.873E+03  
              457.5E-03          730.891E+03        730.43E+03   
              460.E-03           732.442E+03        731.982E+03  
              462.5E-03          733.987E+03        733.53E+03   
              465.E-03           735.529E+03        735.072E+03  
              467.5E-03          737.065E+03        736.61E+03   
              470.E-03           738.596E+03        738.143E+03  
              472.5E-03          740.123E+03        739.671E+03  
              475.E-03           741.645E+03        741.194E+03  
              477.5E-03          743.163E+03        742.713E+03  
              480.E-03           744.675E+03        744.227E+03  
              482.5E-03          746.184E+03        745.737E+03  
              485.E-03           747.687E+03        747.242E+03  
              487.5E-03          749.186E+03        748.742E+03  
              490.E-03           750.681E+03        750.238E+03  
              492.5E-03          752.171E+03        751.73E+03   
              495.E-03           753.657E+03        753.217E+03  
              497.5E-03          755.138E+03        754.7E+03    
              500.E-03           756.615E+03        756.178E+03  
              502.5E-03          758.088E+03        757.652E+03  
              505.E-03           759.557E+03        759.122E+03  
              507.5E-03          761.021E+03        760.587E+03  
              510.E-03           762.481E+03        762.049E+03  
              512.5E-03          763.937E+03        763.506E+03  
              515.E-03           765.388E+03        764.959E+03  
              517.5E-03          766.836E+03        766.407E+03  
              520.E-03           768.28E+03         767.852E+03  
              522.5E-03          769.719E+03        769.293E+03  
              525.E-03           771.154E+03        770.729E+03  
              527.5E-03          772.586E+03        772.162E+03  
              530.E-03           774.013E+03        773.591E+03  
              532.5E-03          775.437E+03        775.015E+03  
              535.E-03           776.857E+03        776.436E+03  
              537.5E-03          778.273E+03        777.853E+03  
              540.E-03           779.684E+03        779.266E+03  
              542.5E-03          781.093E+03        780.675E+03  
              545.E-03           782.497E+03        782.081E+03  
              547.5E-03          783.897E+03        783.483E+03  
              550.E-03           785.294E+03        784.881E+03  
              552.5E-03          786.687E+03        786.275E+03  
              555.E-03           788.077E+03        787.665E+03  
              557.5E-03          789.463E+03        789.052E+03  
              560.E-03           790.845E+03        790.435E+03  
              562.5E-03          792.223E+03        791.815E+03  
              565.E-03           793.598E+03        793.191E+03  
              567.5E-03          794.969E+03        794.563E+03  
              570.E-03           796.337E+03        795.932E+03  
              572.5E-03          797.702E+03        797.298E+03  
              575.E-03           799.063E+03        798.659E+03  
              577.5E-03          800.42E+03         800.018E+03  
              580.E-03           801.774E+03        801.373E+03  
              582.5E-03          803.124E+03        802.724E+03  
              585.E-03           804.471E+03        804.073E+03  
              587.5E-03          805.815E+03        805.417E+03  
              590.E-03           807.156E+03        806.759E+03  
              592.5E-03          808.493E+03        808.097E+03  
              595.E-03           809.826E+03        809.432E+03  
              597.5E-03          811.157E+03        810.763E+03  
              600.E-03           812.484E+03        812.091E+03  
              602.5E-03          813.808E+03        813.416E+03  
              605.E-03           815.129E+03        814.738E+03  
              607.5E-03          816.447E+03        816.056E+03  
              610.E-03           817.761E+03        817.372E+03  
              612.5E-03          819.072E+03        818.684E+03  
              615.E-03           820.38E+03         819.993E+03  
              617.5E-03          821.685E+03        821.299E+03  
              620.E-03           822.987E+03        822.602E+03  
              622.5E-03          824.286E+03        823.901E+03  
              625.E-03           825.582E+03        825.198E+03  
              627.5E-03          826.874E+03        826.492E+03  
              630.E-03           828.164E+03        827.782E+03  
              632.5E-03          829.451E+03        829.07E+03   
              635.E-03           830.734E+03        830.354E+03  
              637.5E-03          832.015E+03        831.636E+03  
              640.E-03           833.293E+03        832.915E+03  
              642.5E-03          834.568E+03        834.19E+03   
              645.E-03           835.84E+03         835.463E+03  
              647.5E-03          837.109E+03        836.733E+03  
              650.E-03           838.375E+03        838.E+03     
              652.5E-03          839.638E+03        839.264E+03  
              655.E-03           840.899E+03        840.526E+03  
              657.5E-03          842.157E+03        841.784E+03  
              660.E-03           843.411E+03        843.04E+03   
              662.5E-03          844.664E+03        844.293E+03  
              665.E-03           845.913E+03        845.543E+03  
              667.5E-03          837.395E+03        837.028E+03  
              670.E-03           814.575E+03        814.213E+03  
              672.5E-03          802.657E+03        802.3E+03    
              675.E-03           796.404E+03        796.049E+03  
              677.5E-03          793.242E+03        792.889E+03  
              680.E-03           791.824E+03        791.472E+03  
              682.5E-03          791.413E+03        791.062E+03  
              685.E-03           791.595E+03        791.245E+03  
              687.5E-03          792.129E+03        791.78E+03   
              690.E-03           792.874E+03        792.526E+03  
              692.5E-03          793.745E+03        793.398E+03  
              695.E-03           794.692E+03        794.345E+03  
              697.5E-03          795.683E+03        795.338E+03  
              700.E-03           796.701E+03        796.356E+03  
              702.5E-03          797.735E+03        797.39E+03   
              705.E-03           798.776E+03        798.432E+03  
              707.5E-03          799.822E+03        799.479E+03  
              710.E-03           800.87E+03         800.528E+03  
              712.5E-03          801.918E+03        801.576E+03  
              715.E-03           802.965E+03        802.624E+03  
              717.5E-03          804.012E+03        803.671E+03  
              720.E-03           805.056E+03        804.717E+03  
              722.5E-03          806.099E+03        805.76E+03   
              725.E-03           807.141E+03        806.802E+03  
              727.5E-03          808.18E+03         807.842E+03  
              730.E-03           809.218E+03        808.88E+03   
              732.5E-03          810.253E+03        809.917E+03  
              735.E-03           811.286E+03        810.951E+03  
              737.5E-03          812.318E+03        811.983E+03  
              740.E-03           813.348E+03        813.013E+03  
              742.5E-03          814.375E+03        814.042E+03  
              745.E-03           815.401E+03        815.068E+03  
              747.5E-03          816.425E+03        816.092E+03  
              750.E-03           817.447E+03        817.115E+03  
              752.5E-03          818.467E+03        818.135E+03  
              755.E-03           819.485E+03        819.154E+03  
              757.5E-03          820.501E+03        820.171E+03  
              760.E-03           821.515E+03        821.186E+03  
              762.5E-03          822.528E+03        822.199E+03  
              765.E-03           823.538E+03        823.21E+03   
              767.5E-03          824.547E+03        824.219E+03  
              770.E-03           825.554E+03        825.227E+03  
              772.5E-03          826.559E+03        826.233E+03  
              775.E-03           827.562E+03        827.236E+03  
              777.5E-03          828.564E+03        828.238E+03  
              780.E-03           829.563E+03        829.239E+03  
              782.5E-03          830.561E+03        830.237E+03  
              785.E-03           831.557E+03        831.234E+03  
              787.5E-03          832.551E+03        832.228E+03  
              790.E-03           833.544E+03        833.221E+03  
              792.5E-03          834.534E+03        834.213E+03  
              795.E-03           835.523E+03        835.202E+03  
              797.5E-03          836.51E+03         836.19E+03   
              800.E-03           837.496E+03        837.176E+03  
              802.5E-03          838.479E+03        838.16E+03   
              805.E-03           839.461E+03        839.142E+03  
              807.5E-03          840.442E+03        840.123E+03  
              810.E-03           841.42E+03         841.102E+03  
              812.5E-03          842.397E+03        842.08E+03   
              815.E-03           843.372E+03        843.055E+03  
              817.5E-03          844.345E+03        844.029E+03  
              820.E-03           845.317E+03        845.002E+03  
              822.5E-03          846.287E+03        845.972E+03  
              825.E-03           847.256E+03        846.941E+03  
              827.5E-03          848.222E+03        847.909E+03  
              830.E-03           849.187E+03        848.874E+03  
              832.5E-03          850.151E+03        849.838E+03  
              835.E-03           851.113E+03        850.8E+03    
              837.5E-03          852.073E+03        851.761E+03  
              840.E-03           853.032E+03        852.72E+03   
              842.5E-03          853.989E+03        853.678E+03  
              845.E-03           854.944E+03        854.634E+03  
              847.5E-03          855.898E+03        855.588E+03  
              850.E-03           856.85E+03         856.541E+03  
              852.5E-03          857.8E+03          857.492E+03  
              855.E-03           858.75E+03         858.441E+03  
              857.5E-03          859.697E+03        859.389E+03  
              860.E-03           860.643E+03        860.336E+03  
              862.5E-03          861.587E+03        861.281E+03  
              865.E-03           862.53E+03         862.224E+03  
              867.5E-03          863.471E+03        863.166E+03  
              870.E-03           864.411E+03        864.106E+03  
              872.5E-03          865.349E+03        865.045E+03  
              875.E-03           866.286E+03        865.982E+03  
              877.5E-03          867.221E+03        866.917E+03  
              880.E-03           868.155E+03        867.852E+03  
              882.5E-03          869.087E+03        868.784E+03  
              885.E-03           870.017E+03        869.715E+03  
              887.5E-03          870.946E+03        870.645E+03  
              890.E-03           871.874E+03        871.573E+03  
              892.5E-03          872.8E+03          872.5E+03    
              895.E-03           873.725E+03        873.425E+03  
              897.5E-03          874.648E+03        874.349E+03  
              900.E-03           875.57E+03         875.271E+03  
              902.5E-03          876.49E+03         876.192E+03  
              905.E-03           877.409E+03        877.111E+03  
              907.5E-03          878.327E+03        878.029E+03  
              910.E-03           879.243E+03        878.946E+03  
              912.5E-03          880.157E+03        879.861E+03  
              915.E-03           881.071E+03        880.774E+03  
              917.5E-03          881.982E+03        881.687E+03  
              920.E-03           882.893E+03        882.597E+03  
              922.5E-03          883.802E+03        883.507E+03  
              925.E-03           884.709E+03        884.415E+03  
              927.5E-03          885.615E+03        885.321E+03  
              930.E-03           886.52E+03         886.227E+03  
              932.5E-03          887.424E+03        887.13E+03   
              935.E-03           888.326E+03        888.033E+03  
              937.5E-03          889.226E+03        888.934E+03  
              940.E-03           890.125E+03        889.834E+03  
              942.5E-03          891.023E+03        890.732E+03  
              945.E-03           891.92E+03         891.629E+03  
              947.5E-03          892.815E+03        892.525E+03  
              950.E-03           893.709E+03        893.419E+03  
              952.5E-03          894.601E+03        894.312E+03  
              955.E-03           895.493E+03        895.203E+03  
              957.5E-03          896.383E+03        896.094E+03  
              960.E-03           897.271E+03        896.983E+03  
              962.5E-03          898.158E+03        897.87E+03   
              965.E-03           899.044E+03        898.757E+03  
              967.5E-03          899.929E+03        899.642E+03  
              970.E-03           900.812E+03        900.526E+03  
              972.5E-03          901.694E+03        901.408E+03  
              975.E-03           902.575E+03        902.289E+03  
              977.5E-03          903.454E+03        903.169E+03  
              980.E-03           904.332E+03        904.047E+03  
              982.5E-03          905.209E+03        904.925E+03  
              985.E-03           906.085E+03        905.801E+03  
              987.5E-03          906.959E+03        906.676E+03  
              990.E-03           907.832E+03        907.549E+03  
              992.5E-03          908.704E+03        908.421E+03  
              995.E-03           909.575E+03        909.292E+03  
              997.5E-03          910.444E+03        910.162E+03  
                1.               911.312E+03        911.031E+03  




