
                  X              SENER-out           SENER-in    

                0.                 0.                 0.         
                2.5E-03          264.644E+03        260.51E+03   
                5.E-03           282.706E+03        279.582E+03  
                7.5E-03          298.929E+03        296.455E+03  
               10.E-03           313.919E+03        311.922E+03  
               12.5E-03          327.92E+03         326.285E+03  
               15.E-03           341.093E+03        339.741E+03  
               17.5E-03          353.559E+03        352.433E+03  
               20.E-03           365.411E+03        364.467E+03  
               22.5E-03          376.723E+03        375.93E+03   
               25.E-03           387.556E+03        386.889E+03  
               27.5E-03          397.959E+03        397.399E+03  
               30.E-03           407.976E+03        407.507E+03  
               32.5E-03          417.643E+03        417.252E+03  
               35.E-03           426.989E+03        426.666E+03  
               37.5E-03          436.042E+03        435.779E+03  
               40.E-03           444.825E+03        444.615E+03  
               42.5E-03          453.358E+03        453.195E+03  
               45.E-03           461.659E+03        461.539E+03  
               47.5E-03          469.745E+03        469.663E+03  
               50.E-03           477.629E+03        477.581E+03  
               52.5E-03          485.325E+03        485.308E+03  
               55.E-03           492.844E+03        492.855E+03  
               57.5E-03          480.854E+03        480.78E+03   
               60.E-03           426.516E+03        427.473E+03  
               62.5E-03          397.592E+03        398.02E+03   
               65.E-03           384.633E+03        385.019E+03  
               67.5E-03          379.558E+03        379.871E+03  
               70.E-03           378.362E+03        378.646E+03  
               72.5E-03          379.142E+03        379.41E+03   
               75.E-03           380.949E+03        381.21E+03   
               77.5E-03          383.295E+03        383.554E+03  
               80.E-03           385.92E+03         386.178E+03  
               82.5E-03          388.683E+03        388.942E+03  
               85.E-03           391.509E+03        391.77E+03   
               87.5E-03          394.355E+03        394.619E+03  
               90.E-03           397.199E+03        397.466E+03  
               92.5E-03          400.029E+03        400.298E+03  
               95.E-03           402.838E+03        403.111E+03  
               97.5E-03          405.623E+03        405.899E+03  
              100.E-03           408.383E+03        408.662E+03  
              102.5E-03          478.343E+03        479.089E+03  
              105.E-03           556.098E+03        556.641E+03  
              107.5E-03          578.606E+03        579.174E+03  
              110.E-03           588.238E+03        588.821E+03  
              112.5E-03          595.003E+03        595.588E+03  
              115.E-03           600.94E+03         601.527E+03  
              117.5E-03          606.563E+03        607.152E+03  
              120.E-03           612.031E+03        612.622E+03  
              122.5E-03          617.399E+03        617.991E+03  
              125.E-03           622.687E+03        623.281E+03  
              127.5E-03          627.905E+03        628.501E+03  
              130.E-03           633.057E+03        633.656E+03  
              132.5E-03          638.148E+03        638.748E+03  
              135.E-03           643.178E+03        643.781E+03  
              137.5E-03          648.15E+03         648.755E+03  
              140.E-03           653.065E+03        653.673E+03  
              142.5E-03          657.927E+03        658.536E+03  
              145.E-03           662.734E+03        663.346E+03  
              147.5E-03          667.491E+03        668.105E+03  
              150.E-03           672.197E+03        672.813E+03  
              152.5E-03          676.855E+03        677.474E+03  
              155.E-03           681.465E+03        682.086E+03  
              157.5E-03          686.029E+03        686.653E+03  
              160.E-03           690.548E+03        691.174E+03  
              162.5E-03          695.023E+03        695.652E+03  
              165.E-03           699.456E+03        700.088E+03  
              167.5E-03          703.847E+03        704.481E+03  
              170.E-03           708.197E+03        708.835E+03  
              172.5E-03          712.508E+03        713.148E+03  
              175.E-03           716.78E+03         717.423E+03  
              177.5E-03          721.015E+03        721.661E+03  
              180.E-03           725.212E+03        725.861E+03  
              182.5E-03          729.374E+03        730.026E+03  
              185.E-03           733.5E+03          734.155E+03  
              187.5E-03          737.592E+03        738.25E+03   
              190.E-03           741.651E+03        742.312E+03  
              192.5E-03          745.676E+03        746.341E+03  
              195.E-03           749.669E+03        750.337E+03  
              197.5E-03          753.631E+03        754.302E+03  
              200.E-03           757.561E+03        758.236E+03  
              202.5E-03          761.461E+03        762.139E+03  
              205.E-03           765.332E+03        766.014E+03  
              207.5E-03          769.174E+03        769.859E+03  
              210.E-03           772.987E+03        773.675E+03  
              212.5E-03          776.772E+03        777.464E+03  
              215.E-03           780.53E+03         781.226E+03  
              217.5E-03          784.261E+03        784.96E+03   
              220.E-03           787.965E+03        788.668E+03  
              222.5E-03          791.644E+03        792.351E+03  
              225.E-03           795.297E+03        796.008E+03  
              227.5E-03          798.926E+03        799.64E+03   
              230.E-03           802.529E+03        803.248E+03  
              232.5E-03          806.109E+03        806.831E+03  
              235.E-03           809.665E+03        810.392E+03  
              237.5E-03          813.198E+03        813.929E+03  
              240.E-03           816.708E+03        817.443E+03  
              242.5E-03          820.196E+03        820.935E+03  
              245.E-03           823.661E+03        824.404E+03  
              247.5E-03          827.105E+03        827.852E+03  
              250.E-03           830.528E+03        831.279E+03  
              252.5E-03          833.929E+03        834.685E+03  
              255.E-03           837.31E+03         838.07E+03   
              257.5E-03          840.67E+03         841.435E+03  
              260.E-03           844.011E+03        844.78E+03   
              262.5E-03          847.332E+03        848.106E+03  
              265.E-03           850.633E+03        851.412E+03  
              267.5E-03          853.916E+03        854.699E+03  
              270.E-03           857.179E+03        857.967E+03  
              272.5E-03          860.424E+03        861.217E+03  
              275.E-03           863.651E+03        864.449E+03  
              277.5E-03          866.86E+03         867.663E+03  
              280.E-03           870.051E+03        870.859E+03  
              282.5E-03          873.225E+03        874.037E+03  
              285.E-03           876.381E+03        877.199E+03  
              287.5E-03          879.521E+03        880.344E+03  
              290.E-03           882.644E+03        883.472E+03  
              292.5E-03          885.75E+03         886.584E+03  
              295.E-03           888.841E+03        889.679E+03  
              297.5E-03          891.915E+03        892.758E+03  
              300.E-03           894.973E+03        895.822E+03  
              302.5E-03          898.016E+03        898.87E+03   
              305.E-03           901.043E+03        901.903E+03  
              307.5E-03          904.055E+03        904.921E+03  
              310.E-03           907.053E+03        907.924E+03  
              312.5E-03          910.035E+03        910.912E+03  
              315.E-03           913.003E+03        913.886E+03  
              317.5E-03          915.956E+03        916.845E+03  
              320.E-03           918.896E+03        919.79E+03   
              322.5E-03          921.821E+03        922.721E+03  
              325.E-03           924.732E+03        925.639E+03  
              327.5E-03          927.63E+03         928.543E+03  
              330.E-03           930.514E+03        931.433E+03  
              332.5E-03          933.385E+03        934.31E+03   
              335.E-03           936.243E+03        937.174E+03  
              337.5E-03          939.087E+03        940.025E+03  
              340.E-03           941.919E+03        942.863E+03  
              342.5E-03          944.738E+03        945.688E+03  
              345.E-03           947.545E+03        948.501E+03  
              347.5E-03          950.339E+03        951.302E+03  
              350.E-03           953.121E+03        954.09E+03   
              352.5E-03          955.89E+03         956.867E+03  
              355.E-03           958.648E+03        959.631E+03  
              357.5E-03          961.394E+03        962.384E+03  
              360.E-03           964.128E+03        965.125E+03  
              362.5E-03          966.85E+03         967.854E+03  
              365.E-03           969.561E+03        970.572E+03  
              367.5E-03          972.261E+03        973.279E+03  
              370.E-03           974.95E+03         975.974E+03  
              372.5E-03          977.627E+03        978.659E+03  
              375.E-03           980.294E+03        981.333E+03  
              377.5E-03          982.949E+03        983.996E+03  
              380.E-03           985.594E+03        986.648E+03  
              382.5E-03          988.228E+03        989.29E+03   
              385.E-03           990.852E+03        991.921E+03  
              387.5E-03          993.465E+03        994.542E+03  
              390.E-03           996.068E+03        997.153E+03  
              392.5E-03          998.661E+03        999.753E+03  
              395.E-03             1.00124E+06        1.00234E+06
              397.5E-03            1.00382E+06        1.00492E+06
              400.E-03             1.00638E+06        1.0075E+06 
              402.5E-03            1.00893E+06        1.01006E+06
              405.E-03             1.01148E+06        1.01261E+06
              407.5E-03            1.01401E+06        1.01515E+06
              410.E-03             1.01653E+06        1.01768E+06
              412.5E-03            1.01905E+06        1.02021E+06
              415.E-03             1.02156E+06        1.02272E+06
              417.5E-03            1.02405E+06        1.02523E+06
              420.E-03             1.02654E+06        1.02772E+06
              422.5E-03            1.02902E+06        1.03021E+06
              425.E-03             1.03149E+06        1.03269E+06
              427.5E-03            1.03395E+06        1.03516E+06
              430.E-03             1.0364E+06         1.03762E+06
              432.5E-03            1.03884E+06        1.04007E+06
              435.E-03             1.04128E+06        1.04251E+06
              437.5E-03            1.0437E+06         1.04495E+06
              440.E-03             1.04612E+06        1.04738E+06
              442.5E-03            1.04853E+06        1.04979E+06
              445.E-03             1.05093E+06        1.0522E+06 
              447.5E-03            1.05332E+06        1.05461E+06
              450.E-03             1.05571E+06        1.057E+06  
              452.5E-03            1.05808E+06        1.05939E+06
              455.E-03             1.06045E+06        1.06177E+06
              457.5E-03            1.06281E+06        1.06414E+06
              460.E-03             1.06517E+06        1.0665E+06 
              462.5E-03            1.06751E+06        1.06885E+06
              465.E-03             1.06985E+06        1.0712E+06 
              467.5E-03            1.07218E+06        1.07354E+06
              470.E-03             1.0745E+06         1.07587E+06
              472.5E-03            1.07681E+06        1.0782E+06 
              475.E-03             1.07912E+06        1.08051E+06
              477.5E-03            1.08142E+06        1.08282E+06
              480.E-03             1.08371E+06        1.08513E+06
              482.5E-03            1.086E+06          1.08742E+06
              485.E-03             1.08827E+06        1.08971E+06
              487.5E-03            1.09054E+06        1.09199E+06
              490.E-03             1.09281E+06        1.09427E+06
              492.5E-03            1.09506E+06        1.09653E+06
              495.E-03             1.09731E+06        1.09879E+06
              497.5E-03            1.09956E+06        1.10105E+06
              500.E-03             1.10179E+06        1.1033E+06 
              502.5E-03            1.10402E+06        1.10554E+06
              505.E-03             1.10624E+06        1.10777E+06
              507.5E-03            1.10846E+06        1.11E+06   
              510.E-03             1.11067E+06        1.11222E+06
              512.5E-03            1.11287E+06        1.11443E+06
              515.E-03             1.11506E+06        1.11664E+06
              517.5E-03            1.11725E+06        1.11884E+06
              520.E-03             1.11943E+06        1.12103E+06
              522.5E-03            1.12161E+06        1.12322E+06
              525.E-03             1.12378E+06        1.1254E+06 
              527.5E-03            1.12594E+06        1.12758E+06
              530.E-03             1.1281E+06         1.12975E+06
              532.5E-03            1.13025E+06        1.13191E+06
              535.E-03             1.13239E+06        1.13407E+06
              537.5E-03            1.13453E+06        1.13622E+06
              540.E-03             1.13667E+06        1.13837E+06
              542.5E-03            1.13879E+06        1.14051E+06
              545.E-03             1.14091E+06        1.14264E+06
              547.5E-03            1.14303E+06        1.14477E+06
              550.E-03             1.14514E+06        1.14689E+06
              552.5E-03            1.14724E+06        1.14901E+06
              555.E-03             1.14934E+06        1.15112E+06
              557.5E-03            1.15143E+06        1.15323E+06
              560.E-03             1.15351E+06        1.15533E+06
              562.5E-03            1.15559E+06        1.15742E+06
              565.E-03             1.15767E+06        1.15951E+06
              567.5E-03            1.15973E+06        1.16159E+06
              570.E-03             1.1618E+06         1.16367E+06
              572.5E-03            1.16385E+06        1.16574E+06
              575.E-03             1.16591E+06        1.16781E+06
              577.5E-03            1.16795E+06        1.16987E+06
              580.E-03             1.16999E+06        1.17193E+06
              582.5E-03            1.17203E+06        1.17398E+06
              585.E-03             1.17406E+06        1.17603E+06
              587.5E-03            1.17608E+06        1.17807E+06
              590.E-03             1.1781E+06         1.1801E+06 
              592.5E-03            1.18012E+06        1.18213E+06
              595.E-03             1.18213E+06        1.18416E+06
              597.5E-03            1.18413E+06        1.18618E+06
              600.E-03             1.18613E+06        1.1882E+06 
              602.5E-03            1.18812E+06        1.19021E+06
              605.E-03             1.19011E+06        1.19221E+06
              607.5E-03            1.1921E+06         1.19421E+06
              610.E-03             1.19407E+06        1.19621E+06
              612.5E-03            1.19605E+06        1.1982E+06 
              615.E-03             1.19802E+06        1.20019E+06
              617.5E-03            1.19998E+06        1.20217E+06
              620.E-03             1.20194E+06        1.20415E+06
              622.5E-03            1.20389E+06        1.20612E+06
              625.E-03             1.20584E+06        1.20809E+06
              627.5E-03            1.20779E+06        1.21005E+06
              630.E-03             1.20973E+06        1.21201E+06
              632.5E-03            1.21166E+06        1.21396E+06
              635.E-03             1.21359E+06        1.21591E+06
              637.5E-03            1.21552E+06        1.21786E+06
              640.E-03             1.21744E+06        1.2198E+06 
              642.5E-03            1.21936E+06        1.22173E+06
              645.E-03             1.22127E+06        1.22366E+06
              647.5E-03            1.22318E+06        1.22559E+06
              650.E-03             1.22508E+06        1.22751E+06
              652.5E-03            1.22698E+06        1.22943E+06
              655.E-03             1.22887E+06        1.23135E+06
              657.5E-03            1.23076E+06        1.23326E+06
              660.E-03             1.23265E+06        1.23516E+06
              662.5E-03            1.23453E+06        1.23706E+06
              665.E-03             1.2364E+06         1.23896E+06
              667.5E-03            1.23827E+06        1.24086E+06
              670.E-03             1.24014E+06        1.24274E+06
              672.5E-03            1.242E+06          1.24463E+06
              675.E-03             1.24386E+06        1.24651E+06
              677.5E-03            1.24572E+06        1.24839E+06
              680.E-03             1.24757E+06        1.25026E+06
              682.5E-03            1.24942E+06        1.25213E+06
              685.E-03             1.25126E+06        1.25399E+06
              687.5E-03            1.2531E+06         1.25586E+06
              690.E-03             1.25493E+06        1.25771E+06
              692.5E-03            1.25676E+06        1.25957E+06
              695.E-03             1.25859E+06        1.26142E+06
              697.5E-03            1.26041E+06        1.26326E+06
              700.E-03             1.26222E+06        1.2651E+06 
              702.5E-03            1.26404E+06        1.26694E+06
              705.E-03             1.26585E+06        1.26878E+06
              707.5E-03            1.26765E+06        1.27061E+06
              710.E-03             1.26946E+06        1.27243E+06
              712.5E-03            1.27125E+06        1.27426E+06
              715.E-03             1.27305E+06        1.27608E+06
              717.5E-03            1.27484E+06        1.27789E+06
              720.E-03             1.27662E+06        1.2797E+06 
              722.5E-03            1.27841E+06        1.28151E+06
              725.E-03             1.28018E+06        1.28332E+06
              727.5E-03            1.28196E+06        1.28512E+06
              730.E-03             1.28373E+06        1.28692E+06
              732.5E-03            1.2855E+06         1.28871E+06
              735.E-03             1.28726E+06        1.2905E+06 
              737.5E-03            1.28902E+06        1.29229E+06
              740.E-03             1.29078E+06        1.29407E+06
              742.5E-03            1.29253E+06        1.29585E+06
              745.E-03             1.29428E+06        1.29763E+06
              747.5E-03            1.29602E+06        1.29941E+06
              750.E-03             1.29776E+06        1.30118E+06
              752.5E-03            1.2995E+06         1.30294E+06
              755.E-03             1.30124E+06        1.30471E+06
              757.5E-03            1.30297E+06        1.30647E+06
              760.E-03             1.30469E+06        1.30822E+06
              762.5E-03            1.30642E+06        1.30998E+06
              765.E-03             1.30814E+06        1.31173E+06
              767.5E-03            1.30985E+06        1.31348E+06
              770.E-03             1.31157E+06        1.31522E+06
              772.5E-03            1.31328E+06        1.31696E+06
              775.E-03             1.31498E+06        1.3187E+06 
              777.5E-03            1.31668E+06        1.32043E+06
              780.E-03             1.31838E+06        1.32217E+06
              782.5E-03            1.32008E+06        1.32389E+06
              785.E-03             1.32177E+06        1.32562E+06
              787.5E-03            1.32346E+06        1.32734E+06
              790.E-03             1.32515E+06        1.32906E+06
              792.5E-03            1.32683E+06        1.33078E+06
              795.E-03             1.32851E+06        1.33249E+06
              797.5E-03            1.33018E+06        1.3342E+06 
              800.E-03             1.33186E+06        1.33591E+06
              802.5E-03            1.33353E+06        1.33761E+06
              805.E-03             1.33519E+06        1.33931E+06
              807.5E-03            1.33685E+06        1.34101E+06
              810.E-03             1.33851E+06        1.34271E+06
              812.5E-03            1.34017E+06        1.3444E+06 
              815.E-03             1.34182E+06        1.34609E+06
              817.5E-03            1.34347E+06        1.34777E+06
              820.E-03             1.34512E+06        1.34946E+06
              822.5E-03            1.34676E+06        1.35114E+06
              825.E-03             1.3484E+06         1.35282E+06
              827.5E-03            1.35004E+06        1.35449E+06
              830.E-03             1.35167E+06        1.35617E+06
              832.5E-03            1.3533E+06         1.35783E+06
              835.E-03             1.35493E+06        1.3595E+06 
              837.5E-03            1.35656E+06        1.36117E+06
              840.E-03             1.35818E+06        1.36283E+06
              842.5E-03            1.3598E+06         1.36449E+06
              845.E-03             1.36141E+06        1.36614E+06
              847.5E-03            1.36302E+06        1.3678E+06 
              850.E-03             1.36463E+06        1.36945E+06
              852.5E-03            1.36624E+06        1.37109E+06
              855.E-03             1.36784E+06        1.37274E+06
              857.5E-03            1.36944E+06        1.37438E+06
              860.E-03             1.37104E+06        1.37602E+06
              862.5E-03            1.37264E+06        1.37766E+06
              865.E-03             1.37423E+06        1.3793E+06 
              867.5E-03            1.37582E+06        1.38093E+06
              870.E-03             1.3774E+06         1.38256E+06
              872.5E-03            1.37898E+06        1.38419E+06
              875.E-03             1.38056E+06        1.38581E+06
              877.5E-03            1.38214E+06        1.38743E+06
              880.E-03             1.38372E+06        1.38905E+06
              882.5E-03            1.38529E+06        1.39067E+06
              885.E-03             1.38686E+06        1.39228E+06
              887.5E-03            1.38842E+06        1.3939E+06 
              890.E-03             1.38998E+06        1.39551E+06
              892.5E-03            1.39154E+06        1.39711E+06
              895.E-03             1.3931E+06         1.39872E+06
              897.5E-03            1.39465E+06        1.40032E+06
              900.E-03             1.39621E+06        1.40192E+06
              902.5E-03            1.39775E+06        1.40352E+06
              905.E-03             1.3993E+06         1.40512E+06
              907.5E-03            1.40084E+06        1.40671E+06
              910.E-03             1.40238E+06        1.4083E+06 
              912.5E-03            1.40392E+06        1.40989E+06
              915.E-03             1.40546E+06        1.41147E+06
              917.5E-03            1.40699E+06        1.41306E+06
              920.E-03             1.40852E+06        1.41464E+06
              922.5E-03            1.41004E+06        1.41622E+06
              925.E-03             1.41157E+06        1.41779E+06
              927.5E-03            1.41309E+06        1.41937E+06
              930.E-03             1.41461E+06        1.42094E+06
              932.5E-03            1.41612E+06        1.42251E+06
              935.E-03             1.41764E+06        1.42408E+06
              937.5E-03            1.41915E+06        1.42564E+06
              940.E-03             1.42066E+06        1.42721E+06
              942.5E-03            1.42216E+06        1.42877E+06
              945.E-03             1.42366E+06        1.43033E+06
              947.5E-03            1.42516E+06        1.43188E+06
              950.E-03             1.42666E+06        1.43344E+06
              952.5E-03            1.42815E+06        1.43499E+06
              955.E-03             1.42965E+06        1.43654E+06
              957.5E-03            1.43114E+06        1.43809E+06
              960.E-03             1.43262E+06        1.43963E+06
              962.5E-03            1.43411E+06        1.44118E+06
              965.E-03             1.43559E+06        1.44272E+06
              967.5E-03            1.43707E+06        1.44426E+06
              970.E-03             1.43854E+06        1.44579E+06
              972.5E-03            1.44002E+06        1.44733E+06
              975.E-03             1.44149E+06        1.44886E+06
              977.5E-03            1.44296E+06        1.45039E+06
              980.E-03             1.44443E+06        1.45192E+06
              982.5E-03            1.44589E+06        1.45345E+06
              985.E-03             1.44735E+06        1.45497E+06
              987.5E-03            1.44881E+06        1.45649E+06
              990.E-03             1.45027E+06        1.45801E+06
              992.5E-03            1.45172E+06        1.45953E+06
              995.E-03             1.45317E+06        1.46105E+06
              997.5E-03            1.45462E+06        1.46256E+06
                1.                 1.45607E+06        1.46407E+06




