
                  X               ep1-out            ep2-out            ep3-out             ep1-in             ep2-in             ep3-in     

                0.                 0.                 0.                 0.                 0.                 0.                 0.         
                2.5E-03          832.314E-06       -512.023E-06       -320.291E-06          1.00838E-03     -604.054E-06       -404.33E-06   
                5.E-03             2.93276E-03       -1.67739E-03       -1.25537E-03        3.25653E-03       -1.81764E-03       -1.43889E-03
                7.5E-03            5.06325E-03       -2.78899E-03       -2.27425E-03        5.49851E-03       -2.96198E-03       -2.53652E-03
               10.E-03             7.20589E-03       -3.88574E-03       -3.32014E-03        7.72785E-03       -4.08355E-03       -3.64429E-03
               12.5E-03            9.35615E-03       -4.97631E-03       -4.37984E-03        9.94638E-03       -5.19369E-03       -4.7527E-03 
               15.E-03            11.5117E-03        -6.06457E-03       -5.44709E-03       12.1564E-03        -6.29775E-03       -5.85864E-03
               17.5E-03           13.671E-03         -7.1522E-03        -6.51884E-03       14.3598E-03        -7.39838E-03       -6.96145E-03
               20.E-03            15.8334E-03        -8.23987E-03       -7.59351E-03       16.5583E-03        -8.49695E-03       -8.06136E-03
               22.5E-03           17.9981E-03        -9.32787E-03       -8.67023E-03       18.753E-03         -9.59417E-03       -9.15881E-03
               25.E-03            20.1647E-03       -10.4163E-03        -9.74848E-03       20.9448E-03       -10.6905E-03       -10.2543E-03 
               27.5E-03           22.333E-03        -11.505E-03        -10.828E-03         23.1344E-03       -11.7862E-03       -11.3482E-03 
               30.E-03            24.5026E-03       -12.5942E-03       -11.9084E-03        25.3223E-03       -12.8814E-03       -12.4409E-03 
               32.5E-03           26.6734E-03       -13.6837E-03       -12.9897E-03        27.509E-03        -13.9763E-03       -13.5327E-03 
               35.E-03            28.8452E-03       -14.7735E-03       -14.0718E-03        29.6947E-03       -15.071E-03        -14.6237E-03 
               37.5E-03           31.018E-03        -15.8635E-03       -15.1545E-03        31.8797E-03       -16.1654E-03       -15.7142E-03 
               40.E-03            33.1915E-03       -16.9538E-03       -16.2377E-03        34.0641E-03       -17.2598E-03       -16.8043E-03 
               42.5E-03           35.3657E-03       -18.0442E-03       -17.3214E-03        36.2482E-03       -18.354E-03        -17.8942E-03 
               45.E-03            37.5405E-03       -19.1349E-03       -18.4056E-03        38.4319E-03       -19.4482E-03       -18.9838E-03 
               47.5E-03           39.716E-03        -20.2257E-03       -19.4902E-03        40.6155E-03       -20.5423E-03       -20.0732E-03 
               50.E-03            41.8919E-03       -21.3167E-03       -20.5752E-03        42.799E-03        -21.6364E-03       -21.1626E-03 
               52.5E-03           44.0683E-03       -22.4079E-03       -21.6605E-03        44.9825E-03       -22.7306E-03       -22.2519E-03 
               55.E-03            46.2452E-03       -23.4991E-03       -22.7461E-03        47.1659E-03       -23.8247E-03       -23.3412E-03 
               57.5E-03           48.4224E-03       -24.5905E-03       -23.8319E-03        49.3494E-03       -24.9188E-03       -24.4305E-03 
               60.E-03            50.6E-03          -25.6819E-03       -24.9181E-03        51.5329E-03       -26.013E-03        -25.5199E-03 
               62.5E-03           52.778E-03        -26.7735E-03       -26.0045E-03        53.7166E-03       -27.1072E-03       -26.6093E-03 
               65.E-03            54.9562E-03       -27.8652E-03       -27.0911E-03        55.9003E-03       -28.2015E-03       -27.6988E-03 
               67.5E-03           57.1348E-03       -28.9569E-03       -28.1779E-03        58.0842E-03       -29.2958E-03       -28.7884E-03 
               70.E-03            59.3136E-03       -30.0487E-03       -29.2649E-03        60.2682E-03       -30.3902E-03       -29.8781E-03 
               72.5E-03           61.4927E-03       -31.1406E-03       -30.3521E-03        62.4524E-03       -31.4846E-03       -30.9679E-03 
               75.E-03            63.672E-03        -32.2326E-03       -31.4394E-03        64.6368E-03       -32.5791E-03       -32.0577E-03 
               77.5E-03           65.8515E-03       -33.3246E-03       -32.5269E-03        66.8213E-03       -33.6736E-03       -33.1477E-03 
               80.E-03            68.0313E-03       -34.4167E-03       -33.6146E-03        69.0061E-03       -34.7682E-03       -34.2379E-03 
               82.5E-03           70.261E-03        -35.3281E-03       -34.9328E-03        71.2481E-03       -35.6847E-03       -35.5634E-03 
               85.E-03            72.6849E-03       -36.896E-03        -35.7889E-03        73.6922E-03       -37.5417E-03       -36.1505E-03 
               87.5E-03           75.1586E-03       -39.1633E-03       -35.9953E-03        76.1568E-03       -39.7998E-03       -36.357E-03  
               90.E-03            77.6167E-03       -41.5341E-03       -36.0826E-03        78.6116E-03       -42.1664E-03       -36.4452E-03 
               92.5E-03           80.0643E-03       -43.9444E-03       -36.1199E-03        81.0556E-03       -44.5723E-03       -36.4833E-03 
               95.E-03            82.5064E-03       -46.3699E-03       -36.1366E-03        83.4951E-03       -46.9943E-03       -36.5008E-03 
               97.5E-03           84.9463E-03       -48.8015E-03       -36.1448E-03        85.9331E-03       -49.4232E-03       -36.5099E-03 
              100.E-03            87.3853E-03       -51.2358E-03       -36.1494E-03        88.3708E-03       -51.8553E-03       -36.5154E-03 
              102.5E-03           89.8239E-03       -53.6713E-03       -36.1526E-03        90.8088E-03       -54.2892E-03       -36.5196E-03 
              105.E-03            92.2625E-03       -56.1073E-03       -36.1552E-03        93.2473E-03       -56.7242E-03       -36.5231E-03 
              107.5E-03           94.7011E-03       -58.5437E-03       -36.1575E-03        95.6864E-03       -59.1601E-03       -36.5264E-03 
              110.E-03            97.1398E-03       -60.9803E-03       -36.1596E-03        98.1261E-03       -61.5966E-03       -36.5295E-03 
              112.5E-03           99.5786E-03       -63.417E-03        -36.1616E-03       100.566E-03        -64.0337E-03       -36.5326E-03 
              115.E-03           102.018E-03        -65.854E-03        -36.1635E-03       103.007E-03        -66.4713E-03       -36.5357E-03 
              117.5E-03          104.456E-03        -68.2911E-03       -36.1654E-03       105.448E-03        -68.9095E-03       -36.5387E-03 
              120.E-03           106.896E-03        -70.7283E-03       -36.1673E-03       107.89E-03         -71.3481E-03       -36.5417E-03 
              122.5E-03          109.335E-03        -73.1657E-03       -36.1691E-03       110.332E-03        -73.7872E-03       -36.5447E-03 
              125.E-03           111.774E-03        -75.6031E-03       -36.1708E-03       112.774E-03        -76.2268E-03       -36.5477E-03 
              127.5E-03          114.213E-03        -78.0408E-03       -36.1725E-03       115.217E-03        -78.6667E-03       -36.5506E-03 
              130.E-03           116.653E-03        -80.4785E-03       -36.1742E-03       117.661E-03        -81.107E-03        -36.5536E-03 
              132.5E-03          119.092E-03        -82.9164E-03       -36.1758E-03       120.104E-03        -83.5478E-03       -36.5565E-03 
              135.E-03           121.532E-03        -85.3543E-03       -36.1773E-03       122.548E-03        -85.9889E-03       -36.5594E-03 
              137.5E-03          123.971E-03        -87.7924E-03       -36.1789E-03       124.993E-03        -88.4303E-03       -36.5623E-03 
              140.E-03           126.411E-03        -90.2306E-03       -36.1804E-03       127.437E-03        -90.8721E-03       -36.5652E-03 
              142.5E-03          128.851E-03        -92.6688E-03       -36.1819E-03       129.882E-03        -93.3142E-03       -36.568E-03  
              145.E-03           131.29E-03         -95.1072E-03       -36.1833E-03       132.327E-03        -95.7566E-03       -36.5709E-03 
              147.5E-03          133.73E-03         -97.5456E-03       -36.1847E-03       134.773E-03        -98.1993E-03       -36.5738E-03 
              150.E-03           136.17E-03         -99.9841E-03       -36.186E-03        137.219E-03       -100.642E-03        -36.5766E-03 
              152.5E-03          138.61E-03        -102.423E-03        -36.1874E-03       139.665E-03       -103.086E-03        -36.5794E-03 
              155.E-03           141.05E-03        -104.861E-03        -36.1887E-03       142.112E-03       -105.529E-03        -36.5823E-03 
              157.5E-03          143.49E-03        -107.3E-03          -36.1899E-03       144.558E-03       -107.973E-03        -36.5851E-03 
              160.E-03           145.93E-03        -109.739E-03        -36.1912E-03       147.005E-03       -110.417E-03        -36.5879E-03 
              162.5E-03          148.37E-03        -112.178E-03        -36.1924E-03       149.452E-03       -112.862E-03        -36.5907E-03 
              165.E-03           150.81E-03        -114.617E-03        -36.1936E-03       151.9E-03         -115.306E-03        -36.5935E-03 
              167.5E-03          153.251E-03       -117.056E-03        -36.1947E-03       154.348E-03       -117.751E-03        -36.5963E-03 
              170.E-03           155.691E-03       -119.495E-03        -36.1958E-03       156.796E-03       -120.197E-03        -36.5991E-03 
              172.5E-03          158.131E-03       -121.934E-03        -36.1969E-03       159.244E-03       -122.642E-03        -36.6019E-03 
              175.E-03           160.571E-03       -124.373E-03        -36.198E-03        161.692E-03       -125.088E-03        -36.6047E-03 
              177.5E-03          163.011E-03       -126.812E-03        -36.199E-03        164.141E-03       -127.534E-03        -36.6075E-03 
              180.E-03           165.452E-03       -129.252E-03        -36.2E-03          166.59E-03        -129.98E-03         -36.6103E-03 
              182.5E-03          167.892E-03       -131.691E-03        -36.201E-03        169.039E-03       -132.426E-03        -36.6131E-03 
              185.E-03           170.313E-03       -134.387E-03        -35.9265E-03       171.463E-03       -135.123E-03        -36.3397E-03 
              187.5E-03          172.695E-03       -137.428E-03        -35.2665E-03       173.846E-03       -138.166E-03        -35.6806E-03 
              190.E-03           175.015E-03       -140.561E-03        -34.4537E-03       176.168E-03       -141.3E-03          -34.8681E-03 
              192.5E-03          177.304E-03       -143.721E-03        -33.5829E-03       178.458E-03       -144.461E-03        -33.9977E-03 
              195.E-03           179.579E-03       -146.889E-03        -32.6901E-03       180.736E-03       -147.631E-03        -33.1051E-03 
              197.5E-03          181.85E-03        -150.061E-03        -31.789E-03        183.009E-03       -150.805E-03        -32.2042E-03 
              200.E-03           184.119E-03       -153.235E-03        -30.8846E-03       185.28E-03        -153.98E-03         -31.2999E-03 
              202.5E-03          186.387E-03       -156.408E-03        -29.9789E-03       187.55E-03        -157.156E-03        -30.3944E-03 
              205.E-03           188.655E-03       -159.582E-03        -29.0727E-03       189.821E-03       -160.332E-03        -29.4884E-03 
              207.5E-03          190.923E-03       -162.757E-03        -28.1663E-03       192.091E-03       -163.509E-03        -28.5821E-03 
              210.E-03           193.191E-03       -165.931E-03        -27.2597E-03       194.362E-03       -166.686E-03        -27.6757E-03 
              212.5E-03          195.458E-03       -169.105E-03        -26.3532E-03       196.633E-03       -169.863E-03        -26.7692E-03 
              215.E-03           197.726E-03       -172.28E-03         -25.4465E-03       198.903E-03       -173.041E-03        -25.8627E-03 
              217.5E-03          199.994E-03       -175.454E-03        -24.5399E-03       201.174E-03       -176.218E-03        -24.9561E-03 
              220.E-03           202.262E-03       -178.629E-03        -23.6332E-03       203.446E-03       -179.396E-03        -24.0495E-03 
              222.5E-03          204.53E-03        -181.803E-03        -22.7264E-03       205.717E-03       -182.574E-03        -23.1428E-03 
              225.E-03           206.798E-03       -184.978E-03        -21.8197E-03       207.988E-03       -185.752E-03        -22.2361E-03 
              227.5E-03          209.065E-03       -188.153E-03        -20.9129E-03       210.26E-03        -188.931E-03        -21.3293E-03 
              230.E-03           211.333E-03       -191.327E-03        -20.0061E-03       212.532E-03       -192.109E-03        -20.4225E-03 
              232.5E-03          213.601E-03       -194.502E-03        -19.0992E-03       214.804E-03       -195.288E-03        -19.5157E-03 
              235.E-03           215.869E-03       -197.677E-03        -18.1924E-03       217.076E-03       -198.467E-03        -18.6088E-03 
              237.5E-03          218.137E-03       -200.852E-03        -17.2855E-03       219.348E-03       -201.646E-03        -17.7019E-03 
              240.E-03           220.405E-03       -204.027E-03        -16.3786E-03       221.621E-03       -204.826E-03        -16.7949E-03 
              242.5E-03          222.673E-03       -207.202E-03        -15.4716E-03       223.893E-03       -208.005E-03        -15.8879E-03 
              245.E-03           224.941E-03       -210.377E-03        -14.5646E-03       226.166E-03       -211.185E-03        -14.9809E-03 
              247.5E-03          227.209E-03       -213.552E-03        -13.6577E-03       228.439E-03       -214.365E-03        -14.0738E-03 
              250.E-03           229.477E-03       -216.727E-03        -12.7506E-03       230.712E-03       -217.545E-03        -13.1667E-03 
              252.5E-03          231.745E-03       -219.902E-03        -11.8436E-03       232.985E-03       -220.725E-03        -12.2596E-03 
              255.E-03           234.013E-03       -223.077E-03        -10.9365E-03       235.258E-03       -223.906E-03        -11.3524E-03 
              257.5E-03          236.282E-03       -226.252E-03        -10.0294E-03       237.532E-03       -227.086E-03        -10.4452E-03 
              260.E-03           238.55E-03        -229.427E-03         -9.12234E-03      239.805E-03       -230.267E-03         -9.53798E-03
              262.5E-03          240.818E-03       -232.603E-03         -8.21521E-03      242.079E-03       -233.448E-03         -8.63071E-03
              265.E-03           243.086E-03       -235.778E-03         -7.30806E-03      244.353E-03       -236.629E-03         -7.72341E-03
              267.5E-03          245.354E-03       -238.953E-03         -6.4009E-03       246.626E-03       -239.81E-03          -6.81607E-03
              270.E-03           247.622E-03       -242.128E-03         -5.49371E-03      248.901E-03       -242.992E-03         -5.90871E-03
              272.5E-03          249.89E-03        -245.304E-03         -4.5865E-03       251.175E-03       -246.173E-03         -5.00131E-03
              275.E-03           252.158E-03       -248.479E-03         -3.67928E-03      253.449E-03       -249.355E-03         -4.09389E-03
              277.5E-03          254.426E-03       -251.654E-03         -2.77204E-03      255.723E-03       -252.537E-03         -3.18643E-03
              280.E-03           256.695E-03       -254.83E-03          -1.86478E-03      257.998E-03       -255.719E-03         -2.27894E-03
              282.5E-03          258.963E-03       -258.005E-03       -957.502E-06        260.273E-03       -258.901E-03         -1.37143E-03
              285.E-03           261.231E-03       -261.181E-03        -50.2081E-06       262.547E-03       -262.084E-03       -463.88E-06   
              287.5E-03          263.499E-03       -264.356E-03        857.102E-06        264.822E-03       -265.266E-03        443.694E-06  
              290.E-03           265.767E-03       -267.532E-03          1.76443E-03      267.097E-03       -268.449E-03          1.3513E-03 
              292.5E-03          268.035E-03       -270.707E-03          2.67177E-03      269.373E-03       -271.632E-03          2.25893E-03
              295.E-03           270.303E-03       -273.883E-03          3.57913E-03      271.648E-03       -274.815E-03          3.16659E-03
              297.5E-03          272.572E-03       -277.058E-03          4.4865E-03       273.923E-03       -277.998E-03          4.07427E-03
              300.E-03           274.84E-03        -280.234E-03          5.39389E-03      276.199E-03       -281.181E-03          4.98199E-03
              302.5E-03          277.108E-03       -283.409E-03          6.30129E-03      278.475E-03       -284.364E-03          5.88973E-03
              305.E-03           279.376E-03       -286.585E-03          7.20871E-03      280.75E-03        -287.548E-03          6.79749E-03
              307.5E-03          281.644E-03       -289.76E-03           8.11614E-03      283.026E-03       -290.731E-03          7.70529E-03
              310.E-03           283.912E-03       -292.936E-03          9.02358E-03      285.302E-03       -293.915E-03          8.61311E-03
              312.5E-03          286.18E-03        -296.111E-03          9.93104E-03      287.578E-03       -297.099E-03          9.52095E-03
              315.E-03           288.448E-03       -299.287E-03         10.8385E-03       289.855E-03       -300.283E-03         10.4288E-03 
              317.5E-03          290.716E-03       -302.462E-03         11.746E-03        292.131E-03       -303.468E-03         11.3367E-03 
              320.E-03           292.984E-03       -305.638E-03         12.6535E-03       294.408E-03       -306.652E-03         12.2446E-03 
              322.5E-03          295.253E-03       -308.814E-03         13.561E-03        296.684E-03       -309.837E-03         13.1526E-03 
              325.E-03           297.521E-03       -311.989E-03         14.4685E-03       298.961E-03       -313.021E-03         14.0606E-03 
              327.5E-03          299.789E-03       -315.165E-03         15.376E-03        301.238E-03       -316.206E-03         14.9686E-03 
              330.E-03           302.057E-03       -318.34E-03          16.2836E-03       303.515E-03       -319.391E-03         15.8766E-03 
              332.5E-03          304.325E-03       -321.516E-03         17.1911E-03       305.792E-03       -322.576E-03         16.7846E-03 
              335.E-03           306.593E-03       -324.691E-03         18.0987E-03       308.069E-03       -325.762E-03         17.6927E-03 
              337.5E-03          308.861E-03       -327.867E-03         19.0063E-03       310.346E-03       -328.947E-03         18.6008E-03 
              340.E-03           311.129E-03       -331.042E-03         19.9138E-03       312.624E-03       -332.133E-03         19.5089E-03 
              342.5E-03          313.397E-03       -334.218E-03         20.8214E-03       314.901E-03       -335.318E-03         20.4171E-03 
              345.E-03           315.664E-03       -337.394E-03         21.729E-03        317.179E-03       -338.504E-03         21.3252E-03 
              347.5E-03          317.932E-03       -340.569E-03         22.6366E-03       319.457E-03       -341.69E-03          22.2334E-03 
              350.E-03           320.2E-03         -343.745E-03         23.5443E-03       321.735E-03       -344.876E-03         23.1416E-03 
              352.5E-03          322.468E-03       -346.92E-03          24.4519E-03       324.013E-03       -348.063E-03         24.0499E-03 
              355.E-03           324.736E-03       -350.096E-03         25.3595E-03       326.291E-03       -351.249E-03         24.9581E-03 
              357.5E-03          327.004E-03       -353.271E-03         26.2672E-03       328.569E-03       -354.436E-03         25.8664E-03 
              360.E-03           329.272E-03       -356.447E-03         27.1748E-03       330.848E-03       -357.622E-03         26.7747E-03 
              362.5E-03          331.54E-03        -359.622E-03         28.0825E-03       333.126E-03       -360.809E-03         27.6831E-03 
              365.E-03           333.807E-03       -362.797E-03         28.9902E-03       335.405E-03       -363.996E-03         28.5914E-03 
              367.5E-03          336.075E-03       -365.973E-03         29.8978E-03       337.684E-03       -367.184E-03         29.4998E-03 
              370.E-03           338.343E-03       -369.148E-03         30.8055E-03       339.963E-03       -370.371E-03         30.4082E-03 
              372.5E-03          340.611E-03       -372.324E-03         31.7132E-03       342.242E-03       -373.558E-03         31.3166E-03 
              375.E-03           342.878E-03       -375.499E-03         32.6209E-03       344.521E-03       -376.746E-03         32.2251E-03 
              377.5E-03          345.146E-03       -378.675E-03         33.5286E-03       346.8E-03         -379.934E-03         33.1335E-03 
              380.E-03           347.414E-03       -381.85E-03          34.4363E-03       349.08E-03        -383.122E-03         34.042E-03  
              382.5E-03          349.681E-03       -385.025E-03         35.3441E-03       351.359E-03       -386.31E-03          34.9505E-03 
              385.E-03           351.949E-03       -388.201E-03         36.2518E-03       353.639E-03       -389.498E-03         35.8591E-03 
              387.5E-03          354.216E-03       -391.376E-03         37.1595E-03       355.918E-03       -392.686E-03         36.7677E-03 
              390.E-03           356.484E-03       -394.551E-03         38.0672E-03       358.198E-03       -395.875E-03         37.6762E-03 
              392.5E-03          358.751E-03       -397.726E-03         38.975E-03        360.478E-03       -399.063E-03         38.5848E-03 
              395.E-03           361.019E-03       -400.902E-03         39.8827E-03       362.759E-03       -402.252E-03         39.4935E-03 
              397.5E-03          363.286E-03       -404.077E-03         40.7905E-03       365.039E-03       -405.441E-03         40.4021E-03 
              400.E-03           365.554E-03       -407.252E-03         41.6982E-03       367.319E-03       -408.63E-03          41.3108E-03 
              402.5E-03          367.821E-03       -410.427E-03         42.606E-03        369.6E-03         -411.819E-03         42.2195E-03 
              405.E-03           370.089E-03       -413.602E-03         43.5138E-03       371.881E-03       -415.009E-03         43.1282E-03 
              407.5E-03          372.356E-03       -416.777E-03         44.4215E-03       374.161E-03       -418.198E-03         44.037E-03  
              410.E-03           374.623E-03       -419.952E-03         45.3293E-03       376.442E-03       -421.388E-03         44.9457E-03 
              412.5E-03          376.89E-03        -423.127E-03         46.2371E-03       378.723E-03       -424.578E-03         45.8545E-03 
              415.E-03           379.158E-03       -426.302E-03         47.1449E-03       381.005E-03       -427.768E-03         46.7633E-03 
              417.5E-03          381.425E-03       -429.477E-03         48.0527E-03       383.286E-03       -430.958E-03         47.6722E-03 
              420.E-03           383.692E-03       -432.652E-03         48.9604E-03       385.567E-03       -434.148E-03         48.581E-03  
              422.5E-03          385.959E-03       -435.827E-03         49.8682E-03       387.849E-03       -437.339E-03         49.4899E-03 
              425.E-03           388.226E-03       -439.002E-03         50.776E-03        390.131E-03       -440.53E-03          50.3988E-03 
              427.5E-03          390.493E-03       -442.177E-03         51.6838E-03       392.413E-03       -443.72E-03          51.3078E-03 
              430.E-03           392.76E-03        -445.352E-03         52.5916E-03       394.695E-03       -446.911E-03         52.2167E-03 
              432.5E-03          395.027E-03       -448.527E-03         53.4994E-03       396.977E-03       -450.103E-03         53.1257E-03 
              435.E-03           397.294E-03       -451.701E-03         54.4073E-03       399.259E-03       -453.294E-03         54.0347E-03 
              437.5E-03          399.561E-03       -454.876E-03         55.3151E-03       401.542E-03       -456.485E-03         54.9437E-03 
              440.E-03           401.828E-03       -458.051E-03         56.2229E-03       403.824E-03       -459.677E-03         55.8528E-03 
              442.5E-03          404.095E-03       -461.225E-03         57.1307E-03       406.107E-03       -462.869E-03         56.7618E-03 
              445.E-03           406.361E-03       -464.4E-03           58.0385E-03       408.39E-03        -466.061E-03         57.6709E-03 
              447.5E-03          408.628E-03       -467.574E-03         58.9463E-03       410.673E-03       -469.253E-03         58.58E-03   
              450.E-03           410.895E-03       -470.749E-03         59.8541E-03       412.956E-03       -472.445E-03         59.4892E-03 
              452.5E-03          413.161E-03       -473.923E-03         60.7619E-03       415.239E-03       -475.638E-03         60.3984E-03 
              455.E-03           415.428E-03       -477.098E-03         61.6698E-03       417.523E-03       -478.83E-03          61.3075E-03 
              457.5E-03          417.695E-03       -480.272E-03         62.5776E-03       419.806E-03       -482.023E-03         62.2168E-03 
              460.E-03           419.961E-03       -483.446E-03         63.4854E-03       422.09E-03        -485.216E-03         63.126E-03  
              462.5E-03          422.227E-03       -486.621E-03         64.3932E-03       424.374E-03       -488.409E-03         64.0353E-03 
              465.E-03           424.494E-03       -489.795E-03         65.301E-03        426.658E-03       -491.603E-03         64.9446E-03 
              467.5E-03          426.76E-03        -492.969E-03         66.2089E-03       428.942E-03       -494.796E-03         65.8539E-03 
              470.E-03           429.026E-03       -496.143E-03         67.1167E-03       431.227E-03       -497.99E-03          66.7632E-03 
              472.5E-03          431.293E-03       -499.317E-03         68.0245E-03       433.511E-03       -501.184E-03         67.6726E-03 
              475.E-03           433.559E-03       -502.491E-03         68.9323E-03       435.796E-03       -504.378E-03         68.582E-03  
              477.5E-03          435.825E-03       -505.665E-03         69.8401E-03       438.081E-03       -507.572E-03         69.4914E-03 
              480.E-03           438.091E-03       -508.839E-03         70.748E-03        440.366E-03       -510.767E-03         70.4008E-03 
              482.5E-03          440.357E-03       -512.013E-03         71.6558E-03       442.651E-03       -513.961E-03         71.3103E-03 
              485.E-03           442.623E-03       -515.187E-03         72.5636E-03       444.936E-03       -517.156E-03         72.2198E-03 
              487.5E-03          444.889E-03       -518.361E-03         73.4714E-03       447.222E-03       -520.351E-03         73.1293E-03 
              490.E-03           447.155E-03       -521.534E-03         74.3792E-03       449.507E-03       -523.546E-03         74.0389E-03 
              492.5E-03          449.421E-03       -524.708E-03         75.287E-03        451.793E-03       -526.742E-03         74.9484E-03 
              495.E-03           451.687E-03       -527.881E-03         76.1948E-03       454.079E-03       -529.937E-03         75.858E-03  
              497.5E-03          453.952E-03       -531.055E-03         77.1026E-03       456.365E-03       -533.133E-03         76.7676E-03 
              500.E-03           456.218E-03       -534.228E-03         78.0104E-03       458.652E-03       -536.329E-03         77.6773E-03 
              502.5E-03          458.484E-03       -537.402E-03         78.9183E-03       460.938E-03       -539.525E-03         78.587E-03  
              505.E-03           460.749E-03       -540.575E-03         79.826E-03        463.225E-03       -542.721E-03         79.4967E-03 
              507.5E-03          463.015E-03       -543.748E-03         80.7338E-03       465.512E-03       -545.918E-03         80.4064E-03 
              510.E-03           465.28E-03        -546.922E-03         81.6416E-03       467.799E-03       -549.115E-03         81.3162E-03 
              512.5E-03          467.545E-03       -550.095E-03         82.5494E-03       470.086E-03       -552.312E-03         82.226E-03  
              515.E-03           469.811E-03       -553.268E-03         83.4572E-03       472.373E-03       -555.509E-03         83.1358E-03 
              517.5E-03          472.076E-03       -556.441E-03         84.365E-03        474.661E-03       -558.706E-03         84.0456E-03 
              520.E-03           474.341E-03       -559.614E-03         85.2728E-03       476.948E-03       -561.904E-03         84.9555E-03 
              522.5E-03          476.606E-03       -562.787E-03         86.1805E-03       479.236E-03       -565.102E-03         85.8654E-03 
              525.E-03           478.871E-03       -565.96E-03          87.0883E-03       481.524E-03       -568.299E-03         86.7753E-03 
              527.5E-03          481.136E-03       -569.132E-03         87.9961E-03       483.812E-03       -571.498E-03         87.6853E-03 
              530.E-03           483.401E-03       -572.305E-03         88.9038E-03       486.101E-03       -574.696E-03         88.5953E-03 
              532.5E-03          485.666E-03       -575.477E-03         89.8116E-03       488.389E-03       -577.895E-03         89.5053E-03 
              535.E-03           487.931E-03       -578.65E-03          90.7194E-03       490.678E-03       -581.094E-03         90.4154E-03 
              537.5E-03          490.195E-03       -581.822E-03         91.6271E-03       492.967E-03       -584.293E-03         91.3254E-03 
              540.E-03           492.46E-03        -584.995E-03         92.5348E-03       495.256E-03       -587.492E-03         92.2356E-03 
              542.5E-03          494.725E-03       -588.167E-03         93.4426E-03       497.546E-03       -590.691E-03         93.1457E-03 
              545.E-03           496.989E-03       -591.339E-03         94.3503E-03       499.835E-03       -593.891E-03         94.0559E-03 
              547.5E-03          499.253E-03       -594.511E-03         95.258E-03        502.125E-03       -597.091E-03         94.9661E-03 
              550.E-03           501.518E-03       -597.683E-03         96.1657E-03       504.415E-03       -600.291E-03         95.8763E-03 
              552.5E-03          503.782E-03       -600.855E-03         97.0735E-03       506.705E-03       -603.492E-03         96.7866E-03 
              555.E-03           506.046E-03       -604.027E-03         97.9812E-03       508.995E-03       -606.692E-03         97.6969E-03 
              557.5E-03          508.31E-03        -607.199E-03         98.8889E-03       511.286E-03       -609.893E-03         98.6072E-03 
              560.E-03           510.574E-03       -610.371E-03         99.7966E-03       513.577E-03       -613.094E-03         99.5176E-03 
              562.5E-03          512.838E-03       -613.542E-03        100.704E-03        515.868E-03       -616.296E-03        100.428E-03  
              565.E-03           515.102E-03       -616.714E-03        101.612E-03        518.159E-03       -619.497E-03        101.338E-03  
              567.5E-03          517.366E-03       -619.885E-03        102.52E-03         520.45E-03        -622.699E-03        102.249E-03  
              570.E-03           519.63E-03        -623.057E-03        103.427E-03        522.742E-03       -625.901E-03        103.159E-03  
              572.5E-03          521.893E-03       -626.228E-03        104.335E-03        525.033E-03       -629.103E-03        104.07E-03   
              575.E-03           524.157E-03       -629.399E-03        105.243E-03        527.325E-03       -632.306E-03        104.98E-03   
              577.5E-03          526.42E-03        -632.57E-03         106.15E-03         529.618E-03       -635.509E-03        105.891E-03  
              580.E-03           528.684E-03       -635.741E-03        107.058E-03        531.91E-03        -638.712E-03        106.802E-03  
              582.5E-03          530.947E-03       -638.912E-03        107.965E-03        534.203E-03       -641.915E-03        107.712E-03  
              585.E-03           533.21E-03        -642.083E-03        108.873E-03        536.495E-03       -645.119E-03        108.623E-03  
              587.5E-03          535.473E-03       -645.254E-03        109.781E-03        538.789E-03       -648.322E-03        109.534E-03  
              590.E-03           537.736E-03       -648.424E-03        110.688E-03        541.082E-03       -651.526E-03        110.445E-03  
              592.5E-03          539.999E-03       -651.595E-03        111.596E-03        543.375E-03       -654.731E-03        111.355E-03  
              595.E-03           542.262E-03       -654.766E-03        112.503E-03        545.669E-03       -657.935E-03        112.266E-03  
              597.5E-03          544.525E-03       -657.936E-03        113.411E-03        547.963E-03       -661.14E-03         113.177E-03  
              600.E-03           546.787E-03       -661.106E-03        114.318E-03        550.257E-03       -664.345E-03        114.088E-03  
              602.5E-03          549.05E-03        -664.276E-03        115.226E-03        552.552E-03       -667.551E-03        114.999E-03  
              605.E-03           551.313E-03       -667.446E-03        116.134E-03        554.846E-03       -670.756E-03        115.91E-03   
              607.5E-03          553.575E-03       -670.616E-03        117.041E-03        557.141E-03       -673.962E-03        116.821E-03  
              610.E-03           555.837E-03       -673.786E-03        117.949E-03        559.436E-03       -677.169E-03        117.732E-03  
              612.5E-03          558.099E-03       -676.956E-03        118.856E-03        561.732E-03       -680.375E-03        118.643E-03  
              615.E-03           560.362E-03       -680.125E-03        119.764E-03        564.027E-03       -683.582E-03        119.555E-03  
              617.5E-03          562.624E-03       -683.295E-03        120.671E-03        566.323E-03       -686.789E-03        120.466E-03  
              620.E-03           564.885E-03       -686.464E-03        121.578E-03        568.619E-03       -689.996E-03        121.377E-03  
              622.5E-03          567.147E-03       -689.633E-03        122.486E-03        570.916E-03       -693.204E-03        122.288E-03  
              625.E-03           569.409E-03       -692.802E-03        123.393E-03        573.212E-03       -696.412E-03        123.2E-03    
              627.5E-03          571.671E-03       -695.971E-03        124.301E-03        575.509E-03       -699.62E-03         124.111E-03  
              630.E-03           573.932E-03       -699.14E-03         125.208E-03        577.806E-03       -702.829E-03        125.022E-03  
              632.5E-03          576.193E-03       -702.309E-03        126.116E-03        580.104E-03       -706.038E-03        125.934E-03  
              635.E-03           578.455E-03       -705.478E-03        127.023E-03        582.401E-03       -709.247E-03        126.845E-03  
              637.5E-03          580.716E-03       -708.646E-03        127.93E-03         584.699E-03       -712.456E-03        127.757E-03  
              640.E-03           582.977E-03       -711.815E-03        128.838E-03        586.997E-03       -715.666E-03        128.668E-03  
              642.5E-03          585.238E-03       -714.983E-03        129.745E-03        589.296E-03       -718.876E-03        129.58E-03   
              645.E-03           587.499E-03       -718.151E-03        130.652E-03        591.595E-03       -722.086E-03        130.492E-03  
              647.5E-03          589.76E-03        -721.319E-03        131.56E-03         593.893E-03       -725.297E-03        131.404E-03  
              650.E-03           592.02E-03        -724.487E-03        132.467E-03        596.193E-03       -728.508E-03        132.315E-03  
              652.5E-03          594.281E-03       -727.655E-03        133.374E-03        598.492E-03       -731.719E-03        133.227E-03  
              655.E-03           596.541E-03       -730.823E-03        134.281E-03        600.792E-03       -734.931E-03        134.139E-03  
              657.5E-03          598.801E-03       -733.99E-03         135.189E-03        603.092E-03       -738.143E-03        135.051E-03  
              660.E-03           601.062E-03       -737.157E-03        136.096E-03        605.392E-03       -741.355E-03        135.963E-03  
              662.5E-03          603.322E-03       -740.325E-03        137.003E-03        607.693E-03       -744.568E-03        136.875E-03  
              665.E-03           605.582E-03       -743.492E-03        137.91E-03         609.994E-03       -747.781E-03        137.787E-03  
              667.5E-03          607.841E-03       -746.659E-03        138.817E-03        612.295E-03       -750.994E-03        138.699E-03  
              670.E-03           610.101E-03       -749.826E-03        139.725E-03        614.597E-03       -754.208E-03        139.611E-03  
              672.5E-03          612.361E-03       -752.992E-03        140.632E-03        616.898E-03       -757.422E-03        140.524E-03  
              675.E-03           614.62E-03        -756.159E-03        141.539E-03        619.2E-03         -760.636E-03        141.436E-03  
              677.5E-03          616.879E-03       -759.325E-03        142.446E-03        621.503E-03       -763.851E-03        142.348E-03  
              680.E-03           619.139E-03       -762.492E-03        143.353E-03        623.806E-03       -767.066E-03        143.261E-03  
              682.5E-03          621.398E-03       -765.658E-03        144.26E-03         626.109E-03       -770.281E-03        144.173E-03  
              685.E-03           623.657E-03       -768.824E-03        145.167E-03        628.412E-03       -773.497E-03        145.085E-03  
              687.5E-03          625.915E-03       -771.989E-03        146.074E-03        630.715E-03       -776.713E-03        145.998E-03  
              690.E-03           628.174E-03       -775.155E-03        146.981E-03        633.019E-03       -779.93E-03         146.911E-03  
              692.5E-03          630.433E-03       -778.321E-03        147.888E-03        635.324E-03       -783.147E-03        147.823E-03  
              695.E-03           632.691E-03       -781.486E-03        148.795E-03        637.628E-03       -786.364E-03        148.736E-03  
              697.5E-03          634.949E-03       -784.651E-03        149.702E-03        639.933E-03       -789.582E-03        149.649E-03  
              700.E-03           637.208E-03       -787.816E-03        150.609E-03        642.238E-03       -792.8E-03          150.562E-03  
              702.5E-03          639.466E-03       -790.981E-03        151.516E-03        644.544E-03       -796.018E-03        151.474E-03  
              705.E-03           641.723E-03       -794.146E-03        152.423E-03        646.849E-03       -799.237E-03        152.387E-03  
              707.5E-03          643.981E-03       -797.311E-03        153.329E-03        649.156E-03       -802.456E-03        153.3E-03    
              710.E-03           646.239E-03       -800.475E-03        154.236E-03        651.462E-03       -805.676E-03        154.214E-03  
              712.5E-03          648.496E-03       -803.639E-03        155.143E-03        653.769E-03       -808.896E-03        155.127E-03  
              715.E-03           650.754E-03       -806.803E-03        156.05E-03         656.076E-03       -812.116E-03        156.04E-03   
              717.5E-03          653.011E-03       -809.967E-03        156.957E-03        658.384E-03       -815.337E-03        156.953E-03  
              720.E-03           655.268E-03       -813.131E-03        157.863E-03        660.692E-03       -818.558E-03        157.866E-03  
              722.5E-03          657.525E-03       -816.295E-03        158.77E-03         663.E-03          -821.78E-03         158.78E-03   
              725.E-03           659.781E-03       -819.458E-03        159.677E-03        665.308E-03       -825.002E-03        159.693E-03  
              727.5E-03          662.038E-03       -822.621E-03        160.583E-03        667.617E-03       -828.224E-03        160.607E-03  
              730.E-03           664.294E-03       -825.784E-03        161.49E-03         669.926E-03       -831.447E-03        161.52E-03   
              732.5E-03          666.551E-03       -828.947E-03        162.396E-03        672.236E-03       -834.67E-03         162.434E-03  
              735.E-03           668.807E-03       -832.11E-03         163.303E-03        674.546E-03       -837.894E-03        163.348E-03  
              737.5E-03          671.063E-03       -835.272E-03        164.21E-03         676.856E-03       -841.118E-03        164.262E-03  
              740.E-03           673.319E-03       -838.435E-03        165.116E-03        679.167E-03       -844.343E-03        165.175E-03  
              742.5E-03          675.574E-03       -841.597E-03        166.022E-03        681.478E-03       -847.568E-03        166.089E-03  
              745.E-03           677.83E-03        -844.759E-03        166.929E-03        683.79E-03        -850.793E-03        167.003E-03  
              747.5E-03          680.085E-03       -847.92E-03         167.835E-03        686.102E-03       -854.019E-03        167.918E-03  
              750.E-03           682.34E-03        -851.082E-03        168.742E-03        688.414E-03       -857.245E-03        168.832E-03  
              752.5E-03          684.595E-03       -854.243E-03        169.648E-03        690.726E-03       -860.472E-03        169.746E-03  
              755.E-03           686.85E-03        -857.405E-03        170.554E-03        693.039E-03       -863.7E-03          170.66E-03   
              757.5E-03          689.105E-03       -860.566E-03        171.461E-03        695.353E-03       -866.927E-03        171.575E-03  
              760.E-03           691.359E-03       -863.726E-03        172.367E-03        697.667E-03       -870.156E-03        172.489E-03  
              762.5E-03          693.614E-03       -866.887E-03        173.273E-03        699.981E-03       -873.384E-03        173.404E-03  
              765.E-03           695.868E-03       -870.047E-03        174.179E-03        702.295E-03       -876.614E-03        174.318E-03  
              767.5E-03          698.122E-03       -873.208E-03        175.086E-03        704.61E-03        -879.843E-03        175.233E-03  
              770.E-03           700.376E-03       -876.368E-03        175.992E-03        706.926E-03       -883.074E-03        176.148E-03  
              772.5E-03          702.63E-03        -879.527E-03        176.898E-03        709.242E-03       -886.304E-03        177.063E-03  
              775.E-03           704.883E-03       -882.687E-03        177.804E-03        711.558E-03       -889.535E-03        177.978E-03  
              777.5E-03          707.136E-03       -885.846E-03        178.71E-03         713.875E-03       -892.767E-03        178.893E-03  
              780.E-03           709.39E-03        -889.005E-03        179.616E-03        716.192E-03       -895.999E-03        179.808E-03  
              782.5E-03          711.643E-03       -892.164E-03        180.522E-03        718.509E-03       -899.232E-03        180.723E-03  
              785.E-03           713.895E-03       -895.323E-03        181.428E-03        720.827E-03       -902.465E-03        181.638E-03  
              787.5E-03          716.148E-03       -898.482E-03        182.334E-03        723.145E-03       -905.699E-03        182.554E-03  
              790.E-03           718.4E-03         -901.64E-03         183.24E-03         725.464E-03       -908.933E-03        183.469E-03  
              792.5E-03          720.653E-03       -904.798E-03        184.145E-03        727.783E-03       -912.168E-03        184.385E-03  
              795.E-03           722.905E-03       -907.956E-03        185.051E-03        730.103E-03       -915.404E-03        185.3E-03    
              797.5E-03          725.156E-03       -911.113E-03        185.957E-03        732.423E-03       -918.639E-03        186.216E-03  
              800.E-03           727.408E-03       -914.271E-03        186.863E-03        734.744E-03       -921.876E-03        187.132E-03  
              802.5E-03          729.66E-03        -917.428E-03        187.768E-03        737.065E-03       -925.113E-03        188.048E-03  
              805.E-03           731.911E-03       -920.585E-03        188.674E-03        739.386E-03       -928.35E-03         188.964E-03  
              807.5E-03          734.162E-03       -923.741E-03        189.579E-03        741.708E-03       -931.588E-03        189.88E-03   
              810.E-03           736.413E-03       -926.898E-03        190.485E-03        744.031E-03       -934.827E-03        190.796E-03  
              812.5E-03          738.664E-03       -930.054E-03        191.39E-03         746.354E-03       -938.066E-03        191.713E-03  
              815.E-03           740.914E-03       -933.21E-03         192.296E-03        748.677E-03       -941.306E-03        192.629E-03  
              817.5E-03          743.164E-03       -936.366E-03        193.201E-03        751.001E-03       -944.547E-03        193.546E-03  
              820.E-03           745.414E-03       -939.521E-03        194.107E-03        753.325E-03       -947.788E-03        194.462E-03  
              822.5E-03          747.664E-03       -942.676E-03        195.012E-03        755.65E-03        -951.029E-03        195.379E-03  
              825.E-03           749.914E-03       -945.831E-03        195.917E-03        757.976E-03       -954.271E-03        196.296E-03  
              827.5E-03          752.163E-03       -948.986E-03        196.823E-03        760.301E-03       -957.514E-03        197.213E-03  
              830.E-03           754.413E-03       -952.14E-03         197.728E-03        762.628E-03       -960.757E-03        198.13E-03   
              832.5E-03          756.662E-03       -955.295E-03        198.633E-03        764.955E-03       -964.001E-03        199.047E-03  
              835.E-03           758.911E-03       -958.448E-03        199.538E-03        767.282E-03       -967.246E-03        199.964E-03  
              837.5E-03          761.159E-03       -961.602E-03        200.443E-03        769.61E-03        -970.491E-03        200.882E-03  
              840.E-03           763.408E-03       -964.756E-03        201.348E-03        771.938E-03       -973.737E-03        201.799E-03  
              842.5E-03          765.656E-03       -967.909E-03        202.253E-03        774.267E-03       -976.984E-03        202.717E-03  
              845.E-03           767.904E-03       -971.062E-03        203.158E-03        776.596E-03       -980.231E-03        203.635E-03  
              847.5E-03          770.151E-03       -974.214E-03        204.063E-03        778.926E-03       -983.479E-03        204.552E-03  
              850.E-03           772.399E-03       -977.366E-03        204.967E-03        781.257E-03       -986.727E-03        205.47E-03   
              852.5E-03          774.646E-03       -980.518E-03        205.872E-03        783.588E-03       -989.976E-03        206.388E-03  
              855.E-03           776.893E-03       -983.67E-03         206.777E-03        785.919E-03       -993.226E-03        207.307E-03  
              857.5E-03          779.14E-03        -986.822E-03        207.682E-03        788.252E-03       -996.477E-03        208.225E-03  
              860.E-03           781.387E-03       -989.973E-03        208.586E-03        790.584E-03       -999.728E-03        209.144E-03  
              862.5E-03          783.633E-03       -993.124E-03        209.491E-03        792.917E-03         -1.00298          210.062E-03  
              865.E-03           785.879E-03       -996.274E-03        210.395E-03        795.251E-03         -1.00623          210.981E-03  
              867.5E-03          788.125E-03       -999.425E-03        211.3E-03          797.586E-03         -1.00949          211.9E-03    
              870.E-03           790.371E-03         -1.00257          212.204E-03        799.92E-03          -1.01274          212.819E-03  
              872.5E-03          792.616E-03         -1.00572          213.108E-03        802.256E-03         -1.01599          213.738E-03  
              875.E-03           794.862E-03         -1.00887          214.013E-03        804.592E-03         -1.01925          214.657E-03  
              877.5E-03          797.106E-03         -1.01202          214.917E-03        806.929E-03         -1.02251          215.576E-03  
              880.E-03           799.351E-03         -1.01517          215.821E-03        809.266E-03         -1.02576          216.496E-03  
              882.5E-03          801.596E-03         -1.01832          216.725E-03        811.604E-03         -1.02902          217.416E-03  
              885.E-03           803.84E-03          -1.02147          217.629E-03        813.942E-03         -1.03228          218.335E-03  
              887.5E-03          806.084E-03         -1.02462          218.533E-03        816.281E-03         -1.03554          219.255E-03  
              890.E-03           808.327E-03         -1.02776          219.437E-03        818.621E-03         -1.0388           220.176E-03  
              892.5E-03          810.571E-03         -1.03091          220.341E-03        820.961E-03         -1.04206          221.096E-03  
              895.E-03           812.814E-03         -1.03406          221.244E-03        823.302E-03         -1.04532          222.016E-03  
              897.5E-03          815.057E-03         -1.03721          222.148E-03        825.644E-03         -1.04858          222.937E-03  
              900.E-03           817.3E-03           -1.04035          223.052E-03        827.986E-03         -1.05184          223.857E-03  
              902.5E-03          819.542E-03         -1.0435           223.955E-03        830.329E-03         -1.05511          224.778E-03  
              905.E-03           821.784E-03         -1.04664          224.859E-03        832.672E-03         -1.05837          225.699E-03  
              907.5E-03          824.026E-03         -1.04979          225.762E-03        835.016E-03         -1.06164          226.62E-03   
              910.E-03           826.268E-03         -1.05293          226.666E-03        837.361E-03         -1.0649           227.542E-03  
              912.5E-03          828.509E-03         -1.05608          227.569E-03        839.707E-03         -1.06817          228.463E-03  
              915.E-03           830.75E-03          -1.05922          228.472E-03        842.053E-03         -1.07144          229.385E-03  
              917.5E-03          832.991E-03         -1.06237          229.375E-03        844.399E-03         -1.07471          230.307E-03  
              920.E-03           835.231E-03         -1.06551          230.278E-03        846.747E-03         -1.07798          231.229E-03  
              922.5E-03          837.472E-03         -1.06865          231.181E-03        849.095E-03         -1.08125          232.151E-03  
              925.E-03           839.712E-03         -1.0718           232.084E-03        851.444E-03         -1.08452          233.073E-03  
              927.5E-03          841.951E-03         -1.07494          232.987E-03        853.793E-03         -1.08779          233.996E-03  
              930.E-03           844.191E-03         -1.07808          233.89E-03         856.144E-03         -1.09106          234.918E-03  
              932.5E-03          846.43E-03          -1.08122          234.793E-03        858.494E-03         -1.09434          235.841E-03  
              935.E-03           848.669E-03         -1.08436          235.695E-03        860.846E-03         -1.09761          236.764E-03  
              937.5E-03          850.907E-03         -1.0875           236.598E-03        863.198E-03         -1.10089          237.687E-03  
              940.E-03           853.145E-03         -1.09065          237.5E-03          865.551E-03         -1.10416          238.611E-03  
              942.5E-03          855.383E-03         -1.09379          238.403E-03        867.905E-03         -1.10744          239.534E-03  
              945.E-03           857.621E-03         -1.09693          239.305E-03        870.26E-03          -1.11072          240.458E-03  
              947.5E-03          859.858E-03         -1.10007          240.207E-03        872.615E-03         -1.114            241.382E-03  
              950.E-03           862.095E-03         -1.1032           241.11E-03         874.971E-03         -1.11728          242.306E-03  
              952.5E-03          864.332E-03         -1.10634          242.012E-03        877.328E-03         -1.12056          243.23E-03   
              955.E-03           866.568E-03         -1.10948          242.914E-03        879.685E-03         -1.12384          244.155E-03  
              957.5E-03          868.804E-03         -1.11262          243.815E-03        882.043E-03         -1.12712          245.08E-03   
              960.E-03           871.04E-03          -1.11576          244.717E-03        884.403E-03         -1.13041          246.005E-03  
              962.5E-03          873.276E-03         -1.11889          245.619E-03        886.762E-03         -1.13369          246.93E-03   
              965.E-03           875.511E-03         -1.12203          246.521E-03        889.123E-03         -1.13698          247.855E-03  
              967.5E-03          877.746E-03         -1.12517          247.422E-03        891.484E-03         -1.14027          248.781E-03  
              970.E-03           879.98E-03          -1.1283           248.324E-03        893.847E-03         -1.14355          249.706E-03  
              972.5E-03          882.214E-03         -1.13144          249.225E-03        896.21E-03          -1.14684          250.632E-03  
              975.E-03           884.448E-03         -1.13457          250.126E-03        898.573E-03         -1.15013          251.559E-03  
              977.5E-03          886.682E-03         -1.13771          251.027E-03        900.938E-03         -1.15342          252.485E-03  
              980.E-03           888.915E-03         -1.14084          251.929E-03        903.304E-03         -1.15672          253.412E-03  
              982.5E-03          891.148E-03         -1.14398          252.83E-03         905.67E-03          -1.16001          254.339E-03  
              985.E-03           893.381E-03         -1.14711          253.73E-03         908.037E-03         -1.1633           255.266E-03  
              987.5E-03          895.613E-03         -1.15024          254.631E-03        910.405E-03         -1.1666           256.193E-03  
              990.E-03           897.845E-03         -1.15338          255.532E-03        912.774E-03         -1.16989          257.121E-03  
              992.5E-03          900.076E-03         -1.15651          256.433E-03        915.143E-03         -1.17319          258.048E-03  
              995.E-03           902.307E-03         -1.15964          257.333E-03        917.514E-03         -1.17649          258.976E-03  
              997.5E-03          904.538E-03         -1.16277          258.233E-03        919.885E-03         -1.17979          259.905E-03  
                1.               906.769E-03         -1.1659           259.134E-03        922.258E-03         -1.18309          260.833E-03  




