
                  X              SENER-out           SENER-in    

                0.                 0.                 0.         
                2.5E-03          176.963E+03        174.732E+03  
                5.E-03           190.174E+03        188.441E+03  
                7.5E-03          200.088E+03        198.665E+03  
               10.E-03           208.504E+03        207.294E+03  
               12.5E-03          215.995E+03        214.94E+03   
               15.E-03           222.883E+03        221.948E+03  
               17.5E-03          229.346E+03        228.509E+03  
               20.E-03           235.488E+03        234.732E+03  
               22.5E-03          241.37E+03         240.683E+03  
               25.E-03           247.03E+03         246.404E+03  
               27.5E-03          252.495E+03        251.923E+03  
               30.E-03           257.787E+03        257.263E+03  
               32.5E-03          262.92E+03         262.439E+03  
               35.E-03           267.908E+03        267.465E+03  
               37.5E-03          272.761E+03        272.353E+03  
               40.E-03           277.488E+03        277.113E+03  
               42.5E-03          282.1E+03          281.754E+03  
               45.E-03           286.601E+03        286.283E+03  
               47.5E-03          291.001E+03        290.708E+03  
               50.E-03           295.303E+03        295.034E+03  
               52.5E-03          299.515E+03        299.267E+03  
               55.E-03           303.64E+03         303.413E+03  
               57.5E-03          307.684E+03        307.475E+03  
               60.E-03           360.565E+03        361.264E+03  
               62.5E-03          430.786E+03        430.345E+03  
               65.E-03           449.453E+03        449.343E+03  
               67.5E-03          459.22E+03         459.148E+03  
               70.E-03           467.464E+03        467.43E+03   
               72.5E-03          475.271E+03        475.269E+03  
               75.E-03           482.839E+03        482.864E+03  
               77.5E-03          490.217E+03        490.268E+03  
               80.E-03           497.43E+03         497.503E+03  
               82.5E-03          504.488E+03        504.582E+03  
               85.E-03           511.401E+03        511.516E+03  
               87.5E-03          518.178E+03        518.311E+03  
               90.E-03           524.826E+03        524.976E+03  
               92.5E-03          531.35E+03         531.517E+03  
               95.E-03           537.758E+03        537.94E+03   
               97.5E-03          544.054E+03        544.25E+03   
              100.E-03           550.243E+03        550.453E+03  
              102.5E-03          556.33E+03         556.554E+03  
              105.E-03           562.319E+03        562.556E+03  
              107.5E-03          568.215E+03        568.464E+03  
              110.E-03           574.021E+03        574.281E+03  
              112.5E-03          579.741E+03        580.012E+03  
              115.E-03           585.378E+03        585.66E+03   
              117.5E-03          590.936E+03        591.228E+03  
              120.E-03           596.416E+03        596.718E+03  
              122.5E-03          601.823E+03        602.134E+03  
              125.E-03           607.157E+03        607.478E+03  
              127.5E-03          612.423E+03        612.752E+03  
              130.E-03           617.623E+03        617.96E+03   
              132.5E-03          622.757E+03        623.103E+03  
              135.E-03           627.83E+03         628.184E+03  
              137.5E-03          632.842E+03        633.203E+03  
              140.E-03           637.795E+03        638.164E+03  
              142.5E-03          642.692E+03        643.068E+03  
              145.E-03           647.533E+03        647.917E+03  
              147.5E-03          652.321E+03        652.713E+03  
              150.E-03           657.057E+03        657.456E+03  
              152.5E-03          661.743E+03        662.148E+03  
              155.E-03           666.38E+03         666.792E+03  
              157.5E-03          670.969E+03        671.387E+03  
              160.E-03           675.512E+03        675.936E+03  
              162.5E-03          680.009E+03        680.44E+03   
              165.E-03           684.463E+03        684.9E+03    
              167.5E-03          688.873E+03        689.317E+03  
              170.E-03           693.242E+03        693.692E+03  
              172.5E-03          697.57E+03         698.026E+03  
              175.E-03           701.859E+03        702.32E+03   
              177.5E-03          706.108E+03        706.575E+03  
              180.E-03           710.32E+03         710.792E+03  
              182.5E-03          714.495E+03        714.973E+03  
              185.E-03           718.633E+03        719.117E+03  
              187.5E-03          722.737E+03        723.226E+03  
              190.E-03           726.806E+03        727.3E+03    
              192.5E-03          730.841E+03        731.34E+03   
              195.E-03           734.843E+03        735.347E+03  
              197.5E-03          738.812E+03        739.322E+03  
              200.E-03           742.75E+03         743.265E+03  
              202.5E-03          746.657E+03        747.178E+03  
              205.E-03           750.534E+03        751.059E+03  
              207.5E-03          754.381E+03        754.911E+03  
              210.E-03           758.199E+03        758.734E+03  
              212.5E-03          761.988E+03        762.529E+03  
              215.E-03           765.75E+03         766.295E+03  
              217.5E-03          769.484E+03        770.034E+03  
              220.E-03           773.191E+03        773.746E+03  
              222.5E-03          776.872E+03        777.432E+03  
              225.E-03           780.526E+03        781.091E+03  
              227.5E-03          784.156E+03        784.726E+03  
              230.E-03           787.76E+03         788.335E+03  
              232.5E-03          791.34E+03         791.92E+03   
              235.E-03           794.896E+03        795.48E+03   
              237.5E-03          798.428E+03        799.017E+03  
              240.E-03           801.937E+03        802.531E+03  
              242.5E-03          805.423E+03        806.022E+03  
              245.E-03           808.887E+03        809.491E+03  
              247.5E-03          812.329E+03        812.937E+03  
              250.E-03           815.749E+03        816.362E+03  
              252.5E-03          819.148E+03        819.765E+03  
              255.E-03           822.525E+03        823.148E+03  
              257.5E-03          825.882E+03        826.51E+03   
              260.E-03           829.219E+03        829.851E+03  
              262.5E-03          832.536E+03        833.173E+03  
              265.E-03           835.833E+03        836.474E+03  
              267.5E-03          839.111E+03        839.757E+03  
              270.E-03           842.37E+03         843.021E+03  
              272.5E-03          845.61E+03         846.265E+03  
              275.E-03           848.831E+03        849.492E+03  
              277.5E-03          852.035E+03        852.7E+03    
              280.E-03           855.22E+03         855.89E+03   
              282.5E-03          858.388E+03        859.062E+03  
              285.E-03           861.538E+03        862.218E+03  
              287.5E-03          864.671E+03        865.356E+03  
              290.E-03           867.788E+03        868.477E+03  
              292.5E-03          870.887E+03        871.581E+03  
              295.E-03           873.97E+03         874.669E+03  
              297.5E-03          877.037E+03        877.741E+03  
              300.E-03           880.088E+03        880.797E+03  
              302.5E-03          883.124E+03        883.837E+03  
              305.E-03           886.143E+03        886.862E+03  
              307.5E-03          889.148E+03        889.871E+03  
              310.E-03           892.137E+03        892.865E+03  
              312.5E-03          895.111E+03        895.844E+03  
              315.E-03           898.071E+03        898.809E+03  
              317.5E-03          901.016E+03        901.759E+03  
              320.E-03           903.947E+03        904.695E+03  
              322.5E-03          906.863E+03        907.616E+03  
              325.E-03           909.766E+03        910.524E+03  
              327.5E-03          912.655E+03        913.418E+03  
              330.E-03           915.53E+03         916.298E+03  
              332.5E-03          918.391E+03        919.165E+03  
              335.E-03           921.24E+03         922.018E+03  
              337.5E-03          924.075E+03        924.858E+03  
              340.E-03           926.897E+03        927.686E+03  
              342.5E-03          929.707E+03        930.501E+03  
              345.E-03           932.503E+03        933.303E+03  
              347.5E-03          935.288E+03        936.092E+03  
              350.E-03           938.06E+03         938.869E+03  
              352.5E-03          940.819E+03        941.634E+03  
              355.E-03           943.567E+03        944.387E+03  
              357.5E-03          946.303E+03        947.128E+03  
              360.E-03           949.027E+03        949.858E+03  
              362.5E-03          951.739E+03        952.575E+03  
              365.E-03           954.439E+03        955.281E+03  
              367.5E-03          957.129E+03        957.976E+03  
              370.E-03           959.807E+03        960.66E+03   
              372.5E-03          962.474E+03        963.332E+03  
              375.E-03           965.129E+03        965.993E+03  
              377.5E-03          967.774E+03        968.644E+03  
              380.E-03           970.408E+03        971.284E+03  
              382.5E-03          973.032E+03        973.913E+03  
              385.E-03           975.645E+03        976.531E+03  
              387.5E-03          978.247E+03        979.14E+03   
              390.E-03           980.839E+03        981.737E+03  
              392.5E-03          983.421E+03        984.325E+03  
              395.E-03           985.993E+03        986.903E+03  
              397.5E-03          988.554E+03        989.47E+03   
              400.E-03           991.106E+03        992.028E+03  
              402.5E-03          993.648E+03        994.576E+03  
              405.E-03           996.18E+03         997.114E+03  
              407.5E-03          998.703E+03        999.643E+03  
              410.E-03             1.00122E+06        1.00216E+06
              412.5E-03            1.00372E+06        1.00467E+06
              415.E-03             1.00621E+06        1.00717E+06
              417.5E-03            1.0087E+06         1.00966E+06
              420.E-03             1.01118E+06        1.01215E+06
              422.5E-03            1.01364E+06        1.01462E+06
              425.E-03             1.0161E+06         1.01708E+06
              427.5E-03            1.01855E+06        1.01954E+06
              430.E-03             1.02099E+06        1.02199E+06
              432.5E-03            1.02342E+06        1.02442E+06
              435.E-03             1.02584E+06        1.02685E+06
              437.5E-03            1.02826E+06        1.02927E+06
              440.E-03             1.03066E+06        1.03169E+06
              442.5E-03            1.03306E+06        1.03409E+06
              445.E-03             1.03545E+06        1.03649E+06
              447.5E-03            1.03783E+06        1.03887E+06
              450.E-03             1.0402E+06         1.04125E+06
              452.5E-03            1.04257E+06        1.04362E+06
              455.E-03             1.04493E+06        1.04599E+06
              457.5E-03            1.04727E+06        1.04834E+06
              460.E-03             1.04961E+06        1.05069E+06
              462.5E-03            1.05195E+06        1.05303E+06
              465.E-03             1.05427E+06        1.05536E+06
              467.5E-03            1.05659E+06        1.05769E+06
              470.E-03             1.0589E+06         1.06E+06   
              472.5E-03            1.0612E+06         1.06231E+06
              475.E-03             1.0635E+06         1.06462E+06
              477.5E-03            1.06579E+06        1.06691E+06
              480.E-03             1.06807E+06        1.0692E+06 
              482.5E-03            1.07034E+06        1.07148E+06
              485.E-03             1.0726E+06         1.07375E+06
              487.5E-03            1.07486E+06        1.07602E+06
              490.E-03             1.07711E+06        1.07828E+06
              492.5E-03            1.07936E+06        1.08053E+06
              495.E-03             1.0816E+06         1.08277E+06
              497.5E-03            1.08383E+06        1.08501E+06
              500.E-03             1.08605E+06        1.08724E+06
              502.5E-03            1.08827E+06        1.08947E+06
              505.E-03             1.09048E+06        1.09168E+06
              507.5E-03            1.09268E+06        1.0939E+06 
              510.E-03             1.09488E+06        1.0961E+06 
              512.5E-03            1.09707E+06        1.0983E+06 
              515.E-03             1.09925E+06        1.10049E+06
              517.5E-03            1.10143E+06        1.10268E+06
              520.E-03             1.1036E+06         1.10485E+06
              522.5E-03            1.10576E+06        1.10703E+06
              525.E-03             1.10792E+06        1.10919E+06
              527.5E-03            1.11007E+06        1.11135E+06
              530.E-03             1.11221E+06        1.11351E+06
              532.5E-03            1.11435E+06        1.11565E+06
              535.E-03             1.11649E+06        1.11779E+06
              537.5E-03            1.11861E+06        1.11993E+06
              540.E-03             1.12073E+06        1.12206E+06
              542.5E-03            1.12285E+06        1.12418E+06
              545.E-03             1.12496E+06        1.1263E+06 
              547.5E-03            1.12706E+06        1.12841E+06
              550.E-03             1.12916E+06        1.13052E+06
              552.5E-03            1.13125E+06        1.13262E+06
              555.E-03             1.13333E+06        1.13471E+06
              557.5E-03            1.13541E+06        1.1368E+06 
              560.E-03             1.13749E+06        1.13888E+06
              562.5E-03            1.13955E+06        1.14096E+06
              565.E-03             1.14162E+06        1.14303E+06
              567.5E-03            1.14367E+06        1.1451E+06 
              570.E-03             1.14572E+06        1.14716E+06
              572.5E-03            1.14777E+06        1.14921E+06
              575.E-03             1.14981E+06        1.15126E+06
              577.5E-03            1.15185E+06        1.15331E+06
              580.E-03             1.15388E+06        1.15535E+06
              582.5E-03            1.1559E+06         1.15738E+06
              585.E-03             1.15792E+06        1.15941E+06
              587.5E-03            1.15993E+06        1.16143E+06
              590.E-03             1.16194E+06        1.16345E+06
              592.5E-03            1.16394E+06        1.16546E+06
              595.E-03             1.16594E+06        1.16747E+06
              597.5E-03            1.16793E+06        1.16947E+06
              600.E-03             1.16992E+06        1.17147E+06
              602.5E-03            1.1719E+06         1.17347E+06
              605.E-03             1.17388E+06        1.17545E+06
              607.5E-03            1.17585E+06        1.17744E+06
              610.E-03             1.17782E+06        1.17941E+06
              612.5E-03            1.17978E+06        1.18139E+06
              615.E-03             1.18174E+06        1.18336E+06
              617.5E-03            1.18369E+06        1.18532E+06
              620.E-03             1.18564E+06        1.18728E+06
              622.5E-03            1.18759E+06        1.18923E+06
              625.E-03             1.18952E+06        1.19118E+06
              627.5E-03            1.19146E+06        1.19313E+06
              630.E-03             1.19339E+06        1.19507E+06
              632.5E-03            1.19531E+06        1.197E+06  
              635.E-03             1.19723E+06        1.19893E+06
              637.5E-03            1.19914E+06        1.20086E+06
              640.E-03             1.20105E+06        1.20278E+06
              642.5E-03            1.20296E+06        1.2047E+06 
              645.E-03             1.20486E+06        1.20661E+06
              647.5E-03            1.20676E+06        1.20852E+06
              650.E-03             1.20865E+06        1.21042E+06
              652.5E-03            1.21054E+06        1.21232E+06
              655.E-03             1.21242E+06        1.21422E+06
              657.5E-03            1.2143E+06         1.21611E+06
              660.E-03             1.21617E+06        1.21799E+06
              662.5E-03            1.21805E+06        1.21988E+06
              665.E-03             1.21991E+06        1.22176E+06
              667.5E-03            1.22177E+06        1.22363E+06
              670.E-03             1.22363E+06        1.2255E+06 
              672.5E-03            1.22548E+06        1.22736E+06
              675.E-03             1.22733E+06        1.22923E+06
              677.5E-03            1.22918E+06        1.23108E+06
              680.E-03             1.23102E+06        1.23294E+06
              682.5E-03            1.23285E+06        1.23479E+06
              685.E-03             1.23468E+06        1.23663E+06
              687.5E-03            1.23651E+06        1.23847E+06
              690.E-03             1.23834E+06        1.24031E+06
              692.5E-03            1.24016E+06        1.24214E+06
              695.E-03             1.24197E+06        1.24397E+06
              697.5E-03            1.24378E+06        1.2458E+06 
              700.E-03             1.24559E+06        1.24762E+06
              702.5E-03            1.2474E+06         1.24944E+06
              705.E-03             1.2492E+06         1.25125E+06
              707.5E-03            1.25099E+06        1.25306E+06
              710.E-03             1.25278E+06        1.25487E+06
              712.5E-03            1.25457E+06        1.25667E+06
              715.E-03             1.25636E+06        1.25847E+06
              717.5E-03            1.25814E+06        1.26026E+06
              720.E-03             1.25991E+06        1.26205E+06
              722.5E-03            1.26169E+06        1.26384E+06
              725.E-03             1.26346E+06        1.26563E+06
              727.5E-03            1.26522E+06        1.26741E+06
              730.E-03             1.26698E+06        1.26918E+06
              732.5E-03            1.26874E+06        1.27096E+06
              735.E-03             1.2705E+06         1.27272E+06
              737.5E-03            1.27225E+06        1.27449E+06
              740.E-03             1.27399E+06        1.27625E+06
              742.5E-03            1.27574E+06        1.27801E+06
              745.E-03             1.27748E+06        1.27977E+06
              747.5E-03            1.27921E+06        1.28152E+06
              750.E-03             1.28095E+06        1.28327E+06
              752.5E-03            1.28268E+06        1.28501E+06
              755.E-03             1.2844E+06         1.28675E+06
              757.5E-03            1.28612E+06        1.28849E+06
              760.E-03             1.28784E+06        1.29023E+06
              762.5E-03            1.28956E+06        1.29196E+06
              765.E-03             1.29127E+06        1.29369E+06
              767.5E-03            1.29298E+06        1.29541E+06
              770.E-03             1.29468E+06        1.29713E+06
              772.5E-03            1.29638E+06        1.29885E+06
              775.E-03             1.29808E+06        1.30057E+06
              777.5E-03            1.29978E+06        1.30228E+06
              780.E-03             1.30147E+06        1.30399E+06
              782.5E-03            1.30316E+06        1.30569E+06
              785.E-03             1.30484E+06        1.3074E+06 
              787.5E-03            1.30652E+06        1.30909E+06
              790.E-03             1.3082E+06         1.31079E+06
              792.5E-03            1.30987E+06        1.31248E+06
              795.E-03             1.31155E+06        1.31417E+06
              797.5E-03            1.31321E+06        1.31586E+06
              800.E-03             1.31488E+06        1.31754E+06
              802.5E-03            1.31654E+06        1.31922E+06
              805.E-03             1.3182E+06         1.3209E+06 
              807.5E-03            1.31986E+06        1.32257E+06
              810.E-03             1.32151E+06        1.32425E+06
              812.5E-03            1.32316E+06        1.32591E+06
              815.E-03             1.3248E+06         1.32758E+06
              817.5E-03            1.32645E+06        1.32924E+06
              820.E-03             1.32809E+06        1.3309E+06 
              822.5E-03            1.32972E+06        1.33256E+06
              825.E-03             1.33136E+06        1.33421E+06
              827.5E-03            1.33299E+06        1.33586E+06
              830.E-03             1.33461E+06        1.33751E+06
              832.5E-03            1.33624E+06        1.33915E+06
              835.E-03             1.33786E+06        1.3408E+06 
              837.5E-03            1.33948E+06        1.34244E+06
              840.E-03             1.3411E+06         1.34407E+06
              842.5E-03            1.34271E+06        1.34571E+06
              845.E-03             1.34432E+06        1.34734E+06
              847.5E-03            1.34592E+06        1.34896E+06
              850.E-03             1.34753E+06        1.35059E+06
              852.5E-03            1.34913E+06        1.35221E+06
              855.E-03             1.35073E+06        1.35383E+06
              857.5E-03            1.35232E+06        1.35545E+06
              860.E-03             1.35391E+06        1.35706E+06
              862.5E-03            1.3555E+06         1.35867E+06
              865.E-03             1.35709E+06        1.36028E+06
              867.5E-03            1.35867E+06        1.36189E+06
              870.E-03             1.36026E+06        1.36349E+06
              872.5E-03            1.36183E+06        1.36509E+06
              875.E-03             1.36341E+06        1.36669E+06
              877.5E-03            1.36498E+06        1.36829E+06
              880.E-03             1.36655E+06        1.36988E+06
              882.5E-03            1.36812E+06        1.37147E+06
              885.E-03             1.36968E+06        1.37306E+06
              887.5E-03            1.37124E+06        1.37464E+06
              890.E-03             1.3728E+06         1.37623E+06
              892.5E-03            1.37436E+06        1.37781E+06
              895.E-03             1.37591E+06        1.37938E+06
              897.5E-03            1.37746E+06        1.38096E+06
              900.E-03             1.37901E+06        1.38253E+06
              902.5E-03            1.38056E+06        1.3841E+06 
              905.E-03             1.3821E+06         1.38567E+06
              907.5E-03            1.38364E+06        1.38723E+06
              910.E-03             1.38518E+06        1.3888E+06 
              912.5E-03            1.38671E+06        1.39036E+06
              915.E-03             1.38824E+06        1.39192E+06
              917.5E-03            1.38977E+06        1.39347E+06
              920.E-03             1.3913E+06         1.39503E+06
              922.5E-03            1.39282E+06        1.39658E+06
              925.E-03             1.39434E+06        1.39812E+06
              927.5E-03            1.39586E+06        1.39967E+06
              930.E-03             1.39738E+06        1.40121E+06
              932.5E-03            1.39889E+06        1.40276E+06
              935.E-03             1.40041E+06        1.40429E+06
              937.5E-03            1.40192E+06        1.40583E+06
              940.E-03             1.40342E+06        1.40737E+06
              942.5E-03            1.40493E+06        1.4089E+06 
              945.E-03             1.40643E+06        1.41043E+06
              947.5E-03            1.40793E+06        1.41196E+06
              950.E-03             1.40942E+06        1.41348E+06
              952.5E-03            1.41092E+06        1.415E+06  
              955.E-03             1.41241E+06        1.41652E+06
              957.5E-03            1.4139E+06         1.41804E+06
              960.E-03             1.41538E+06        1.41956E+06
              962.5E-03            1.41687E+06        1.42107E+06
              965.E-03             1.41835E+06        1.42259E+06
              967.5E-03            1.41983E+06        1.4241E+06 
              970.E-03             1.42131E+06        1.4256E+06 
              972.5E-03            1.42278E+06        1.42711E+06
              975.E-03             1.42426E+06        1.42861E+06
              977.5E-03            1.42573E+06        1.43011E+06
              980.E-03             1.42719E+06        1.43161E+06
              982.5E-03            1.42866E+06        1.43311E+06
              985.E-03             1.43012E+06        1.43461E+06
              987.5E-03            1.43158E+06        1.4361E+06 
              990.E-03             1.43304E+06        1.43759E+06
              992.5E-03            1.4345E+06         1.43908E+06
              995.E-03             1.43595E+06        1.44057E+06
              997.5E-03            1.4374E+06         1.44205E+06
                1.                 1.43885E+06        1.44353E+06




