
                  X               ep1-out            ep2-out            ep3-out             ep1-in             ep2-in             ep3-in     

                0.                 0.                 0.                 0.                 0.                 0.                 0.         
                2.5E-03          515.43E-06        -830.026E-06        314.596E-06        589.225E-06       -933.531E-06        344.306E-06  
                5.E-03             2.11325E-03       -3.50505E-03        1.39181E-03        2.25111E-03       -3.67982E-03        1.42872E-03
                7.5E-03            3.69902E-03       -6.19331E-03        2.49429E-03        3.88507E-03       -6.42276E-03        2.53769E-03
               10.E-03             5.28546E-03       -8.88848E-03        3.60302E-03        5.51112E-03       -9.16331E-03        3.65219E-03
               12.5E-03            6.87399E-03      -11.5888E-03         4.71485E-03        7.13284E-03      -11.9019E-03         4.76909E-03
               15.E-03             8.46474E-03      -14.2934E-03         5.82862E-03        8.75182E-03      -14.6392E-03         5.88733E-03
               17.5E-03           10.0575E-03       -17.0013E-03         6.94381E-03       10.3689E-03       -17.3754E-03         7.00648E-03
               20.E-03            11.652E-03        -19.7122E-03         8.06016E-03       11.9846E-03       -20.111E-03          8.12636E-03
               22.5E-03           13.248E-03        -22.4255E-03         9.17749E-03       13.5993E-03       -22.8462E-03         9.24684E-03
               25.E-03            14.8454E-03       -25.1411E-03        10.2957E-03        15.2132E-03       -25.5811E-03        10.3679E-03 
               27.5E-03           16.4439E-03       -27.8585E-03        11.4146E-03        16.8265E-03       -28.3159E-03        11.4893E-03 
               30.E-03            18.0434E-03       -30.5776E-03        12.5342E-03        18.4394E-03       -31.0506E-03        12.6113E-03 
               32.5E-03           19.6439E-03       -33.2982E-03        13.6544E-03        20.0519E-03       -33.7854E-03        13.7336E-03 
               35.E-03            21.2451E-03       -36.0202E-03        14.7751E-03        21.6641E-03       -36.5204E-03        14.8562E-03 
               37.5E-03           22.8471E-03       -38.7434E-03        15.8963E-03        23.2762E-03       -39.2554E-03        15.9792E-03 
               40.E-03            24.4497E-03       -41.4677E-03        17.018E-03         24.8881E-03       -41.9906E-03        17.1025E-03 
               42.5E-03           26.0529E-03       -44.1929E-03        18.14E-03          26.4999E-03       -44.726E-03         18.2261E-03 
               45.E-03            27.6567E-03       -46.9191E-03        19.2625E-03        28.1117E-03       -47.4616E-03        19.35E-03   
               47.5E-03           29.2609E-03       -49.6462E-03        20.3853E-03        29.7234E-03       -50.1974E-03        20.4741E-03 
               50.E-03            30.8656E-03       -52.374E-03         21.5084E-03        31.3351E-03       -52.9335E-03        21.5984E-03 
               52.5E-03           32.4708E-03       -55.1026E-03        22.6318E-03        32.9468E-03       -55.6698E-03        22.7229E-03 
               55.E-03            34.0763E-03       -57.8318E-03        23.7555E-03        34.5586E-03       -58.4063E-03        23.8477E-03 
               57.5E-03           35.6822E-03       -60.5616E-03        24.8794E-03        36.1704E-03       -61.143E-03         24.9726E-03 
               60.E-03            37.2885E-03       -63.292E-03         26.0036E-03        37.7822E-03       -63.88E-03          26.0978E-03 
               62.5E-03           38.895E-03        -66.023E-03         27.128E-03         39.3941E-03       -66.6172E-03        27.2231E-03 
               65.E-03            40.3014E-03       -67.6668E-03        27.3654E-03        40.8171E-03       -68.2777E-03        27.4606E-03 
               67.5E-03           41.8651E-03       -68.9404E-03        27.0754E-03        42.5007E-03       -69.6447E-03        27.144E-03  
               70.E-03            43.5239E-03       -70.0492E-03        26.5253E-03        44.4178E-03       -70.9257E-03        26.5079E-03 
               72.5E-03           45.2878E-03       -71.0972E-03        25.8094E-03        46.2386E-03       -72.0075E-03        25.7689E-03 
               75.E-03            47.055E-03        -72.0748E-03        25.0197E-03        48.0409E-03       -73.006E-03         24.9651E-03 
               77.5E-03           48.8253E-03       -73.0135E-03        24.1882E-03        49.8244E-03       -73.9529E-03        24.1285E-03 
               80.E-03            50.5909E-03       -73.9266E-03        23.3357E-03        51.6036E-03       -74.8742E-03        23.2705E-03 
               82.5E-03           52.3541E-03       -74.8252E-03        22.4711E-03        53.3793E-03       -75.78E-03          22.4008E-03 
               85.E-03            54.1154E-03       -75.7151E-03        21.5997E-03        55.1529E-03       -76.6771E-03        21.5241E-03 
               87.5E-03           55.8755E-03       -76.6E-03           20.7245E-03        56.9253E-03       -77.5689E-03        20.6436E-03 
               90.E-03            57.6349E-03       -77.4819E-03        19.847E-03         58.6969E-03       -78.4577E-03        19.7607E-03 
               92.5E-03           59.3938E-03       -78.3621E-03        18.9683E-03        60.468E-03        -79.3446E-03        18.8766E-03 
               95.E-03            61.1524E-03       -79.2412E-03        18.0889E-03        62.2387E-03       -80.2304E-03        17.9917E-03 
               97.5E-03           62.9106E-03       -80.1197E-03        17.209E-03         64.0092E-03       -81.1156E-03        17.1064E-03 
              100.E-03            64.6687E-03       -80.9977E-03        16.329E-03         65.7795E-03       -82.0003E-03        16.2208E-03 
              102.5E-03           66.4267E-03       -81.8756E-03        15.4489E-03        67.5497E-03       -82.8848E-03        15.3351E-03 
              105.E-03            68.1845E-03       -82.7533E-03        14.5688E-03        69.3198E-03       -83.7691E-03        14.4493E-03 
              107.5E-03           69.9422E-03       -83.6308E-03        13.6886E-03        71.0899E-03       -84.6533E-03        13.5634E-03 
              110.E-03            71.6999E-03       -84.5084E-03        12.8084E-03        72.8599E-03       -85.5374E-03        12.6775E-03 
              112.5E-03           73.4576E-03       -85.3858E-03        11.9283E-03        74.63E-03         -86.4215E-03        11.7915E-03 
              115.E-03            75.2078E-03       -86.5277E-03        11.32E-03          76.4084E-03       -87.5816E-03        11.1732E-03 
              117.5E-03           77.1572E-03       -88.3962E-03        11.239E-03         78.3538E-03       -89.4456E-03        11.0918E-03 
              120.E-03            79.1416E-03       -90.6502E-03        11.5086E-03        80.3325E-03       -91.6928E-03        11.3603E-03 
              122.5E-03           81.0829E-03       -93.0301E-03        11.9472E-03        82.27E-03         -94.0679E-03        11.7979E-03 
              125.E-03            82.9939E-03       -95.4522E-03        12.4583E-03        84.1776E-03       -96.4857E-03        12.3081E-03 
              127.5E-03           84.8899E-03       -97.8899E-03        12.9999E-03        86.0706E-03       -98.9195E-03        12.8488E-03 
              130.E-03            86.7793E-03      -100.334E-03         13.5545E-03        87.9573E-03      -101.36E-03          13.4025E-03 
              132.5E-03           88.6657E-03      -102.78E-03          14.1145E-03        89.8413E-03      -103.803E-03         13.9618E-03 
              135.E-03            90.551E-03       -105.228E-03         14.6768E-03        91.7245E-03      -106.248E-03         14.5234E-03 
              137.5E-03           92.4357E-03      -107.676E-03         15.2402E-03        93.6074E-03      -108.693E-03         15.086E-03  
              140.E-03            94.3203E-03      -110.124E-03         15.804E-03         95.4905E-03      -111.14E-03          15.6492E-03 
              142.5E-03           96.2049E-03      -112.573E-03         16.3681E-03        97.3737E-03      -113.586E-03         16.2125E-03 
              145.E-03            98.0894E-03      -115.022E-03         16.9322E-03        99.2572E-03      -116.033E-03         16.7761E-03 
              147.5E-03           99.974E-03       -117.47E-03          17.4965E-03       101.141E-03       -118.481E-03         17.3397E-03 
              150.E-03           101.859E-03       -119.919E-03         18.0608E-03       103.025E-03       -120.928E-03         17.9033E-03 
              152.5E-03          103.743E-03       -122.368E-03         18.6252E-03       104.909E-03       -123.376E-03         18.467E-03  
              155.E-03           105.628E-03       -124.817E-03         19.1896E-03       106.794E-03       -125.824E-03         19.0308E-03 
              157.5E-03          107.513E-03       -127.267E-03         19.754E-03        108.678E-03       -128.273E-03         19.5947E-03 
              160.E-03           109.397E-03       -129.716E-03         20.3185E-03       110.563E-03       -130.722E-03         20.1586E-03 
              162.5E-03          111.282E-03       -132.165E-03         20.883E-03        112.449E-03       -133.171E-03         20.7225E-03 
              165.E-03           113.167E-03       -134.615E-03         21.4475E-03       114.334E-03       -135.62E-03          21.2865E-03 
              167.5E-03          115.052E-03       -137.064E-03         22.0121E-03       116.22E-03        -138.07E-03          21.8505E-03 
              170.E-03           116.937E-03       -139.514E-03         22.5767E-03       118.106E-03       -140.52E-03          22.4146E-03 
              172.5E-03          118.822E-03       -141.963E-03         23.1414E-03       119.992E-03       -142.97E-03          22.9787E-03 
              175.E-03           120.707E-03       -144.413E-03         23.7061E-03       121.878E-03       -145.421E-03         23.5429E-03 
              177.5E-03          122.592E-03       -146.863E-03         24.2708E-03       123.764E-03       -147.871E-03         24.1071E-03 
              180.E-03           124.477E-03       -149.312E-03         24.8355E-03       125.651E-03       -150.322E-03         24.6713E-03 
              182.5E-03          126.362E-03       -151.762E-03         25.4003E-03       127.538E-03       -152.773E-03         25.2356E-03 
              185.E-03           128.247E-03       -154.212E-03         25.9651E-03       129.425E-03       -155.225E-03         25.7999E-03 
              187.5E-03          130.132E-03       -156.662E-03         26.5299E-03       131.312E-03       -157.676E-03         26.3643E-03 
              190.E-03           132.017E-03       -159.112E-03         27.0948E-03       133.199E-03       -160.128E-03         26.9287E-03 
              192.5E-03          133.903E-03       -161.562E-03         27.6597E-03       135.087E-03       -162.58E-03          27.4931E-03 
              195.E-03           135.788E-03       -164.012E-03         28.2246E-03       136.974E-03       -165.032E-03         28.0576E-03 
              197.5E-03          137.673E-03       -166.463E-03         28.7895E-03       138.862E-03       -167.484E-03         28.6221E-03 
              200.E-03           139.558E-03       -168.913E-03         29.3545E-03       140.75E-03        -169.937E-03         29.1866E-03 
              202.5E-03          141.444E-03       -171.363E-03         29.9195E-03       142.638E-03       -172.39E-03          29.7512E-03 
              205.E-03           143.329E-03       -173.814E-03         30.4845E-03       144.527E-03       -174.843E-03         30.3158E-03 
              207.5E-03          145.214E-03       -176.264E-03         31.0495E-03       146.415E-03       -177.296E-03         30.8805E-03 
              210.E-03           147.1E-03         -178.714E-03         31.6146E-03       148.304E-03       -179.749E-03         31.4451E-03 
              212.5E-03          148.985E-03       -181.165E-03         32.1796E-03       150.192E-03       -182.202E-03         32.0098E-03 
              215.E-03           150.871E-03       -183.615E-03         32.7447E-03       152.081E-03       -184.656E-03         32.5746E-03 
              217.5E-03          152.756E-03       -186.066E-03         33.3099E-03       153.97E-03        -187.11E-03          33.1393E-03 
              220.E-03           154.641E-03       -188.516E-03         33.875E-03        155.859E-03       -189.564E-03         33.7041E-03 
              222.5E-03          156.527E-03       -190.967E-03         34.4402E-03       157.749E-03       -192.018E-03         34.2689E-03 
              225.E-03           158.412E-03       -193.418E-03         35.0053E-03       159.638E-03       -194.472E-03         34.8338E-03 
              227.5E-03          160.298E-03       -195.868E-03         35.5705E-03       161.528E-03       -196.926E-03         35.3987E-03 
              230.E-03           162.183E-03       -198.319E-03         36.1358E-03       163.417E-03       -199.381E-03         35.9636E-03 
              232.5E-03          164.069E-03       -200.77E-03          36.701E-03        165.307E-03       -201.836E-03         36.5285E-03 
              235.E-03           165.955E-03       -203.221E-03         37.2662E-03       167.197E-03       -204.29E-03          37.0934E-03 
              237.5E-03          167.84E-03        -205.672E-03         37.8315E-03       169.087E-03       -206.745E-03         37.6584E-03 
              240.E-03           169.726E-03       -208.123E-03         38.3968E-03       170.977E-03       -209.201E-03         38.2234E-03 
              242.5E-03          171.611E-03       -210.573E-03         38.9621E-03       172.867E-03       -211.656E-03         38.7885E-03 
              245.E-03           173.497E-03       -213.024E-03         39.5274E-03       174.758E-03       -214.111E-03         39.3535E-03 
              247.5E-03          175.383E-03       -215.475E-03         40.0928E-03       176.648E-03       -216.567E-03         39.9186E-03 
              250.E-03           177.268E-03       -217.926E-03         40.6581E-03       178.539E-03       -219.023E-03         40.4837E-03 
              252.5E-03          179.154E-03       -220.377E-03         41.2235E-03       180.43E-03        -221.478E-03         41.0488E-03 
              255.E-03           181.04E-03        -222.828E-03         41.7889E-03       182.32E-03        -223.934E-03         41.614E-03  
              257.5E-03          182.925E-03       -225.279E-03         42.3543E-03       184.211E-03       -226.39E-03          42.1791E-03 
              260.E-03           184.811E-03       -227.731E-03         42.9197E-03       186.102E-03       -228.847E-03         42.7443E-03 
              262.5E-03          186.697E-03       -230.182E-03         43.4851E-03       187.994E-03       -231.303E-03         43.3095E-03 
              265.E-03           188.582E-03       -232.633E-03         44.0506E-03       189.885E-03       -233.76E-03          43.8748E-03 
              267.5E-03          190.468E-03       -235.084E-03         44.6161E-03       191.776E-03       -236.216E-03         44.44E-03   
              270.E-03           192.354E-03       -237.535E-03         45.1815E-03       193.668E-03       -238.673E-03         45.0053E-03 
              272.5E-03          194.239E-03       -239.986E-03         45.747E-03        195.559E-03       -241.13E-03          45.5706E-03 
              275.E-03           196.125E-03       -242.438E-03         46.3125E-03       197.451E-03       -243.587E-03         46.136E-03  
              277.5E-03          198.011E-03       -244.889E-03         46.878E-03        199.343E-03       -246.044E-03         46.7013E-03 
              280.E-03           199.897E-03       -247.34E-03          47.4436E-03       201.235E-03       -248.501E-03         47.2667E-03 
              282.5E-03          201.782E-03       -249.791E-03         48.0091E-03       203.127E-03       -250.959E-03         47.832E-03  
              285.E-03           203.668E-03       -252.243E-03         48.5747E-03       205.019E-03       -253.416E-03         48.3974E-03 
              287.5E-03          205.554E-03       -254.694E-03         49.1402E-03       206.911E-03       -255.874E-03         48.9629E-03 
              290.E-03           207.44E-03        -257.145E-03         49.7058E-03       208.803E-03       -258.331E-03         49.5283E-03 
              292.5E-03          209.325E-03       -259.597E-03         50.2714E-03       210.695E-03       -260.789E-03         50.0938E-03 
              295.E-03           211.211E-03       -262.048E-03         50.837E-03        212.588E-03       -263.247E-03         50.6592E-03 
              297.5E-03          213.097E-03       -264.499E-03         51.4026E-03       214.48E-03        -265.705E-03         51.2247E-03 
              300.E-03           214.983E-03       -266.951E-03         51.9682E-03       216.373E-03       -268.163E-03         51.7903E-03 
              302.5E-03          216.868E-03       -269.402E-03         52.5339E-03       218.266E-03       -270.622E-03         52.3558E-03 
              305.E-03           218.754E-03       -271.854E-03         53.0995E-03       220.159E-03       -273.08E-03          52.9214E-03 
              307.5E-03          220.64E-03        -274.305E-03         53.6652E-03       222.052E-03       -275.539E-03         53.4869E-03 
              310.E-03           222.526E-03       -276.756E-03         54.2308E-03       223.945E-03       -277.997E-03         54.0525E-03 
              312.5E-03          224.411E-03       -279.208E-03         54.7965E-03       225.838E-03       -280.456E-03         54.6181E-03 
              315.E-03           226.297E-03       -281.659E-03         55.3622E-03       227.731E-03       -282.915E-03         55.1837E-03 
              317.5E-03          228.183E-03       -284.111E-03         55.9279E-03       229.624E-03       -285.374E-03         55.7494E-03 
              320.E-03           230.069E-03       -286.562E-03         56.4936E-03       231.518E-03       -287.833E-03         56.315E-03  
              322.5E-03          231.954E-03       -289.014E-03         57.0593E-03       233.411E-03       -290.292E-03         56.8807E-03 
              325.E-03           233.84E-03        -291.465E-03         57.625E-03        235.305E-03       -292.751E-03         57.4464E-03 
              327.5E-03          235.726E-03       -293.917E-03         58.1908E-03       237.199E-03       -295.211E-03         58.0121E-03 
              330.E-03           237.612E-03       -296.368E-03         58.7565E-03       239.092E-03       -297.67E-03          58.5778E-03 
              332.5E-03          239.497E-03       -298.82E-03          59.3222E-03       240.986E-03       -300.13E-03          59.1436E-03 
              335.E-03           241.383E-03       -301.271E-03         59.888E-03        242.88E-03        -302.59E-03          59.7093E-03 
              337.5E-03          243.269E-03       -303.723E-03         60.4538E-03       244.774E-03       -305.049E-03         60.2751E-03 
              340.E-03           245.155E-03       -306.174E-03         61.0195E-03       246.668E-03       -307.509E-03         60.8409E-03 
              342.5E-03          247.04E-03        -308.626E-03         61.5853E-03       248.563E-03       -309.969E-03         61.4067E-03 
              345.E-03           248.926E-03       -311.077E-03         62.1511E-03       250.457E-03       -312.43E-03          61.9725E-03 
              347.5E-03          250.812E-03       -313.529E-03         62.7169E-03       252.351E-03       -314.89E-03          62.5384E-03 
              350.E-03           252.698E-03       -315.98E-03          63.2827E-03       254.246E-03       -317.35E-03          63.1042E-03 
              352.5E-03          254.583E-03       -318.432E-03         63.8485E-03       256.141E-03       -319.811E-03         63.6701E-03 
              355.E-03           256.469E-03       -320.883E-03         64.4144E-03       258.035E-03       -322.271E-03         64.236E-03  
              357.5E-03          258.355E-03       -323.335E-03         64.9802E-03       259.93E-03        -324.732E-03         64.8018E-03 
              360.E-03           260.24E-03        -325.786E-03         65.546E-03        261.825E-03       -327.193E-03         65.3678E-03 
              362.5E-03          262.126E-03       -328.238E-03         66.1119E-03       263.72E-03        -329.654E-03         65.9337E-03 
              365.E-03           264.012E-03       -330.69E-03          66.6777E-03       265.615E-03       -332.115E-03         66.4996E-03 
              367.5E-03          265.897E-03       -333.141E-03         67.2436E-03       267.51E-03        -334.576E-03         67.0656E-03 
              370.E-03           267.783E-03       -335.593E-03         67.8094E-03       269.405E-03       -337.037E-03         67.6316E-03 
              372.5E-03          269.669E-03       -338.044E-03         68.3753E-03       271.301E-03       -339.498E-03         68.1975E-03 
              375.E-03           271.554E-03       -340.496E-03         68.9412E-03       273.196E-03       -341.959E-03         68.7635E-03 
              377.5E-03          273.44E-03        -342.947E-03         69.5071E-03       275.091E-03       -344.421E-03         69.3296E-03 
              380.E-03           275.326E-03       -345.399E-03         70.073E-03        276.987E-03       -346.883E-03         69.8956E-03 
              382.5E-03          277.211E-03       -347.85E-03          70.6389E-03       278.883E-03       -349.344E-03         70.4616E-03 
              385.E-03           279.097E-03       -350.302E-03         71.2048E-03       280.778E-03       -351.806E-03         71.0277E-03 
              387.5E-03          280.982E-03       -352.753E-03         71.7707E-03       282.674E-03       -354.268E-03         71.5938E-03 
              390.E-03           282.868E-03       -355.205E-03         72.3366E-03       284.57E-03        -356.73E-03          72.1599E-03 
              392.5E-03          284.754E-03       -357.656E-03         72.9025E-03       286.466E-03       -359.192E-03         72.726E-03  
              395.E-03           286.639E-03       -360.108E-03         73.4684E-03       288.362E-03       -361.654E-03         73.2921E-03 
              397.5E-03          288.525E-03       -362.559E-03         74.0344E-03       290.258E-03       -364.117E-03         73.8582E-03 
              400.E-03           290.41E-03        -365.011E-03         74.6003E-03       292.155E-03       -366.579E-03         74.4243E-03 
              402.5E-03          292.296E-03       -367.462E-03         75.1662E-03       294.051E-03       -369.041E-03         74.9905E-03 
              405.E-03           294.181E-03       -369.913E-03         75.7322E-03       295.947E-03       -371.504E-03         75.5567E-03 
              407.5E-03          296.067E-03       -372.365E-03         76.2981E-03       297.844E-03       -373.967E-03         76.1229E-03 
              410.E-03           297.952E-03       -374.816E-03         76.8641E-03       299.741E-03       -376.43E-03          76.6891E-03 
              412.5E-03          299.838E-03       -377.268E-03         77.43E-03         301.637E-03       -378.893E-03         77.2553E-03 
              415.E-03           301.723E-03       -379.719E-03         77.996E-03        303.534E-03       -381.356E-03         77.8215E-03 
              417.5E-03          303.609E-03       -382.171E-03         78.562E-03        305.431E-03       -383.819E-03         78.3877E-03 
              420.E-03           305.494E-03       -384.622E-03         79.128E-03        307.328E-03       -386.282E-03         78.954E-03  
              422.5E-03          307.379E-03       -387.073E-03         79.6939E-03       309.225E-03       -388.745E-03         79.5203E-03 
              425.E-03           309.265E-03       -389.525E-03         80.2599E-03       311.122E-03       -391.209E-03         80.0865E-03 
              427.5E-03          311.15E-03        -391.976E-03         80.8259E-03       313.019E-03       -393.672E-03         80.6528E-03 
              430.E-03           313.036E-03       -394.428E-03         81.3919E-03       314.917E-03       -396.136E-03         81.2192E-03 
              432.5E-03          314.921E-03       -396.879E-03         81.9579E-03       316.814E-03       -398.6E-03           81.7855E-03 
              435.E-03           316.806E-03       -399.33E-03          82.5239E-03       318.712E-03       -401.063E-03         82.3518E-03 
              437.5E-03          318.692E-03       -401.782E-03         83.0899E-03       320.609E-03       -403.527E-03         82.9182E-03 
              440.E-03           320.577E-03       -404.233E-03         83.6559E-03       322.507E-03       -405.991E-03         83.4845E-03 
              442.5E-03          322.462E-03       -406.684E-03         84.2219E-03       324.405E-03       -408.456E-03         84.0509E-03 
              445.E-03           324.347E-03       -409.135E-03         84.7879E-03       326.303E-03       -410.92E-03          84.6173E-03 
              447.5E-03          326.233E-03       -411.587E-03         85.3539E-03       328.201E-03       -413.384E-03         85.1837E-03 
              450.E-03           328.118E-03       -414.038E-03         85.92E-03         330.099E-03       -415.849E-03         85.7501E-03 
              452.5E-03          330.003E-03       -416.489E-03         86.486E-03        331.997E-03       -418.313E-03         86.3166E-03 
              455.E-03           331.888E-03       -418.94E-03          87.052E-03        333.895E-03       -420.778E-03         86.883E-03  
              457.5E-03          333.774E-03       -421.392E-03         87.618E-03        335.793E-03       -423.243E-03         87.4495E-03 
              460.E-03           335.659E-03       -423.843E-03         88.1841E-03       337.692E-03       -425.708E-03         88.0159E-03 
              462.5E-03          337.544E-03       -426.294E-03         88.7501E-03       339.59E-03        -428.173E-03         88.5824E-03 
              465.E-03           339.429E-03       -428.745E-03         89.3161E-03       341.489E-03       -430.638E-03         89.1489E-03 
              467.5E-03          341.314E-03       -431.196E-03         89.8822E-03       343.388E-03       -433.103E-03         89.7154E-03 
              470.E-03           343.199E-03       -433.647E-03         90.4482E-03       345.286E-03       -435.568E-03         90.282E-03  
              472.5E-03          345.084E-03       -436.098E-03         91.0143E-03       347.185E-03       -438.034E-03         90.8485E-03 
              475.E-03           346.969E-03       -438.55E-03          91.5803E-03       349.084E-03       -440.499E-03         91.415E-03  
              477.5E-03          348.854E-03       -441.001E-03         92.1464E-03       350.983E-03       -442.965E-03         91.9816E-03 
              480.E-03           350.739E-03       -443.452E-03         92.7124E-03       352.882E-03       -445.431E-03         92.5482E-03 
              482.5E-03          352.624E-03       -445.903E-03         93.2785E-03       354.782E-03       -447.896E-03         93.1148E-03 
              485.E-03           354.509E-03       -448.354E-03         93.8445E-03       356.681E-03       -450.362E-03         93.6814E-03 
              487.5E-03          356.394E-03       -450.805E-03         94.4106E-03       358.58E-03        -452.828E-03         94.248E-03  
              490.E-03           358.279E-03       -453.256E-03         94.9767E-03       360.48E-03        -455.295E-03         94.8147E-03 
              492.5E-03          360.164E-03       -455.707E-03         95.5427E-03       362.38E-03        -457.761E-03         95.3813E-03 
              495.E-03           362.049E-03       -458.158E-03         96.1088E-03       364.279E-03       -460.227E-03         95.948E-03  
              497.5E-03          363.934E-03       -460.608E-03         96.6749E-03       366.179E-03       -462.694E-03         96.5147E-03 
              500.E-03           365.818E-03       -463.059E-03         97.2409E-03       368.079E-03       -465.16E-03          97.0814E-03 
              502.5E-03          367.703E-03       -465.51E-03          97.807E-03        369.979E-03       -467.627E-03         97.6481E-03 
              505.E-03           369.588E-03       -467.961E-03         98.3731E-03       371.879E-03       -470.094E-03         98.2148E-03 
              507.5E-03          371.473E-03       -470.412E-03         98.9391E-03       373.779E-03       -472.561E-03         98.7815E-03 
              510.E-03           373.357E-03       -472.863E-03         99.5052E-03       375.68E-03        -475.028E-03         99.3483E-03 
              512.5E-03          375.242E-03       -475.313E-03        100.071E-03        377.58E-03        -477.495E-03         99.915E-03  
              515.E-03           377.127E-03       -477.764E-03        100.637E-03        379.481E-03       -479.962E-03        100.482E-03  
              517.5E-03          379.011E-03       -480.215E-03        101.203E-03        381.381E-03       -482.43E-03         101.049E-03  
              520.E-03           380.896E-03       -482.666E-03        101.77E-03         383.282E-03       -484.897E-03        101.615E-03  
              522.5E-03          382.781E-03       -485.116E-03        102.336E-03        385.183E-03       -487.365E-03        102.182E-03  
              525.E-03           384.665E-03       -487.567E-03        102.902E-03        387.084E-03       -489.833E-03        102.749E-03  
              527.5E-03          386.55E-03        -490.018E-03        103.468E-03        388.985E-03       -492.3E-03          103.316E-03  
              530.E-03           388.434E-03       -492.468E-03        104.034E-03        390.886E-03       -494.768E-03        103.883E-03  
              532.5E-03          390.319E-03       -494.919E-03        104.6E-03          392.787E-03       -497.237E-03        104.45E-03   
              535.E-03           392.203E-03       -497.369E-03        105.166E-03        394.688E-03       -499.705E-03        105.017E-03  
              537.5E-03          394.088E-03       -499.82E-03         105.732E-03        396.59E-03        -502.173E-03        105.583E-03  
              540.E-03           395.972E-03       -502.27E-03         106.298E-03        398.491E-03       -504.641E-03        106.15E-03   
              542.5E-03          397.856E-03       -504.721E-03        106.864E-03        400.393E-03       -507.11E-03         106.717E-03  
              545.E-03           399.741E-03       -507.171E-03        107.43E-03         402.294E-03       -509.579E-03        107.284E-03  
              547.5E-03          401.625E-03       -509.622E-03        107.996E-03        404.196E-03       -512.047E-03        107.851E-03  
              550.E-03           403.509E-03       -512.072E-03        108.563E-03        406.098E-03       -514.516E-03        108.418E-03  
              552.5E-03          405.394E-03       -514.522E-03        109.129E-03        408.E-03          -516.985E-03        108.985E-03  
              555.E-03           407.278E-03       -516.973E-03        109.695E-03        409.902E-03       -519.454E-03        109.552E-03  
              557.5E-03          409.162E-03       -519.423E-03        110.261E-03        411.804E-03       -521.924E-03        110.119E-03  
              560.E-03           411.046E-03       -521.873E-03        110.827E-03        413.707E-03       -524.393E-03        110.686E-03  
              562.5E-03          412.93E-03        -524.323E-03        111.393E-03        415.609E-03       -526.862E-03        111.253E-03  
              565.E-03           414.815E-03       -526.774E-03        111.959E-03        417.512E-03       -529.332E-03        111.82E-03   
              567.5E-03          416.699E-03       -529.224E-03        112.525E-03        419.414E-03       -531.802E-03        112.388E-03  
              570.E-03           418.583E-03       -531.674E-03        113.091E-03        421.317E-03       -534.272E-03        112.955E-03  
              572.5E-03          420.467E-03       -534.124E-03        113.657E-03        423.22E-03        -536.742E-03        113.522E-03  
              575.E-03           422.351E-03       -536.574E-03        114.223E-03        425.123E-03       -539.212E-03        114.089E-03  
              577.5E-03          424.235E-03       -539.024E-03        114.789E-03        427.026E-03       -541.682E-03        114.656E-03  
              580.E-03           426.119E-03       -541.474E-03        115.355E-03        428.929E-03       -544.152E-03        115.223E-03  
              582.5E-03          428.003E-03       -543.924E-03        115.922E-03        430.832E-03       -546.622E-03        115.79E-03   
              585.E-03           429.886E-03       -546.374E-03        116.488E-03        432.736E-03       -549.093E-03        116.358E-03  
              587.5E-03          431.77E-03        -548.824E-03        117.054E-03        434.639E-03       -551.564E-03        116.925E-03  
              590.E-03           433.654E-03       -551.274E-03        117.62E-03         436.543E-03       -554.035E-03        117.492E-03  
              592.5E-03          435.538E-03       -553.724E-03        118.186E-03        438.446E-03       -556.506E-03        118.059E-03  
              595.E-03           437.422E-03       -556.174E-03        118.752E-03        440.35E-03        -558.977E-03        118.627E-03  
              597.5E-03          439.305E-03       -558.623E-03        119.318E-03        442.254E-03       -561.448E-03        119.194E-03  
              600.E-03           441.189E-03       -561.073E-03        119.884E-03        444.158E-03       -563.919E-03        119.761E-03  
              602.5E-03          443.073E-03       -563.523E-03        120.45E-03         446.062E-03       -566.391E-03        120.328E-03  
              605.E-03           444.956E-03       -565.972E-03        121.016E-03        447.966E-03       -568.862E-03        120.896E-03  
              607.5E-03          446.84E-03        -568.422E-03        121.582E-03        449.871E-03       -571.334E-03        121.463E-03  
              610.E-03           448.723E-03       -570.872E-03        122.148E-03        451.775E-03       -573.806E-03        122.03E-03   
              612.5E-03          450.607E-03       -573.321E-03        122.714E-03        453.68E-03        -576.278E-03        122.598E-03  
              615.E-03           452.49E-03        -575.771E-03        123.28E-03         455.585E-03       -578.75E-03         123.165E-03  
              617.5E-03          454.374E-03       -578.22E-03         123.846E-03        457.489E-03       -581.222E-03        123.733E-03  
              620.E-03           456.257E-03       -580.67E-03         124.413E-03        459.394E-03       -583.694E-03        124.3E-03    
              622.5E-03          458.14E-03        -583.119E-03        124.979E-03        461.299E-03       -586.167E-03        124.868E-03  
              625.E-03           460.024E-03       -585.568E-03        125.545E-03        463.204E-03       -588.64E-03         125.435E-03  
              627.5E-03          461.907E-03       -588.018E-03        126.111E-03        465.11E-03        -591.112E-03        126.003E-03  
              630.E-03           463.79E-03        -590.467E-03        126.677E-03        467.015E-03       -593.585E-03        126.57E-03   
              632.5E-03          465.673E-03       -592.916E-03        127.243E-03        468.921E-03       -596.058E-03        127.138E-03  
              635.E-03           467.557E-03       -595.365E-03        127.809E-03        470.826E-03       -598.531E-03        127.705E-03  
              637.5E-03          469.44E-03        -597.815E-03        128.375E-03        472.732E-03       -601.005E-03        128.273E-03  
              640.E-03           471.323E-03       -600.264E-03        128.941E-03        474.638E-03       -603.478E-03        128.84E-03   
              642.5E-03          473.206E-03       -602.713E-03        129.507E-03        476.544E-03       -605.952E-03        129.408E-03  
              645.E-03           475.089E-03       -605.162E-03        130.073E-03        478.45E-03        -608.425E-03        129.976E-03  
              647.5E-03          476.972E-03       -607.611E-03        130.639E-03        480.356E-03       -610.899E-03        130.543E-03  
              650.E-03           478.855E-03       -610.06E-03         131.205E-03        482.262E-03       -613.373E-03        131.111E-03  
              652.5E-03          480.738E-03       -612.509E-03        131.771E-03        484.169E-03       -615.847E-03        131.678E-03  
              655.E-03           482.621E-03       -614.958E-03        132.337E-03        486.075E-03       -618.322E-03        132.246E-03  
              657.5E-03          484.504E-03       -617.406E-03        132.903E-03        487.982E-03       -620.796E-03        132.814E-03  
              660.E-03           486.386E-03       -619.855E-03        133.469E-03        489.889E-03       -623.27E-03         133.382E-03  
              662.5E-03          488.269E-03       -622.304E-03        134.035E-03        491.796E-03       -625.745E-03        133.949E-03  
              665.E-03           490.152E-03       -624.753E-03        134.601E-03        493.703E-03       -628.22E-03         134.517E-03  
              667.5E-03          492.034E-03       -627.201E-03        135.167E-03        495.61E-03        -630.695E-03        135.085E-03  
              670.E-03           493.917E-03       -629.65E-03         135.733E-03        497.517E-03       -633.17E-03         135.653E-03  
              672.5E-03          495.8E-03         -632.099E-03        136.299E-03        499.425E-03       -635.645E-03        136.221E-03  
              675.E-03           497.682E-03       -634.547E-03        136.865E-03        501.332E-03       -638.121E-03        136.788E-03  
              677.5E-03          499.565E-03       -636.996E-03        137.431E-03        503.24E-03        -640.596E-03        137.356E-03  
              680.E-03           501.447E-03       -639.444E-03        137.997E-03        505.148E-03       -643.072E-03        137.924E-03  
              682.5E-03          503.33E-03        -641.892E-03        138.563E-03        507.056E-03       -645.548E-03        138.492E-03  
              685.E-03           505.212E-03       -644.341E-03        139.129E-03        508.964E-03       -648.024E-03        139.06E-03   
              687.5E-03          507.094E-03       -646.789E-03        139.695E-03        510.872E-03       -650.5E-03          139.628E-03  
              690.E-03           508.977E-03       -649.237E-03        140.261E-03        512.78E-03        -652.976E-03        140.196E-03  
              692.5E-03          510.859E-03       -651.685E-03        140.827E-03        514.689E-03       -655.453E-03        140.764E-03  
              695.E-03           512.741E-03       -654.134E-03        141.393E-03        516.597E-03       -657.929E-03        141.332E-03  
              697.5E-03          514.623E-03       -656.582E-03        141.958E-03        518.506E-03       -660.406E-03        141.9E-03    
              700.E-03           516.505E-03       -659.03E-03         142.524E-03        520.415E-03       -662.883E-03        142.468E-03  
              702.5E-03          518.388E-03       -661.478E-03        143.09E-03         522.324E-03       -665.36E-03         143.036E-03  
              705.E-03           520.27E-03        -663.926E-03        143.656E-03        524.233E-03       -667.837E-03        143.604E-03  
              707.5E-03          522.152E-03       -666.374E-03        144.222E-03        526.142E-03       -670.314E-03        144.173E-03  
              710.E-03           524.034E-03       -668.822E-03        144.788E-03        528.051E-03       -672.792E-03        144.741E-03  
              712.5E-03          525.915E-03       -671.269E-03        145.354E-03        529.961E-03       -675.269E-03        145.309E-03  
              715.E-03           527.797E-03       -673.717E-03        145.92E-03         531.87E-03        -677.747E-03        145.877E-03  
              717.5E-03          529.679E-03       -676.165E-03        146.486E-03        533.78E-03        -680.225E-03        146.445E-03  
              720.E-03           531.561E-03       -678.612E-03        147.052E-03        535.69E-03        -682.703E-03        147.014E-03  
              722.5E-03          533.443E-03       -681.06E-03         147.617E-03        537.6E-03         -685.182E-03        147.582E-03  
              725.E-03           535.324E-03       -683.508E-03        148.183E-03        539.51E-03        -687.66E-03         148.15E-03   
              727.5E-03          537.206E-03       -685.955E-03        148.749E-03        541.42E-03        -690.139E-03        148.718E-03  
              730.E-03           539.087E-03       -688.402E-03        149.315E-03        543.331E-03       -692.617E-03        149.287E-03  
              732.5E-03          540.969E-03       -690.85E-03         149.881E-03        545.241E-03       -695.096E-03        149.855E-03  
              735.E-03           542.85E-03        -693.297E-03        150.447E-03        547.152E-03       -697.575E-03        150.424E-03  
              737.5E-03          544.732E-03       -695.745E-03        151.013E-03        549.063E-03       -700.055E-03        150.992E-03  
              740.E-03           546.613E-03       -698.192E-03        151.578E-03        550.974E-03       -702.534E-03        151.56E-03   
              742.5E-03          548.495E-03       -700.639E-03        152.144E-03        552.885E-03       -705.014E-03        152.129E-03  
              745.E-03           550.376E-03       -703.086E-03        152.71E-03         554.796E-03       -707.493E-03        152.697E-03  
              747.5E-03          552.257E-03       -705.533E-03        153.276E-03        556.707E-03       -709.973E-03        153.266E-03  
              750.E-03           554.138E-03       -707.98E-03         153.842E-03        558.619E-03       -712.453E-03        153.835E-03  
              752.5E-03          556.019E-03       -710.427E-03        154.408E-03        560.53E-03        -714.934E-03        154.403E-03  
              755.E-03           557.901E-03       -712.874E-03        154.973E-03        562.442E-03       -717.414E-03        154.972E-03  
              757.5E-03          559.782E-03       -715.321E-03        155.539E-03        564.354E-03       -719.895E-03        155.54E-03   
              760.E-03           561.663E-03       -717.767E-03        156.105E-03        566.266E-03       -722.375E-03        156.109E-03  
              762.5E-03          563.544E-03       -720.214E-03        156.671E-03        568.178E-03       -724.856E-03        156.678E-03  
              765.E-03           565.424E-03       -722.661E-03        157.236E-03        570.091E-03       -727.337E-03        157.246E-03  
              767.5E-03          567.305E-03       -725.107E-03        157.802E-03        572.003E-03       -729.818E-03        157.815E-03  
              770.E-03           569.186E-03       -727.554E-03        158.368E-03        573.916E-03       -732.3E-03          158.384E-03  
              772.5E-03          571.067E-03       -730.E-03           158.934E-03        575.829E-03       -734.781E-03        158.953E-03  
              775.E-03           572.948E-03       -732.447E-03        159.499E-03        577.742E-03       -737.263E-03        159.522E-03  
              777.5E-03          574.828E-03       -734.893E-03        160.065E-03        579.655E-03       -739.745E-03        160.09E-03   
              780.E-03           576.709E-03       -737.34E-03         160.631E-03        581.568E-03       -742.227E-03        160.659E-03  
              782.5E-03          578.589E-03       -739.786E-03        161.196E-03        583.481E-03       -744.71E-03         161.228E-03  
              785.E-03           580.47E-03        -742.232E-03        161.762E-03        585.395E-03       -747.192E-03        161.797E-03  
              787.5E-03          582.35E-03        -744.678E-03        162.328E-03        587.309E-03       -749.675E-03        162.366E-03  
              790.E-03           584.231E-03       -747.124E-03        162.893E-03        589.222E-03       -752.157E-03        162.935E-03  
              792.5E-03          586.111E-03       -749.57E-03         163.459E-03        591.136E-03       -754.64E-03         163.504E-03  
              795.E-03           587.991E-03       -752.016E-03        164.025E-03        593.051E-03       -757.124E-03        164.073E-03  
              797.5E-03          589.872E-03       -754.462E-03        164.59E-03         594.965E-03       -759.607E-03        164.642E-03  
              800.E-03           591.752E-03       -756.908E-03        165.156E-03        596.879E-03       -762.091E-03        165.211E-03  
              802.5E-03          593.632E-03       -759.354E-03        165.722E-03        598.794E-03       -764.574E-03        165.78E-03   
              805.E-03           595.512E-03       -761.799E-03        166.287E-03        600.709E-03       -767.058E-03        166.35E-03   
              807.5E-03          597.392E-03       -764.245E-03        166.853E-03        602.623E-03       -769.542E-03        166.919E-03  
              810.E-03           599.272E-03       -766.69E-03         167.419E-03        604.538E-03       -772.027E-03        167.488E-03  
              812.5E-03          601.152E-03       -769.136E-03        167.984E-03        606.454E-03       -774.511E-03        168.057E-03  
              815.E-03           603.032E-03       -771.581E-03        168.55E-03         608.369E-03       -776.996E-03        168.627E-03  
              817.5E-03          604.911E-03       -774.027E-03        169.115E-03        610.284E-03       -779.481E-03        169.196E-03  
              820.E-03           606.791E-03       -776.472E-03        169.681E-03        612.2E-03         -781.966E-03        169.765E-03  
              822.5E-03          608.671E-03       -778.917E-03        170.246E-03        614.116E-03       -784.451E-03        170.335E-03  
              825.E-03           610.551E-03       -781.362E-03        170.812E-03        616.032E-03       -786.936E-03        170.904E-03  
              827.5E-03          612.43E-03        -783.807E-03        171.377E-03        617.948E-03       -789.422E-03        171.474E-03  
              830.E-03           614.31E-03        -786.253E-03        171.943E-03        619.864E-03       -791.908E-03        172.043E-03  
              832.5E-03          616.189E-03       -788.697E-03        172.508E-03        621.781E-03       -794.394E-03        172.613E-03  
              835.E-03           618.068E-03       -791.142E-03        173.074E-03        623.697E-03       -796.88E-03         173.182E-03  
              837.5E-03          619.948E-03       -793.587E-03        173.639E-03        625.614E-03       -799.366E-03        173.752E-03  
              840.E-03           621.827E-03       -796.032E-03        174.205E-03        627.531E-03       -801.853E-03        174.322E-03  
              842.5E-03          623.706E-03       -798.477E-03        174.77E-03         629.448E-03       -804.339E-03        174.891E-03  
              845.E-03           625.586E-03       -800.921E-03        175.336E-03        631.365E-03       -806.826E-03        175.461E-03  
              847.5E-03          627.465E-03       -803.366E-03        175.901E-03        633.283E-03       -809.314E-03        176.031E-03  
              850.E-03           629.344E-03       -805.81E-03         176.467E-03        635.2E-03         -811.801E-03        176.6E-03    
              852.5E-03          631.223E-03       -808.255E-03        177.032E-03        637.118E-03       -814.288E-03        177.17E-03   
              855.E-03           633.102E-03       -810.699E-03        177.597E-03        639.036E-03       -816.776E-03        177.74E-03   
              857.5E-03          634.98E-03        -813.143E-03        178.163E-03        640.954E-03       -819.264E-03        178.31E-03   
              860.E-03           636.859E-03       -815.587E-03        178.728E-03        642.872E-03       -821.752E-03        178.88E-03   
              862.5E-03          638.738E-03       -818.031E-03        179.293E-03        644.791E-03       -824.241E-03        179.45E-03   
              865.E-03           640.617E-03       -820.476E-03        179.859E-03        646.709E-03       -826.729E-03        180.02E-03   
              867.5E-03          642.495E-03       -822.919E-03        180.424E-03        648.628E-03       -829.218E-03        180.59E-03   
              870.E-03           644.374E-03       -825.363E-03        180.989E-03        650.547E-03       -831.707E-03        181.16E-03   
              872.5E-03          646.252E-03       -827.807E-03        181.555E-03        652.466E-03       -834.196E-03        181.73E-03   
              875.E-03           648.131E-03       -830.251E-03        182.12E-03         654.385E-03       -836.686E-03        182.3E-03    
              877.5E-03          650.009E-03       -832.695E-03        182.685E-03        656.305E-03       -839.175E-03        182.871E-03  
              880.E-03           651.888E-03       -835.138E-03        183.251E-03        658.224E-03       -841.665E-03        183.441E-03  
              882.5E-03          653.766E-03       -837.582E-03        183.816E-03        660.144E-03       -844.155E-03        184.011E-03  
              885.E-03           655.644E-03       -840.025E-03        184.381E-03        662.064E-03       -846.645E-03        184.581E-03  
              887.5E-03          657.522E-03       -842.468E-03        184.946E-03        663.984E-03       -849.136E-03        185.152E-03  
              890.E-03           659.4E-03         -844.912E-03        185.511E-03        665.904E-03       -851.626E-03        185.722E-03  
              892.5E-03          661.278E-03       -847.355E-03        186.077E-03        667.825E-03       -854.117E-03        186.293E-03  
              895.E-03           663.156E-03       -849.798E-03        186.642E-03        669.745E-03       -856.608E-03        186.863E-03  
              897.5E-03          665.034E-03       -852.241E-03        187.207E-03        671.666E-03       -859.1E-03          187.434E-03  
              900.E-03           666.912E-03       -854.684E-03        187.772E-03        673.587E-03       -861.591E-03        188.004E-03  
              902.5E-03          668.79E-03        -857.127E-03        188.337E-03        675.508E-03       -864.083E-03        188.575E-03  
              905.E-03           670.667E-03       -859.57E-03         188.902E-03        677.429E-03       -866.575E-03        189.146E-03  
              907.5E-03          672.545E-03       -862.013E-03        189.467E-03        679.351E-03       -869.067E-03        189.716E-03  
              910.E-03           674.423E-03       -864.455E-03        190.033E-03        681.273E-03       -871.56E-03         190.287E-03  
              912.5E-03          676.3E-03         -866.898E-03        190.598E-03        683.194E-03       -874.052E-03        190.858E-03  
              915.E-03           678.178E-03       -869.34E-03         191.163E-03        685.116E-03       -876.545E-03        191.429E-03  
              917.5E-03          680.055E-03       -871.783E-03        191.728E-03        687.039E-03       -879.038E-03        191.999E-03  
              920.E-03           681.932E-03       -874.225E-03        192.293E-03        688.961E-03       -881.531E-03        192.57E-03   
              922.5E-03          683.81E-03        -876.667E-03        192.858E-03        690.884E-03       -884.025E-03        193.141E-03  
              925.E-03           685.687E-03       -879.109E-03        193.423E-03        692.806E-03       -886.519E-03        193.712E-03  
              927.5E-03          687.564E-03       -881.552E-03        193.988E-03        694.729E-03       -889.013E-03        194.283E-03  
              930.E-03           689.441E-03       -883.994E-03        194.553E-03        696.652E-03       -891.507E-03        194.855E-03  
              932.5E-03          691.318E-03       -886.435E-03        195.118E-03        698.576E-03       -894.001E-03        195.426E-03  
              935.E-03           693.195E-03       -888.877E-03        195.682E-03        700.499E-03       -896.496E-03        195.997E-03  
              937.5E-03          695.072E-03       -891.319E-03        196.247E-03        702.423E-03       -898.991E-03        196.568E-03  
              940.E-03           696.948E-03       -893.761E-03        196.812E-03        704.347E-03       -901.486E-03        197.139E-03  
              942.5E-03          698.825E-03       -896.202E-03        197.377E-03        706.271E-03       -903.982E-03        197.711E-03  
              945.E-03           700.702E-03       -898.644E-03        197.942E-03        708.195E-03       -906.477E-03        198.282E-03  
              947.5E-03          702.578E-03       -901.085E-03        198.507E-03        710.119E-03       -908.973E-03        198.854E-03  
              950.E-03           704.455E-03       -903.526E-03        199.072E-03        712.044E-03       -911.469E-03        199.425E-03  
              952.5E-03          706.331E-03       -905.968E-03        199.636E-03        713.969E-03       -913.966E-03        199.997E-03  
              955.E-03           708.208E-03       -908.409E-03        200.201E-03        715.894E-03       -916.462E-03        200.568E-03  
              957.5E-03          710.084E-03       -910.85E-03         200.766E-03        717.819E-03       -918.959E-03        201.14E-03   
              960.E-03           711.96E-03        -913.291E-03        201.331E-03        719.744E-03       -921.456E-03        201.712E-03  
              962.5E-03          713.836E-03       -915.732E-03        201.895E-03        721.67E-03        -923.953E-03        202.283E-03  
              965.E-03           715.713E-03       -918.173E-03        202.46E-03         723.596E-03       -926.451E-03        202.855E-03  
              967.5E-03          717.589E-03       -920.613E-03        203.025E-03        725.521E-03       -928.949E-03        203.427E-03  
              970.E-03           719.465E-03       -923.054E-03        203.589E-03        727.448E-03       -931.447E-03        203.999E-03  
              972.5E-03          721.34E-03        -925.494E-03        204.154E-03        729.374E-03       -933.945E-03        204.571E-03  
              975.E-03           723.216E-03       -927.935E-03        204.719E-03        731.3E-03         -936.443E-03        205.143E-03  
              977.5E-03          725.092E-03       -930.375E-03        205.283E-03        733.227E-03       -938.942E-03        205.715E-03  
              980.E-03           726.968E-03       -932.815E-03        205.848E-03        735.154E-03       -941.441E-03        206.287E-03  
              982.5E-03          728.843E-03       -935.256E-03        206.412E-03        737.081E-03       -943.941E-03        206.859E-03  
              985.E-03           730.719E-03       -937.696E-03        206.977E-03        739.009E-03       -946.44E-03         207.432E-03  
              987.5E-03          732.594E-03       -940.136E-03        207.541E-03        740.936E-03       -948.94E-03         208.004E-03  
              990.E-03           734.47E-03        -942.576E-03        208.106E-03        742.864E-03       -951.44E-03         208.576E-03  
              992.5E-03          736.345E-03       -945.015E-03        208.67E-03         744.792E-03       -953.94E-03         209.149E-03  
              995.E-03           738.22E-03        -947.455E-03        209.235E-03        746.72E-03        -956.441E-03        209.721E-03  
              997.5E-03          740.095E-03       -949.895E-03        209.799E-03        748.648E-03       -958.942E-03        210.294E-03  
                1.               741.971E-03       -952.334E-03        210.364E-03        750.576E-03       -961.443E-03        210.866E-03  




