
                  X               ep1-out            ep2-out            ep3-out             ep1-in             ep2-in             ep3-in     

                0.                 0.                 0.                 0.                 0.                 0.                 0.         
                2.5E-03          717.854E-06         -1.16578E-03      447.925E-06        809.559E-06         -1.288E-03        478.437E-06  
                5.E-03             2.51191E-03       -4.18253E-03        1.67061E-03        2.67854E-03       -4.38294E-03        1.7044E-03 
                7.5E-03            4.29733E-03       -7.21361E-03        2.91628E-03        4.51825E-03       -7.4717E-03         2.95345E-03
               10.E-03             6.08491E-03      -10.2525E-03         4.16762E-03        6.3495E-03       -10.5574E-03         4.20794E-03
               12.5E-03            7.87542E-03      -13.2973E-03         5.42192E-03        8.1759E-03       -13.641E-03          5.46506E-03
               15.E-03             9.66867E-03      -16.3469E-03         6.67818E-03        9.99915E-03      -16.723E-03          6.72383E-03
               17.5E-03           11.4643E-03       -19.4002E-03         7.93594E-03       11.8202E-03       -19.804E-03          7.98381E-03
               20.E-03            13.2619E-03       -22.4568E-03         9.19493E-03       13.6397E-03       -22.8845E-03         9.24478E-03
               22.5E-03           15.0613E-03       -25.5162E-03        10.455E-03         15.458E-03        -25.9646E-03        10.5066E-03 
               25.E-03            16.8621E-03       -28.578E-03         11.7159E-03        17.2755E-03       -29.0446E-03        11.7691E-03 
               27.5E-03           18.6642E-03       -31.6418E-03        12.9777E-03        19.0923E-03       -32.1246E-03        13.0323E-03 
               30.E-03            20.4674E-03       -34.7075E-03        14.2401E-03        20.9086E-03       -35.2046E-03        14.296E-03  
               32.5E-03           22.2716E-03       -37.7748E-03        15.5032E-03        22.7246E-03       -38.2848E-03        15.5602E-03 
               35.E-03            24.0766E-03       -40.8435E-03        16.7669E-03        24.5403E-03       -41.3653E-03        16.8249E-03 
               37.5E-03           25.8825E-03       -43.9136E-03        18.0311E-03        26.3559E-03       -44.4459E-03        18.0901E-03 
               40.E-03            27.6891E-03       -46.9848E-03        19.2957E-03        28.1713E-03       -47.5269E-03        19.3556E-03 
               42.5E-03           29.4963E-03       -50.0571E-03        20.5608E-03        29.9867E-03       -50.6081E-03        20.6214E-03 
               45.E-03            31.3041E-03       -53.1304E-03        21.8263E-03        31.802E-03        -53.6896E-03        21.8876E-03 
               47.5E-03           33.1124E-03       -56.2046E-03        23.0921E-03        33.6173E-03       -56.7715E-03        23.1542E-03 
               50.E-03            34.9212E-03       -59.2795E-03        24.3583E-03        35.4327E-03       -59.8536E-03        24.421E-03  
               52.5E-03           36.7305E-03       -62.3553E-03        25.6248E-03        37.2481E-03       -62.9361E-03        25.688E-03  
               55.E-03            38.5402E-03       -65.4317E-03        26.8916E-03        39.0635E-03       -66.0189E-03        26.9553E-03 
               57.5E-03           40.1938E-03       -67.5246E-03        27.3308E-03        40.7334E-03       -68.1285E-03        27.3951E-03 
               60.E-03            41.8521E-03       -68.8923E-03        27.0402E-03        42.7071E-03       -69.7521E-03        27.0451E-03 
               62.5E-03           43.8113E-03       -70.1933E-03        26.382E-03         44.7094E-03       -71.0806E-03        26.3712E-03 
               65.E-03            45.8004E-03       -71.3601E-03        25.5597E-03        46.728E-03        -72.2663E-03        25.5384E-03 
               67.5E-03           47.796E-03        -72.4508E-03        24.6548E-03        48.7307E-03       -73.3622E-03        24.6314E-03 
               70.E-03            49.7863E-03       -73.4959E-03        23.7096E-03        50.7294E-03       -74.4127E-03        23.6832E-03 
               72.5E-03           51.7733E-03       -74.516E-03         22.7427E-03        52.7239E-03       -75.4375E-03        22.7136E-03 
               75.E-03            53.7579E-03       -75.5222E-03        21.7643E-03        54.716E-03        -76.4483E-03        21.7324E-03 
               77.5E-03           55.7412E-03       -76.5209E-03        20.7796E-03        56.7067E-03       -77.4514E-03        20.7447E-03 
               80.E-03            57.7238E-03       -77.5153E-03        19.7915E-03        58.6968E-03       -78.4503E-03        19.7535E-03 
               82.5E-03           59.7059E-03       -78.5073E-03        18.8014E-03        60.6864E-03       -79.4468E-03        18.7604E-03 
               85.E-03            61.6877E-03       -79.4981E-03        17.8104E-03        62.676E-03        -80.4421E-03        17.7661E-03 
               87.5E-03           63.6695E-03       -80.4882E-03        16.8187E-03        64.6654E-03       -81.4366E-03        16.7712E-03 
               90.E-03            65.6511E-03       -81.4778E-03        15.8267E-03        66.6549E-03       -82.4309E-03        15.7759E-03 
               92.5E-03           67.6327E-03       -82.4673E-03        14.8346E-03        68.6445E-03       -83.4249E-03        14.7804E-03 
               95.E-03            69.6143E-03       -83.4566E-03        13.8423E-03        70.6342E-03       -84.4189E-03        13.7847E-03 
               97.5E-03           71.5959E-03       -84.4459E-03        12.85E-03          72.624E-03        -85.4129E-03        12.789E-03  
              100.E-03            73.5775E-03       -85.4352E-03        11.8577E-03        74.6139E-03       -86.407E-03         11.7931E-03 
              102.5E-03           75.4948E-03       -86.3068E-03        10.812E-03         76.5366E-03       -87.2815E-03        10.7449E-03 
              105.E-03            77.3576E-03       -87.036E-03          9.6784E-03        78.4029E-03       -88.0124E-03         9.60951E-03
              107.5E-03           79.2057E-03       -87.6907E-03         8.48494E-03       80.2546E-03       -88.6686E-03         8.41409E-03
              110.E-03            81.0425E-03       -88.3008E-03         7.25825E-03       82.0947E-03       -89.2801E-03         7.18537E-03
              112.5E-03           82.8716E-03       -88.8842E-03         6.01263E-03       83.9272E-03       -89.8649E-03         5.93764E-03
              115.E-03            84.6958E-03       -89.4519E-03         4.756E-03         85.7549E-03       -90.4338E-03         4.67886E-03
              117.5E-03           86.5171E-03       -90.01E-03           3.49291E-03       87.5796E-03       -90.9932E-03         3.41355E-03
              120.E-03            88.3365E-03       -90.5625E-03         2.22599E-03       89.4026E-03       -91.547E-03          2.14435E-03
              122.5E-03           90.1548E-03       -91.1116E-03       956.786E-06         91.2246E-03       -92.0974E-03       872.815E-06  
              125.E-03            91.9725E-03       -91.6587E-03      -313.785E-06         93.046E-03        -92.6459E-03      -400.146E-06  
              127.5E-03           93.7898E-03       -92.2046E-03        -1.58518E-03       94.8672E-03       -93.1932E-03        -1.67399E-03
              130.E-03            95.6069E-03       -92.7498E-03        -2.85707E-03       96.6882E-03       -93.7398E-03        -2.94838E-03
              132.5E-03           97.4238E-03       -93.2946E-03        -4.12926E-03       98.5092E-03       -94.286E-03         -4.22314E-03
              135.E-03            99.2407E-03       -93.8391E-03        -5.40165E-03      100.33E-03         -94.832E-03         -5.49814E-03
              137.5E-03          101.058E-03        -94.3834E-03        -6.67414E-03      102.151E-03        -95.378E-03         -6.77331E-03
              140.E-03           102.874E-03        -94.9277E-03        -7.94671E-03      103.972E-03        -95.9238E-03        -8.04862E-03
              142.5E-03          104.691E-03        -95.4719E-03        -9.21933E-03      105.794E-03        -96.4697E-03        -9.32403E-03
              145.E-03           106.508E-03        -96.0161E-03       -10.492E-03        107.615E-03        -97.0156E-03       -10.5995E-03 
              147.5E-03          108.325E-03        -96.5603E-03       -11.7647E-03       109.437E-03        -97.5615E-03       -11.8751E-03 
              150.E-03           110.142E-03        -97.1045E-03       -13.0374E-03       111.258E-03        -98.1075E-03       -13.1508E-03 
              152.5E-03          111.959E-03        -97.6486E-03       -14.3101E-03       113.08E-03         -98.6535E-03       -14.4265E-03 
              155.E-03           113.776E-03        -98.1928E-03       -15.5828E-03       114.902E-03        -99.1995E-03       -15.7023E-03 
              157.5E-03          115.592E-03        -98.737E-03        -16.8555E-03       116.724E-03        -99.7456E-03       -16.9782E-03 
              160.E-03           117.409E-03        -99.2812E-03       -18.1282E-03       118.546E-03       -100.292E-03        -18.2542E-03 
              162.5E-03          119.226E-03        -99.8253E-03       -19.4009E-03       120.368E-03       -100.838E-03        -19.5302E-03 
              165.E-03           121.043E-03       -100.37E-03         -20.6737E-03       122.191E-03       -101.384E-03        -20.8063E-03 
              167.5E-03          122.86E-03        -100.914E-03        -21.9464E-03       124.013E-03       -101.931E-03        -22.0824E-03 
              170.E-03           124.677E-03       -101.458E-03        -23.2192E-03       125.836E-03       -102.477E-03        -23.3587E-03 
              172.5E-03          126.494E-03       -102.002E-03        -24.4919E-03       127.658E-03       -103.023E-03        -24.635E-03  
              175.E-03           128.311E-03       -102.546E-03        -25.7646E-03       129.481E-03       -103.57E-03         -25.9114E-03 
              177.5E-03          130.128E-03       -103.09E-03         -27.0374E-03       131.304E-03       -104.116E-03        -27.1878E-03 
              180.E-03           131.945E-03       -103.635E-03        -28.3101E-03       133.127E-03       -104.663E-03        -28.4643E-03 
              182.5E-03          133.762E-03       -104.179E-03        -29.5829E-03       134.95E-03        -105.21E-03         -29.7409E-03 
              185.E-03           135.579E-03       -104.723E-03        -30.8556E-03       136.774E-03       -105.756E-03        -31.0176E-03 
              187.5E-03          137.396E-03       -105.267E-03        -32.1284E-03       138.597E-03       -106.303E-03        -32.2943E-03 
              190.E-03           139.213E-03       -105.811E-03        -33.4011E-03       140.421E-03       -106.85E-03         -33.5711E-03 
              192.5E-03          141.029E-03       -106.356E-03        -34.6738E-03       142.245E-03       -107.397E-03        -34.848E-03  
              195.E-03           142.846E-03       -106.9E-03          -35.9466E-03       144.068E-03       -107.943E-03        -36.125E-03  
              197.5E-03          144.663E-03       -107.444E-03        -37.2193E-03       145.892E-03       -108.49E-03         -37.402E-03  
              200.E-03           146.48E-03        -107.988E-03        -38.492E-03        147.717E-03       -109.037E-03        -38.6792E-03 
              202.5E-03          148.297E-03       -108.532E-03        -39.7647E-03       149.541E-03       -109.584E-03        -39.9564E-03 
              205.E-03           150.114E-03       -109.077E-03        -41.0374E-03       151.365E-03       -110.132E-03        -41.2337E-03 
              207.5E-03          151.931E-03       -109.621E-03        -42.3101E-03       153.19E-03        -110.679E-03        -42.511E-03  
              210.E-03           153.748E-03       -110.165E-03        -43.5828E-03       155.014E-03       -111.226E-03        -43.7885E-03 
              212.5E-03          155.565E-03       -110.709E-03        -44.8555E-03       156.839E-03       -111.773E-03        -45.066E-03  
              215.E-03           157.382E-03       -111.253E-03        -46.1281E-03       158.664E-03       -112.321E-03        -46.3436E-03 
              217.5E-03          159.198E-03       -111.798E-03        -47.4008E-03       160.489E-03       -112.868E-03        -47.6213E-03 
              220.E-03           161.015E-03       -112.342E-03        -48.6734E-03       162.315E-03       -113.416E-03        -48.8991E-03 
              222.5E-03          162.832E-03       -112.886E-03        -49.9461E-03       164.14E-03        -113.963E-03        -50.177E-03  
              225.E-03           164.649E-03       -113.43E-03         -51.2187E-03       165.966E-03       -114.511E-03        -51.455E-03  
              227.5E-03          166.465E-03       -113.974E-03        -52.4913E-03       167.791E-03       -115.058E-03        -52.733E-03  
              230.E-03           168.282E-03       -114.518E-03        -53.7639E-03       169.617E-03       -115.606E-03        -54.0112E-03 
              232.5E-03          170.099E-03       -115.062E-03        -55.0365E-03       171.443E-03       -116.154E-03        -55.2894E-03 
              235.E-03           171.916E-03       -115.607E-03        -56.309E-03        173.269E-03       -116.702E-03        -56.5678E-03 
              237.5E-03          173.732E-03       -116.151E-03        -57.5816E-03       175.096E-03       -117.25E-03         -57.8462E-03 
              240.E-03           175.549E-03       -116.695E-03        -58.8541E-03       176.922E-03       -117.798E-03        -59.1248E-03 
              242.5E-03          177.366E-03       -117.239E-03        -60.1266E-03       178.749E-03       -118.346E-03        -60.4034E-03 
              245.E-03           179.182E-03       -117.783E-03        -61.3991E-03       180.576E-03       -118.894E-03        -61.6822E-03 
              247.5E-03          180.999E-03       -118.327E-03        -62.6716E-03       182.403E-03       -119.442E-03        -62.961E-03  
              250.E-03           182.815E-03       -118.871E-03        -63.944E-03        184.23E-03        -119.99E-03         -64.24E-03   
              252.5E-03          184.632E-03       -119.415E-03        -65.2164E-03       186.057E-03       -120.538E-03        -65.519E-03  
              255.E-03           186.448E-03       -119.959E-03        -66.4888E-03       187.885E-03       -121.087E-03        -66.7982E-03 
              257.5E-03          188.265E-03       -120.503E-03        -67.7612E-03       189.713E-03       -121.635E-03        -68.0775E-03 
              260.E-03           190.081E-03       -121.047E-03        -69.0335E-03       191.541E-03       -122.184E-03        -69.3569E-03 
              262.5E-03          191.897E-03       -121.591E-03        -70.3058E-03       193.369E-03       -122.732E-03        -70.6365E-03 
              265.E-03           193.714E-03       -122.135E-03        -71.5781E-03       195.197E-03       -123.281E-03        -71.9161E-03 
              267.5E-03          195.53E-03        -122.679E-03        -72.8504E-03       197.026E-03       -123.83E-03         -73.1959E-03 
              270.E-03           197.346E-03       -123.223E-03        -74.1226E-03       198.855E-03       -124.379E-03        -74.4758E-03 
              272.5E-03          199.162E-03       -123.767E-03        -75.3948E-03       200.683E-03       -124.928E-03        -75.7559E-03 
              275.E-03           200.978E-03       -124.311E-03        -76.667E-03        202.513E-03       -125.477E-03        -77.036E-03  
              277.5E-03          202.794E-03       -124.855E-03        -77.9391E-03       204.342E-03       -126.026E-03        -78.3163E-03 
              280.E-03           204.61E-03        -125.399E-03        -79.2112E-03       206.172E-03       -126.575E-03        -79.5968E-03 
              282.5E-03          206.426E-03       -125.943E-03        -80.4832E-03       208.002E-03       -127.124E-03        -80.8774E-03 
              285.E-03           208.242E-03       -126.487E-03        -81.7552E-03       209.832E-03       -127.673E-03        -82.1581E-03 
              287.5E-03          210.058E-03       -127.031E-03        -83.0272E-03       211.662E-03       -128.223E-03        -83.439E-03  
              290.E-03           211.874E-03       -127.575E-03        -84.2992E-03       213.492E-03       -128.772E-03        -84.72E-03   
              292.5E-03          213.69E-03        -128.118E-03        -85.571E-03        215.323E-03       -129.322E-03        -86.0012E-03 
              295.E-03           215.505E-03       -128.662E-03        -86.8429E-03       217.154E-03       -129.872E-03        -87.2826E-03 
              297.5E-03          217.321E-03       -129.206E-03        -88.1147E-03       218.986E-03       -130.422E-03        -88.5641E-03 
              300.E-03           219.136E-03       -129.75E-03         -89.3864E-03       220.817E-03       -130.972E-03        -89.8458E-03 
              302.5E-03          220.952E-03       -130.294E-03        -90.6581E-03       222.649E-03       -131.522E-03        -91.1277E-03 
              305.E-03           222.767E-03       -130.837E-03        -91.9298E-03       224.481E-03       -132.072E-03        -92.4097E-03 
              307.5E-03          224.582E-03       -131.381E-03        -93.2014E-03       226.314E-03       -132.622E-03        -93.6919E-03 
              310.E-03           226.397E-03       -131.925E-03        -94.4729E-03       228.147E-03       -133.172E-03        -94.9744E-03 
              312.5E-03          228.213E-03       -132.468E-03        -95.7444E-03       229.98E-03        -133.723E-03        -96.257E-03  
              315.E-03           230.027E-03       -133.012E-03        -97.0158E-03       231.813E-03       -134.273E-03        -97.5398E-03 
              317.5E-03          231.842E-03       -133.555E-03        -98.2871E-03       233.647E-03       -134.824E-03        -98.8228E-03 
              320.E-03           233.657E-03       -134.099E-03        -99.5584E-03       235.481E-03       -135.375E-03       -100.106E-03  
              322.5E-03          235.472E-03       -134.642E-03       -100.83E-03         237.315E-03       -135.926E-03       -101.389E-03  
              325.E-03           237.287E-03       -135.186E-03       -102.101E-03        239.15E-03        -136.477E-03       -102.673E-03  
              327.5E-03          239.101E-03       -135.729E-03       -103.372E-03        240.985E-03       -137.028E-03       -103.957E-03  
              330.E-03           240.915E-03       -136.273E-03       -104.643E-03        242.82E-03        -137.579E-03       -105.241E-03  
              332.5E-03          242.73E-03        -136.816E-03       -105.914E-03        244.656E-03       -138.131E-03       -106.526E-03  
              335.E-03           244.544E-03       -137.359E-03       -107.185E-03        246.492E-03       -138.682E-03       -107.81E-03   
              337.5E-03          246.358E-03       -137.902E-03       -108.455E-03        248.329E-03       -139.234E-03       -109.095E-03  
              340.E-03           248.172E-03       -138.446E-03       -109.726E-03        250.166E-03       -139.786E-03       -110.38E-03   
              342.5E-03          249.986E-03       -138.989E-03       -110.997E-03        252.003E-03       -140.338E-03       -111.666E-03  
              345.E-03           251.799E-03       -139.532E-03       -112.267E-03        253.841E-03       -140.89E-03        -112.951E-03  
              347.5E-03          253.613E-03       -140.075E-03       -113.538E-03        255.679E-03       -141.442E-03       -114.237E-03  
              350.E-03           255.426E-03       -140.618E-03       -114.808E-03        257.518E-03       -141.995E-03       -115.524E-03  
              352.5E-03          257.239E-03       -141.161E-03       -116.078E-03        259.357E-03       -142.547E-03       -116.81E-03   
              355.E-03           259.052E-03       -141.704E-03       -117.348E-03        261.197E-03       -143.1E-03         -118.097E-03  
              357.5E-03          260.865E-03       -142.247E-03       -118.618E-03        263.038E-03       -143.653E-03       -119.384E-03  
              360.E-03           262.678E-03       -142.79E-03        -119.888E-03        264.878E-03       -144.206E-03       -120.672E-03  
              362.5E-03          264.49E-03        -143.333E-03       -121.158E-03        266.72E-03        -144.76E-03        -121.96E-03   
              365.E-03           266.302E-03       -143.875E-03       -122.427E-03        268.561E-03       -145.313E-03       -123.248E-03  
              367.5E-03          268.115E-03       -144.418E-03       -123.697E-03        270.404E-03       -145.867E-03       -124.537E-03  
              370.E-03           269.926E-03       -144.961E-03       -124.966E-03        272.247E-03       -146.421E-03       -125.826E-03  
              372.5E-03          271.738E-03       -145.503E-03       -126.235E-03        274.091E-03       -146.975E-03       -127.116E-03  
              375.E-03           273.55E-03        -146.045E-03       -127.504E-03        275.935E-03       -147.529E-03       -128.406E-03  
              377.5E-03          275.361E-03       -146.588E-03       -128.773E-03        277.78E-03        -148.084E-03       -129.696E-03  
              380.E-03           277.172E-03       -147.13E-03        -130.042E-03        279.626E-03       -148.639E-03       -130.987E-03  
              382.5E-03          278.983E-03       -147.672E-03       -131.31E-03         281.472E-03       -149.194E-03       -132.278E-03  
              385.E-03           280.793E-03       -148.215E-03       -132.579E-03        283.319E-03       -149.749E-03       -133.57E-03   
              387.5E-03          282.603E-03       -148.757E-03       -133.847E-03        285.167E-03       -150.305E-03       -134.862E-03  
              390.E-03           284.413E-03       -149.299E-03       -135.115E-03        287.015E-03       -150.86E-03        -136.155E-03  
              392.5E-03          286.223E-03       -149.84E-03        -136.383E-03        288.865E-03       -151.416E-03       -137.448E-03  
              395.E-03           288.032E-03       -150.382E-03       -137.65E-03         290.715E-03       -151.973E-03       -138.742E-03  
              397.5E-03          289.841E-03       -150.924E-03       -138.918E-03        292.566E-03       -152.529E-03       -140.037E-03  
              400.E-03           291.65E-03        -151.465E-03       -140.185E-03        294.418E-03       -153.086E-03       -141.332E-03  
              402.5E-03          293.459E-03       -152.007E-03       -141.452E-03        296.271E-03       -153.644E-03       -142.627E-03  
              405.E-03           295.267E-03       -152.548E-03       -142.718E-03        298.125E-03       -154.201E-03       -143.924E-03  
              407.5E-03          297.074E-03       -153.09E-03        -143.985E-03        299.98E-03        -154.759E-03       -145.221E-03  
              410.E-03           298.882E-03       -153.631E-03       -145.251E-03        301.835E-03       -155.317E-03       -146.518E-03  
              412.5E-03          300.689E-03       -154.172E-03       -146.517E-03        303.692E-03       -155.876E-03       -147.817E-03  
              415.E-03           302.495E-03       -154.713E-03       -147.783E-03        305.55E-03        -156.435E-03       -149.116E-03  
              417.5E-03          304.301E-03       -155.253E-03       -149.048E-03        307.409E-03       -156.994E-03       -150.416E-03  
              420.E-03           306.107E-03       -155.794E-03       -150.313E-03        309.27E-03        -157.553E-03       -151.716E-03  
              422.5E-03          307.912E-03       -156.335E-03       -151.578E-03        311.131E-03       -158.113E-03       -153.018E-03  
              425.E-03           309.717E-03       -156.875E-03       -152.842E-03        312.994E-03       -158.674E-03       -154.32E-03   
              427.5E-03          311.521E-03       -157.415E-03       -154.106E-03        314.858E-03       -159.235E-03       -155.623E-03  
              430.E-03           313.325E-03       -157.955E-03       -155.37E-03         316.723E-03       -159.796E-03       -156.928E-03  
              432.5E-03          315.128E-03       -158.495E-03       -156.633E-03        318.59E-03        -160.358E-03       -158.233E-03  
              435.E-03           316.93E-03        -159.035E-03       -157.896E-03        320.458E-03       -160.92E-03        -159.539E-03  
              437.5E-03          318.732E-03       -159.574E-03       -159.158E-03        322.328E-03       -161.482E-03       -160.846E-03  
              440.E-03           320.534E-03       -160.42E-03        -160.113E-03        324.199E-03       -162.154E-03       -162.045E-03  
              442.5E-03          322.335E-03       -161.682E-03       -160.653E-03        326.072E-03       -163.463E-03       -162.609E-03  
              445.E-03           324.135E-03       -162.943E-03       -161.192E-03        327.946E-03       -164.773E-03       -163.173E-03  
              447.5E-03          325.934E-03       -164.204E-03       -161.73E-03         329.822E-03       -166.084E-03       -163.737E-03  
              450.E-03           327.733E-03       -165.464E-03       -162.269E-03        331.699E-03       -167.397E-03       -164.302E-03  
              452.5E-03          329.531E-03       -166.724E-03       -162.807E-03        333.579E-03       -168.711E-03       -164.868E-03  
              455.E-03           331.328E-03       -167.983E-03       -163.345E-03        335.459E-03       -170.025E-03       -165.434E-03  
              457.5E-03          333.125E-03       -169.242E-03       -163.883E-03        337.342E-03       -171.341E-03       -166.001E-03  
              460.E-03           334.921E-03       -170.5E-03         -164.421E-03        339.226E-03       -172.659E-03       -166.568E-03  
              462.5E-03          336.716E-03       -171.758E-03       -164.959E-03        341.112E-03       -173.977E-03       -167.135E-03  
              465.E-03           338.511E-03       -173.015E-03       -165.496E-03        343.E-03          -175.296E-03       -167.703E-03  
              467.5E-03          340.305E-03       -174.272E-03       -166.033E-03        344.889E-03       -176.617E-03       -168.272E-03  
              470.E-03           342.098E-03       -175.528E-03       -166.57E-03         346.78E-03        -177.939E-03       -168.841E-03  
              472.5E-03          343.89E-03        -176.784E-03       -167.107E-03        348.672E-03       -179.262E-03       -169.41E-03   
              475.E-03           345.682E-03       -178.039E-03       -167.643E-03        350.566E-03       -180.586E-03       -169.98E-03   
              477.5E-03          347.474E-03       -179.294E-03       -168.18E-03         352.461E-03       -181.911E-03       -170.55E-03   
              480.E-03           349.264E-03       -180.549E-03       -168.716E-03        354.357E-03       -183.236E-03       -171.12E-03   
              482.5E-03          351.055E-03       -181.803E-03       -169.252E-03        356.254E-03       -184.563E-03       -171.691E-03  
              485.E-03           352.845E-03       -183.057E-03       -169.788E-03        358.152E-03       -185.89E-03        -172.262E-03  
              487.5E-03          354.635E-03       -184.311E-03       -170.324E-03        360.05E-03        -187.217E-03       -172.833E-03  
              490.E-03           356.425E-03       -185.565E-03       -170.861E-03        361.949E-03       -188.545E-03       -173.404E-03  
              492.5E-03          358.215E-03       -186.819E-03       -171.397E-03        363.847E-03       -189.873E-03       -173.975E-03  
              495.E-03           360.006E-03       -188.073E-03       -171.933E-03        365.745E-03       -191.2E-03         -174.545E-03  
              497.5E-03          361.797E-03       -189.327E-03       -172.47E-03         367.643E-03       -192.527E-03       -175.115E-03  
              500.E-03           363.589E-03       -190.582E-03       -173.007E-03        369.539E-03       -193.854E-03       -175.685E-03  
              502.5E-03          365.382E-03       -191.838E-03       -173.544E-03        371.433E-03       -195.179E-03       -176.254E-03  
              505.E-03           367.176E-03       -193.094E-03       -174.082E-03        373.326E-03       -196.503E-03       -176.823E-03  
              507.5E-03          368.971E-03       -194.352E-03       -174.62E-03         375.217E-03       -197.827E-03       -177.391E-03  
              510.E-03           370.768E-03       -195.61E-03        -175.158E-03        377.106E-03       -199.148E-03       -177.958E-03  
              512.5E-03          372.565E-03       -196.868E-03       -175.697E-03        378.993E-03       -200.469E-03       -178.524E-03  
              515.E-03           374.364E-03       -198.128E-03       -176.236E-03        380.877E-03       -201.788E-03       -179.09E-03   
              517.5E-03          376.164E-03       -199.388E-03       -176.776E-03        382.76E-03        -203.105E-03       -179.655E-03  
              520.E-03           377.964E-03       -200.649E-03       -177.316E-03        384.64E-03        -204.421E-03       -180.219E-03  
              522.5E-03          379.766E-03       -201.91E-03        -177.856E-03        386.519E-03       -205.736E-03       -180.782E-03  
              525.E-03           381.568E-03       -203.172E-03       -178.396E-03        388.395E-03       -207.05E-03        -181.345E-03  
              527.5E-03          383.371E-03       -204.434E-03       -178.937E-03        390.27E-03        -208.363E-03       -181.907E-03  
              530.E-03           385.174E-03       -205.697E-03       -179.477E-03        392.144E-03       -209.675E-03       -182.469E-03  
              532.5E-03          386.978E-03       -206.96E-03        -180.018E-03        394.015E-03       -210.986E-03       -183.03E-03   
              535.E-03           388.782E-03       -208.223E-03       -180.559E-03        395.886E-03       -212.295E-03       -183.591E-03  
              537.5E-03          390.586E-03       -209.486E-03       -181.1E-03          397.755E-03       -213.604E-03       -184.151E-03  
              540.E-03           392.391E-03       -210.749E-03       -181.642E-03        399.623E-03       -214.913E-03       -184.71E-03   
              542.5E-03          394.196E-03       -212.013E-03       -182.183E-03        401.49E-03        -216.22E-03        -185.27E-03   
              545.E-03           396.002E-03       -213.277E-03       -182.724E-03        403.355E-03       -217.527E-03       -185.829E-03  
              547.5E-03          397.807E-03       -214.541E-03       -183.266E-03        405.22E-03        -218.833E-03       -186.387E-03  
              550.E-03           399.614E-03       -215.806E-03       -183.808E-03        407.083E-03       -220.138E-03       -186.945E-03  
              552.5E-03          401.42E-03        -217.07E-03        -184.35E-03         408.946E-03       -221.443E-03       -187.503E-03  
              555.E-03           403.227E-03       -218.335E-03       -184.891E-03        410.807E-03       -222.747E-03       -188.06E-03   
              557.5E-03          405.034E-03       -219.6E-03         -185.434E-03        412.668E-03       -224.05E-03        -188.617E-03  
              560.E-03           406.841E-03       -220.865E-03       -185.976E-03        414.528E-03       -225.353E-03       -189.174E-03  
              562.5E-03          408.649E-03       -222.131E-03       -186.518E-03        416.387E-03       -226.656E-03       -189.731E-03  
              565.E-03           410.457E-03       -223.396E-03       -187.06E-03         418.245E-03       -227.958E-03       -190.287E-03  
              567.5E-03          412.265E-03       -224.662E-03       -187.603E-03        420.102E-03       -229.259E-03       -190.843E-03  
              570.E-03           414.073E-03       -225.928E-03       -188.145E-03        421.959E-03       -230.56E-03        -191.399E-03  
              572.5E-03          415.882E-03       -227.194E-03       -188.688E-03        423.815E-03       -231.86E-03        -191.954E-03  
              575.E-03           417.69E-03        -228.46E-03        -189.23E-03         425.67E-03        -233.16E-03        -192.509E-03  
              577.5E-03          419.499E-03       -229.726E-03       -189.773E-03        427.524E-03       -234.46E-03        -193.064E-03  
              580.E-03           421.309E-03       -230.993E-03       -190.316E-03        429.378E-03       -235.759E-03       -193.619E-03  
              582.5E-03          423.118E-03       -232.26E-03        -190.859E-03        431.231E-03       -237.058E-03       -194.174E-03  
              585.E-03           424.928E-03       -233.526E-03       -191.402E-03        433.084E-03       -238.356E-03       -194.728E-03  
              587.5E-03          426.738E-03       -234.793E-03       -191.945E-03        434.936E-03       -239.654E-03       -195.282E-03  
              590.E-03           428.548E-03       -236.06E-03        -192.488E-03        436.788E-03       -240.952E-03       -195.836E-03  
              592.5E-03          430.358E-03       -237.327E-03       -193.031E-03        438.638E-03       -242.249E-03       -196.39E-03   
              595.E-03           432.169E-03       -238.595E-03       -193.574E-03        440.489E-03       -243.546E-03       -196.943E-03  
              597.5E-03          433.979E-03       -239.862E-03       -194.117E-03        442.339E-03       -244.842E-03       -197.496E-03  
              600.E-03           435.79E-03        -241.129E-03       -194.661E-03        444.188E-03       -246.139E-03       -198.05E-03   
              602.5E-03          437.601E-03       -242.397E-03       -195.204E-03        446.037E-03       -247.434E-03       -198.603E-03  
              605.E-03           439.412E-03       -243.665E-03       -195.747E-03        447.885E-03       -248.73E-03        -199.155E-03  
              607.5E-03          441.223E-03       -244.933E-03       -196.291E-03        449.733E-03       -250.025E-03       -199.708E-03  
              610.E-03           443.035E-03       -246.2E-03         -196.834E-03        451.581E-03       -251.32E-03        -200.261E-03  
              612.5E-03          444.847E-03       -247.468E-03       -197.378E-03        453.428E-03       -252.615E-03       -200.813E-03  
              615.E-03           446.658E-03       -248.737E-03       -197.922E-03        455.275E-03       -253.909E-03       -201.365E-03  
              617.5E-03          448.47E-03        -250.005E-03       -198.465E-03        457.121E-03       -255.203E-03       -201.917E-03  
              620.E-03           450.282E-03       -251.273E-03       -199.009E-03        458.966E-03       -256.497E-03       -202.469E-03  
              622.5E-03          452.095E-03       -252.542E-03       -199.553E-03        460.812E-03       -257.791E-03       -203.021E-03  
              625.E-03           453.907E-03       -253.81E-03        -200.097E-03        462.657E-03       -259.084E-03       -203.573E-03  
              627.5E-03          455.719E-03       -255.079E-03       -200.641E-03        464.502E-03       -260.377E-03       -204.124E-03  
              630.E-03           457.532E-03       -256.347E-03       -201.185E-03        466.346E-03       -261.67E-03        -204.676E-03  
              632.5E-03          459.345E-03       -257.616E-03       -201.729E-03        468.19E-03        -262.963E-03       -205.227E-03  
              635.E-03           461.157E-03       -258.885E-03       -202.273E-03        470.034E-03       -264.255E-03       -205.778E-03  
              637.5E-03          462.97E-03        -260.154E-03       -202.817E-03        471.877E-03       -265.547E-03       -206.329E-03  
              640.E-03           464.783E-03       -261.423E-03       -203.361E-03        473.72E-03        -266.839E-03       -206.88E-03   
              642.5E-03          466.597E-03       -262.692E-03       -203.905E-03        475.562E-03       -268.131E-03       -207.431E-03  
              645.E-03           468.41E-03        -263.961E-03       -204.449E-03        477.405E-03       -269.423E-03       -207.982E-03  
              647.5E-03          470.223E-03       -265.23E-03        -204.993E-03        479.247E-03       -270.714E-03       -208.533E-03  
              650.E-03           472.037E-03       -266.499E-03       -205.537E-03        481.088E-03       -272.005E-03       -209.083E-03  
              652.5E-03          473.851E-03       -267.769E-03       -206.082E-03        482.93E-03        -273.296E-03       -209.634E-03  
              655.E-03           475.664E-03       -269.038E-03       -206.626E-03        484.771E-03       -274.587E-03       -210.184E-03  
              657.5E-03          477.478E-03       -270.308E-03       -207.17E-03         486.612E-03       -275.877E-03       -210.734E-03  
              660.E-03           479.292E-03       -271.577E-03       -207.715E-03        488.452E-03       -277.168E-03       -211.285E-03  
              662.5E-03          481.106E-03       -272.847E-03       -208.259E-03        490.293E-03       -278.458E-03       -211.835E-03  
              665.E-03           482.92E-03        -274.117E-03       -208.804E-03        492.133E-03       -279.748E-03       -212.385E-03  
              667.5E-03          484.734E-03       -275.386E-03       -209.348E-03        493.972E-03       -281.038E-03       -212.935E-03  
              670.E-03           486.549E-03       -276.656E-03       -209.893E-03        495.812E-03       -282.327E-03       -213.485E-03  
              672.5E-03          488.363E-03       -277.926E-03       -210.437E-03        497.651E-03       -283.617E-03       -214.034E-03  
              675.E-03           490.178E-03       -279.196E-03       -210.982E-03        499.49E-03        -284.906E-03       -214.584E-03  
              677.5E-03          491.992E-03       -280.466E-03       -211.526E-03        501.329E-03       -286.195E-03       -215.134E-03  
              680.E-03           493.807E-03       -281.736E-03       -212.071E-03        503.168E-03       -287.484E-03       -215.683E-03  
              682.5E-03          495.622E-03       -283.006E-03       -212.615E-03        505.006E-03       -288.773E-03       -216.233E-03  
              685.E-03           497.436E-03       -284.276E-03       -213.16E-03         506.844E-03       -290.062E-03       -216.782E-03  
              687.5E-03          499.251E-03       -285.546E-03       -213.705E-03        508.682E-03       -291.351E-03       -217.332E-03  
              690.E-03           501.066E-03       -286.817E-03       -214.25E-03         510.52E-03        -292.639E-03       -217.881E-03  
              692.5E-03          502.881E-03       -288.087E-03       -214.794E-03        512.357E-03       -293.927E-03       -218.43E-03   
              695.E-03           504.697E-03       -289.357E-03       -215.339E-03        514.195E-03       -295.215E-03       -218.979E-03  
              697.5E-03          506.512E-03       -290.628E-03       -215.884E-03        516.032E-03       -296.503E-03       -219.528E-03  
              700.E-03           508.327E-03       -291.898E-03       -216.429E-03        517.869E-03       -297.791E-03       -220.077E-03  
              702.5E-03          510.142E-03       -293.169E-03       -216.973E-03        519.705E-03       -299.079E-03       -220.626E-03  
              705.E-03           511.958E-03       -294.439E-03       -217.518E-03        521.542E-03       -300.367E-03       -221.175E-03  
              707.5E-03          513.773E-03       -295.71E-03        -218.063E-03        523.378E-03       -301.654E-03       -221.724E-03  
              710.E-03           515.589E-03       -296.981E-03       -218.608E-03        525.214E-03       -302.942E-03       -222.273E-03  
              712.5E-03          517.404E-03       -298.251E-03       -219.153E-03        527.05E-03        -304.229E-03       -222.822E-03  
              715.E-03           519.22E-03        -299.522E-03       -219.698E-03        528.886E-03       -305.516E-03       -223.37E-03   
              717.5E-03          521.036E-03       -300.793E-03       -220.243E-03        530.722E-03       -306.803E-03       -223.919E-03  
              720.E-03           522.852E-03       -302.064E-03       -220.788E-03        532.557E-03       -308.09E-03        -224.468E-03  
              722.5E-03          524.668E-03       -303.335E-03       -221.333E-03        534.393E-03       -309.376E-03       -225.016E-03  
              725.E-03           526.484E-03       -304.606E-03       -221.878E-03        536.228E-03       -310.663E-03       -225.565E-03  
              727.5E-03          528.3E-03         -305.877E-03       -222.423E-03        538.063E-03       -311.95E-03        -226.113E-03  
              730.E-03           530.116E-03       -307.148E-03       -222.968E-03        539.897E-03       -313.236E-03       -226.661E-03  
              732.5E-03          531.932E-03       -308.419E-03       -223.513E-03        541.732E-03       -314.522E-03       -227.21E-03   
              735.E-03           533.748E-03       -309.69E-03        -224.058E-03        543.567E-03       -315.809E-03       -227.758E-03  
              737.5E-03          535.564E-03       -310.961E-03       -224.603E-03        545.401E-03       -317.095E-03       -228.306E-03  
              740.E-03           537.381E-03       -312.232E-03       -225.149E-03        547.235E-03       -318.381E-03       -228.854E-03  
              742.5E-03          539.197E-03       -313.503E-03       -225.694E-03        549.069E-03       -319.666E-03       -229.403E-03  
              745.E-03           541.014E-03       -314.775E-03       -226.239E-03        550.903E-03       -320.952E-03       -229.951E-03  
              747.5E-03          542.83E-03        -316.046E-03       -226.784E-03        552.737E-03       -322.238E-03       -230.499E-03  
              750.E-03           544.647E-03       -317.317E-03       -227.329E-03        554.57E-03        -323.524E-03       -231.047E-03  
              752.5E-03          546.463E-03       -318.589E-03       -227.875E-03        556.404E-03       -324.809E-03       -231.595E-03  
              755.E-03           548.28E-03        -319.86E-03        -228.42E-03         558.237E-03       -326.094E-03       -232.143E-03  
              757.5E-03          550.096E-03       -321.131E-03       -228.965E-03        560.07E-03        -327.38E-03        -232.691E-03  
              760.E-03           551.913E-03       -322.403E-03       -229.51E-03         561.904E-03       -328.665E-03       -233.239E-03  
              762.5E-03          553.73E-03        -323.674E-03       -230.056E-03        563.737E-03       -329.95E-03        -233.786E-03  
              765.E-03           555.547E-03       -324.946E-03       -230.601E-03        565.569E-03       -331.235E-03       -234.334E-03  
              767.5E-03          557.364E-03       -326.218E-03       -231.146E-03        567.402E-03       -332.52E-03        -234.882E-03  
              770.E-03           559.181E-03       -327.489E-03       -231.692E-03        569.235E-03       -333.805E-03       -235.43E-03   
              772.5E-03          560.998E-03       -328.761E-03       -232.237E-03        571.067E-03       -335.09E-03        -235.977E-03  
              775.E-03           562.815E-03       -330.032E-03       -232.782E-03        572.899E-03       -336.374E-03       -236.525E-03  
              777.5E-03          564.632E-03       -331.304E-03       -233.328E-03        574.732E-03       -337.659E-03       -237.073E-03  
              780.E-03           566.449E-03       -332.576E-03       -233.873E-03        576.564E-03       -338.943E-03       -237.62E-03   
              782.5E-03          568.266E-03       -333.848E-03       -234.419E-03        578.396E-03       -340.228E-03       -238.168E-03  
              785.E-03           570.083E-03       -335.119E-03       -234.964E-03        580.228E-03       -341.512E-03       -238.716E-03  
              787.5E-03          571.901E-03       -336.391E-03       -235.509E-03        582.06E-03        -342.796E-03       -239.263E-03  
              790.E-03           573.718E-03       -337.663E-03       -236.055E-03        583.891E-03       -344.081E-03       -239.811E-03  
              792.5E-03          575.535E-03       -338.935E-03       -236.6E-03          585.723E-03       -345.365E-03       -240.358E-03  
              795.E-03           577.353E-03       -340.207E-03       -237.146E-03        587.554E-03       -346.649E-03       -240.905E-03  
              797.5E-03          579.17E-03        -341.479E-03       -237.691E-03        589.386E-03       -347.933E-03       -241.453E-03  
              800.E-03           580.988E-03       -342.751E-03       -238.237E-03        591.217E-03       -349.217E-03       -242.E-03     
              802.5E-03          582.805E-03       -344.023E-03       -238.782E-03        593.048E-03       -350.5E-03         -242.548E-03  
              805.E-03           584.623E-03       -345.295E-03       -239.328E-03        594.879E-03       -351.784E-03       -243.095E-03  
              807.5E-03          586.44E-03        -346.567E-03       -239.873E-03        596.71E-03        -353.068E-03       -243.642E-03  
              810.E-03           588.258E-03       -347.839E-03       -240.419E-03        598.541E-03       -354.351E-03       -244.189E-03  
              812.5E-03          590.076E-03       -349.111E-03       -240.964E-03        600.372E-03       -355.635E-03       -244.737E-03  
              815.E-03           591.893E-03       -350.383E-03       -241.51E-03         602.202E-03       -356.918E-03       -245.284E-03  
              817.5E-03          593.711E-03       -351.655E-03       -242.056E-03        604.033E-03       -358.202E-03       -245.831E-03  
              820.E-03           595.529E-03       -352.928E-03       -242.601E-03        605.863E-03       -359.485E-03       -246.378E-03  
              822.5E-03          597.347E-03       -354.2E-03         -243.147E-03        607.694E-03       -360.768E-03       -246.925E-03  
              825.E-03           599.165E-03       -355.472E-03       -243.692E-03        609.524E-03       -362.052E-03       -247.472E-03  
              827.5E-03          600.982E-03       -356.744E-03       -244.238E-03        611.354E-03       -363.335E-03       -248.02E-03   
              830.E-03           602.8E-03         -358.017E-03       -244.784E-03        613.184E-03       -364.618E-03       -248.567E-03  
              832.5E-03          604.618E-03       -359.289E-03       -245.329E-03        615.015E-03       -365.901E-03       -249.114E-03  
              835.E-03           606.436E-03       -360.561E-03       -245.875E-03        616.845E-03       -367.184E-03       -249.661E-03  
              837.5E-03          608.254E-03       -361.834E-03       -246.421E-03        618.674E-03       -368.467E-03       -250.208E-03  
              840.E-03           610.072E-03       -363.106E-03       -246.966E-03        620.504E-03       -369.749E-03       -250.755E-03  
              842.5E-03          611.891E-03       -364.379E-03       -247.512E-03        622.334E-03       -371.032E-03       -251.302E-03  
              845.E-03           613.709E-03       -365.651E-03       -248.058E-03        624.164E-03       -372.315E-03       -251.849E-03  
              847.5E-03          615.527E-03       -366.923E-03       -248.603E-03        625.993E-03       -373.598E-03       -252.396E-03  
              850.E-03           617.345E-03       -368.196E-03       -249.149E-03        627.823E-03       -374.88E-03        -252.943E-03  
              852.5E-03          619.163E-03       -369.468E-03       -249.695E-03        629.652E-03       -376.163E-03       -253.489E-03  
              855.E-03           620.982E-03       -370.741E-03       -250.241E-03        631.481E-03       -377.445E-03       -254.036E-03  
              857.5E-03          622.8E-03         -372.013E-03       -250.786E-03        633.311E-03       -378.728E-03       -254.583E-03  
              860.E-03           624.618E-03       -373.286E-03       -251.332E-03        635.14E-03        -380.01E-03        -255.13E-03   
              862.5E-03          626.436E-03       -374.559E-03       -251.878E-03        636.969E-03       -381.292E-03       -255.677E-03  
              865.E-03           628.255E-03       -375.831E-03       -252.424E-03        638.798E-03       -382.574E-03       -256.224E-03  
              867.5E-03          630.073E-03       -377.104E-03       -252.969E-03        640.627E-03       -383.857E-03       -256.77E-03   
              870.E-03           631.892E-03       -378.377E-03       -253.515E-03        642.456E-03       -385.139E-03       -257.317E-03  
              872.5E-03          633.71E-03        -379.649E-03       -254.061E-03        644.285E-03       -386.421E-03       -257.864E-03  
              875.E-03           635.529E-03       -380.922E-03       -254.607E-03        646.114E-03       -387.703E-03       -258.411E-03  
              877.5E-03          637.347E-03       -382.195E-03       -255.153E-03        647.942E-03       -388.985E-03       -258.957E-03  
              880.E-03           639.166E-03       -383.467E-03       -255.698E-03        649.771E-03       -390.267E-03       -259.504E-03  
              882.5E-03          640.984E-03       -384.74E-03        -256.244E-03        651.599E-03       -391.549E-03       -260.051E-03  
              885.E-03           642.803E-03       -386.013E-03       -256.79E-03         653.428E-03       -392.831E-03       -260.597E-03  
              887.5E-03          644.622E-03       -387.286E-03       -257.336E-03        655.256E-03       -394.112E-03       -261.144E-03  
              890.E-03           646.44E-03        -388.559E-03       -257.882E-03        657.085E-03       -395.394E-03       -261.691E-03  
              892.5E-03          648.259E-03       -389.831E-03       -258.428E-03        658.913E-03       -396.676E-03       -262.237E-03  
              895.E-03           650.078E-03       -391.104E-03       -258.973E-03        660.741E-03       -397.957E-03       -262.784E-03  
              897.5E-03          651.896E-03       -392.377E-03       -259.519E-03        662.57E-03        -399.239E-03       -263.331E-03  
              900.E-03           653.715E-03       -393.65E-03        -260.065E-03        664.398E-03       -400.521E-03       -263.877E-03  
              902.5E-03          655.534E-03       -394.923E-03       -260.611E-03        666.226E-03       -401.802E-03       -264.424E-03  
              905.E-03           657.353E-03       -396.196E-03       -261.157E-03        668.054E-03       -403.083E-03       -264.97E-03   
              907.5E-03          659.172E-03       -397.469E-03       -261.703E-03        669.882E-03       -404.365E-03       -265.517E-03  
              910.E-03           660.99E-03        -398.742E-03       -262.249E-03        671.71E-03        -405.646E-03       -266.063E-03  
              912.5E-03          662.809E-03       -400.015E-03       -262.795E-03        673.538E-03       -406.928E-03       -266.61E-03   
              915.E-03           664.628E-03       -401.288E-03       -263.341E-03        675.365E-03       -408.209E-03       -267.157E-03  
              917.5E-03          666.447E-03       -402.561E-03       -263.887E-03        677.193E-03       -409.49E-03        -267.703E-03  
              920.E-03           668.266E-03       -403.834E-03       -264.433E-03        679.021E-03       -410.771E-03       -268.25E-03   
              922.5E-03          670.085E-03       -405.107E-03       -264.978E-03        680.848E-03       -412.052E-03       -268.796E-03  
              925.E-03           671.904E-03       -406.38E-03        -265.524E-03        682.676E-03       -413.334E-03       -269.342E-03  
              927.5E-03          673.723E-03       -407.653E-03       -266.07E-03         684.503E-03       -414.615E-03       -269.889E-03  
              930.E-03           675.542E-03       -408.926E-03       -266.616E-03        686.331E-03       -415.896E-03       -270.435E-03  
              932.5E-03          677.361E-03       -410.199E-03       -267.162E-03        688.158E-03       -417.177E-03       -270.982E-03  
              935.E-03           679.18E-03        -411.472E-03       -267.708E-03        689.986E-03       -418.458E-03       -271.528E-03  
              937.5E-03          681.E-03          -412.745E-03       -268.254E-03        691.813E-03       -419.738E-03       -272.075E-03  
              940.E-03           682.819E-03       -414.018E-03       -268.8E-03          693.64E-03        -421.019E-03       -272.621E-03  
              942.5E-03          684.638E-03       -415.292E-03       -269.346E-03        695.468E-03       -422.3E-03         -273.167E-03  
              945.E-03           686.457E-03       -416.565E-03       -269.892E-03        697.295E-03       -423.581E-03       -273.714E-03  
              947.5E-03          688.276E-03       -417.838E-03       -270.438E-03        699.122E-03       -424.862E-03       -274.26E-03   
              950.E-03           690.096E-03       -419.111E-03       -270.984E-03        700.949E-03       -426.142E-03       -274.807E-03  
              952.5E-03          691.915E-03       -420.384E-03       -271.53E-03         702.776E-03       -427.423E-03       -275.353E-03  
              955.E-03           693.734E-03       -421.658E-03       -272.076E-03        704.603E-03       -428.704E-03       -275.899E-03  
              957.5E-03          695.553E-03       -422.931E-03       -272.622E-03        706.43E-03        -429.984E-03       -276.446E-03  
              960.E-03           697.373E-03       -424.204E-03       -273.168E-03        708.257E-03       -431.265E-03       -276.992E-03  
              962.5E-03          699.192E-03       -425.478E-03       -273.714E-03        710.084E-03       -432.545E-03       -277.538E-03  
              965.E-03           701.011E-03       -426.751E-03       -274.26E-03         711.91E-03        -433.826E-03       -278.085E-03  
              967.5E-03          702.831E-03       -428.024E-03       -274.807E-03        713.737E-03       -435.106E-03       -278.631E-03  
              970.E-03           704.65E-03        -429.298E-03       -275.353E-03        715.564E-03       -436.387E-03       -279.177E-03  
              972.5E-03          706.47E-03        -430.571E-03       -275.899E-03        717.391E-03       -437.667E-03       -279.723E-03  
              975.E-03           708.289E-03       -431.844E-03       -276.445E-03        719.217E-03       -438.948E-03       -280.27E-03   
              977.5E-03          710.108E-03       -433.118E-03       -276.991E-03        721.044E-03       -440.228E-03       -280.816E-03  
              980.E-03           711.928E-03       -434.391E-03       -277.537E-03        722.87E-03        -441.508E-03       -281.362E-03  
              982.5E-03          713.747E-03       -435.664E-03       -278.083E-03        724.697E-03       -442.788E-03       -281.908E-03  
              985.E-03           715.567E-03       -436.938E-03       -278.629E-03        726.523E-03       -444.069E-03       -282.455E-03  
              987.5E-03          717.386E-03       -438.211E-03       -279.175E-03        728.35E-03        -445.349E-03       -283.001E-03  
              990.E-03           719.206E-03       -439.485E-03       -279.721E-03        730.176E-03       -446.629E-03       -283.547E-03  
              992.5E-03          721.025E-03       -440.758E-03       -280.267E-03        732.003E-03       -447.909E-03       -284.093E-03  
              995.E-03           722.845E-03       -442.032E-03       -280.813E-03        733.829E-03       -449.189E-03       -284.64E-03   
              997.5E-03          724.665E-03       -443.305E-03       -281.36E-03         735.655E-03       -450.469E-03       -285.186E-03  
                1.               726.484E-03       -444.579E-03       -281.906E-03        737.481E-03       -451.749E-03       -285.732E-03  




