*Equation 
3 
 217, 2, 1.0,  161, 2, -1.0, DNORM, 2, -1.0 
3 
 217, 1, 1.0,  161, 1, -1.0, DSHEAR, 1, -1.0 
3 
 216, 2, 1.0,  162, 2, -1.0, DNORM, 2, -1.0 
3 
 216, 1, 1.0,  162, 1, -1.0, DSHEAR, 1, -1.0 
3 
 215, 2, 1.0,  163, 2, -1.0, DNORM, 2, -1.0 
3 
 215, 1, 1.0,  163, 1, -1.0, DSHEAR, 1, -1.0 
3 
 214, 2, 1.0,  164, 2, -1.0, DNORM, 2, -1.0 
3 
 214, 1, 1.0,  164, 1, -1.0, DSHEAR, 1, -1.0 
3 
 213, 2, 1.0,  165, 2, -1.0, DNORM, 2, -1.0 
3 
 213, 1, 1.0,  165, 1, -1.0, DSHEAR, 1, -1.0 
3 
 212, 2, 1.0,  166, 2, -1.0, DNORM, 2, -1.0 
3 
 212, 1, 1.0,  166, 1, -1.0, DSHEAR, 1, -1.0 
3 
 211, 2, 1.0,  167, 2, -1.0, DNORM, 2, -1.0 
3 
 211, 1, 1.0,  167, 1, -1.0, DSHEAR, 1, -1.0 
3 
 210, 2, 1.0,  168, 2, -1.0, DNORM, 2, -1.0 
3 
 210, 1, 1.0,  168, 1, -1.0, DSHEAR, 1, -1.0 
3 
 209, 2, 1.0,  169, 2, -1.0, DNORM, 2, -1.0 
3 
 209, 1, 1.0,  169, 1, -1.0, DSHEAR, 1, -1.0 
3 
 208, 2, 1.0,  170, 2, -1.0, DNORM, 2, -1.0 
3 
 208, 1, 1.0,  170, 1, -1.0, DSHEAR, 1, -1.0 
3 
 207, 2, 1.0,  171, 2, -1.0, DNORM, 2, -1.0 
3 
 207, 1, 1.0,  171, 1, -1.0, DSHEAR, 1, -1.0 
3 
 206, 2, 1.0,  172, 2, -1.0, DNORM, 2, -1.0 
3 
 206, 1, 1.0,  172, 1, -1.0, DSHEAR, 1, -1.0 
3 
 205, 2, 1.0,  173, 2, -1.0, DNORM, 2, -1.0 
3 
 205, 1, 1.0,  173, 1, -1.0, DSHEAR, 1, -1.0 
3 
 204, 2, 1.0,  174, 2, -1.0, DNORM, 2, -1.0 
3 
 204, 1, 1.0,  174, 1, -1.0, DSHEAR, 1, -1.0 
3 
 203, 2, 1.0,  175, 2, -1.0, DNORM, 2, -1.0 
3 
 203, 1, 1.0,  175, 1, -1.0, DSHEAR, 1, -1.0 
3 
 202, 2, 1.0,  176, 2, -1.0, DNORM, 2, -1.0 
3 
 202, 1, 1.0,  176, 1, -1.0, DSHEAR, 1, -1.0 
3 
 201, 2, 1.0,  177, 2, -1.0, DNORM, 2, -1.0 
3 
 201, 1, 1.0,  177, 1, -1.0, DSHEAR, 1, -1.0 
3 
 200, 2, 1.0,  178, 2, -1.0, DNORM, 2, -1.0 
3 
 200, 1, 1.0,  178, 1, -1.0, DSHEAR, 1, -1.0 
3 
 199, 2, 1.0,  179, 2, -1.0, DNORM, 2, -1.0 
3 
 199, 1, 1.0,  179, 1, -1.0, DSHEAR, 1, -1.0 
3 
  12, 2, 1.0,   11, 2, -1.0, DNORM, 2, -1.0 
3 
  12, 1, 1.0,   11, 1, -1.0, DSHEAR, 1, -1.0 
3 
 136, 2, 1.0,  135, 2, -1.0, DNORM, 2, -1.0 
3 
 136, 1, 1.0,  135, 1, -1.0, DSHEAR, 1, -1.0 
3 
 137, 2, 1.0,  134, 2, -1.0, DNORM, 2, -1.0 
3 
 137, 1, 1.0,  134, 1, -1.0, DSHEAR, 1, -1.0 
3 
 138, 2, 1.0,  133, 2, -1.0, DNORM, 2, -1.0 
3 
 138, 1, 1.0,  133, 1, -1.0, DSHEAR, 1, -1.0 
3 
 139, 2, 1.0,  132, 2, -1.0, DNORM, 2, -1.0 
3 
 139, 1, 1.0,  132, 1, -1.0, DSHEAR, 1, -1.0 
3 
 140, 2, 1.0,  131, 2, -1.0, DNORM, 2, -1.0 
3 
 140, 1, 1.0,  131, 1, -1.0, DSHEAR, 1, -1.0 
3 
 141, 2, 1.0,  130, 2, -1.0, DNORM, 2, -1.0 
3 
 141, 1, 1.0,  130, 1, -1.0, DSHEAR, 1, -1.0 
3 
 142, 2, 1.0,  129, 2, -1.0, DNORM, 2, -1.0 
3 
 142, 1, 1.0,  129, 1, -1.0, DSHEAR, 1, -1.0 
3 
 143, 2, 1.0,  128, 2, -1.0, DNORM, 2, -1.0 
3 
 143, 1, 1.0,  128, 1, -1.0, DSHEAR, 1, -1.0 
3 
 144, 2, 1.0,  127, 2, -1.0, DNORM, 2, -1.0 
3 
 144, 1, 1.0,  127, 1, -1.0, DSHEAR, 1, -1.0 
3 
   1, 2, 1.0,    8, 2, -1.0, DNORM, 2, -1.0 
3 
   1, 1, 1.0,    8, 1, -1.0, DSHEAR, 1, -1.0 
3 
  62, 2, 1.0,   90, 2, -1.0, DNORM, 2, -1.0 
3 
  62, 1, 1.0,   90, 1, -1.0, DSHEAR, 1, -1.0 
3 
  61, 2, 1.0,   91, 2, -1.0, DNORM, 2, -1.0 
3 
  61, 1, 1.0,   91, 1, -1.0, DSHEAR, 1, -1.0 
3 
  60, 2, 1.0,   92, 2, -1.0, DNORM, 2, -1.0 
3 
  60, 1, 1.0,   92, 1, -1.0, DSHEAR, 1, -1.0 
3 
  59, 2, 1.0,   93, 2, -1.0, DNORM, 2, -1.0 
3 
  59, 1, 1.0,   93, 1, -1.0, DSHEAR, 1, -1.0 
3 
  58, 2, 1.0,   94, 2, -1.0, DNORM, 2, -1.0 
3 
  58, 1, 1.0,   94, 1, -1.0, DSHEAR, 1, -1.0 
3 
  57, 2, 1.0,   95, 2, -1.0, DNORM, 2, -1.0 
3 
  57, 1, 1.0,   95, 1, -1.0, DSHEAR, 1, -1.0 
3 
  56, 2, 1.0,   96, 2, -1.0, DNORM, 2, -1.0 
3 
  56, 1, 1.0,   96, 1, -1.0, DSHEAR, 1, -1.0 
3 
  55, 2, 1.0,   97, 2, -1.0, DNORM, 2, -1.0 
3 
  55, 1, 1.0,   97, 1, -1.0, DSHEAR, 1, -1.0 
3 
  54, 2, 1.0,   98, 2, -1.0, DNORM, 2, -1.0 
3 
  54, 1, 1.0,   98, 1, -1.0, DSHEAR, 1, -1.0 
3 
  53, 2, 1.0,   99, 2, -1.0, DNORM, 2, -1.0 
3 
  53, 1, 1.0,   99, 1, -1.0, DSHEAR, 1, -1.0 
3 
  52, 2, 1.0,  100, 2, -1.0, DNORM, 2, -1.0 
3 
  52, 1, 1.0,  100, 1, -1.0, DSHEAR, 1, -1.0 
3 
  51, 2, 1.0,  101, 2, -1.0, DNORM, 2, -1.0 
3 
  51, 1, 1.0,  101, 1, -1.0, DSHEAR, 1, -1.0 
3 
  50, 2, 1.0,  102, 2, -1.0, DNORM, 2, -1.0 
3 
  50, 1, 1.0,  102, 1, -1.0, DSHEAR, 1, -1.0 
3 
  49, 2, 1.0,  103, 2, -1.0, DNORM, 2, -1.0 
3 
  49, 1, 1.0,  103, 1, -1.0, DSHEAR, 1, -1.0 
3 
  48, 2, 1.0,  104, 2, -1.0, DNORM, 2, -1.0 
3 
  48, 1, 1.0,  104, 1, -1.0, DSHEAR, 1, -1.0 
3 
  47, 2, 1.0,  105, 2, -1.0, DNORM, 2, -1.0 
3 
  47, 1, 1.0,  105, 1, -1.0, DSHEAR, 1, -1.0 
3 
  46, 2, 1.0,  106, 2, -1.0, DNORM, 2, -1.0 
3 
  46, 1, 1.0,  106, 1, -1.0, DSHEAR, 1, -1.0 
3 
  45, 2, 1.0,  107, 2, -1.0, DNORM, 2, -1.0 
3 
  45, 1, 1.0,  107, 1, -1.0, DSHEAR, 1, -1.0 
3 
  44, 2, 1.0,  108, 2, -1.0, DNORM, 2, -1.0 
3 
  44, 1, 1.0,  108, 1, -1.0, DSHEAR, 1, -1.0 
3 
 218, 2, 1.0,  198, 2, -1.0, DNORM, 2, -1.0 
3 
 218, 1, 1.0,  198, 1, -1.0, DSHEAR, 1, -1.0 
3 
 219, 2, 1.0,  197, 2, -1.0, DNORM, 2, -1.0 
3 
 219, 1, 1.0,  197, 1, -1.0, DSHEAR, 1, -1.0 
3 
 220, 2, 1.0,  196, 2, -1.0, DNORM, 2, -1.0 
3 
 220, 1, 1.0,  196, 1, -1.0, DSHEAR, 1, -1.0 
3 
 221, 2, 1.0,  195, 2, -1.0, DNORM, 2, -1.0 
3 
 221, 1, 1.0,  195, 1, -1.0, DSHEAR, 1, -1.0 
3 
 222, 2, 1.0,  194, 2, -1.0, DNORM, 2, -1.0 
3 
 222, 1, 1.0,  194, 1, -1.0, DSHEAR, 1, -1.0 
3 
 223, 2, 1.0,  193, 2, -1.0, DNORM, 2, -1.0 
3 
 223, 1, 1.0,  193, 1, -1.0, DSHEAR, 1, -1.0 
3 
 224, 2, 1.0,  192, 2, -1.0, DNORM, 2, -1.0 
3 
 224, 1, 1.0,  192, 1, -1.0, DSHEAR, 1, -1.0 
3 
 225, 2, 1.0,  191, 2, -1.0, DNORM, 2, -1.0 
3 
 225, 1, 1.0,  191, 1, -1.0, DSHEAR, 1, -1.0 
3 
 226, 2, 1.0,  190, 2, -1.0, DNORM, 2, -1.0 
3 
 226, 1, 1.0,  190, 1, -1.0, DSHEAR, 1, -1.0 
3 
 227, 2, 1.0,  189, 2, -1.0, DNORM, 2, -1.0 
3 
 227, 1, 1.0,  189, 1, -1.0, DSHEAR, 1, -1.0 
3 
 228, 2, 1.0,  188, 2, -1.0, DNORM, 2, -1.0 
3 
 228, 1, 1.0,  188, 1, -1.0, DSHEAR, 1, -1.0 
3 
 229, 2, 1.0,  187, 2, -1.0, DNORM, 2, -1.0 
3 
 229, 1, 1.0,  187, 1, -1.0, DSHEAR, 1, -1.0 
3 
 230, 2, 1.0,  186, 2, -1.0, DNORM, 2, -1.0 
3 
 230, 1, 1.0,  186, 1, -1.0, DSHEAR, 1, -1.0 
3 
 231, 2, 1.0,  185, 2, -1.0, DNORM, 2, -1.0 
3 
 231, 1, 1.0,  185, 1, -1.0, DSHEAR, 1, -1.0 
3 
 232, 2, 1.0,  184, 2, -1.0, DNORM, 2, -1.0 
3 
 232, 1, 1.0,  184, 1, -1.0, DSHEAR, 1, -1.0 
3 
 233, 2, 1.0,  183, 2, -1.0, DNORM, 2, -1.0 
3 
 233, 1, 1.0,  183, 1, -1.0, DSHEAR, 1, -1.0 
3 
 234, 2, 1.0,  182, 2, -1.0, DNORM, 2, -1.0 
3 
 234, 1, 1.0,  182, 1, -1.0, DSHEAR, 1, -1.0 
3 
 235, 2, 1.0,  181, 2, -1.0, DNORM, 2, -1.0 
3 
 235, 1, 1.0,  181, 1, -1.0, DSHEAR, 1, -1.0 
3 
 236, 2, 1.0,  180, 2, -1.0, DNORM, 2, -1.0 
3 
 236, 1, 1.0,  180, 1, -1.0, DSHEAR, 1, -1.0 
3 
   9, 2, 1.0,   10, 2, -1.0, DNORM, 2, -1.0 
3 
   9, 1, 1.0,   10, 1, -1.0, DSHEAR, 1, -1.0 
3 
 126, 2, 1.0,  109, 2, -1.0, DNORM, 2, -1.0 
3 
 126, 1, 1.0,  109, 1, -1.0, DSHEAR, 1, -1.0 
3 
 125, 2, 1.0,  110, 2, -1.0, DNORM, 2, -1.0 
3 
 125, 1, 1.0,  110, 1, -1.0, DSHEAR, 1, -1.0 
3 
 124, 2, 1.0,  111, 2, -1.0, DNORM, 2, -1.0 
3 
 124, 1, 1.0,  111, 1, -1.0, DSHEAR, 1, -1.0 
3 
 123, 2, 1.0,  112, 2, -1.0, DNORM, 2, -1.0 
3 
 123, 1, 1.0,  112, 1, -1.0, DSHEAR, 1, -1.0 
3 
 122, 2, 1.0,  113, 2, -1.0, DNORM, 2, -1.0 
3 
 122, 1, 1.0,  113, 1, -1.0, DSHEAR, 1, -1.0 
3 
 121, 2, 1.0,  114, 2, -1.0, DNORM, 2, -1.0 
3 
 121, 1, 1.0,  114, 1, -1.0, DSHEAR, 1, -1.0 
3 
 120, 2, 1.0,  115, 2, -1.0, DNORM, 2, -1.0 
3 
 120, 1, 1.0,  115, 1, -1.0, DSHEAR, 1, -1.0 
3 
 119, 2, 1.0,  116, 2, -1.0, DNORM, 2, -1.0 
3 
 119, 1, 1.0,  116, 1, -1.0, DSHEAR, 1, -1.0 
3 
 118, 2, 1.0,  117, 2, -1.0, DNORM, 2, -1.0 
3 
 118, 1, 1.0,  117, 1, -1.0, DSHEAR, 1, -1.0 
3 
   2, 2, 1.0,    5, 2, -1.0, DNORM, 2, -1.0 
3 
   2, 1, 1.0,    5, 1, -1.0, DSHEAR, 1, -1.0 
3 
  21, 2, 1.0,   85, 2, -1.0, DNORM, 2, -1.0 
3 
  21, 1, 1.0,   85, 1, -1.0, DSHEAR, 1, -1.0 
3 
  22, 2, 1.0,   84, 2, -1.0, DNORM, 2, -1.0 
3 
  22, 1, 1.0,   84, 1, -1.0, DSHEAR, 1, -1.0 
3 
  23, 2, 1.0,   83, 2, -1.0, DNORM, 2, -1.0 
3 
  23, 1, 1.0,   83, 1, -1.0, DSHEAR, 1, -1.0 
3 
  24, 2, 1.0,   82, 2, -1.0, DNORM, 2, -1.0 
3 
  24, 1, 1.0,   82, 1, -1.0, DSHEAR, 1, -1.0 
3 
  25, 2, 1.0,   81, 2, -1.0, DNORM, 2, -1.0 
3 
  25, 1, 1.0,   81, 1, -1.0, DSHEAR, 1, -1.0 
3 
  26, 2, 1.0,   80, 2, -1.0, DNORM, 2, -1.0 
3 
  26, 1, 1.0,   80, 1, -1.0, DSHEAR, 1, -1.0 
3 
  27, 2, 1.0,   79, 2, -1.0, DNORM, 2, -1.0 
3 
  27, 1, 1.0,   79, 1, -1.0, DSHEAR, 1, -1.0 
3 
  28, 2, 1.0,   78, 2, -1.0, DNORM, 2, -1.0 
3 
  28, 1, 1.0,   78, 1, -1.0, DSHEAR, 1, -1.0 
3 
  29, 2, 1.0,   77, 2, -1.0, DNORM, 2, -1.0 
3 
  29, 1, 1.0,   77, 1, -1.0, DSHEAR, 1, -1.0 
3 
  30, 2, 1.0,   76, 2, -1.0, DNORM, 2, -1.0 
3 
  30, 1, 1.0,   76, 1, -1.0, DSHEAR, 1, -1.0 
3 
  31, 2, 1.0,   75, 2, -1.0, DNORM, 2, -1.0 
3 
  31, 1, 1.0,   75, 1, -1.0, DSHEAR, 1, -1.0 
3 
  32, 2, 1.0,   74, 2, -1.0, DNORM, 2, -1.0 
3 
  32, 1, 1.0,   74, 1, -1.0, DSHEAR, 1, -1.0 
3 
  33, 2, 1.0,   73, 2, -1.0, DNORM, 2, -1.0 
3 
  33, 1, 1.0,   73, 1, -1.0, DSHEAR, 1, -1.0 
3 
  34, 2, 1.0,   72, 2, -1.0, DNORM, 2, -1.0 
3 
  34, 1, 1.0,   72, 1, -1.0, DSHEAR, 1, -1.0 
3 
  35, 2, 1.0,   71, 2, -1.0, DNORM, 2, -1.0 
3 
  35, 1, 1.0,   71, 1, -1.0, DSHEAR, 1, -1.0 
3 
  36, 2, 1.0,   70, 2, -1.0, DNORM, 2, -1.0 
3 
  36, 1, 1.0,   70, 1, -1.0, DSHEAR, 1, -1.0 
3 
  37, 2, 1.0,   69, 2, -1.0, DNORM, 2, -1.0 
3 
  37, 1, 1.0,   69, 1, -1.0, DSHEAR, 1, -1.0 
3 
  38, 2, 1.0,   68, 2, -1.0, DNORM, 2, -1.0 
3 
  38, 1, 1.0,   68, 1, -1.0, DSHEAR, 1, -1.0 
3 
  39, 2, 1.0,   67, 2, -1.0, DNORM, 2, -1.0 
3 
  39, 1, 1.0,   67, 1, -1.0, DSHEAR, 1, -1.0 
2 
 217, 3, 1.0,  161, 3, -1.0 
2 
 216, 3, 1.0,  162, 3, -1.0 
2 
 215, 3, 1.0,  163, 3, -1.0 
2 
 214, 3, 1.0,  164, 3, -1.0 
2 
 213, 3, 1.0,  165, 3, -1.0 
2 
 212, 3, 1.0,  166, 3, -1.0 
2 
 211, 3, 1.0,  167, 3, -1.0 
2 
 210, 3, 1.0,  168, 3, -1.0 
2 
 209, 3, 1.0,  169, 3, -1.0 
2 
 208, 3, 1.0,  170, 3, -1.0 
2 
 207, 3, 1.0,  171, 3, -1.0 
2 
 206, 3, 1.0,  172, 3, -1.0 
2 
 205, 3, 1.0,  173, 3, -1.0 
2 
 204, 3, 1.0,  174, 3, -1.0 
2 
 203, 3, 1.0,  175, 3, -1.0 
2 
 202, 3, 1.0,  176, 3, -1.0 
2 
 201, 3, 1.0,  177, 3, -1.0 
2 
 200, 3, 1.0,  178, 3, -1.0 
2 
 199, 3, 1.0,  179, 3, -1.0 
2 
  12, 3, 1.0,   11, 3, -1.0 
2 
 136, 3, 1.0,  135, 3, -1.0 
2 
 137, 3, 1.0,  134, 3, -1.0 
2 
 138, 3, 1.0,  133, 3, -1.0 
2 
 139, 3, 1.0,  132, 3, -1.0 
2 
 140, 3, 1.0,  131, 3, -1.0 
2 
 141, 3, 1.0,  130, 3, -1.0 
2 
 142, 3, 1.0,  129, 3, -1.0 
2 
 143, 3, 1.0,  128, 3, -1.0 
2 
 144, 3, 1.0,  127, 3, -1.0 
2 
   1, 3, 1.0,    8, 3, -1.0 
2 
  62, 3, 1.0,   90, 3, -1.0 
2 
  61, 3, 1.0,   91, 3, -1.0 
2 
  60, 3, 1.0,   92, 3, -1.0 
2 
  59, 3, 1.0,   93, 3, -1.0 
2 
  58, 3, 1.0,   94, 3, -1.0 
2 
  57, 3, 1.0,   95, 3, -1.0 
2 
  56, 3, 1.0,   96, 3, -1.0 
2 
  55, 3, 1.0,   97, 3, -1.0 
2 
  54, 3, 1.0,   98, 3, -1.0 
2 
  53, 3, 1.0,   99, 3, -1.0 
2 
  52, 3, 1.0,  100, 3, -1.0 
2 
  51, 3, 1.0,  101, 3, -1.0 
2 
  50, 3, 1.0,  102, 3, -1.0 
2 
  49, 3, 1.0,  103, 3, -1.0 
2 
  48, 3, 1.0,  104, 3, -1.0 
2 
  47, 3, 1.0,  105, 3, -1.0 
2 
  46, 3, 1.0,  106, 3, -1.0 
2 
  45, 3, 1.0,  107, 3, -1.0 
2 
  44, 3, 1.0,  108, 3, -1.0 
2 
 218, 3, 1.0,  198, 3, -1.0 
2 
 219, 3, 1.0,  197, 3, -1.0 
2 
 220, 3, 1.0,  196, 3, -1.0 
2 
 221, 3, 1.0,  195, 3, -1.0 
2 
 222, 3, 1.0,  194, 3, -1.0 
2 
 223, 3, 1.0,  193, 3, -1.0 
2 
 224, 3, 1.0,  192, 3, -1.0 
2 
 225, 3, 1.0,  191, 3, -1.0 
2 
 226, 3, 1.0,  190, 3, -1.0 
2 
 227, 3, 1.0,  189, 3, -1.0 
2 
 228, 3, 1.0,  188, 3, -1.0 
2 
 229, 3, 1.0,  187, 3, -1.0 
2 
 230, 3, 1.0,  186, 3, -1.0 
2 
 231, 3, 1.0,  185, 3, -1.0 
2 
 232, 3, 1.0,  184, 3, -1.0 
2 
 233, 3, 1.0,  183, 3, -1.0 
2 
 234, 3, 1.0,  182, 3, -1.0 
2 
 235, 3, 1.0,  181, 3, -1.0 
2 
 236, 3, 1.0,  180, 3, -1.0 
2 
   9, 3, 1.0,   10, 3, -1.0 
2 
 126, 3, 1.0,  109, 3, -1.0 
2 
 125, 3, 1.0,  110, 3, -1.0 
2 
 124, 3, 1.0,  111, 3, -1.0 
2 
 123, 3, 1.0,  112, 3, -1.0 
2 
 122, 3, 1.0,  113, 3, -1.0 
2 
 121, 3, 1.0,  114, 3, -1.0 
2 
 120, 3, 1.0,  115, 3, -1.0 
2 
 119, 3, 1.0,  116, 3, -1.0 
2 
 118, 3, 1.0,  117, 3, -1.0 
2 
   2, 3, 1.0,    5, 3, -1.0 
2 
  21, 3, 1.0,   85, 3, -1.0 
2 
  22, 3, 1.0,   84, 3, -1.0 
2 
  23, 3, 1.0,   83, 3, -1.0 
2 
  24, 3, 1.0,   82, 3, -1.0 
2 
  25, 3, 1.0,   81, 3, -1.0 
2 
  26, 3, 1.0,   80, 3, -1.0 
2 
  27, 3, 1.0,   79, 3, -1.0 
2 
  28, 3, 1.0,   78, 3, -1.0 
2 
  29, 3, 1.0,   77, 3, -1.0 
2 
  30, 3, 1.0,   76, 3, -1.0 
2 
  31, 3, 1.0,   75, 3, -1.0 
2 
  32, 3, 1.0,   74, 3, -1.0 
2 
  33, 3, 1.0,   73, 3, -1.0 
2 
  34, 3, 1.0,   72, 3, -1.0 
2 
  35, 3, 1.0,   71, 3, -1.0 
2 
  36, 3, 1.0,   70, 3, -1.0 
2 
  37, 3, 1.0,   69, 3, -1.0 
2 
  38, 3, 1.0,   68, 3, -1.0 
2 
  39, 3, 1.0,   67, 3, -1.0 
3 
 540, 2, 1.0,  464, 2, -1.0, DNORM, 2, -1.0 
3 
 540, 1, 1.0,  464, 1, -1.0, DSHEAR, 1, -1.0 
3 
 544, 2, 1.0,  468, 2, -1.0, DNORM, 2, -1.0 
3 
 544, 1, 1.0,  468, 1, -1.0, DSHEAR, 1, -1.0 
3 
 548, 2, 1.0,  472, 2, -1.0, DNORM, 2, -1.0 
3 
 548, 1, 1.0,  472, 1, -1.0, DSHEAR, 1, -1.0 
3 
 552, 2, 1.0,  476, 2, -1.0, DNORM, 2, -1.0 
3 
 552, 1, 1.0,  476, 1, -1.0, DSHEAR, 1, -1.0 
3 
 556, 2, 1.0,  480, 2, -1.0, DNORM, 2, -1.0 
3 
 556, 1, 1.0,  480, 1, -1.0, DSHEAR, 1, -1.0 
3 
 560, 2, 1.0,  484, 2, -1.0, DNORM, 2, -1.0 
3 
 560, 1, 1.0,  484, 1, -1.0, DSHEAR, 1, -1.0 
3 
 564, 2, 1.0,  488, 2, -1.0, DNORM, 2, -1.0 
3 
 564, 1, 1.0,  488, 1, -1.0, DSHEAR, 1, -1.0 
3 
 568, 2, 1.0,  492, 2, -1.0, DNORM, 2, -1.0 
3 
 568, 1, 1.0,  492, 1, -1.0, DSHEAR, 1, -1.0 
3 
 572, 2, 1.0,  496, 2, -1.0, DNORM, 2, -1.0 
3 
 572, 1, 1.0,  496, 1, -1.0, DSHEAR, 1, -1.0 
3 
 576, 2, 1.0,  500, 2, -1.0, DNORM, 2, -1.0 
3 
 576, 1, 1.0,  500, 1, -1.0, DSHEAR, 1, -1.0 
3 
 580, 2, 1.0,  504, 2, -1.0, DNORM, 2, -1.0 
3 
 580, 1, 1.0,  504, 1, -1.0, DSHEAR, 1, -1.0 
3 
 584, 2, 1.0,  508, 2, -1.0, DNORM, 2, -1.0 
3 
 584, 1, 1.0,  508, 1, -1.0, DSHEAR, 1, -1.0 
3 
 588, 2, 1.0,  512, 2, -1.0, DNORM, 2, -1.0 
3 
 588, 1, 1.0,  512, 1, -1.0, DSHEAR, 1, -1.0 
3 
 592, 2, 1.0,  516, 2, -1.0, DNORM, 2, -1.0 
3 
 592, 1, 1.0,  516, 1, -1.0, DSHEAR, 1, -1.0 
3 
 596, 2, 1.0,  520, 2, -1.0, DNORM, 2, -1.0 
3 
 596, 1, 1.0,  520, 1, -1.0, DSHEAR, 1, -1.0 
3 
 600, 2, 1.0,  524, 2, -1.0, DNORM, 2, -1.0 
3 
 600, 1, 1.0,  524, 1, -1.0, DSHEAR, 1, -1.0 
3 
 604, 2, 1.0,  528, 2, -1.0, DNORM, 2, -1.0 
3 
 604, 1, 1.0,  528, 1, -1.0, DSHEAR, 1, -1.0 
3 
 608, 2, 1.0,  532, 2, -1.0, DNORM, 2, -1.0 
3 
 608, 1, 1.0,  532, 1, -1.0, DSHEAR, 1, -1.0 
3 
 612, 2, 1.0,  536, 2, -1.0, DNORM, 2, -1.0 
3 
 612, 1, 1.0,  536, 1, -1.0, DSHEAR, 1, -1.0 
3 
 145, 2, 1.0,  152, 2, -1.0, DNORM, 2, -1.0 
3 
 145, 1, 1.0,  152, 1, -1.0, DSHEAR, 1, -1.0 
3 
 416, 2, 1.0,  452, 2, -1.0, DNORM, 2, -1.0 
3 
 416, 1, 1.0,  452, 1, -1.0, DSHEAR, 1, -1.0 
3 
 417, 2, 1.0,  453, 2, -1.0, DNORM, 2, -1.0 
3 
 417, 1, 1.0,  453, 1, -1.0, DSHEAR, 1, -1.0 
3 
 418, 2, 1.0,  454, 2, -1.0, DNORM, 2, -1.0 
3 
 418, 1, 1.0,  454, 1, -1.0, DSHEAR, 1, -1.0 
3 
 419, 2, 1.0,  455, 2, -1.0, DNORM, 2, -1.0 
3 
 419, 1, 1.0,  455, 1, -1.0, DSHEAR, 1, -1.0 
3 
 420, 2, 1.0,  456, 2, -1.0, DNORM, 2, -1.0 
3 
 420, 1, 1.0,  456, 1, -1.0, DSHEAR, 1, -1.0 
3 
 421, 2, 1.0,  457, 2, -1.0, DNORM, 2, -1.0 
3 
 421, 1, 1.0,  457, 1, -1.0, DSHEAR, 1, -1.0 
3 
 422, 2, 1.0,  458, 2, -1.0, DNORM, 2, -1.0 
3 
 422, 1, 1.0,  458, 1, -1.0, DSHEAR, 1, -1.0 
3 
 423, 2, 1.0,  459, 2, -1.0, DNORM, 2, -1.0 
3 
 423, 1, 1.0,  459, 1, -1.0, DSHEAR, 1, -1.0 
3 
 424, 2, 1.0,  460, 2, -1.0, DNORM, 2, -1.0 
3 
 424, 1, 1.0,  460, 1, -1.0, DSHEAR, 1, -1.0 
3 
  17, 2, 1.0,   66, 2, -1.0, DNORM, 2, -1.0 
3 
  17, 1, 1.0,   66, 1, -1.0, DSHEAR, 1, -1.0 
3 
 237, 2, 1.0,  313, 2, -1.0, DNORM, 2, -1.0 
3 
 237, 1, 1.0,  313, 1, -1.0, DSHEAR, 1, -1.0 
3 
 241, 2, 1.0,  317, 2, -1.0, DNORM, 2, -1.0 
3 
 241, 1, 1.0,  317, 1, -1.0, DSHEAR, 1, -1.0 
3 
 245, 2, 1.0,  321, 2, -1.0, DNORM, 2, -1.0 
3 
 245, 1, 1.0,  321, 1, -1.0, DSHEAR, 1, -1.0 
3 
 249, 2, 1.0,  325, 2, -1.0, DNORM, 2, -1.0 
3 
 249, 1, 1.0,  325, 1, -1.0, DSHEAR, 1, -1.0 
3 
 253, 2, 1.0,  329, 2, -1.0, DNORM, 2, -1.0 
3 
 253, 1, 1.0,  329, 1, -1.0, DSHEAR, 1, -1.0 
3 
 257, 2, 1.0,  333, 2, -1.0, DNORM, 2, -1.0 
3 
 257, 1, 1.0,  333, 1, -1.0, DSHEAR, 1, -1.0 
3 
 261, 2, 1.0,  337, 2, -1.0, DNORM, 2, -1.0 
3 
 261, 1, 1.0,  337, 1, -1.0, DSHEAR, 1, -1.0 
3 
 265, 2, 1.0,  341, 2, -1.0, DNORM, 2, -1.0 
3 
 265, 1, 1.0,  341, 1, -1.0, DSHEAR, 1, -1.0 
3 
 269, 2, 1.0,  345, 2, -1.0, DNORM, 2, -1.0 
3 
 269, 1, 1.0,  345, 1, -1.0, DSHEAR, 1, -1.0 
3 
 273, 2, 1.0,  349, 2, -1.0, DNORM, 2, -1.0 
3 
 273, 1, 1.0,  349, 1, -1.0, DSHEAR, 1, -1.0 
3 
 277, 2, 1.0,  353, 2, -1.0, DNORM, 2, -1.0 
3 
 277, 1, 1.0,  353, 1, -1.0, DSHEAR, 1, -1.0 
3 
 281, 2, 1.0,  357, 2, -1.0, DNORM, 2, -1.0 
3 
 281, 1, 1.0,  357, 1, -1.0, DSHEAR, 1, -1.0 
3 
 285, 2, 1.0,  361, 2, -1.0, DNORM, 2, -1.0 
3 
 285, 1, 1.0,  361, 1, -1.0, DSHEAR, 1, -1.0 
3 
 289, 2, 1.0,  365, 2, -1.0, DNORM, 2, -1.0 
3 
 289, 1, 1.0,  365, 1, -1.0, DSHEAR, 1, -1.0 
3 
 293, 2, 1.0,  369, 2, -1.0, DNORM, 2, -1.0 
3 
 293, 1, 1.0,  369, 1, -1.0, DSHEAR, 1, -1.0 
3 
 297, 2, 1.0,  373, 2, -1.0, DNORM, 2, -1.0 
3 
 297, 1, 1.0,  373, 1, -1.0, DSHEAR, 1, -1.0 
3 
 301, 2, 1.0,  377, 2, -1.0, DNORM, 2, -1.0 
3 
 301, 1, 1.0,  377, 1, -1.0, DSHEAR, 1, -1.0 
3 
 305, 2, 1.0,  381, 2, -1.0, DNORM, 2, -1.0 
3 
 305, 1, 1.0,  381, 1, -1.0, DSHEAR, 1, -1.0 
3 
 309, 2, 1.0,  385, 2, -1.0, DNORM, 2, -1.0 
3 
 309, 1, 1.0,  385, 1, -1.0, DSHEAR, 1, -1.0 
2 
 540, 3, 1.0,  464, 3, -1.0 
2 
 544, 3, 1.0,  468, 3, -1.0 
2 
 548, 3, 1.0,  472, 3, -1.0 
2 
 552, 3, 1.0,  476, 3, -1.0 
2 
 556, 3, 1.0,  480, 3, -1.0 
2 
 560, 3, 1.0,  484, 3, -1.0 
2 
 564, 3, 1.0,  488, 3, -1.0 
2 
 568, 3, 1.0,  492, 3, -1.0 
2 
 572, 3, 1.0,  496, 3, -1.0 
2 
 576, 3, 1.0,  500, 3, -1.0 
2 
 580, 3, 1.0,  504, 3, -1.0 
2 
 584, 3, 1.0,  508, 3, -1.0 
2 
 588, 3, 1.0,  512, 3, -1.0 
2 
 592, 3, 1.0,  516, 3, -1.0 
2 
 596, 3, 1.0,  520, 3, -1.0 
2 
 600, 3, 1.0,  524, 3, -1.0 
2 
 604, 3, 1.0,  528, 3, -1.0 
2 
 608, 3, 1.0,  532, 3, -1.0 
2 
 612, 3, 1.0,  536, 3, -1.0 
2 
 145, 3, 1.0,  152, 3, -1.0 
2 
 416, 3, 1.0,  452, 3, -1.0 
2 
 417, 3, 1.0,  453, 3, -1.0 
2 
 418, 3, 1.0,  454, 3, -1.0 
2 
 419, 3, 1.0,  455, 3, -1.0 
2 
 420, 3, 1.0,  456, 3, -1.0 
2 
 421, 3, 1.0,  457, 3, -1.0 
2 
 422, 3, 1.0,  458, 3, -1.0 
2 
 423, 3, 1.0,  459, 3, -1.0 
2 
 424, 3, 1.0,  460, 3, -1.0 
2 
  17, 3, 1.0,   66, 3, -1.0 
2 
 237, 3, 1.0,  313, 3, -1.0 
2 
 241, 3, 1.0,  317, 3, -1.0 
2 
 245, 3, 1.0,  321, 3, -1.0 
2 
 249, 3, 1.0,  325, 3, -1.0 
2 
 253, 3, 1.0,  329, 3, -1.0 
2 
 257, 3, 1.0,  333, 3, -1.0 
2 
 261, 3, 1.0,  337, 3, -1.0 
2 
 265, 3, 1.0,  341, 3, -1.0 
2 
 269, 3, 1.0,  345, 3, -1.0 
2 
 273, 3, 1.0,  349, 3, -1.0 
2 
 277, 3, 1.0,  353, 3, -1.0 
2 
 281, 3, 1.0,  357, 3, -1.0 
2 
 285, 3, 1.0,  361, 3, -1.0 
2 
 289, 3, 1.0,  365, 3, -1.0 
2 
 293, 3, 1.0,  369, 3, -1.0 
2 
 297, 3, 1.0,  373, 3, -1.0 
2 
 301, 3, 1.0,  377, 3, -1.0 
2 
 305, 3, 1.0,  381, 3, -1.0 
2 
 309, 3, 1.0,  385, 3, -1.0 
3 
 539, 2, 1.0,  463, 2, -1.0, DNORM, 2, -1.0 
3 
 539, 1, 1.0,  463, 1, -1.0, DSHEAR, 1, -1.0 
3 
 543, 2, 1.0,  467, 2, -1.0, DNORM, 2, -1.0 
3 
 543, 1, 1.0,  467, 1, -1.0, DSHEAR, 1, -1.0 
3 
 547, 2, 1.0,  471, 2, -1.0, DNORM, 2, -1.0 
3 
 547, 1, 1.0,  471, 1, -1.0, DSHEAR, 1, -1.0 
3 
 551, 2, 1.0,  475, 2, -1.0, DNORM, 2, -1.0 
3 
 551, 1, 1.0,  475, 1, -1.0, DSHEAR, 1, -1.0 
3 
 555, 2, 1.0,  479, 2, -1.0, DNORM, 2, -1.0 
3 
 555, 1, 1.0,  479, 1, -1.0, DSHEAR, 1, -1.0 
3 
 559, 2, 1.0,  483, 2, -1.0, DNORM, 2, -1.0 
3 
 559, 1, 1.0,  483, 1, -1.0, DSHEAR, 1, -1.0 
3 
 563, 2, 1.0,  487, 2, -1.0, DNORM, 2, -1.0 
3 
 563, 1, 1.0,  487, 1, -1.0, DSHEAR, 1, -1.0 
3 
 567, 2, 1.0,  491, 2, -1.0, DNORM, 2, -1.0 
3 
 567, 1, 1.0,  491, 1, -1.0, DSHEAR, 1, -1.0 
3 
 571, 2, 1.0,  495, 2, -1.0, DNORM, 2, -1.0 
3 
 571, 1, 1.0,  495, 1, -1.0, DSHEAR, 1, -1.0 
3 
 575, 2, 1.0,  499, 2, -1.0, DNORM, 2, -1.0 
3 
 575, 1, 1.0,  499, 1, -1.0, DSHEAR, 1, -1.0 
3 
 579, 2, 1.0,  503, 2, -1.0, DNORM, 2, -1.0 
3 
 579, 1, 1.0,  503, 1, -1.0, DSHEAR, 1, -1.0 
3 
 583, 2, 1.0,  507, 2, -1.0, DNORM, 2, -1.0 
3 
 583, 1, 1.0,  507, 1, -1.0, DSHEAR, 1, -1.0 
3 
 587, 2, 1.0,  511, 2, -1.0, DNORM, 2, -1.0 
3 
 587, 1, 1.0,  511, 1, -1.0, DSHEAR, 1, -1.0 
3 
 591, 2, 1.0,  515, 2, -1.0, DNORM, 2, -1.0 
3 
 591, 1, 1.0,  515, 1, -1.0, DSHEAR, 1, -1.0 
3 
 595, 2, 1.0,  519, 2, -1.0, DNORM, 2, -1.0 
3 
 595, 1, 1.0,  519, 1, -1.0, DSHEAR, 1, -1.0 
3 
 599, 2, 1.0,  523, 2, -1.0, DNORM, 2, -1.0 
3 
 599, 1, 1.0,  523, 1, -1.0, DSHEAR, 1, -1.0 
3 
 603, 2, 1.0,  527, 2, -1.0, DNORM, 2, -1.0 
3 
 603, 1, 1.0,  527, 1, -1.0, DSHEAR, 1, -1.0 
3 
 607, 2, 1.0,  531, 2, -1.0, DNORM, 2, -1.0 
3 
 607, 1, 1.0,  531, 1, -1.0, DSHEAR, 1, -1.0 
3 
 611, 2, 1.0,  535, 2, -1.0, DNORM, 2, -1.0 
3 
 611, 1, 1.0,  535, 1, -1.0, DSHEAR, 1, -1.0 
3 
 146, 2, 1.0,  151, 2, -1.0, DNORM, 2, -1.0 
3 
 146, 1, 1.0,  151, 1, -1.0, DSHEAR, 1, -1.0 
3 
 407, 2, 1.0,  443, 2, -1.0, DNORM, 2, -1.0 
3 
 407, 1, 1.0,  443, 1, -1.0, DSHEAR, 1, -1.0 
3 
 408, 2, 1.0,  444, 2, -1.0, DNORM, 2, -1.0 
3 
 408, 1, 1.0,  444, 1, -1.0, DSHEAR, 1, -1.0 
3 
 409, 2, 1.0,  445, 2, -1.0, DNORM, 2, -1.0 
3 
 409, 1, 1.0,  445, 1, -1.0, DSHEAR, 1, -1.0 
3 
 410, 2, 1.0,  446, 2, -1.0, DNORM, 2, -1.0 
3 
 410, 1, 1.0,  446, 1, -1.0, DSHEAR, 1, -1.0 
3 
 411, 2, 1.0,  447, 2, -1.0, DNORM, 2, -1.0 
3 
 411, 1, 1.0,  447, 1, -1.0, DSHEAR, 1, -1.0 
3 
 412, 2, 1.0,  448, 2, -1.0, DNORM, 2, -1.0 
3 
 412, 1, 1.0,  448, 1, -1.0, DSHEAR, 1, -1.0 
3 
 413, 2, 1.0,  449, 2, -1.0, DNORM, 2, -1.0 
3 
 413, 1, 1.0,  449, 1, -1.0, DSHEAR, 1, -1.0 
3 
 414, 2, 1.0,  450, 2, -1.0, DNORM, 2, -1.0 
3 
 414, 1, 1.0,  450, 1, -1.0, DSHEAR, 1, -1.0 
3 
 415, 2, 1.0,  451, 2, -1.0, DNORM, 2, -1.0 
3 
 415, 1, 1.0,  451, 1, -1.0, DSHEAR, 1, -1.0 
3 
  18, 2, 1.0,   65, 2, -1.0, DNORM, 2, -1.0 
3 
  18, 1, 1.0,   65, 1, -1.0, DSHEAR, 1, -1.0 
3 
 238, 2, 1.0,  314, 2, -1.0, DNORM, 2, -1.0 
3 
 238, 1, 1.0,  314, 1, -1.0, DSHEAR, 1, -1.0 
3 
 242, 2, 1.0,  318, 2, -1.0, DNORM, 2, -1.0 
3 
 242, 1, 1.0,  318, 1, -1.0, DSHEAR, 1, -1.0 
3 
 246, 2, 1.0,  322, 2, -1.0, DNORM, 2, -1.0 
3 
 246, 1, 1.0,  322, 1, -1.0, DSHEAR, 1, -1.0 
3 
 250, 2, 1.0,  326, 2, -1.0, DNORM, 2, -1.0 
3 
 250, 1, 1.0,  326, 1, -1.0, DSHEAR, 1, -1.0 
3 
 254, 2, 1.0,  330, 2, -1.0, DNORM, 2, -1.0 
3 
 254, 1, 1.0,  330, 1, -1.0, DSHEAR, 1, -1.0 
3 
 258, 2, 1.0,  334, 2, -1.0, DNORM, 2, -1.0 
3 
 258, 1, 1.0,  334, 1, -1.0, DSHEAR, 1, -1.0 
3 
 262, 2, 1.0,  338, 2, -1.0, DNORM, 2, -1.0 
3 
 262, 1, 1.0,  338, 1, -1.0, DSHEAR, 1, -1.0 
3 
 266, 2, 1.0,  342, 2, -1.0, DNORM, 2, -1.0 
3 
 266, 1, 1.0,  342, 1, -1.0, DSHEAR, 1, -1.0 
3 
 270, 2, 1.0,  346, 2, -1.0, DNORM, 2, -1.0 
3 
 270, 1, 1.0,  346, 1, -1.0, DSHEAR, 1, -1.0 
3 
 274, 2, 1.0,  350, 2, -1.0, DNORM, 2, -1.0 
3 
 274, 1, 1.0,  350, 1, -1.0, DSHEAR, 1, -1.0 
3 
 278, 2, 1.0,  354, 2, -1.0, DNORM, 2, -1.0 
3 
 278, 1, 1.0,  354, 1, -1.0, DSHEAR, 1, -1.0 
3 
 282, 2, 1.0,  358, 2, -1.0, DNORM, 2, -1.0 
3 
 282, 1, 1.0,  358, 1, -1.0, DSHEAR, 1, -1.0 
3 
 286, 2, 1.0,  362, 2, -1.0, DNORM, 2, -1.0 
3 
 286, 1, 1.0,  362, 1, -1.0, DSHEAR, 1, -1.0 
3 
 290, 2, 1.0,  366, 2, -1.0, DNORM, 2, -1.0 
3 
 290, 1, 1.0,  366, 1, -1.0, DSHEAR, 1, -1.0 
3 
 294, 2, 1.0,  370, 2, -1.0, DNORM, 2, -1.0 
3 
 294, 1, 1.0,  370, 1, -1.0, DSHEAR, 1, -1.0 
3 
 298, 2, 1.0,  374, 2, -1.0, DNORM, 2, -1.0 
3 
 298, 1, 1.0,  374, 1, -1.0, DSHEAR, 1, -1.0 
3 
 302, 2, 1.0,  378, 2, -1.0, DNORM, 2, -1.0 
3 
 302, 1, 1.0,  378, 1, -1.0, DSHEAR, 1, -1.0 
3 
 306, 2, 1.0,  382, 2, -1.0, DNORM, 2, -1.0 
3 
 306, 1, 1.0,  382, 1, -1.0, DSHEAR, 1, -1.0 
3 
 310, 2, 1.0,  386, 2, -1.0, DNORM, 2, -1.0 
3 
 310, 1, 1.0,  386, 1, -1.0, DSHEAR, 1, -1.0 
2 
 539, 3, 1.0,  463, 3, -1.0 
2 
 543, 3, 1.0,  467, 3, -1.0 
2 
 547, 3, 1.0,  471, 3, -1.0 
2 
 551, 3, 1.0,  475, 3, -1.0 
2 
 555, 3, 1.0,  479, 3, -1.0 
2 
 559, 3, 1.0,  483, 3, -1.0 
2 
 563, 3, 1.0,  487, 3, -1.0 
2 
 567, 3, 1.0,  491, 3, -1.0 
2 
 571, 3, 1.0,  495, 3, -1.0 
2 
 575, 3, 1.0,  499, 3, -1.0 
2 
 579, 3, 1.0,  503, 3, -1.0 
2 
 583, 3, 1.0,  507, 3, -1.0 
2 
 587, 3, 1.0,  511, 3, -1.0 
2 
 591, 3, 1.0,  515, 3, -1.0 
2 
 595, 3, 1.0,  519, 3, -1.0 
2 
 599, 3, 1.0,  523, 3, -1.0 
2 
 603, 3, 1.0,  527, 3, -1.0 
2 
 607, 3, 1.0,  531, 3, -1.0 
2 
 611, 3, 1.0,  535, 3, -1.0 
2 
 146, 3, 1.0,  151, 3, -1.0 
2 
 407, 3, 1.0,  443, 3, -1.0 
2 
 408, 3, 1.0,  444, 3, -1.0 
2 
 409, 3, 1.0,  445, 3, -1.0 
2 
 410, 3, 1.0,  446, 3, -1.0 
2 
 411, 3, 1.0,  447, 3, -1.0 
2 
 412, 3, 1.0,  448, 3, -1.0 
2 
 413, 3, 1.0,  449, 3, -1.0 
2 
 414, 3, 1.0,  450, 3, -1.0 
2 
 415, 3, 1.0,  451, 3, -1.0 
2 
  18, 3, 1.0,   65, 3, -1.0 
2 
 238, 3, 1.0,  314, 3, -1.0 
2 
 242, 3, 1.0,  318, 3, -1.0 
2 
 246, 3, 1.0,  322, 3, -1.0 
2 
 250, 3, 1.0,  326, 3, -1.0 
2 
 254, 3, 1.0,  330, 3, -1.0 
2 
 258, 3, 1.0,  334, 3, -1.0 
2 
 262, 3, 1.0,  338, 3, -1.0 
2 
 266, 3, 1.0,  342, 3, -1.0 
2 
 270, 3, 1.0,  346, 3, -1.0 
2 
 274, 3, 1.0,  350, 3, -1.0 
2 
 278, 3, 1.0,  354, 3, -1.0 
2 
 282, 3, 1.0,  358, 3, -1.0 
2 
 286, 3, 1.0,  362, 3, -1.0 
2 
 290, 3, 1.0,  366, 3, -1.0 
2 
 294, 3, 1.0,  370, 3, -1.0 
2 
 298, 3, 1.0,  374, 3, -1.0 
2 
 302, 3, 1.0,  378, 3, -1.0 
2 
 306, 3, 1.0,  382, 3, -1.0 
2 
 310, 3, 1.0,  386, 3, -1.0 
3 
 538, 2, 1.0,  462, 2, -1.0, DNORM, 2, -1.0 
3 
 538, 1, 1.0,  462, 1, -1.0, DSHEAR, 1, -1.0 
3 
 542, 2, 1.0,  466, 2, -1.0, DNORM, 2, -1.0 
3 
 542, 1, 1.0,  466, 1, -1.0, DSHEAR, 1, -1.0 
3 
 546, 2, 1.0,  470, 2, -1.0, DNORM, 2, -1.0 
3 
 546, 1, 1.0,  470, 1, -1.0, DSHEAR, 1, -1.0 
3 
 550, 2, 1.0,  474, 2, -1.0, DNORM, 2, -1.0 
3 
 550, 1, 1.0,  474, 1, -1.0, DSHEAR, 1, -1.0 
3 
 554, 2, 1.0,  478, 2, -1.0, DNORM, 2, -1.0 
3 
 554, 1, 1.0,  478, 1, -1.0, DSHEAR, 1, -1.0 
3 
 558, 2, 1.0,  482, 2, -1.0, DNORM, 2, -1.0 
3 
 558, 1, 1.0,  482, 1, -1.0, DSHEAR, 1, -1.0 
3 
 562, 2, 1.0,  486, 2, -1.0, DNORM, 2, -1.0 
3 
 562, 1, 1.0,  486, 1, -1.0, DSHEAR, 1, -1.0 
3 
 566, 2, 1.0,  490, 2, -1.0, DNORM, 2, -1.0 
3 
 566, 1, 1.0,  490, 1, -1.0, DSHEAR, 1, -1.0 
3 
 570, 2, 1.0,  494, 2, -1.0, DNORM, 2, -1.0 
3 
 570, 1, 1.0,  494, 1, -1.0, DSHEAR, 1, -1.0 
3 
 574, 2, 1.0,  498, 2, -1.0, DNORM, 2, -1.0 
3 
 574, 1, 1.0,  498, 1, -1.0, DSHEAR, 1, -1.0 
3 
 578, 2, 1.0,  502, 2, -1.0, DNORM, 2, -1.0 
3 
 578, 1, 1.0,  502, 1, -1.0, DSHEAR, 1, -1.0 
3 
 582, 2, 1.0,  506, 2, -1.0, DNORM, 2, -1.0 
3 
 582, 1, 1.0,  506, 1, -1.0, DSHEAR, 1, -1.0 
3 
 586, 2, 1.0,  510, 2, -1.0, DNORM, 2, -1.0 
3 
 586, 1, 1.0,  510, 1, -1.0, DSHEAR, 1, -1.0 
3 
 590, 2, 1.0,  514, 2, -1.0, DNORM, 2, -1.0 
3 
 590, 1, 1.0,  514, 1, -1.0, DSHEAR, 1, -1.0 
3 
 594, 2, 1.0,  518, 2, -1.0, DNORM, 2, -1.0 
3 
 594, 1, 1.0,  518, 1, -1.0, DSHEAR, 1, -1.0 
3 
 598, 2, 1.0,  522, 2, -1.0, DNORM, 2, -1.0 
3 
 598, 1, 1.0,  522, 1, -1.0, DSHEAR, 1, -1.0 
3 
 602, 2, 1.0,  526, 2, -1.0, DNORM, 2, -1.0 
3 
 602, 1, 1.0,  526, 1, -1.0, DSHEAR, 1, -1.0 
3 
 606, 2, 1.0,  530, 2, -1.0, DNORM, 2, -1.0 
3 
 606, 1, 1.0,  530, 1, -1.0, DSHEAR, 1, -1.0 
3 
 610, 2, 1.0,  534, 2, -1.0, DNORM, 2, -1.0 
3 
 610, 1, 1.0,  534, 1, -1.0, DSHEAR, 1, -1.0 
3 
 147, 2, 1.0,  150, 2, -1.0, DNORM, 2, -1.0 
3 
 147, 1, 1.0,  150, 1, -1.0, DSHEAR, 1, -1.0 
3 
 398, 2, 1.0,  434, 2, -1.0, DNORM, 2, -1.0 
3 
 398, 1, 1.0,  434, 1, -1.0, DSHEAR, 1, -1.0 
3 
 399, 2, 1.0,  435, 2, -1.0, DNORM, 2, -1.0 
3 
 399, 1, 1.0,  435, 1, -1.0, DSHEAR, 1, -1.0 
3 
 400, 2, 1.0,  436, 2, -1.0, DNORM, 2, -1.0 
3 
 400, 1, 1.0,  436, 1, -1.0, DSHEAR, 1, -1.0 
3 
 401, 2, 1.0,  437, 2, -1.0, DNORM, 2, -1.0 
3 
 401, 1, 1.0,  437, 1, -1.0, DSHEAR, 1, -1.0 
3 
 402, 2, 1.0,  438, 2, -1.0, DNORM, 2, -1.0 
3 
 402, 1, 1.0,  438, 1, -1.0, DSHEAR, 1, -1.0 
3 
 403, 2, 1.0,  439, 2, -1.0, DNORM, 2, -1.0 
3 
 403, 1, 1.0,  439, 1, -1.0, DSHEAR, 1, -1.0 
3 
 404, 2, 1.0,  440, 2, -1.0, DNORM, 2, -1.0 
3 
 404, 1, 1.0,  440, 1, -1.0, DSHEAR, 1, -1.0 
3 
 405, 2, 1.0,  441, 2, -1.0, DNORM, 2, -1.0 
3 
 405, 1, 1.0,  441, 1, -1.0, DSHEAR, 1, -1.0 
3 
 406, 2, 1.0,  442, 2, -1.0, DNORM, 2, -1.0 
3 
 406, 1, 1.0,  442, 1, -1.0, DSHEAR, 1, -1.0 
3 
  19, 2, 1.0,   64, 2, -1.0, DNORM, 2, -1.0 
3 
  19, 1, 1.0,   64, 1, -1.0, DSHEAR, 1, -1.0 
3 
 239, 2, 1.0,  315, 2, -1.0, DNORM, 2, -1.0 
3 
 239, 1, 1.0,  315, 1, -1.0, DSHEAR, 1, -1.0 
3 
 243, 2, 1.0,  319, 2, -1.0, DNORM, 2, -1.0 
3 
 243, 1, 1.0,  319, 1, -1.0, DSHEAR, 1, -1.0 
3 
 247, 2, 1.0,  323, 2, -1.0, DNORM, 2, -1.0 
3 
 247, 1, 1.0,  323, 1, -1.0, DSHEAR, 1, -1.0 
3 
 251, 2, 1.0,  327, 2, -1.0, DNORM, 2, -1.0 
3 
 251, 1, 1.0,  327, 1, -1.0, DSHEAR, 1, -1.0 
3 
 255, 2, 1.0,  331, 2, -1.0, DNORM, 2, -1.0 
3 
 255, 1, 1.0,  331, 1, -1.0, DSHEAR, 1, -1.0 
3 
 259, 2, 1.0,  335, 2, -1.0, DNORM, 2, -1.0 
3 
 259, 1, 1.0,  335, 1, -1.0, DSHEAR, 1, -1.0 
3 
 263, 2, 1.0,  339, 2, -1.0, DNORM, 2, -1.0 
3 
 263, 1, 1.0,  339, 1, -1.0, DSHEAR, 1, -1.0 
3 
 267, 2, 1.0,  343, 2, -1.0, DNORM, 2, -1.0 
3 
 267, 1, 1.0,  343, 1, -1.0, DSHEAR, 1, -1.0 
3 
 271, 2, 1.0,  347, 2, -1.0, DNORM, 2, -1.0 
3 
 271, 1, 1.0,  347, 1, -1.0, DSHEAR, 1, -1.0 
3 
 275, 2, 1.0,  351, 2, -1.0, DNORM, 2, -1.0 
3 
 275, 1, 1.0,  351, 1, -1.0, DSHEAR, 1, -1.0 
3 
 279, 2, 1.0,  355, 2, -1.0, DNORM, 2, -1.0 
3 
 279, 1, 1.0,  355, 1, -1.0, DSHEAR, 1, -1.0 
3 
 283, 2, 1.0,  359, 2, -1.0, DNORM, 2, -1.0 
3 
 283, 1, 1.0,  359, 1, -1.0, DSHEAR, 1, -1.0 
3 
 287, 2, 1.0,  363, 2, -1.0, DNORM, 2, -1.0 
3 
 287, 1, 1.0,  363, 1, -1.0, DSHEAR, 1, -1.0 
3 
 291, 2, 1.0,  367, 2, -1.0, DNORM, 2, -1.0 
3 
 291, 1, 1.0,  367, 1, -1.0, DSHEAR, 1, -1.0 
3 
 295, 2, 1.0,  371, 2, -1.0, DNORM, 2, -1.0 
3 
 295, 1, 1.0,  371, 1, -1.0, DSHEAR, 1, -1.0 
3 
 299, 2, 1.0,  375, 2, -1.0, DNORM, 2, -1.0 
3 
 299, 1, 1.0,  375, 1, -1.0, DSHEAR, 1, -1.0 
3 
 303, 2, 1.0,  379, 2, -1.0, DNORM, 2, -1.0 
3 
 303, 1, 1.0,  379, 1, -1.0, DSHEAR, 1, -1.0 
3 
 307, 2, 1.0,  383, 2, -1.0, DNORM, 2, -1.0 
3 
 307, 1, 1.0,  383, 1, -1.0, DSHEAR, 1, -1.0 
3 
 311, 2, 1.0,  387, 2, -1.0, DNORM, 2, -1.0 
3 
 311, 1, 1.0,  387, 1, -1.0, DSHEAR, 1, -1.0 
2 
 538, 3, 1.0,  462, 3, -1.0 
2 
 542, 3, 1.0,  466, 3, -1.0 
2 
 546, 3, 1.0,  470, 3, -1.0 
2 
 550, 3, 1.0,  474, 3, -1.0 
2 
 554, 3, 1.0,  478, 3, -1.0 
2 
 558, 3, 1.0,  482, 3, -1.0 
2 
 562, 3, 1.0,  486, 3, -1.0 
2 
 566, 3, 1.0,  490, 3, -1.0 
2 
 570, 3, 1.0,  494, 3, -1.0 
2 
 574, 3, 1.0,  498, 3, -1.0 
2 
 578, 3, 1.0,  502, 3, -1.0 
2 
 582, 3, 1.0,  506, 3, -1.0 
2 
 586, 3, 1.0,  510, 3, -1.0 
2 
 590, 3, 1.0,  514, 3, -1.0 
2 
 594, 3, 1.0,  518, 3, -1.0 
2 
 598, 3, 1.0,  522, 3, -1.0 
2 
 602, 3, 1.0,  526, 3, -1.0 
2 
 606, 3, 1.0,  530, 3, -1.0 
2 
 610, 3, 1.0,  534, 3, -1.0 
2 
 147, 3, 1.0,  150, 3, -1.0 
2 
 398, 3, 1.0,  434, 3, -1.0 
2 
 399, 3, 1.0,  435, 3, -1.0 
2 
 400, 3, 1.0,  436, 3, -1.0 
2 
 401, 3, 1.0,  437, 3, -1.0 
2 
 402, 3, 1.0,  438, 3, -1.0 
2 
 403, 3, 1.0,  439, 3, -1.0 
2 
 404, 3, 1.0,  440, 3, -1.0 
2 
 405, 3, 1.0,  441, 3, -1.0 
2 
 406, 3, 1.0,  442, 3, -1.0 
2 
  19, 3, 1.0,   64, 3, -1.0 
2 
 239, 3, 1.0,  315, 3, -1.0 
2 
 243, 3, 1.0,  319, 3, -1.0 
2 
 247, 3, 1.0,  323, 3, -1.0 
2 
 251, 3, 1.0,  327, 3, -1.0 
2 
 255, 3, 1.0,  331, 3, -1.0 
2 
 259, 3, 1.0,  335, 3, -1.0 
2 
 263, 3, 1.0,  339, 3, -1.0 
2 
 267, 3, 1.0,  343, 3, -1.0 
2 
 271, 3, 1.0,  347, 3, -1.0 
2 
 275, 3, 1.0,  351, 3, -1.0 
2 
 279, 3, 1.0,  355, 3, -1.0 
2 
 283, 3, 1.0,  359, 3, -1.0 
2 
 287, 3, 1.0,  363, 3, -1.0 
2 
 291, 3, 1.0,  367, 3, -1.0 
2 
 295, 3, 1.0,  371, 3, -1.0 
2 
 299, 3, 1.0,  375, 3, -1.0 
2 
 303, 3, 1.0,  379, 3, -1.0 
2 
 307, 3, 1.0,  383, 3, -1.0 
2 
 311, 3, 1.0,  387, 3, -1.0 
3 
 537, 2, 1.0,  461, 2, -1.0, DNORM, 2, -1.0 
3 
 537, 1, 1.0,  461, 1, -1.0, DSHEAR, 1, -1.0 
3 
 541, 2, 1.0,  465, 2, -1.0, DNORM, 2, -1.0 
3 
 541, 1, 1.0,  465, 1, -1.0, DSHEAR, 1, -1.0 
3 
 545, 2, 1.0,  469, 2, -1.0, DNORM, 2, -1.0 
3 
 545, 1, 1.0,  469, 1, -1.0, DSHEAR, 1, -1.0 
3 
 549, 2, 1.0,  473, 2, -1.0, DNORM, 2, -1.0 
3 
 549, 1, 1.0,  473, 1, -1.0, DSHEAR, 1, -1.0 
3 
 553, 2, 1.0,  477, 2, -1.0, DNORM, 2, -1.0 
3 
 553, 1, 1.0,  477, 1, -1.0, DSHEAR, 1, -1.0 
3 
 557, 2, 1.0,  481, 2, -1.0, DNORM, 2, -1.0 
3 
 557, 1, 1.0,  481, 1, -1.0, DSHEAR, 1, -1.0 
3 
 561, 2, 1.0,  485, 2, -1.0, DNORM, 2, -1.0 
3 
 561, 1, 1.0,  485, 1, -1.0, DSHEAR, 1, -1.0 
3 
 565, 2, 1.0,  489, 2, -1.0, DNORM, 2, -1.0 
3 
 565, 1, 1.0,  489, 1, -1.0, DSHEAR, 1, -1.0 
3 
 569, 2, 1.0,  493, 2, -1.0, DNORM, 2, -1.0 
3 
 569, 1, 1.0,  493, 1, -1.0, DSHEAR, 1, -1.0 
3 
 573, 2, 1.0,  497, 2, -1.0, DNORM, 2, -1.0 
3 
 573, 1, 1.0,  497, 1, -1.0, DSHEAR, 1, -1.0 
3 
 577, 2, 1.0,  501, 2, -1.0, DNORM, 2, -1.0 
3 
 577, 1, 1.0,  501, 1, -1.0, DSHEAR, 1, -1.0 
3 
 581, 2, 1.0,  505, 2, -1.0, DNORM, 2, -1.0 
3 
 581, 1, 1.0,  505, 1, -1.0, DSHEAR, 1, -1.0 
3 
 585, 2, 1.0,  509, 2, -1.0, DNORM, 2, -1.0 
3 
 585, 1, 1.0,  509, 1, -1.0, DSHEAR, 1, -1.0 
3 
 589, 2, 1.0,  513, 2, -1.0, DNORM, 2, -1.0 
3 
 589, 1, 1.0,  513, 1, -1.0, DSHEAR, 1, -1.0 
3 
 593, 2, 1.0,  517, 2, -1.0, DNORM, 2, -1.0 
3 
 593, 1, 1.0,  517, 1, -1.0, DSHEAR, 1, -1.0 
3 
 597, 2, 1.0,  521, 2, -1.0, DNORM, 2, -1.0 
3 
 597, 1, 1.0,  521, 1, -1.0, DSHEAR, 1, -1.0 
3 
 601, 2, 1.0,  525, 2, -1.0, DNORM, 2, -1.0 
3 
 601, 1, 1.0,  525, 1, -1.0, DSHEAR, 1, -1.0 
3 
 605, 2, 1.0,  529, 2, -1.0, DNORM, 2, -1.0 
3 
 605, 1, 1.0,  529, 1, -1.0, DSHEAR, 1, -1.0 
3 
 609, 2, 1.0,  533, 2, -1.0, DNORM, 2, -1.0 
3 
 609, 1, 1.0,  533, 1, -1.0, DSHEAR, 1, -1.0 
3 
 148, 2, 1.0,  149, 2, -1.0, DNORM, 2, -1.0 
3 
 148, 1, 1.0,  149, 1, -1.0, DSHEAR, 1, -1.0 
3 
 389, 2, 1.0,  425, 2, -1.0, DNORM, 2, -1.0 
3 
 389, 1, 1.0,  425, 1, -1.0, DSHEAR, 1, -1.0 
3 
 390, 2, 1.0,  426, 2, -1.0, DNORM, 2, -1.0 
3 
 390, 1, 1.0,  426, 1, -1.0, DSHEAR, 1, -1.0 
3 
 391, 2, 1.0,  427, 2, -1.0, DNORM, 2, -1.0 
3 
 391, 1, 1.0,  427, 1, -1.0, DSHEAR, 1, -1.0 
3 
 392, 2, 1.0,  428, 2, -1.0, DNORM, 2, -1.0 
3 
 392, 1, 1.0,  428, 1, -1.0, DSHEAR, 1, -1.0 
3 
 393, 2, 1.0,  429, 2, -1.0, DNORM, 2, -1.0 
3 
 393, 1, 1.0,  429, 1, -1.0, DSHEAR, 1, -1.0 
3 
 394, 2, 1.0,  430, 2, -1.0, DNORM, 2, -1.0 
3 
 394, 1, 1.0,  430, 1, -1.0, DSHEAR, 1, -1.0 
3 
 395, 2, 1.0,  431, 2, -1.0, DNORM, 2, -1.0 
3 
 395, 1, 1.0,  431, 1, -1.0, DSHEAR, 1, -1.0 
3 
 396, 2, 1.0,  432, 2, -1.0, DNORM, 2, -1.0 
3 
 396, 1, 1.0,  432, 1, -1.0, DSHEAR, 1, -1.0 
3 
 397, 2, 1.0,  433, 2, -1.0, DNORM, 2, -1.0 
3 
 397, 1, 1.0,  433, 1, -1.0, DSHEAR, 1, -1.0 
3 
  20, 2, 1.0,   63, 2, -1.0, DNORM, 2, -1.0 
3 
  20, 1, 1.0,   63, 1, -1.0, DSHEAR, 1, -1.0 
3 
 240, 2, 1.0,  316, 2, -1.0, DNORM, 2, -1.0 
3 
 240, 1, 1.0,  316, 1, -1.0, DSHEAR, 1, -1.0 
3 
 244, 2, 1.0,  320, 2, -1.0, DNORM, 2, -1.0 
3 
 244, 1, 1.0,  320, 1, -1.0, DSHEAR, 1, -1.0 
3 
 248, 2, 1.0,  324, 2, -1.0, DNORM, 2, -1.0 
3 
 248, 1, 1.0,  324, 1, -1.0, DSHEAR, 1, -1.0 
3 
 252, 2, 1.0,  328, 2, -1.0, DNORM, 2, -1.0 
3 
 252, 1, 1.0,  328, 1, -1.0, DSHEAR, 1, -1.0 
3 
 256, 2, 1.0,  332, 2, -1.0, DNORM, 2, -1.0 
3 
 256, 1, 1.0,  332, 1, -1.0, DSHEAR, 1, -1.0 
3 
 260, 2, 1.0,  336, 2, -1.0, DNORM, 2, -1.0 
3 
 260, 1, 1.0,  336, 1, -1.0, DSHEAR, 1, -1.0 
3 
 264, 2, 1.0,  340, 2, -1.0, DNORM, 2, -1.0 
3 
 264, 1, 1.0,  340, 1, -1.0, DSHEAR, 1, -1.0 
3 
 268, 2, 1.0,  344, 2, -1.0, DNORM, 2, -1.0 
3 
 268, 1, 1.0,  344, 1, -1.0, DSHEAR, 1, -1.0 
3 
 272, 2, 1.0,  348, 2, -1.0, DNORM, 2, -1.0 
3 
 272, 1, 1.0,  348, 1, -1.0, DSHEAR, 1, -1.0 
3 
 276, 2, 1.0,  352, 2, -1.0, DNORM, 2, -1.0 
3 
 276, 1, 1.0,  352, 1, -1.0, DSHEAR, 1, -1.0 
3 
 280, 2, 1.0,  356, 2, -1.0, DNORM, 2, -1.0 
3 
 280, 1, 1.0,  356, 1, -1.0, DSHEAR, 1, -1.0 
3 
 284, 2, 1.0,  360, 2, -1.0, DNORM, 2, -1.0 
3 
 284, 1, 1.0,  360, 1, -1.0, DSHEAR, 1, -1.0 
3 
 288, 2, 1.0,  364, 2, -1.0, DNORM, 2, -1.0 
3 
 288, 1, 1.0,  364, 1, -1.0, DSHEAR, 1, -1.0 
3 
 292, 2, 1.0,  368, 2, -1.0, DNORM, 2, -1.0 
3 
 292, 1, 1.0,  368, 1, -1.0, DSHEAR, 1, -1.0 
3 
 296, 2, 1.0,  372, 2, -1.0, DNORM, 2, -1.0 
3 
 296, 1, 1.0,  372, 1, -1.0, DSHEAR, 1, -1.0 
3 
 300, 2, 1.0,  376, 2, -1.0, DNORM, 2, -1.0 
3 
 300, 1, 1.0,  376, 1, -1.0, DSHEAR, 1, -1.0 
3 
 304, 2, 1.0,  380, 2, -1.0, DNORM, 2, -1.0 
3 
 304, 1, 1.0,  380, 1, -1.0, DSHEAR, 1, -1.0 
3 
 308, 2, 1.0,  384, 2, -1.0, DNORM, 2, -1.0 
3 
 308, 1, 1.0,  384, 1, -1.0, DSHEAR, 1, -1.0 
3 
 312, 2, 1.0,  388, 2, -1.0, DNORM, 2, -1.0 
3 
 312, 1, 1.0,  388, 1, -1.0, DSHEAR, 1, -1.0 
2 
 537, 3, 1.0,  461, 3, -1.0 
2 
 541, 3, 1.0,  465, 3, -1.0 
2 
 545, 3, 1.0,  469, 3, -1.0 
2 
 549, 3, 1.0,  473, 3, -1.0 
2 
 553, 3, 1.0,  477, 3, -1.0 
2 
 557, 3, 1.0,  481, 3, -1.0 
2 
 561, 3, 1.0,  485, 3, -1.0 
2 
 565, 3, 1.0,  489, 3, -1.0 
2 
 569, 3, 1.0,  493, 3, -1.0 
2 
 573, 3, 1.0,  497, 3, -1.0 
2 
 577, 3, 1.0,  501, 3, -1.0 
2 
 581, 3, 1.0,  505, 3, -1.0 
2 
 585, 3, 1.0,  509, 3, -1.0 
2 
 589, 3, 1.0,  513, 3, -1.0 
2 
 593, 3, 1.0,  517, 3, -1.0 
2 
 597, 3, 1.0,  521, 3, -1.0 
2 
 601, 3, 1.0,  525, 3, -1.0 
2 
 605, 3, 1.0,  529, 3, -1.0 
2 
 609, 3, 1.0,  533, 3, -1.0 
2 
 148, 3, 1.0,  149, 3, -1.0 
2 
 389, 3, 1.0,  425, 3, -1.0 
2 
 390, 3, 1.0,  426, 3, -1.0 
2 
 391, 3, 1.0,  427, 3, -1.0 
2 
 392, 3, 1.0,  428, 3, -1.0 
2 
 393, 3, 1.0,  429, 3, -1.0 
2 
 394, 3, 1.0,  430, 3, -1.0 
2 
 395, 3, 1.0,  431, 3, -1.0 
2 
 396, 3, 1.0,  432, 3, -1.0 
2 
 397, 3, 1.0,  433, 3, -1.0 
2 
  20, 3, 1.0,   63, 3, -1.0 
2 
 240, 3, 1.0,  316, 3, -1.0 
2 
 244, 3, 1.0,  320, 3, -1.0 
2 
 248, 3, 1.0,  324, 3, -1.0 
2 
 252, 3, 1.0,  328, 3, -1.0 
2 
 256, 3, 1.0,  332, 3, -1.0 
2 
 260, 3, 1.0,  336, 3, -1.0 
2 
 264, 3, 1.0,  340, 3, -1.0 
2 
 268, 3, 1.0,  344, 3, -1.0 
2 
 272, 3, 1.0,  348, 3, -1.0 
2 
 276, 3, 1.0,  352, 3, -1.0 
2 
 280, 3, 1.0,  356, 3, -1.0 
2 
 284, 3, 1.0,  360, 3, -1.0 
2 
 288, 3, 1.0,  364, 3, -1.0 
2 
 292, 3, 1.0,  368, 3, -1.0 
2 
 296, 3, 1.0,  372, 3, -1.0 
2 
 300, 3, 1.0,  376, 3, -1.0 
2 
 304, 3, 1.0,  380, 3, -1.0 
2 
 308, 3, 1.0,  384, 3, -1.0 
2 
 312, 3, 1.0,  388, 3, -1.0 
