
                  X              SENER-out           SENER-in    

                0.                 0.                 0.         
                2.5E-03          211.387E+03        211.387E+03  
                5.E-03           266.591E+03        262.55E+03   
                7.5E-03          276.689E+03        273.139E+03  
               10.E-03           286.129E+03        282.985E+03  
               12.5E-03          295.081E+03        292.277E+03  
               15.E-03           303.63E+03         301.115E+03  
               17.5E-03          311.832E+03        309.565E+03  
               20.E-03           319.727E+03        317.673E+03  
               22.5E-03          327.344E+03        325.478E+03  
               25.E-03           334.711E+03        333.008E+03  
               27.5E-03          341.846E+03        340.289E+03  
               30.E-03           348.77E+03         347.341E+03  
               32.5E-03          355.498E+03        354.183E+03  
               35.E-03           362.043E+03        360.832E+03  
               37.5E-03          368.419E+03        367.301E+03  
               40.E-03           374.636E+03        373.603E+03  
               42.5E-03          380.705E+03        379.749E+03  
               45.E-03           386.635E+03        385.749E+03  
               47.5E-03          392.434E+03        391.611E+03  
               50.E-03           398.109E+03        397.345E+03  
               52.5E-03          403.666E+03        402.958E+03  
               55.E-03           409.114E+03        408.455E+03  
               57.5E-03          414.455E+03        413.844E+03  
               60.E-03           419.697E+03        419.129E+03  
               62.5E-03          424.844E+03        424.316E+03  
               65.E-03           429.901E+03        429.41E+03   
               67.5E-03          434.87E+03         434.415E+03  
               70.E-03           439.757E+03        439.335E+03  
               72.5E-03          444.565E+03        444.174E+03  
               75.E-03           449.297E+03        448.936E+03  
               77.5E-03          453.956E+03        453.623E+03  
               80.E-03           458.546E+03        458.238E+03  
               82.5E-03          463.068E+03        462.785E+03  
               85.E-03           467.526E+03        467.266E+03  
               87.5E-03          471.921E+03        471.684E+03  
               90.E-03           476.257E+03        476.04E+03   
               92.5E-03          480.534E+03        480.338E+03  
               95.E-03           484.756E+03        484.579E+03  
               97.5E-03          488.924E+03        488.765E+03  
              100.E-03           493.04E+03         492.899E+03  
              102.5E-03          496.345E+03        496.217E+03  
              105.E-03           457.957E+03        457.648E+03  
              107.5E-03          426.016E+03        425.685E+03  
              110.E-03           404.937E+03        405.077E+03  
              112.5E-03          391.795E+03        392.606E+03  
              115.E-03           384.011E+03        384.966E+03  
              117.5E-03          379.536E+03        380.488E+03  
              120.E-03           377.16E+03         378.075E+03  
              122.5E-03          376.134E+03        377.018E+03  
              125.E-03           375.994E+03        376.853E+03  
              127.5E-03          376.441E+03        377.284E+03  
              130.E-03           377.281E+03        378.113E+03  
              132.5E-03          378.384E+03        379.209E+03  
              135.E-03           379.664E+03        380.485E+03  
              137.5E-03          381.061E+03        381.88E+03   
              140.E-03           382.536E+03        383.356E+03  
              142.5E-03          384.062E+03        384.883E+03  
              145.E-03           385.619E+03        386.442E+03  
              147.5E-03          387.195E+03        388.021E+03  
              150.E-03           388.781E+03        389.611E+03  
              152.5E-03          390.372E+03        391.205E+03  
              155.E-03           391.962E+03        392.799E+03  
              157.5E-03          393.549E+03        394.39E+03   
              160.E-03           395.131E+03        395.977E+03  
              162.5E-03          396.707E+03        397.557E+03  
              165.E-03           398.276E+03        399.131E+03  
              167.5E-03          399.838E+03        400.697E+03  
              170.E-03           401.391E+03        402.255E+03  
              172.5E-03          402.936E+03        403.805E+03  
              175.E-03           404.473E+03        405.347E+03  
              177.5E-03          406.002E+03        406.881E+03  
              180.E-03           407.522E+03        408.406E+03  
              182.5E-03          409.034E+03        409.924E+03  
              185.E-03           435.224E+03        436.225E+03  
              187.5E-03          478.167E+03        479.219E+03  
              190.E-03           506.223E+03        507.344E+03  
              192.5E-03          523.354E+03        524.521E+03  
              195.E-03           534.091E+03        535.288E+03  
              197.5E-03          541.23E+03         542.444E+03  
              200.E-03           546.359E+03        547.579E+03  
              202.5E-03          550.355E+03        551.576E+03  
              205.E-03           553.706E+03        554.922E+03  
              207.5E-03          556.682E+03        557.892E+03  
              210.E-03           559.438E+03        560.64E+03   
              212.5E-03          562.061E+03        563.254E+03  
              215.E-03           564.601E+03        565.784E+03  
              217.5E-03          567.086E+03        568.261E+03  
              220.E-03           569.534E+03        570.699E+03  
              222.5E-03          571.954E+03        573.11E+03   
              225.E-03           574.352E+03        575.499E+03  
              227.5E-03          576.73E+03         577.869E+03  
              230.E-03           579.091E+03        580.222E+03  
              232.5E-03          581.437E+03        582.56E+03   
              235.E-03           583.768E+03        584.883E+03  
              237.5E-03          586.085E+03        587.192E+03  
              240.E-03           588.387E+03        589.488E+03  
              242.5E-03          590.677E+03        591.771E+03  
              245.E-03           592.952E+03        594.04E+03   
              247.5E-03          595.215E+03        596.297E+03  
              250.E-03           597.465E+03        598.541E+03  
              252.5E-03          599.702E+03        600.772E+03  
              255.E-03           601.927E+03        602.992E+03  
              257.5E-03          604.14E+03         605.199E+03  
              260.E-03           606.34E+03         607.395E+03  
              262.5E-03          608.529E+03        609.578E+03  
              265.E-03           610.706E+03        611.751E+03  
              267.5E-03          612.871E+03        613.912E+03  
              270.E-03           615.025E+03        616.062E+03  
              272.5E-03          617.168E+03        618.201E+03  
              275.E-03           619.3E+03          620.328E+03  
              277.5E-03          621.421E+03        622.446E+03  
              280.E-03           623.531E+03        624.552E+03  
              282.5E-03          625.63E+03         626.648E+03  
              285.E-03           627.719E+03        628.734E+03  
              287.5E-03          629.797E+03        630.809E+03  
              290.E-03           631.866E+03        632.875E+03  
              292.5E-03          633.924E+03        634.93E+03   
              295.E-03           635.972E+03        636.976E+03  
              297.5E-03          638.011E+03        639.012E+03  
              300.E-03           640.039E+03        641.039E+03  
              302.5E-03          642.058E+03        643.055E+03  
              305.E-03           644.068E+03        645.063E+03  
              307.5E-03          646.068E+03        647.062E+03  
              310.E-03           648.06E+03         649.051E+03  
              312.5E-03          650.042E+03        651.031E+03  
              315.E-03           652.015E+03        653.003E+03  
              317.5E-03          653.979E+03        654.965E+03  
              320.E-03           655.934E+03        656.919E+03  
              322.5E-03          657.881E+03        658.864E+03  
              325.E-03           659.819E+03        660.801E+03  
              327.5E-03          661.748E+03        662.73E+03   
              330.E-03           663.669E+03        664.65E+03   
              332.5E-03          665.582E+03        666.562E+03  
              335.E-03           667.487E+03        668.466E+03  
              337.5E-03          669.384E+03        670.361E+03  
              340.E-03           671.272E+03        672.249E+03  
              342.5E-03          673.153E+03        674.129E+03  
              345.E-03           675.026E+03        676.002E+03  
              347.5E-03          676.891E+03        677.866E+03  
              350.E-03           678.748E+03        679.723E+03  
              352.5E-03          680.598E+03        681.573E+03  
              355.E-03           682.44E+03         683.415E+03  
              357.5E-03          684.275E+03        685.25E+03   
              360.E-03           686.103E+03        687.077E+03  
              362.5E-03          687.923E+03        688.898E+03  
              365.E-03           689.736E+03        690.711E+03  
              367.5E-03          691.542E+03        692.517E+03  
              370.E-03           693.341E+03        694.316E+03  
              372.5E-03          695.133E+03        696.108E+03  
              375.E-03           696.918E+03        697.894E+03  
              377.5E-03          698.697E+03        699.672E+03  
              380.E-03           700.468E+03        701.444E+03  
              382.5E-03          702.233E+03        703.21E+03   
              385.E-03           703.991E+03        704.968E+03  
              387.5E-03          705.743E+03        706.721E+03  
              390.E-03           707.488E+03        708.466E+03  
              392.5E-03          709.227E+03        710.206E+03  
              395.E-03           710.96E+03         711.939E+03  
              397.5E-03          712.686E+03        713.666E+03  
              400.E-03           714.406E+03        715.387E+03  
              402.5E-03          716.119E+03        717.101E+03  
              405.E-03           717.827E+03        718.81E+03   
              407.5E-03          719.529E+03        720.512E+03  
              410.E-03           721.224E+03        722.209E+03  
              412.5E-03          722.914E+03        723.899E+03  
              415.E-03           724.597E+03        725.584E+03  
              417.5E-03          726.275E+03        727.263E+03  
              420.E-03           727.947E+03        728.936E+03  
              422.5E-03          729.614E+03        730.604E+03  
              425.E-03           731.274E+03        732.266E+03  
              427.5E-03          732.929E+03        733.922E+03  
              430.E-03           734.579E+03        735.573E+03  
              432.5E-03          736.223E+03        737.218E+03  
              435.E-03           737.861E+03        738.858E+03  
              437.5E-03          739.494E+03        740.492E+03  
              440.E-03           741.122E+03        742.121E+03  
              442.5E-03          742.744E+03        743.745E+03  
              445.E-03           744.361E+03        745.363E+03  
              447.5E-03          745.973E+03        746.977E+03  
              450.E-03           747.579E+03        748.585E+03  
              452.5E-03          749.181E+03        750.188E+03  
              455.E-03           750.777E+03        751.786E+03  
              457.5E-03          752.368E+03        753.379E+03  
              460.E-03           753.954E+03        754.967E+03  
              462.5E-03          755.536E+03        756.55E+03   
              465.E-03           757.112E+03        758.128E+03  
              467.5E-03          758.683E+03        759.701E+03  
              470.E-03           760.25E+03         761.269E+03  
              472.5E-03          761.811E+03        762.833E+03  
              475.E-03           763.368E+03        764.391E+03  
              477.5E-03          764.92E+03         765.945E+03  
              480.E-03           766.468E+03        767.495E+03  
              482.5E-03          768.011E+03        769.04E+03   
              485.E-03           769.549E+03        770.58E+03   
              487.5E-03          771.082E+03        772.115E+03  
              490.E-03           772.611E+03        773.646E+03  
              492.5E-03          774.136E+03        775.173E+03  
              495.E-03           775.656E+03        776.695E+03  
              497.5E-03          777.171E+03        778.213E+03  
              500.E-03           778.682E+03        779.726E+03  
              502.5E-03          780.189E+03        781.235E+03  
              505.E-03           781.692E+03        782.74E+03   
              507.5E-03          783.19E+03         784.24E+03   
              510.E-03           784.683E+03        785.736E+03  
              512.5E-03          786.173E+03        787.228E+03  
              515.E-03           787.658E+03        788.715E+03  
              517.5E-03          789.139E+03        790.199E+03  
              520.E-03           790.616E+03        791.678E+03  
              522.5E-03          792.089E+03        793.153E+03  
              525.E-03           793.558E+03        794.625E+03  
              527.5E-03          795.023E+03        796.092E+03  
              530.E-03           796.483E+03        797.555E+03  
              532.5E-03          797.94E+03         799.014E+03  
              535.E-03           799.393E+03        800.469E+03  
              537.5E-03          800.841E+03        801.92E+03   
              540.E-03           802.286E+03        803.368E+03  
              542.5E-03          803.727E+03        804.811E+03  
              545.E-03           805.164E+03        806.251E+03  
              547.5E-03          806.597E+03        807.687E+03  
              550.E-03           808.027E+03        809.119E+03  
              552.5E-03          809.452E+03        810.547E+03  
              555.E-03           810.874E+03        811.972E+03  
              557.5E-03          812.292E+03        813.393E+03  
              560.E-03           813.707E+03        814.81E+03   
              562.5E-03          815.118E+03        816.223E+03  
              565.E-03           816.525E+03        817.633E+03  
              567.5E-03          817.928E+03        819.039E+03  
              570.E-03           819.328E+03        820.442E+03  
              572.5E-03          820.724E+03        821.841E+03  
              575.E-03           822.117E+03        823.237E+03  
              577.5E-03          823.506E+03        824.629E+03  
              580.E-03           824.892E+03        826.017E+03  
              582.5E-03          826.274E+03        827.403E+03  
              585.E-03           827.653E+03        828.784E+03  
              587.5E-03          829.029E+03        830.163E+03  
              590.E-03           830.4E+03          831.537E+03  
              592.5E-03          831.769E+03        832.909E+03  
              595.E-03           833.134E+03        834.277E+03  
              597.5E-03          834.496E+03        835.642E+03  
              600.E-03           835.854E+03        837.003E+03  
              602.5E-03          837.21E+03         838.362E+03  
              605.E-03           838.562E+03        839.717E+03  
              607.5E-03          839.91E+03         841.068E+03  
              610.E-03           841.255E+03        842.417E+03  
              612.5E-03          842.598E+03        843.762E+03  
              615.E-03           843.937E+03        845.104E+03  
              617.5E-03          845.272E+03        846.443E+03  
              620.E-03           846.605E+03        847.779E+03  
              622.5E-03          847.935E+03        849.112E+03  
              625.E-03           849.261E+03        850.442E+03  
              627.5E-03          850.584E+03        851.768E+03  
              630.E-03           851.904E+03        853.091E+03  
              632.5E-03          853.222E+03        854.412E+03  
              635.E-03           854.536E+03        855.729E+03  
              637.5E-03          855.847E+03        857.044E+03  
              640.E-03           857.155E+03        858.355E+03  
              642.5E-03          858.46E+03         859.663E+03  
              645.E-03           859.762E+03        860.969E+03  
              647.5E-03          861.061E+03        862.271E+03  
              650.E-03           862.357E+03        863.571E+03  
              652.5E-03          863.651E+03        864.868E+03  
              655.E-03           864.941E+03        866.162E+03  
              657.5E-03          866.228E+03        867.453E+03  
              660.E-03           867.513E+03        868.741E+03  
              662.5E-03          868.795E+03        870.026E+03  
              665.E-03           870.074E+03        871.308E+03  
              667.5E-03          871.35E+03         872.588E+03  
              670.E-03           872.623E+03        873.865E+03  
              672.5E-03          873.894E+03        875.139E+03  
              675.E-03           875.162E+03        876.41E+03   
              677.5E-03          876.427E+03        877.679E+03  
              680.E-03           877.689E+03        878.945E+03  
              682.5E-03          878.949E+03        880.208E+03  
              685.E-03           880.205E+03        881.469E+03  
              687.5E-03          881.46E+03         882.727E+03  
              690.E-03           882.711E+03        883.982E+03  
              692.5E-03          883.96E+03         885.234E+03  
              695.E-03           885.206E+03        886.484E+03  
              697.5E-03          886.45E+03         887.732E+03  
              700.E-03           887.691E+03        888.976E+03  
              702.5E-03          888.929E+03        890.218E+03  
              705.E-03           890.165E+03        891.458E+03  
              707.5E-03          891.398E+03        892.695E+03  
              710.E-03           892.629E+03        893.93E+03   
              712.5E-03          893.857E+03        895.161E+03  
              715.E-03           895.083E+03        896.391E+03  
              717.5E-03          896.306E+03        897.618E+03  
              720.E-03           897.526E+03        898.842E+03  
              722.5E-03          898.744E+03        900.064E+03  
              725.E-03           899.96E+03         901.284E+03  
              727.5E-03          901.173E+03        902.501E+03  
              730.E-03           902.384E+03        903.716E+03  
              732.5E-03          903.592E+03        904.928E+03  
              735.E-03           904.798E+03        906.138E+03  
              737.5E-03          906.001E+03        907.345E+03  
              740.E-03           907.202E+03        908.55E+03   
              742.5E-03          908.401E+03        909.753E+03  
              745.E-03           909.597E+03        910.953E+03  
              747.5E-03          910.791E+03        912.151E+03  
              750.E-03           911.983E+03        913.347E+03  
              752.5E-03          913.172E+03        914.54E+03   
              755.E-03           914.359E+03        915.731E+03  
              757.5E-03          915.543E+03        916.92E+03   
              760.E-03           916.726E+03        918.106E+03  
              762.5E-03          917.906E+03        919.29E+03   
              765.E-03           919.083E+03        920.472E+03  
              767.5E-03          920.259E+03        921.652E+03  
              770.E-03           921.432E+03        922.829E+03  
              772.5E-03          922.603E+03        924.005E+03  
              775.E-03           923.772E+03        925.178E+03  
              777.5E-03          924.938E+03        926.348E+03  
              780.E-03           926.103E+03        927.517E+03  
              782.5E-03          927.265E+03        928.683E+03  
              785.E-03           928.425E+03        929.848E+03  
              787.5E-03          929.583E+03        931.01E+03   
              790.E-03           930.738E+03        932.17E+03   
              792.5E-03          931.892E+03        933.328E+03  
              795.E-03           933.043E+03        934.483E+03  
              797.5E-03          934.192E+03        935.637E+03  
              800.E-03           935.339E+03        936.788E+03  
              802.5E-03          936.484E+03        937.938E+03  
              805.E-03           937.627E+03        939.085E+03  
              807.5E-03          938.768E+03        940.23E+03   
              810.E-03           939.906E+03        941.373E+03  
              812.5E-03          941.043E+03        942.515E+03  
              815.E-03           942.177E+03        943.654E+03  
              817.5E-03          943.31E+03         944.791E+03  
              820.E-03           944.44E+03         945.926E+03  
              822.5E-03          945.569E+03        947.059E+03  
              825.E-03           946.695E+03        948.19E+03   
              827.5E-03          947.82E+03         949.318E+03  
              830.E-03           948.942E+03        950.445E+03  
              832.5E-03          950.062E+03        951.57E+03   
              835.E-03           951.181E+03        952.694E+03  
              837.5E-03          952.297E+03        953.815E+03  
              840.E-03           953.412E+03        954.934E+03  
              842.5E-03          954.524E+03        956.051E+03  
              845.E-03           955.635E+03        957.166E+03  
              847.5E-03          956.743E+03        958.28E+03   
              850.E-03           957.85E+03         959.391E+03  
              852.5E-03          958.955E+03        960.501E+03  
              855.E-03           960.058E+03        961.608E+03  
              857.5E-03          961.159E+03        962.714E+03  
              860.E-03           962.258E+03        963.818E+03  
              862.5E-03          963.355E+03        964.92E+03   
              865.E-03           964.45E+03         966.02E+03   
              867.5E-03          965.544E+03        967.118E+03  
              870.E-03           966.635E+03        968.215E+03  
              872.5E-03          967.725E+03        969.309E+03  
              875.E-03           968.813E+03        970.402E+03  
              877.5E-03          969.899E+03        971.493E+03  
              880.E-03           970.983E+03        972.582E+03  
              882.5E-03          972.065E+03        973.67E+03   
              885.E-03           973.146E+03        974.755E+03  
              887.5E-03          974.225E+03        975.839E+03  
              890.E-03           975.302E+03        976.921E+03  
              892.5E-03          976.377E+03        978.001E+03  
              895.E-03           977.45E+03         979.08E+03   
              897.5E-03          978.522E+03        980.157E+03  
              900.E-03           979.592E+03        981.232E+03  
              902.5E-03          980.66E+03         982.305E+03  
              905.E-03           981.727E+03        983.376E+03  
              907.5E-03          982.791E+03        984.446E+03  
              910.E-03           983.854E+03        985.514E+03  
              912.5E-03          984.915E+03        986.58E+03   
              915.E-03           985.975E+03        987.645E+03  
              917.5E-03          987.032E+03        988.708E+03  
              920.E-03           988.088E+03        989.769E+03  
              922.5E-03          989.143E+03        990.829E+03  
              925.E-03           990.195E+03        991.887E+03  
              927.5E-03          991.246E+03        992.943E+03  
              930.E-03           992.296E+03        993.998E+03  
              932.5E-03          993.343E+03        995.051E+03  
              935.E-03           994.389E+03        996.102E+03  
              937.5E-03          995.434E+03        997.152E+03  
              940.E-03           996.476E+03        998.2E+03    
              942.5E-03          997.517E+03        999.246E+03  
              945.E-03           998.557E+03          1.00029E+06
              947.5E-03          999.594E+03          1.00133E+06
              950.E-03             1.00063E+06        1.00238E+06
              952.5E-03            1.00167E+06        1.00342E+06
              955.E-03             1.0027E+06         1.00445E+06
              957.5E-03            1.00373E+06        1.00549E+06
              960.E-03             1.00476E+06        1.00653E+06
              962.5E-03            1.00579E+06        1.00756E+06
              965.E-03             1.00681E+06        1.00859E+06
              967.5E-03            1.00784E+06        1.00962E+06
              970.E-03             1.00886E+06        1.01065E+06
              972.5E-03            1.00988E+06        1.01168E+06
              975.E-03             1.0109E+06         1.0127E+06 
              977.5E-03            1.01192E+06        1.01373E+06
              980.E-03             1.01294E+06        1.01475E+06
              982.5E-03            1.01396E+06        1.01577E+06
              985.E-03             1.01497E+06        1.01679E+06
              987.5E-03            1.01598E+06        1.01781E+06
              990.E-03             1.01699E+06        1.01883E+06
              992.5E-03            1.018E+06          1.01984E+06
              995.E-03             1.01901E+06        1.02086E+06
              997.5E-03            1.02002E+06        1.02187E+06
                1.                 1.02102E+06        1.02288E+06




