
                  X                 Dinn               Dout      

                0.                 0.                 0.         
                2.5E-03            0.                 0.         
                5.E-03             1.41635E-03        1.27418E-03
                7.5E-03            2.85243E-03        2.66574E-03
               10.E-03             4.26884E-03        4.04862E-03
               12.5E-03            5.67466E-03        5.42927E-03
               15.E-03             7.07402E-03        6.81018E-03
               17.5E-03            8.46896E-03        8.19226E-03
               20.E-03             9.86061E-03        9.57574E-03
               22.5E-03           11.2497E-03        10.9606E-03 
               25.E-03            12.6367E-03        12.3468E-03 
               27.5E-03           14.022E-03         13.7342E-03 
               30.E-03            15.4059E-03        15.1226E-03 
               32.5E-03           16.7886E-03        16.512E-03  
               35.E-03            18.1703E-03        17.9023E-03 
               37.5E-03           19.5511E-03        19.2934E-03 
               40.E-03            20.9312E-03        20.6852E-03 
               42.5E-03           22.3107E-03        22.0777E-03 
               45.E-03            23.6897E-03        23.4708E-03 
               47.5E-03           25.0683E-03        24.8645E-03 
               50.E-03            26.4465E-03        26.2586E-03 
               52.5E-03           27.8243E-03        27.6533E-03 
               55.E-03            29.202E-03         29.0484E-03 
               57.5E-03           30.5794E-03        30.4439E-03 
               60.E-03            31.9567E-03        31.8399E-03 
               62.5E-03           33.3338E-03        33.2361E-03 
               65.E-03            34.7108E-03        34.6327E-03 
               67.5E-03           36.0877E-03        36.0297E-03 
               70.E-03            37.4646E-03        37.4269E-03 
               72.5E-03           38.8415E-03        38.8244E-03 
               75.E-03            40.2183E-03        40.2222E-03 
               77.5E-03           41.5952E-03        41.6203E-03 
               80.E-03            42.972E-03         43.0185E-03 
               82.5E-03           44.3489E-03        44.417E-03  
               85.E-03            45.7259E-03        45.8158E-03 
               87.5E-03           47.1029E-03        47.2147E-03 
               90.E-03            48.4799E-03        48.6138E-03 
               92.5E-03           49.857E-03         50.0131E-03 
               95.E-03            51.2342E-03        51.4126E-03 
               97.5E-03           52.6115E-03        52.8122E-03 
              100.E-03            53.9889E-03        54.212E-03  
              102.5E-03           55.1144E-03        55.3558E-03 
              105.E-03            56.5907E-03        56.6334E-03 
              107.5E-03           57.9688E-03        57.8252E-03 
              110.E-03            59.0858E-03        58.9545E-03 
              112.5E-03           60.0983E-03        59.9557E-03 
              115.E-03            61.0199E-03        60.8744E-03 
              117.5E-03           61.8869E-03        61.7383E-03 
              120.E-03            62.7189E-03        62.5676E-03 
              122.5E-03           63.529E-03         63.3755E-03 
              125.E-03            64.3254E-03        64.1699E-03 
              127.5E-03           65.1133E-03        64.956E-03  
              130.E-03            65.8959E-03        65.737E-03  
              132.5E-03           66.6752E-03        66.5148E-03 
              135.E-03            67.4524E-03        67.2906E-03 
              137.5E-03           68.2283E-03        68.0653E-03 
              140.E-03            69.0034E-03        68.8393E-03 
              142.5E-03           69.7781E-03        69.6129E-03 
              145.E-03            70.5524E-03        70.3862E-03 
              147.5E-03           71.3265E-03        71.1594E-03 
              150.E-03            72.1006E-03        71.9327E-03 
              152.5E-03           72.8746E-03        72.706E-03  
              155.E-03            73.6486E-03        73.4793E-03 
              157.5E-03           74.4225E-03        74.2526E-03 
              160.E-03            75.1965E-03        75.026E-03  
              162.5E-03           75.9704E-03        75.7994E-03 
              165.E-03            76.7444E-03        76.5728E-03 
              167.5E-03           77.5184E-03        77.3462E-03 
              170.E-03            78.2925E-03        78.1196E-03 
              172.5E-03           79.0665E-03        78.8931E-03 
              175.E-03            79.8406E-03        79.6665E-03 
              177.5E-03           80.6147E-03        80.44E-03   
              180.E-03            81.3888E-03        81.2135E-03 
              182.5E-03           82.163E-03         81.987E-03  
              185.E-03            82.9935E-03        82.8145E-03 
              187.5E-03           83.9442E-03        83.7605E-03 
              190.E-03            84.9789E-03        84.7888E-03 
              192.5E-03           86.0717E-03        85.8743E-03 
              195.E-03            87.2038E-03        86.9982E-03 
              197.5E-03           88.3619E-03        88.1476E-03 
              200.E-03            89.5373E-03        89.3139E-03 
              202.5E-03           90.724E-03         90.4912E-03 
              205.E-03            91.9183E-03        91.6759E-03 
              207.5E-03           93.1176E-03        92.8655E-03 
              210.E-03            94.3202E-03        94.0584E-03 
              212.5E-03           95.525E-03         95.2534E-03 
              215.E-03            96.7313E-03        96.4498E-03 
              217.5E-03           97.9386E-03        97.6472E-03 
              220.E-03            99.1465E-03        98.8452E-03 
              222.5E-03          100.355E-03        100.044E-03  
              225.E-03           101.564E-03        101.242E-03  
              227.5E-03          102.773E-03        102.441E-03  
              230.E-03           103.982E-03        103.64E-03   
              232.5E-03          105.191E-03        104.84E-03   
              235.E-03           106.4E-03          106.039E-03  
              237.5E-03          107.61E-03         107.238E-03  
              240.E-03           108.819E-03        108.438E-03  
              242.5E-03          110.029E-03        109.637E-03  
              245.E-03           111.239E-03        110.837E-03  
              247.5E-03          112.448E-03        112.036E-03  
              250.E-03           113.658E-03        113.236E-03  
              252.5E-03          114.868E-03        114.435E-03  
              255.E-03           116.078E-03        115.634E-03  
              257.5E-03          117.288E-03        116.834E-03  
              260.E-03           118.498E-03        118.034E-03  
              262.5E-03          119.708E-03        119.233E-03  
              265.E-03           120.919E-03        120.433E-03  
              267.5E-03          122.129E-03        121.632E-03  
              270.E-03           123.339E-03        122.832E-03  
              272.5E-03          124.55E-03         124.031E-03  
              275.E-03           125.76E-03         125.231E-03  
              277.5E-03          126.971E-03        126.43E-03   
              280.E-03           128.182E-03        127.63E-03   
              282.5E-03          129.393E-03        128.829E-03  
              285.E-03           130.603E-03        130.029E-03  
              287.5E-03          131.814E-03        131.228E-03  
              290.E-03           133.025E-03        132.428E-03  
              292.5E-03          134.237E-03        133.627E-03  
              295.E-03           135.448E-03        134.827E-03  
              297.5E-03          136.659E-03        136.026E-03  
              300.E-03           137.871E-03        137.226E-03  
              302.5E-03          139.082E-03        138.425E-03  
              305.E-03           140.294E-03        139.625E-03  
              307.5E-03          141.506E-03        140.824E-03  
              310.E-03           142.718E-03        142.023E-03  
              312.5E-03          143.93E-03         143.223E-03  
              315.E-03           145.142E-03        144.422E-03  
              317.5E-03          146.354E-03        145.622E-03  
              320.E-03           147.566E-03        146.821E-03  
              322.5E-03          148.779E-03        148.02E-03   
              325.E-03           149.991E-03        149.22E-03   
              327.5E-03          151.204E-03        150.419E-03  
              330.E-03           152.416E-03        151.618E-03  
              332.5E-03          153.629E-03        152.817E-03  
              335.E-03           154.842E-03        154.016E-03  
              337.5E-03          156.055E-03        155.216E-03  
              340.E-03           157.269E-03        156.415E-03  
              342.5E-03          158.482E-03        157.614E-03  
              345.E-03           159.696E-03        158.813E-03  
              347.5E-03          160.909E-03        160.012E-03  
              350.E-03           162.123E-03        161.211E-03  
              352.5E-03          163.337E-03        162.41E-03   
              355.E-03           164.551E-03        163.609E-03  
              357.5E-03          165.765E-03        164.808E-03  
              360.E-03           166.979E-03        166.006E-03  
              362.5E-03          168.194E-03        167.205E-03  
              365.E-03           169.408E-03        168.404E-03  
              367.5E-03          170.623E-03        169.603E-03  
              370.E-03           171.838E-03        170.801E-03  
              372.5E-03          173.053E-03        172.E-03     
              375.E-03           174.268E-03        173.198E-03  
              377.5E-03          175.483E-03        174.397E-03  
              380.E-03           176.699E-03        175.595E-03  
              382.5E-03          177.914E-03        176.794E-03  
              385.E-03           179.13E-03         177.992E-03  
              387.5E-03          180.346E-03        179.19E-03   
              390.E-03           181.562E-03        180.389E-03  
              392.5E-03          182.778E-03        181.587E-03  
              395.E-03           183.995E-03        182.785E-03  
              397.5E-03          185.212E-03        183.983E-03  
              400.E-03           186.428E-03        185.181E-03  
              402.5E-03          187.645E-03        186.379E-03  
              405.E-03           188.863E-03        187.577E-03  
              407.5E-03          190.08E-03         188.775E-03  
              410.E-03           191.297E-03        189.972E-03  
              412.5E-03          192.515E-03        191.17E-03   
              415.E-03           193.733E-03        192.367E-03  
              417.5E-03          194.951E-03        193.565E-03  
              420.E-03           196.17E-03         194.762E-03  
              422.5E-03          197.388E-03        195.96E-03   
              425.E-03           198.607E-03        197.157E-03  
              427.5E-03          199.826E-03        198.354E-03  
              430.E-03           201.045E-03        199.551E-03  
              432.5E-03          202.264E-03        200.748E-03  
              435.E-03           203.484E-03        201.945E-03  
              437.5E-03          204.704E-03        203.142E-03  
              440.E-03           205.924E-03        204.338E-03  
              442.5E-03          207.144E-03        205.535E-03  
              445.E-03           208.365E-03        206.731E-03  
              447.5E-03          209.585E-03        207.928E-03  
              450.E-03           210.806E-03        209.124E-03  
              452.5E-03          212.028E-03        210.32E-03   
              455.E-03           213.249E-03        211.516E-03  
              457.5E-03          214.471E-03        212.712E-03  
              460.E-03           215.693E-03        213.908E-03  
              462.5E-03          216.916E-03        215.103E-03  
              465.E-03           218.138E-03        216.299E-03  
              467.5E-03          219.361E-03        217.494E-03  
              470.E-03           220.584E-03        218.689E-03  
              472.5E-03          221.808E-03        219.884E-03  
              475.E-03           223.032E-03        221.079E-03  
              477.5E-03          224.256E-03        222.274E-03  
              480.E-03           225.48E-03         223.469E-03  
              482.5E-03          226.705E-03        224.663E-03  
              485.E-03           227.93E-03         225.858E-03  
              487.5E-03          229.155E-03        227.052E-03  
              490.E-03           230.381E-03        228.246E-03  
              492.5E-03          231.607E-03        229.44E-03   
              495.E-03           232.834E-03        230.634E-03  
              497.5E-03          234.06E-03         231.827E-03  
              500.E-03           235.288E-03        233.02E-03   
              502.5E-03          236.515E-03        234.214E-03  
              505.E-03           237.743E-03        235.407E-03  
              507.5E-03          238.971E-03        236.599E-03  
              510.E-03           240.2E-03          237.792E-03  
              512.5E-03          241.429E-03        238.984E-03  
              515.E-03           242.659E-03        240.176E-03  
              517.5E-03          243.889E-03        241.368E-03  
              520.E-03           245.119E-03        242.56E-03   
              522.5E-03          246.35E-03         243.752E-03  
              525.E-03           247.582E-03        244.943E-03  
              527.5E-03          248.813E-03        246.134E-03  
              530.E-03           250.046E-03        247.325E-03  
              532.5E-03          251.278E-03        248.515E-03  
              535.E-03           252.512E-03        249.705E-03  
              537.5E-03          253.746E-03        250.895E-03  
              540.E-03           254.98E-03         252.085E-03  
              542.5E-03          256.215E-03        253.274E-03  
              545.E-03           257.45E-03         254.464E-03  
              547.5E-03          258.686E-03        255.652E-03  
              550.E-03           259.923E-03        256.841E-03  
              552.5E-03          261.16E-03         258.029E-03  
              555.E-03           262.398E-03        259.217E-03  
              557.5E-03          263.636E-03        260.405E-03  
              560.E-03           264.875E-03        261.592E-03  
              562.5E-03          266.115E-03        262.779E-03  
              565.E-03           267.356E-03        263.965E-03  
              567.5E-03          268.597E-03        265.151E-03  
              570.E-03           269.839E-03        266.337E-03  
              572.5E-03          271.081E-03        267.522E-03  
              575.E-03           272.324E-03        268.707E-03  
              577.5E-03          273.569E-03        269.892E-03  
              580.E-03           274.813E-03        271.076E-03  
              582.5E-03          276.059E-03        272.26E-03   
              585.E-03           277.306E-03        273.443E-03  
              587.5E-03          278.553E-03        274.625E-03  
              590.E-03           279.801E-03        275.808E-03  
              592.5E-03          281.051E-03        276.99E-03   
              595.E-03           282.301E-03        278.171E-03  
              597.5E-03          283.552E-03        279.352E-03  
              600.E-03           284.804E-03        280.532E-03  
              602.5E-03          286.057E-03        281.711E-03  
              605.E-03           287.311E-03        282.89E-03   
              607.5E-03          288.567E-03        284.069E-03  
              610.E-03           289.823E-03        285.247E-03  
              612.5E-03          291.081E-03        286.424E-03  
              615.E-03           292.339E-03        287.601E-03  
              617.5E-03          293.599E-03        288.776E-03  
              620.E-03           294.861E-03        289.952E-03  
              622.5E-03          296.123E-03        291.126E-03  
              625.E-03           297.387E-03        292.3E-03    
              627.5E-03          298.652E-03        293.473E-03  
              630.E-03           299.919E-03        294.645E-03  
              632.5E-03          301.187E-03        295.817E-03  
              635.E-03           302.457E-03        296.987E-03  
              637.5E-03          303.728E-03        298.157E-03  
              640.E-03           305.001E-03        299.326E-03  
              642.5E-03          306.276E-03        300.494E-03  
              645.E-03           307.552E-03        301.661E-03  
              647.5E-03          308.83E-03         302.827E-03  
              650.E-03           310.11E-03         303.992E-03  
              652.5E-03          311.392E-03        305.156E-03  
              655.E-03           312.676E-03        306.319E-03  
              657.5E-03          313.962E-03        307.48E-03   
              660.E-03           315.25E-03         308.641E-03  
              662.5E-03          316.54E-03         309.8E-03    
              665.E-03           317.833E-03        310.958E-03  
              667.5E-03          319.128E-03        312.115E-03  
              670.E-03           320.426E-03        313.271E-03  
              672.5E-03          321.726E-03        314.425E-03  
              675.E-03           323.029E-03        315.578E-03  
              677.5E-03          324.334E-03        316.729E-03  
              680.E-03           325.643E-03        317.878E-03  
              682.5E-03          326.954E-03        319.026E-03  
              685.E-03           328.269E-03        320.173E-03  
              687.5E-03          329.587E-03        321.318E-03  
              690.E-03           330.908E-03        322.461E-03  
              692.5E-03          332.233E-03        323.602E-03  
              695.E-03           333.561E-03        324.741E-03  
              697.5E-03          334.893E-03        325.878E-03  
              700.E-03           336.23E-03         327.013E-03  
              702.5E-03          337.57E-03         328.146E-03  
              705.E-03           338.915E-03        329.277E-03  
              707.5E-03          340.265E-03        330.405E-03  
              710.E-03           341.619E-03        331.531E-03  
              712.5E-03          342.978E-03        332.655E-03  
              715.E-03           344.343E-03        333.776E-03  
              717.5E-03          345.713E-03        334.894E-03  
              720.E-03           347.089E-03        336.01E-03   
              722.5E-03          348.47E-03         337.122E-03  
              725.E-03           349.859E-03        338.232E-03  
              727.5E-03          351.253E-03        339.338E-03  
              730.E-03           352.655E-03        340.441E-03  
              732.5E-03          354.064E-03        341.541E-03  
              735.E-03           355.481E-03        342.637E-03  
              737.5E-03          356.907E-03        343.729E-03  
              740.E-03           358.34E-03         344.817E-03  
              742.5E-03          359.783E-03        345.901E-03  
              745.E-03           361.236E-03        346.981E-03  
              747.5E-03          362.699E-03        348.057E-03  
              750.E-03           364.172E-03        349.128E-03  
              752.5E-03          365.657E-03        350.194E-03  
              755.E-03           367.154E-03        351.255E-03  
              757.5E-03          368.665E-03        352.311E-03  
              760.E-03           370.188E-03        353.361E-03  
              762.5E-03          371.727E-03        354.406E-03  
              765.E-03           373.281E-03        355.445E-03  
              767.5E-03          374.852E-03        356.477E-03  
              770.E-03           376.44E-03         357.503E-03  
              772.5E-03          378.047E-03        358.521E-03  
              775.E-03           379.675E-03        359.533E-03  
              777.5E-03          381.325E-03        360.537E-03  
              780.E-03           382.998E-03        361.533E-03  
              782.5E-03          384.697E-03        362.521E-03  
              785.E-03           386.423E-03        363.5E-03    
              787.5E-03          388.178E-03        364.47E-03   
              790.E-03           389.966E-03        365.431E-03  
              792.5E-03          391.787E-03        366.382E-03  
              795.E-03           393.646E-03        367.322E-03  
              797.5E-03          395.546E-03        368.251E-03  
              800.E-03           397.49E-03         369.168E-03  
              802.5E-03          399.482E-03        370.074E-03  
              805.E-03           401.526E-03        370.966E-03  
              807.5E-03          403.627E-03        371.846E-03  
              810.E-03           405.79E-03         372.711E-03  
              812.5E-03          408.021E-03        373.562E-03  
              815.E-03           410.325E-03        374.397E-03  
              817.5E-03          412.711E-03        375.217E-03  
              820.E-03           415.184E-03        376.02E-03   
              822.5E-03          417.752E-03        376.805E-03  
              825.E-03           420.423E-03        377.573E-03  
              827.5E-03          423.205E-03        378.322E-03  
              830.E-03           426.108E-03        379.052E-03  
              832.5E-03          429.138E-03        379.762E-03  
              835.E-03           432.306E-03        380.453E-03  
              837.5E-03          435.619E-03        381.123E-03  
              840.E-03           439.085E-03        381.773E-03  
              842.5E-03          442.713E-03        382.402E-03  
              845.E-03           446.509E-03        383.01E-03   
              847.5E-03          450.48E-03         383.599E-03  
              850.E-03           454.632E-03        384.167E-03  
              852.5E-03          458.972E-03        384.714E-03  
              855.E-03           463.504E-03        385.243E-03  
              857.5E-03          468.233E-03        385.752E-03  
              860.E-03           473.164E-03        386.242E-03  
              862.5E-03          478.301E-03        386.714E-03  
              865.E-03           483.648E-03        387.168E-03  
              867.5E-03          489.209E-03        387.605E-03  
              870.E-03           494.987E-03        388.025E-03  
              872.5E-03          500.985E-03        388.43E-03   
              875.E-03           507.207E-03        388.818E-03  
              877.5E-03          513.657E-03        389.192E-03  
              880.E-03           520.336E-03        389.551E-03  
              882.5E-03          527.25E-03         389.895E-03  
              885.E-03           534.399E-03        390.227E-03  
              887.5E-03          541.788E-03        390.545E-03  
              890.E-03           549.419E-03        390.851E-03  
              892.5E-03          557.296E-03        391.145E-03  
              895.E-03           565.421E-03        391.428E-03  
              897.5E-03          573.798E-03        391.699E-03  
              900.E-03           582.429E-03        391.96E-03   
              902.5E-03          591.317E-03        392.21E-03   
              905.E-03           600.464E-03        392.45E-03   
              907.5E-03          609.875E-03        392.681E-03  
              910.E-03           619.549E-03        392.903E-03  
              912.5E-03          629.492E-03        393.116E-03  
              915.E-03           639.703E-03        393.321E-03  
              917.5E-03          650.186E-03        393.518E-03  
              920.E-03           660.941E-03        393.707E-03  
              922.5E-03          671.971E-03        393.889E-03  
              925.E-03           683.276E-03        394.064E-03  
              927.5E-03          694.856E-03        394.232E-03  
              930.E-03           706.712E-03        394.394E-03  
              932.5E-03          718.843E-03        394.55E-03   
              935.E-03           731.247E-03        394.7E-03    
              937.5E-03          743.924E-03        394.845E-03  
              940.E-03           756.87E-03         394.986E-03  
              942.5E-03          770.082E-03        395.123E-03  
              945.E-03           783.554E-03        395.256E-03  
              947.5E-03          797.282E-03        395.387E-03  
              950.E-03           811.258E-03        395.514E-03  
              952.5E-03          825.474E-03        395.639E-03  
              955.E-03           839.92E-03         395.761E-03  
              957.5E-03          854.584E-03        395.88E-03   
              960.E-03           869.453E-03        395.997E-03  
              962.5E-03          884.51E-03         396.112E-03  
              965.E-03           899.738E-03        396.224E-03  
              967.5E-03          915.117E-03        396.334E-03  
              970.E-03           930.624E-03        396.441E-03  
              972.5E-03          946.232E-03        396.547E-03  
              975.E-03           961.912E-03        396.65E-03   
              977.5E-03          977.631E-03        396.752E-03  
              980.E-03           993.353E-03        396.852E-03  
              982.5E-03            1.00904          396.949E-03  
              985.E-03             1.02464          397.045E-03  
              987.5E-03            1.04011          397.139E-03  
              990.E-03             1.05539          397.232E-03  
              992.5E-03            1.07042          397.322E-03  
              995.E-03             1.08512          397.411E-03  
              997.5E-03            1.09941          397.499E-03  
                1.                 1.11319          397.584E-03  




