	Folder					            Simulation 	ExtraTrees       Convolution
NL5_-0.95_0.5_0.7_-0.7_-0.9_0._0.8		       306		   303			     276
NL5_0.9_-0.9_0.1_-0.5_0					       299		   260			     256
NL7_-0.2,0.7,0.0,-0.2,0.6,0.,0.4		       289		   256			     256