
                  X               ep1-out            ep2-out            ep3-out             ep1-in             ep2-in             ep3-in     

                0.                 0.                 0.                 0.                 0.                 0.                 0.         
                2.5E-03          385.298E-06       -244.648E-06       -140.65E-06         652.437E-06       -402.949E-06       -249.488E-06  
                5.E-03             2.02917E-03       -1.18633E-03     -842.836E-06          2.48947E-03       -1.42471E-03       -1.06476E-03
                7.5E-03            3.70989E-03       -2.08172E-03       -1.62817E-03        4.29913E-03       -2.36806E-03       -1.93107E-03
               10.E-03             5.40776E-03       -2.96163E-03       -2.44613E-03        6.08477E-03       -3.2791E-03        -2.80568E-03
               12.5E-03            7.11571E-03       -3.83395E-03       -3.28176E-03        7.85356E-03       -4.17257E-03       -3.68099E-03
               15.E-03             8.82986E-03       -4.70269E-03       -4.12717E-03        9.61092E-03       -5.05632E-03       -4.5546E-03 
               17.5E-03           10.548E-03         -5.56987E-03       -4.97817E-03       11.3605E-03        -5.93448E-03       -5.42597E-03
               20.E-03            12.269E-03         -6.43644E-03       -5.83252E-03       13.1046E-03        -6.80935E-03       -6.29529E-03
               22.5E-03           13.9919E-03        -7.30288E-03       -6.68898E-03       14.8451E-03        -7.68221E-03       -7.16292E-03
               25.E-03            15.7162E-03        -8.16938E-03       -7.54686E-03       16.5831E-03        -8.55383E-03       -8.02927E-03
               27.5E-03           17.4418E-03        -9.03605E-03       -8.40576E-03       18.3194E-03        -9.42466E-03       -8.89469E-03
               30.E-03            19.1683E-03        -9.9029E-03        -9.26542E-03       20.0544E-03       -10.295E-03         -9.75944E-03
               32.5E-03           20.8956E-03       -10.7699E-03       -10.1257E-03        21.7887E-03       -11.165E-03        -10.6237E-03 
               35.E-03            22.6236E-03       -11.6371E-03       -10.9865E-03        23.5226E-03       -12.0348E-03       -11.4878E-03 
               37.5E-03           24.3522E-03       -12.5045E-03       -11.8477E-03        25.2561E-03       -12.9045E-03       -12.3516E-03 
               40.E-03            26.0814E-03       -13.372E-03        -12.7094E-03        26.9896E-03       -13.7742E-03       -13.2154E-03 
               42.5E-03           27.811E-03        -14.2397E-03       -13.5713E-03        28.723E-03        -14.6438E-03       -14.0792E-03 
               45.E-03            29.5411E-03       -15.1075E-03       -14.4336E-03        30.4564E-03       -15.5134E-03       -14.943E-03  
               47.5E-03           31.2716E-03       -15.9754E-03       -15.2962E-03        32.1899E-03       -16.3831E-03       -15.8068E-03 
               50.E-03            33.0025E-03       -16.8434E-03       -16.1591E-03        33.9236E-03       -17.2528E-03       -16.6708E-03 
               52.5E-03           34.7337E-03       -17.7115E-03       -17.0222E-03        35.6575E-03       -18.1226E-03       -17.5349E-03 
               55.E-03            36.4653E-03       -18.5798E-03       -17.8856E-03        37.3915E-03       -18.9924E-03       -18.3991E-03 
               57.5E-03           38.1972E-03       -19.448E-03        -18.7491E-03        39.1257E-03       -19.8623E-03       -19.2635E-03 
               60.E-03            39.9293E-03       -20.3164E-03       -19.6129E-03        40.8602E-03       -20.7322E-03       -20.128E-03  
               62.5E-03           41.6617E-03       -21.1849E-03       -20.4769E-03        42.5949E-03       -21.6022E-03       -20.9926E-03 
               65.E-03            43.3944E-03       -22.0534E-03       -21.341E-03         44.3297E-03       -22.4723E-03       -21.8574E-03 
               67.5E-03           45.1273E-03       -22.922E-03        -22.2053E-03        46.0648E-03       -23.3425E-03       -22.7223E-03 
               70.E-03            46.8604E-03       -23.7906E-03       -23.0698E-03        47.8002E-03       -24.2128E-03       -23.5874E-03 
               72.5E-03           48.5937E-03       -24.6593E-03       -23.9344E-03        49.5357E-03       -25.0831E-03       -24.4526E-03 
               75.E-03            50.3273E-03       -25.5281E-03       -24.7992E-03        51.2715E-03       -25.9535E-03       -25.318E-03  
               77.5E-03           52.061E-03        -26.3969E-03       -25.6641E-03        53.0075E-03       -26.8239E-03       -26.1835E-03 
               80.E-03            53.7949E-03       -27.2657E-03       -26.5291E-03        54.7436E-03       -27.6945E-03       -27.0492E-03 
               82.5E-03           55.5289E-03       -28.1346E-03       -27.3943E-03        56.48E-03         -28.5651E-03       -27.915E-03  
               85.E-03            57.2631E-03       -29.0036E-03       -28.2596E-03        58.2166E-03       -29.4357E-03       -28.7809E-03 
               87.5E-03           58.9975E-03       -29.8726E-03       -29.1249E-03        59.9534E-03       -30.3065E-03       -29.6469E-03 
               90.E-03            60.732E-03        -30.7416E-03       -29.9904E-03        61.6904E-03       -31.1773E-03       -30.5131E-03 
               92.5E-03           62.4667E-03       -31.6107E-03       -30.856E-03         63.4276E-03       -32.0482E-03       -31.3794E-03 
               95.E-03            64.2015E-03       -32.4798E-03       -31.7217E-03        65.165E-03        -32.9191E-03       -32.2459E-03 
               97.5E-03           65.9364E-03       -33.3489E-03       -32.5875E-03        66.9025E-03       -33.7901E-03       -33.1124E-03 
              100.E-03            67.6714E-03       -34.2181E-03       -33.4534E-03        68.6403E-03       -34.6612E-03       -33.9791E-03 
              102.5E-03           69.4065E-03       -35.0872E-03       -34.3193E-03        70.3782E-03       -35.5323E-03       -34.8459E-03 
              105.E-03            71.2908E-03       -35.6894E-03       -35.6014E-03        72.2561E-03       -36.2105E-03       -36.0457E-03 
              107.5E-03           73.2583E-03       -37.3845E-03       -35.8738E-03        74.2169E-03       -37.8988E-03       -36.3181E-03 
              110.E-03            75.2255E-03       -39.2186E-03       -36.0068E-03        76.1785E-03       -39.7269E-03       -36.4516E-03 
              112.5E-03           77.1819E-03       -41.1113E-03       -36.0705E-03        78.13E-03         -41.6142E-03       -36.5158E-03 
              115.E-03            79.1307E-03       -43.0294E-03       -36.1013E-03        80.0744E-03       -43.5272E-03       -36.5472E-03 
              117.5E-03           81.0754E-03       -44.9588E-03       -36.1167E-03        82.0151E-03       -45.452E-03        -36.5631E-03 
              120.E-03            83.0183E-03       -46.8934E-03       -36.1249E-03        83.9543E-03       -47.3824E-03       -36.5719E-03 
              122.5E-03           84.9603E-03       -48.8306E-03       -36.1297E-03        85.8929E-03       -49.3156E-03       -36.5773E-03 
              125.E-03            86.9019E-03       -50.769E-03        -36.1329E-03        87.8315E-03       -51.2504E-03       -36.5811E-03 
              127.5E-03           88.8434E-03       -52.708E-03        -36.1354E-03        89.7702E-03       -53.186E-03        -36.5842E-03 
              130.E-03            90.7849E-03       -54.6474E-03       -36.1375E-03        91.7092E-03       -55.1223E-03       -36.5869E-03 
              132.5E-03           92.7265E-03       -56.587E-03        -36.1395E-03        93.6485E-03       -57.0591E-03       -36.5895E-03 
              135.E-03            94.6681E-03       -58.5268E-03       -36.1413E-03        95.5882E-03       -58.9962E-03       -36.5919E-03 
              137.5E-03           96.6098E-03       -60.4668E-03       -36.143E-03         97.5281E-03       -60.9337E-03       -36.5944E-03 
              140.E-03            98.5516E-03       -62.4068E-03       -36.1447E-03        99.4683E-03       -62.8716E-03       -36.5967E-03 
              142.5E-03          100.493E-03        -64.347E-03        -36.1464E-03       101.409E-03        -64.8097E-03       -36.5991E-03 
              145.E-03           102.435E-03        -66.2874E-03       -36.148E-03        103.35E-03         -66.7481E-03       -36.6014E-03 
              147.5E-03          104.377E-03        -68.2278E-03       -36.1496E-03       105.291E-03        -68.6868E-03       -36.6037E-03 
              150.E-03           106.319E-03        -70.1683E-03       -36.1512E-03       107.232E-03        -70.6258E-03       -36.606E-03  
              152.5E-03          108.262E-03        -72.109E-03        -36.1527E-03       109.173E-03        -72.565E-03        -36.6083E-03 
              155.E-03           110.204E-03        -74.0497E-03       -36.1542E-03       111.115E-03        -74.5045E-03       -36.6105E-03 
              157.5E-03          112.146E-03        -75.9905E-03       -36.1557E-03       113.057E-03        -76.4442E-03       -36.6128E-03 
              160.E-03           114.089E-03        -77.9314E-03       -36.1571E-03       114.999E-03        -78.3842E-03       -36.615E-03  
              162.5E-03          116.031E-03        -79.8725E-03       -36.1586E-03       116.942E-03        -80.3243E-03       -36.6172E-03 
              165.E-03           117.974E-03        -81.8136E-03       -36.16E-03         118.884E-03        -82.2647E-03       -36.6194E-03 
              167.5E-03          119.916E-03        -83.7548E-03       -36.1614E-03       120.827E-03        -84.2052E-03       -36.6216E-03 
              170.E-03           121.859E-03        -85.6961E-03       -36.1627E-03       122.77E-03         -86.146E-03        -36.6237E-03 
              172.5E-03          123.801E-03        -87.6374E-03       -36.1641E-03       124.713E-03        -88.0869E-03       -36.6259E-03 
              175.E-03           125.744E-03        -89.5788E-03       -36.1654E-03       126.656E-03        -90.0281E-03       -36.628E-03  
              177.5E-03          127.687E-03        -91.5204E-03       -36.1667E-03       128.6E-03          -91.9694E-03       -36.6301E-03 
              180.E-03           129.63E-03         -93.462E-03        -36.168E-03        130.543E-03        -93.9109E-03       -36.6323E-03 
              182.5E-03          131.573E-03        -95.4036E-03       -36.1693E-03       132.487E-03        -95.8525E-03       -36.6344E-03 
              185.E-03           133.516E-03        -97.3454E-03       -36.1705E-03       134.431E-03        -97.7943E-03       -36.6364E-03 
              187.5E-03          135.459E-03        -99.2872E-03       -36.1717E-03       136.375E-03        -99.7363E-03       -36.6385E-03 
              190.E-03           137.402E-03       -101.229E-03        -36.1729E-03       138.319E-03       -101.678E-03        -36.6406E-03 
              192.5E-03          139.345E-03       -103.171E-03        -36.1741E-03       140.263E-03       -103.621E-03        -36.6426E-03 
              195.E-03           141.288E-03       -105.113E-03        -36.1753E-03       142.208E-03       -105.563E-03        -36.6446E-03 
              197.5E-03          143.232E-03       -107.055E-03        -36.1765E-03       144.152E-03       -107.506E-03        -36.6467E-03 
              200.E-03           145.175E-03       -108.997E-03        -36.1776E-03       146.097E-03       -109.448E-03        -36.6487E-03 
              202.5E-03          147.118E-03       -110.939E-03        -36.1787E-03       148.042E-03       -111.391E-03        -36.6507E-03 
              205.E-03           149.062E-03       -112.882E-03        -36.1799E-03       149.987E-03       -113.334E-03        -36.6527E-03 
              207.5E-03          151.005E-03       -114.824E-03        -36.181E-03        151.932E-03       -115.277E-03        -36.6547E-03 
              210.E-03           152.948E-03       -116.766E-03        -36.182E-03        153.877E-03       -117.22E-03         -36.6566E-03 
              212.5E-03          154.892E-03       -118.709E-03        -36.1831E-03       155.822E-03       -119.164E-03        -36.6586E-03 
              215.E-03           156.835E-03       -120.651E-03        -36.1842E-03       157.768E-03       -121.107E-03        -36.6606E-03 
              217.5E-03          158.779E-03       -122.594E-03        -36.1852E-03       159.713E-03       -123.051E-03        -36.6625E-03 
              220.E-03           160.723E-03       -124.536E-03        -36.1862E-03       161.659E-03       -124.995E-03        -36.6644E-03 
              222.5E-03          162.666E-03       -126.479E-03        -36.1872E-03       163.605E-03       -126.938E-03        -36.6664E-03 
              225.E-03           164.61E-03        -128.422E-03        -36.1882E-03       165.551E-03       -128.882E-03        -36.6683E-03 
              227.5E-03          166.554E-03       -130.364E-03        -36.1892E-03       167.496E-03       -130.826E-03        -36.6702E-03 
              230.E-03           168.497E-03       -132.307E-03        -36.1902E-03       169.442E-03       -132.77E-03         -36.6721E-03 
              232.5E-03          170.431E-03       -134.5E-03          -35.9312E-03       171.376E-03       -134.962E-03        -36.4139E-03 
              235.E-03           172.333E-03       -136.918E-03        -35.4148E-03       173.278E-03       -137.38E-03         -35.8982E-03 
              237.5E-03          174.187E-03       -139.404E-03        -34.7827E-03       175.133E-03       -139.866E-03        -35.2665E-03 
              240.E-03           176.015E-03       -141.915E-03        -34.1002E-03       176.961E-03       -142.377E-03        -34.5844E-03 
              242.5E-03          177.831E-03       -144.435E-03        -33.3959E-03       178.777E-03       -144.896E-03        -33.8804E-03 
              245.E-03           179.64E-03        -146.958E-03        -32.682E-03        180.587E-03       -147.42E-03         -33.1668E-03 
              247.5E-03          181.448E-03       -149.484E-03        -31.9638E-03       182.394E-03       -149.945E-03        -32.449E-03  
              250.E-03           183.254E-03       -152.01E-03         -31.2439E-03       184.201E-03       -152.471E-03        -31.7294E-03 
              252.5E-03          185.059E-03       -154.536E-03        -30.523E-03        186.007E-03       -154.998E-03        -31.0088E-03 
              255.E-03           186.865E-03       -157.063E-03        -29.8019E-03       187.813E-03       -157.525E-03        -30.2879E-03 
              257.5E-03          188.67E-03        -159.59E-03         -29.0805E-03       189.619E-03       -160.052E-03        -29.5668E-03 
              260.E-03           190.475E-03       -162.116E-03        -28.359E-03        191.425E-03       -162.579E-03        -28.8456E-03 
              262.5E-03          192.281E-03       -164.643E-03        -27.6375E-03       193.231E-03       -165.106E-03        -28.1244E-03 
              265.E-03           194.086E-03       -167.17E-03         -26.916E-03        195.037E-03       -167.634E-03        -27.4031E-03 
              267.5E-03          195.892E-03       -169.697E-03        -26.1944E-03       196.843E-03       -170.161E-03        -26.6817E-03 
              270.E-03           197.697E-03       -172.224E-03        -25.4728E-03       198.649E-03       -172.689E-03        -25.9603E-03 
              272.5E-03          199.502E-03       -174.751E-03        -24.7512E-03       200.455E-03       -175.217E-03        -25.2389E-03 
              275.E-03           201.308E-03       -177.278E-03        -24.0296E-03       202.262E-03       -177.744E-03        -24.5175E-03 
              277.5E-03          203.113E-03       -179.806E-03        -23.3079E-03       204.068E-03       -180.272E-03        -23.796E-03  
              280.E-03           204.919E-03       -182.333E-03        -22.5862E-03       205.875E-03       -182.8E-03          -23.0745E-03 
              282.5E-03          206.725E-03       -184.86E-03         -21.8645E-03       207.682E-03       -185.329E-03        -22.353E-03  
              285.E-03           208.53E-03        -187.387E-03        -21.1428E-03       209.488E-03       -187.857E-03        -21.6314E-03 
              287.5E-03          210.336E-03       -189.915E-03        -20.4211E-03       211.295E-03       -190.385E-03        -20.9098E-03 
              290.E-03           212.141E-03       -192.442E-03        -19.6994E-03       213.102E-03       -192.914E-03        -20.1882E-03 
              292.5E-03          213.947E-03       -194.969E-03        -18.9776E-03       214.909E-03       -195.442E-03        -19.4666E-03 
              295.E-03           215.753E-03       -197.497E-03        -18.2558E-03       216.716E-03       -197.971E-03        -18.7449E-03 
              297.5E-03          217.558E-03       -200.024E-03        -17.534E-03        218.523E-03       -200.5E-03          -18.0232E-03 
              300.E-03           219.364E-03       -202.552E-03        -16.8122E-03       220.33E-03        -203.029E-03        -17.3015E-03 
              302.5E-03          221.17E-03        -205.08E-03         -16.0904E-03       222.137E-03       -205.558E-03        -16.5798E-03 
              305.E-03           222.976E-03       -207.607E-03        -15.3685E-03       223.945E-03       -208.087E-03        -15.858E-03  
              307.5E-03          224.781E-03       -210.135E-03        -14.6466E-03       225.752E-03       -210.616E-03        -15.1362E-03 
              310.E-03           226.587E-03       -212.663E-03        -13.9248E-03       227.559E-03       -213.145E-03        -14.4144E-03 
              312.5E-03          228.393E-03       -215.19E-03         -13.2029E-03       229.367E-03       -215.674E-03        -13.6926E-03 
              315.E-03           230.199E-03       -217.718E-03        -12.481E-03        231.174E-03       -218.204E-03        -12.9707E-03 
              317.5E-03          232.005E-03       -220.246E-03        -11.759E-03        232.982E-03       -220.733E-03        -12.2488E-03 
              320.E-03           233.811E-03       -222.774E-03        -11.0371E-03       234.789E-03       -223.263E-03        -11.5269E-03 
              322.5E-03          235.617E-03       -225.301E-03        -10.3151E-03       236.597E-03       -225.792E-03        -10.805E-03  
              325.E-03           237.422E-03       -227.829E-03         -9.59317E-03      238.405E-03       -228.322E-03        -10.0831E-03 
              327.5E-03          239.228E-03       -230.357E-03         -8.87119E-03      240.213E-03       -230.852E-03         -9.36108E-03
              330.E-03           241.034E-03       -232.885E-03         -8.1492E-03       242.021E-03       -233.382E-03         -8.63909E-03
              332.5E-03          242.84E-03        -235.413E-03         -7.4272E-03       243.829E-03       -235.911E-03         -7.91708E-03
              335.E-03           244.646E-03       -237.941E-03         -6.70518E-03      245.637E-03       -238.441E-03         -7.19504E-03
              337.5E-03          246.452E-03       -240.469E-03         -5.98315E-03      247.445E-03       -240.972E-03         -6.47299E-03
              340.E-03           248.258E-03       -242.997E-03         -5.2611E-03       249.253E-03       -243.502E-03         -5.75091E-03
              342.5E-03          250.064E-03       -245.525E-03         -4.53905E-03      251.061E-03       -246.032E-03         -5.02882E-03
              345.E-03           251.87E-03        -248.053E-03         -3.81698E-03      252.869E-03       -248.562E-03         -4.3067E-03 
              347.5E-03          253.676E-03       -250.581E-03         -3.0949E-03       254.677E-03       -251.093E-03         -3.58457E-03
              350.E-03           255.482E-03       -253.11E-03          -2.37281E-03      256.486E-03       -253.623E-03         -2.86241E-03
              352.5E-03          257.289E-03       -255.638E-03         -1.65071E-03      258.294E-03       -256.154E-03         -2.14024E-03
              355.E-03           259.095E-03       -258.166E-03       -928.595E-06        260.102E-03       -258.684E-03         -1.41805E-03
              357.5E-03          260.901E-03       -260.694E-03       -206.471E-06        261.911E-03       -261.215E-03       -695.837E-06  
              360.E-03           262.707E-03       -263.222E-03        515.663E-06        263.719E-03       -263.746E-03         26.3931E-06 
              362.5E-03          264.513E-03       -265.751E-03          1.23781E-03      265.528E-03       -266.277E-03        748.641E-06  
              365.E-03           266.319E-03       -268.279E-03          1.95996E-03      267.337E-03       -268.807E-03          1.47091E-03
              367.5E-03          268.125E-03       -270.807E-03          2.68213E-03      269.145E-03       -271.338E-03          2.19319E-03
              370.E-03           269.931E-03       -273.336E-03          3.4043E-03       270.954E-03       -273.869E-03          2.9155E-03 
              372.5E-03          271.738E-03       -275.864E-03          4.12649E-03      272.763E-03       -276.401E-03          3.63782E-03
              375.E-03           273.544E-03       -278.392E-03          4.84869E-03      274.572E-03       -278.932E-03          4.36015E-03
              377.5E-03          275.35E-03        -280.921E-03          5.57089E-03      276.38E-03        -281.463E-03          5.08251E-03
              380.E-03           277.156E-03       -283.449E-03          6.2931E-03       278.189E-03       -283.994E-03          5.80488E-03
              382.5E-03          278.962E-03       -285.978E-03          7.01533E-03      279.998E-03       -286.526E-03          6.52727E-03
              385.E-03           280.769E-03       -288.506E-03          7.73756E-03      281.807E-03       -289.057E-03          7.24968E-03
              387.5E-03          282.575E-03       -291.035E-03          8.4598E-03       283.616E-03       -291.588E-03          7.9721E-03 
              390.E-03           284.381E-03       -293.563E-03          9.18205E-03      285.425E-03       -294.12E-03           8.69454E-03
              392.5E-03          286.187E-03       -296.091E-03          9.90431E-03      287.235E-03       -296.652E-03          9.417E-03  
              395.E-03           287.993E-03       -298.62E-03          10.6266E-03       289.044E-03       -299.183E-03         10.1395E-03 
              397.5E-03          289.8E-03         -301.149E-03         11.3488E-03       290.853E-03       -301.715E-03         10.862E-03  
              400.E-03           291.606E-03       -303.677E-03         12.0711E-03       292.662E-03       -304.247E-03         11.5845E-03 
              402.5E-03          293.412E-03       -306.206E-03         12.7934E-03       294.472E-03       -306.779E-03         12.307E-03  
              405.E-03           295.218E-03       -308.734E-03         13.5157E-03       296.281E-03       -309.31E-03          13.0295E-03 
              407.5E-03          297.025E-03       -311.263E-03         14.238E-03        298.09E-03        -311.842E-03         13.7521E-03 
              410.E-03           298.831E-03       -313.791E-03         14.9603E-03       299.9E-03         -314.374E-03         14.4746E-03 
              412.5E-03          300.637E-03       -316.32E-03          15.6827E-03       301.709E-03       -316.907E-03         15.1972E-03 
              415.E-03           302.444E-03       -318.849E-03         16.405E-03        303.519E-03       -319.439E-03         15.9198E-03 
              417.5E-03          304.25E-03        -321.377E-03         17.1273E-03       305.328E-03       -321.971E-03         16.6424E-03 
              420.E-03           306.056E-03       -323.906E-03         17.8497E-03       307.138E-03       -324.503E-03         17.3651E-03 
              422.5E-03          307.863E-03       -326.435E-03         18.572E-03        308.948E-03       -327.036E-03         18.0877E-03 
              425.E-03           309.669E-03       -328.963E-03         19.2944E-03       310.758E-03       -329.568E-03         18.8104E-03 
              427.5E-03          311.475E-03       -331.492E-03         20.0167E-03       312.567E-03       -332.1E-03           19.533E-03  
              430.E-03           313.281E-03       -334.021E-03         20.7391E-03       314.377E-03       -334.633E-03         20.2557E-03 
              432.5E-03          315.088E-03       -336.549E-03         21.4615E-03       316.187E-03       -337.165E-03         20.9784E-03 
              435.E-03           316.894E-03       -339.078E-03         22.1839E-03       317.997E-03       -339.698E-03         21.7012E-03 
              437.5E-03          318.701E-03       -341.607E-03         22.9063E-03       319.807E-03       -342.231E-03         22.4239E-03 
              440.E-03           320.507E-03       -344.136E-03         23.6287E-03       321.617E-03       -344.763E-03         23.1466E-03 
              442.5E-03          322.313E-03       -346.664E-03         24.3511E-03       323.427E-03       -347.296E-03         23.8694E-03 
              445.E-03           324.12E-03        -349.193E-03         25.0735E-03       325.237E-03       -349.829E-03         24.5922E-03 
              447.5E-03          325.926E-03       -351.722E-03         25.7959E-03       327.047E-03       -352.362E-03         25.315E-03  
              450.E-03           327.732E-03       -354.251E-03         26.5183E-03       328.857E-03       -354.895E-03         26.0378E-03 
              452.5E-03          329.539E-03       -356.779E-03         27.2407E-03       330.667E-03       -357.428E-03         26.7606E-03 
              455.E-03           331.345E-03       -359.308E-03         27.9632E-03       332.478E-03       -359.961E-03         27.4834E-03 
              457.5E-03          333.151E-03       -361.837E-03         28.6856E-03       334.288E-03       -362.494E-03         28.2063E-03 
              460.E-03           334.958E-03       -364.366E-03         29.408E-03        336.098E-03       -365.027E-03         28.9291E-03 
              462.5E-03          336.764E-03       -366.895E-03         30.1305E-03       337.908E-03       -367.56E-03          29.652E-03  
              465.E-03           338.57E-03        -369.423E-03         30.8529E-03       339.719E-03       -370.094E-03         30.3749E-03 
              467.5E-03          340.377E-03       -371.952E-03         31.5754E-03       341.529E-03       -372.627E-03         31.0978E-03 
              470.E-03           342.183E-03       -374.481E-03         32.2979E-03       343.34E-03        -375.16E-03          31.8207E-03 
              472.5E-03          343.99E-03        -377.01E-03          33.0203E-03       345.15E-03        -377.694E-03         32.5436E-03 
              475.E-03           345.796E-03       -379.539E-03         33.7428E-03       346.961E-03       -380.227E-03         33.2666E-03 
              477.5E-03          347.602E-03       -382.068E-03         34.4653E-03       348.771E-03       -382.761E-03         33.9895E-03 
              480.E-03           349.409E-03       -384.596E-03         35.1878E-03       350.582E-03       -385.295E-03         34.7125E-03 
              482.5E-03          351.215E-03       -387.125E-03         35.9102E-03       352.393E-03       -387.828E-03         35.4355E-03 
              485.E-03           353.021E-03       -389.654E-03         36.6327E-03       354.203E-03       -390.362E-03         36.1585E-03 
              487.5E-03          354.828E-03       -392.183E-03         37.3552E-03       356.014E-03       -392.896E-03         36.8815E-03 
              490.E-03           356.634E-03       -394.712E-03         38.0777E-03       357.825E-03       -395.429E-03         37.6045E-03 
              492.5E-03          358.441E-03       -397.241E-03         38.8002E-03       359.636E-03       -397.963E-03         38.3275E-03 
              495.E-03           360.247E-03       -399.77E-03          39.5227E-03       361.447E-03       -400.497E-03         39.0506E-03 
              497.5E-03          362.053E-03       -402.299E-03         40.2452E-03       363.258E-03       -403.031E-03         39.7736E-03 
              500.E-03           363.86E-03        -404.827E-03         40.9678E-03       365.069E-03       -405.565E-03         40.4967E-03 
              502.5E-03          365.666E-03       -407.356E-03         41.6903E-03       366.88E-03        -408.099E-03         41.2198E-03 
              505.E-03           367.472E-03       -409.885E-03         42.4128E-03       368.691E-03       -410.633E-03         41.9429E-03 
              507.5E-03          369.279E-03       -412.414E-03         43.1353E-03       370.502E-03       -413.168E-03         42.666E-03  
              510.E-03           371.085E-03       -414.943E-03         43.8579E-03       372.313E-03       -415.702E-03         43.3891E-03 
              512.5E-03          372.892E-03       -417.472E-03         44.5804E-03       374.124E-03       -418.236E-03         44.1123E-03 
              515.E-03           374.698E-03       -420.001E-03         45.3029E-03       375.935E-03       -420.771E-03         44.8354E-03 
              517.5E-03          376.504E-03       -422.53E-03          46.0255E-03       377.746E-03       -423.305E-03         45.5586E-03 
              520.E-03           378.311E-03       -425.059E-03         46.748E-03        379.558E-03       -425.839E-03         46.2818E-03 
              522.5E-03          380.117E-03       -427.588E-03         47.4706E-03       381.369E-03       -428.374E-03         47.005E-03  
              525.E-03           381.923E-03       -430.116E-03         48.1931E-03       383.18E-03        -430.908E-03         47.7282E-03 
              527.5E-03          383.73E-03        -432.645E-03         48.9157E-03       384.992E-03       -433.443E-03         48.4514E-03 
              530.E-03           385.536E-03       -435.174E-03         49.6382E-03       386.803E-03       -435.978E-03         49.1746E-03 
              532.5E-03          387.342E-03       -437.703E-03         50.3608E-03       388.615E-03       -438.512E-03         49.8978E-03 
              535.E-03           389.149E-03       -440.232E-03         51.0833E-03       390.426E-03       -441.047E-03         50.6211E-03 
              537.5E-03          390.955E-03       -442.761E-03         51.8059E-03       392.238E-03       -443.582E-03         51.3444E-03 
              540.E-03           392.761E-03       -445.29E-03          52.5285E-03       394.049E-03       -446.117E-03         52.0676E-03 
              542.5E-03          394.568E-03       -447.819E-03         53.251E-03        395.861E-03       -448.652E-03         52.7909E-03 
              545.E-03           396.374E-03       -450.348E-03         53.9736E-03       397.673E-03       -451.187E-03         53.5142E-03 
              547.5E-03          398.18E-03        -452.877E-03         54.6962E-03       399.484E-03       -453.722E-03         54.2376E-03 
              550.E-03           399.987E-03       -455.406E-03         55.4188E-03       401.296E-03       -456.257E-03         54.9609E-03 
              552.5E-03          401.793E-03       -457.934E-03         56.1413E-03       403.108E-03       -458.792E-03         55.6842E-03 
              555.E-03           403.599E-03       -460.463E-03         56.8639E-03       404.92E-03        -461.327E-03         56.4076E-03 
              557.5E-03          405.406E-03       -462.992E-03         57.5865E-03       406.731E-03       -463.862E-03         57.131E-03  
              560.E-03           407.212E-03       -465.521E-03         58.3091E-03       408.543E-03       -466.398E-03         57.8543E-03 
              562.5E-03          409.018E-03       -468.05E-03          59.0317E-03       410.355E-03       -468.933E-03         58.5777E-03 
              565.E-03           410.825E-03       -470.579E-03         59.7543E-03       412.167E-03       -471.468E-03         59.3011E-03 
              567.5E-03          412.631E-03       -473.108E-03         60.4768E-03       413.979E-03       -474.004E-03         60.0246E-03 
              570.E-03           414.437E-03       -475.637E-03         61.1994E-03       415.791E-03       -476.539E-03         60.748E-03  
              572.5E-03          416.243E-03       -478.165E-03         61.922E-03        417.603E-03       -479.075E-03         61.4715E-03 
              575.E-03           418.05E-03        -480.694E-03         62.6446E-03       419.416E-03       -481.61E-03          62.1949E-03 
              577.5E-03          419.856E-03       -483.223E-03         63.3672E-03       421.228E-03       -484.146E-03         62.9184E-03 
              580.E-03           421.662E-03       -485.752E-03         64.0898E-03       423.04E-03        -486.682E-03         63.6419E-03 
              582.5E-03          423.469E-03       -488.281E-03         64.8124E-03       424.852E-03       -489.218E-03         64.3654E-03 
              585.E-03           425.275E-03       -490.81E-03          65.535E-03        426.665E-03       -491.753E-03         65.0889E-03 
              587.5E-03          427.081E-03       -493.339E-03         66.2576E-03       428.477E-03       -494.289E-03         65.8124E-03 
              590.E-03           428.887E-03       -495.868E-03         66.9802E-03       430.289E-03       -496.825E-03         66.5359E-03 
              592.5E-03          430.694E-03       -498.396E-03         67.7028E-03       432.102E-03       -499.361E-03         67.2595E-03 
              595.E-03           432.5E-03         -500.925E-03         68.4254E-03       433.914E-03       -501.897E-03         67.983E-03  
              597.5E-03          434.306E-03       -503.454E-03         69.148E-03        435.727E-03       -504.433E-03         68.7066E-03 
              600.E-03           436.112E-03       -505.983E-03         69.8707E-03       437.539E-03       -506.969E-03         69.4302E-03 
              602.5E-03          437.918E-03       -508.512E-03         70.5933E-03       439.352E-03       -509.506E-03         70.1538E-03 
              605.E-03           439.725E-03       -511.04E-03          71.3159E-03       441.164E-03       -512.042E-03         70.8774E-03 
              607.5E-03          441.531E-03       -513.569E-03         72.0385E-03       442.977E-03       -514.578E-03         71.601E-03  
              610.E-03           443.337E-03       -516.098E-03         72.7611E-03       444.79E-03        -517.114E-03         72.3247E-03 
              612.5E-03          445.143E-03       -518.627E-03         73.4837E-03       446.602E-03       -519.651E-03         73.0483E-03 
              615.E-03           446.949E-03       -521.156E-03         74.2063E-03       448.415E-03       -522.187E-03         73.772E-03  
              617.5E-03          448.756E-03       -523.684E-03         74.9289E-03       450.228E-03       -524.724E-03         74.4957E-03 
              620.E-03           450.562E-03       -526.213E-03         75.6516E-03       452.041E-03       -527.26E-03          75.2194E-03 
              622.5E-03          452.368E-03       -528.742E-03         76.3742E-03       453.854E-03       -529.797E-03         75.9431E-03 
              625.E-03           454.174E-03       -531.271E-03         77.0968E-03       455.667E-03       -532.334E-03         76.6668E-03 
              627.5E-03          455.98E-03        -533.799E-03         77.8194E-03       457.48E-03        -534.87E-03          77.3905E-03 
              630.E-03           457.786E-03       -536.328E-03         78.542E-03        459.293E-03       -537.407E-03         78.1142E-03 
              632.5E-03          459.592E-03       -538.857E-03         79.2646E-03       461.106E-03       -539.944E-03         78.838E-03  
              635.E-03           461.398E-03       -541.386E-03         79.9872E-03       462.919E-03       -542.481E-03         79.5618E-03 
              637.5E-03          463.205E-03       -543.914E-03         80.7099E-03       464.732E-03       -545.018E-03         80.2856E-03 
              640.E-03           465.011E-03       -546.443E-03         81.4325E-03       466.545E-03       -547.555E-03         81.0093E-03 
              642.5E-03          466.817E-03       -548.972E-03         82.1551E-03       468.359E-03       -550.092E-03         81.7332E-03 
              645.E-03           468.623E-03       -551.5E-03           82.8777E-03       470.172E-03       -552.629E-03         82.457E-03  
              647.5E-03          470.429E-03       -554.029E-03         83.6003E-03       471.985E-03       -555.166E-03         83.1808E-03 
              650.E-03           472.235E-03       -556.558E-03         84.3229E-03       473.798E-03       -557.703E-03         83.9047E-03 
              652.5E-03          474.041E-03       -559.086E-03         85.0455E-03       475.612E-03       -560.24E-03          84.6285E-03 
              655.E-03           475.847E-03       -561.615E-03         85.7682E-03       477.425E-03       -562.778E-03         85.3524E-03 
              657.5E-03          477.653E-03       -564.144E-03         86.4908E-03       479.239E-03       -565.315E-03         86.0763E-03 
              660.E-03           479.459E-03       -566.672E-03         87.2134E-03       481.052E-03       -567.852E-03         86.8002E-03 
              662.5E-03          481.265E-03       -569.201E-03         87.936E-03        482.866E-03       -570.39E-03          87.5241E-03 
              665.E-03           483.071E-03       -571.73E-03          88.6586E-03       484.679E-03       -572.927E-03         88.248E-03  
              667.5E-03          484.877E-03       -574.258E-03         89.3812E-03       486.493E-03       -575.465E-03         88.972E-03  
              670.E-03           486.683E-03       -576.787E-03         90.1038E-03       488.307E-03       -578.003E-03         89.6959E-03 
              672.5E-03          488.489E-03       -579.315E-03         90.8264E-03       490.121E-03       -580.54E-03          90.4199E-03 
              675.E-03           490.295E-03       -581.844E-03         91.549E-03        491.934E-03       -583.078E-03         91.1439E-03 
              677.5E-03          492.101E-03       -584.372E-03         92.2716E-03       493.748E-03       -585.616E-03         91.8679E-03 
              680.E-03           493.907E-03       -586.901E-03         92.9943E-03       495.562E-03       -588.154E-03         92.5919E-03 
              682.5E-03          495.713E-03       -589.43E-03          93.7169E-03       497.376E-03       -590.692E-03         93.3159E-03 
              685.E-03           497.519E-03       -591.958E-03         94.4395E-03       499.19E-03        -593.23E-03          94.04E-03   
              687.5E-03          499.325E-03       -594.487E-03         95.1621E-03       501.004E-03       -595.768E-03         94.764E-03  
              690.E-03           501.13E-03        -597.015E-03         95.8847E-03       502.818E-03       -598.306E-03         95.4881E-03 
              692.5E-03          502.936E-03       -599.544E-03         96.6073E-03       504.632E-03       -600.844E-03         96.2122E-03 
              695.E-03           504.742E-03       -602.072E-03         97.3299E-03       506.446E-03       -603.382E-03         96.9363E-03 
              697.5E-03          506.548E-03       -604.6E-03           98.0525E-03       508.26E-03        -605.921E-03         97.6604E-03 
              700.E-03           508.354E-03       -607.129E-03         98.7751E-03       510.074E-03       -608.459E-03         98.3845E-03 
              702.5E-03          510.16E-03        -609.657E-03         99.4976E-03       511.889E-03       -610.997E-03         99.1086E-03 
              705.E-03           511.965E-03       -612.186E-03        100.22E-03         513.703E-03       -613.536E-03         99.8328E-03 
              707.5E-03          513.771E-03       -614.714E-03        100.943E-03        515.517E-03       -616.074E-03        100.557E-03  
              710.E-03           515.577E-03       -617.242E-03        101.665E-03        517.332E-03       -618.613E-03        101.281E-03  
              712.5E-03          517.383E-03       -619.771E-03        102.388E-03        519.146E-03       -621.151E-03        102.005E-03  
              715.E-03           519.189E-03       -622.299E-03        103.111E-03        520.961E-03       -623.69E-03         102.73E-03   
              717.5E-03          520.994E-03       -624.828E-03        103.833E-03        522.775E-03       -626.229E-03        103.454E-03  
              720.E-03           522.8E-03         -627.356E-03        104.556E-03        524.59E-03        -628.768E-03        104.178E-03  
              722.5E-03          524.606E-03       -629.884E-03        105.278E-03        526.404E-03       -631.307E-03        104.902E-03  
              725.E-03           526.412E-03       -632.412E-03        106.001E-03        528.219E-03       -633.845E-03        105.627E-03  
              727.5E-03          528.217E-03       -634.941E-03        106.723E-03        530.034E-03       -636.384E-03        106.351E-03  
              730.E-03           530.023E-03       -637.469E-03        107.446E-03        531.848E-03       -638.923E-03        107.075E-03  
              732.5E-03          531.829E-03       -639.997E-03        108.169E-03        533.663E-03       -641.463E-03        107.799E-03  
              735.E-03           533.634E-03       -642.525E-03        108.891E-03        535.478E-03       -644.002E-03        108.524E-03  
              737.5E-03          535.44E-03        -645.054E-03        109.614E-03        537.293E-03       -646.541E-03        109.248E-03  
              740.E-03           537.245E-03       -647.582E-03        110.336E-03        539.108E-03       -649.08E-03         109.972E-03  
              742.5E-03          539.051E-03       -650.11E-03         111.059E-03        540.923E-03       -651.62E-03         110.697E-03  
              745.E-03           540.857E-03       -652.638E-03        111.781E-03        542.738E-03       -654.159E-03        111.421E-03  
              747.5E-03          542.662E-03       -655.166E-03        112.504E-03        544.553E-03       -656.698E-03        112.146E-03  
              750.E-03           544.468E-03       -657.694E-03        113.227E-03        546.368E-03       -659.238E-03        112.87E-03   
              752.5E-03          546.273E-03       -660.223E-03        113.949E-03        548.183E-03       -661.778E-03        113.594E-03  
              755.E-03           548.079E-03       -662.751E-03        114.672E-03        549.998E-03       -664.317E-03        114.319E-03  
              757.5E-03          549.885E-03       -665.279E-03        115.394E-03        551.814E-03       -666.857E-03        115.043E-03  
              760.E-03           551.69E-03        -667.807E-03        116.117E-03        553.629E-03       -669.397E-03        115.768E-03  
              762.5E-03          553.496E-03       -670.335E-03        116.839E-03        555.444E-03       -671.937E-03        116.492E-03  
              765.E-03           555.301E-03       -672.863E-03        117.562E-03        557.26E-03        -674.476E-03        117.217E-03  
              767.5E-03          557.107E-03       -675.391E-03        118.284E-03        559.075E-03       -677.016E-03        117.941E-03  
              770.E-03           558.912E-03       -677.919E-03        119.007E-03        560.89E-03        -679.556E-03        118.666E-03  
              772.5E-03          560.717E-03       -680.447E-03        119.729E-03        562.706E-03       -682.096E-03        119.391E-03  
              775.E-03           562.523E-03       -682.975E-03        120.452E-03        564.522E-03       -684.637E-03        120.115E-03  
              777.5E-03          564.328E-03       -685.503E-03        121.174E-03        566.337E-03       -687.177E-03        120.84E-03   
              780.E-03           566.134E-03       -688.03E-03         121.897E-03        568.153E-03       -689.717E-03        121.564E-03  
              782.5E-03          567.939E-03       -690.558E-03        122.619E-03        569.969E-03       -692.257E-03        122.289E-03  
              785.E-03           569.744E-03       -693.086E-03        123.342E-03        571.784E-03       -694.798E-03        123.014E-03  
              787.5E-03          571.55E-03        -695.614E-03        124.064E-03        573.6E-03         -697.338E-03        123.738E-03  
              790.E-03           573.355E-03       -698.142E-03        124.787E-03        575.416E-03       -699.879E-03        124.463E-03  
              792.5E-03          575.16E-03        -700.67E-03         125.509E-03        577.232E-03       -702.419E-03        125.188E-03  
              795.E-03           576.966E-03       -703.197E-03        126.232E-03        579.048E-03       -704.96E-03         125.912E-03  
              797.5E-03          578.771E-03       -705.725E-03        126.954E-03        580.864E-03       -707.501E-03        126.637E-03  
              800.E-03           580.576E-03       -708.253E-03        127.677E-03        582.68E-03        -710.042E-03        127.362E-03  
              802.5E-03          582.381E-03       -710.781E-03        128.399E-03        584.496E-03       -712.583E-03        128.087E-03  
              805.E-03           584.187E-03       -713.308E-03        129.122E-03        586.312E-03       -715.123E-03        128.811E-03  
              807.5E-03          585.992E-03       -715.836E-03        129.844E-03        588.128E-03       -717.664E-03        129.536E-03  
              810.E-03           587.797E-03       -718.364E-03        130.567E-03        589.945E-03       -720.206E-03        130.261E-03  
              812.5E-03          589.602E-03       -720.891E-03        131.289E-03        591.761E-03       -722.747E-03        130.986E-03  
              815.E-03           591.407E-03       -723.419E-03        132.012E-03        593.577E-03       -725.288E-03        131.711E-03  
              817.5E-03          593.212E-03       -725.946E-03        132.734E-03        595.394E-03       -727.829E-03        132.435E-03  
              820.E-03           595.018E-03       -728.474E-03        133.456E-03        597.21E-03        -730.37E-03         133.16E-03   
              822.5E-03          596.823E-03       -731.001E-03        134.179E-03        599.027E-03       -732.912E-03        133.885E-03  
              825.E-03           598.628E-03       -733.529E-03        134.901E-03        600.843E-03       -735.453E-03        134.61E-03   
              827.5E-03          600.433E-03       -736.056E-03        135.624E-03        602.66E-03        -737.995E-03        135.335E-03  
              830.E-03           602.238E-03       -738.584E-03        136.346E-03        604.476E-03       -740.536E-03        136.06E-03   
              832.5E-03          604.043E-03       -741.111E-03        137.069E-03        606.293E-03       -743.078E-03        136.785E-03  
              835.E-03           605.848E-03       -743.639E-03        137.791E-03        608.11E-03        -745.62E-03         137.51E-03   
              837.5E-03          607.653E-03       -746.166E-03        138.513E-03        609.927E-03       -748.162E-03        138.235E-03  
              840.E-03           609.458E-03       -748.693E-03        139.236E-03        611.744E-03       -750.704E-03        138.96E-03   
              842.5E-03          611.263E-03       -751.221E-03        139.958E-03        613.561E-03       -753.246E-03        139.685E-03  
              845.E-03           613.068E-03       -753.748E-03        140.681E-03        615.378E-03       -755.788E-03        140.41E-03   
              847.5E-03          614.872E-03       -756.275E-03        141.403E-03        617.195E-03       -758.33E-03         141.135E-03  
              850.E-03           616.677E-03       -758.803E-03        142.125E-03        619.012E-03       -760.872E-03        141.86E-03   
              852.5E-03          618.482E-03       -761.33E-03         142.848E-03        620.829E-03       -763.414E-03        142.585E-03  
              855.E-03           620.287E-03       -763.857E-03        143.57E-03         622.646E-03       -765.956E-03        143.311E-03  
              857.5E-03          622.092E-03       -766.384E-03        144.292E-03        624.463E-03       -768.499E-03        144.036E-03  
              860.E-03           623.897E-03       -768.911E-03        145.015E-03        626.28E-03        -771.041E-03        144.761E-03  
              862.5E-03          625.701E-03       -771.439E-03        145.737E-03        628.098E-03       -773.584E-03        145.486E-03  
              865.E-03           627.506E-03       -773.966E-03        146.459E-03        629.915E-03       -776.126E-03        146.211E-03  
              867.5E-03          629.311E-03       -776.493E-03        147.182E-03        631.733E-03       -778.669E-03        146.936E-03  
              870.E-03           631.116E-03       -779.02E-03         147.904E-03        633.55E-03        -781.212E-03        147.662E-03  
              872.5E-03          632.92E-03        -781.547E-03        148.626E-03        635.368E-03       -783.755E-03        148.387E-03  
              875.E-03           634.725E-03       -784.074E-03        149.349E-03        637.185E-03       -786.298E-03        149.112E-03  
              877.5E-03          636.53E-03        -786.601E-03        150.071E-03        639.003E-03       -788.841E-03        149.838E-03  
              880.E-03           638.334E-03       -789.128E-03        150.793E-03        640.821E-03       -791.384E-03        150.563E-03  
              882.5E-03          640.139E-03       -791.655E-03        151.516E-03        642.638E-03       -793.927E-03        151.288E-03  
              885.E-03           641.944E-03       -794.181E-03        152.238E-03        644.456E-03       -796.47E-03         152.014E-03  
              887.5E-03          643.748E-03       -796.708E-03        152.96E-03         646.274E-03       -799.013E-03        152.739E-03  
              890.E-03           645.553E-03       -799.235E-03        153.682E-03        648.092E-03       -801.557E-03        153.464E-03  
              892.5E-03          647.357E-03       -801.762E-03        154.405E-03        649.91E-03        -804.1E-03          154.19E-03   
              895.E-03           649.162E-03       -804.289E-03        155.127E-03        651.728E-03       -806.643E-03        154.915E-03  
              897.5E-03          650.966E-03       -806.815E-03        155.849E-03        653.546E-03       -809.187E-03        155.641E-03  
              900.E-03           652.771E-03       -809.342E-03        156.571E-03        655.364E-03       -811.731E-03        156.366E-03  
              902.5E-03          654.575E-03       -811.869E-03        157.294E-03        657.183E-03       -814.274E-03        157.092E-03  
              905.E-03           656.38E-03        -814.395E-03        158.016E-03        659.001E-03       -816.818E-03        157.817E-03  
              907.5E-03          658.184E-03       -816.922E-03        158.738E-03        660.819E-03       -819.362E-03        158.543E-03  
              910.E-03           659.988E-03       -819.449E-03        159.46E-03         662.638E-03       -821.906E-03        159.269E-03  
              912.5E-03          661.793E-03       -821.975E-03        160.183E-03        664.456E-03       -824.45E-03         159.994E-03  
              915.E-03           663.597E-03       -824.502E-03        160.905E-03        666.275E-03       -826.994E-03        160.72E-03   
              917.5E-03          665.401E-03       -827.028E-03        161.627E-03        668.093E-03       -829.538E-03        161.445E-03  
              920.E-03           667.206E-03       -829.555E-03        162.349E-03        669.912E-03       -832.083E-03        162.171E-03  
              922.5E-03          669.01E-03        -832.081E-03        163.071E-03        671.73E-03        -834.627E-03        162.897E-03  
              925.E-03           670.814E-03       -834.607E-03        163.793E-03        673.549E-03       -837.172E-03        163.622E-03  
              927.5E-03          672.618E-03       -837.134E-03        164.516E-03        675.368E-03       -839.716E-03        164.348E-03  
              930.E-03           674.422E-03       -839.66E-03         165.238E-03        677.187E-03       -842.261E-03        165.074E-03  
              932.5E-03          676.227E-03       -842.186E-03        165.96E-03         679.006E-03       -844.805E-03        165.8E-03    
              935.E-03           678.031E-03       -844.713E-03        166.682E-03        680.825E-03       -847.35E-03         166.526E-03  
              937.5E-03          679.835E-03       -847.239E-03        167.404E-03        682.644E-03       -849.895E-03        167.251E-03  
              940.E-03           681.639E-03       -849.765E-03        168.126E-03        684.463E-03       -852.44E-03         167.977E-03  
              942.5E-03          683.443E-03       -852.291E-03        168.848E-03        686.282E-03       -854.985E-03        168.703E-03  
              945.E-03           685.247E-03       -854.817E-03        169.571E-03        688.101E-03       -857.53E-03         169.429E-03  
              947.5E-03          687.051E-03       -857.344E-03        170.293E-03        689.92E-03        -860.075E-03        170.155E-03  
              950.E-03           688.855E-03       -859.87E-03         171.015E-03        691.74E-03        -862.621E-03        170.881E-03  
              952.5E-03          690.659E-03       -862.396E-03        171.737E-03        693.559E-03       -865.166E-03        171.607E-03  
              955.E-03           692.463E-03       -864.922E-03        172.459E-03        695.379E-03       -867.711E-03        172.333E-03  
              957.5E-03          694.267E-03       -867.448E-03        173.181E-03        697.198E-03       -870.257E-03        173.059E-03  
              960.E-03           696.071E-03       -869.974E-03        173.903E-03        699.018E-03       -872.803E-03        173.785E-03  
              962.5E-03          697.875E-03       -872.499E-03        174.625E-03        700.837E-03       -875.348E-03        174.511E-03  
              965.E-03           699.678E-03       -875.025E-03        175.347E-03        702.657E-03       -877.894E-03        175.237E-03  
              967.5E-03          701.482E-03       -877.551E-03        176.069E-03        704.477E-03       -880.44E-03         175.963E-03  
              970.E-03           703.286E-03       -880.077E-03        176.791E-03        706.297E-03       -882.986E-03        176.689E-03  
              972.5E-03          705.09E-03        -882.603E-03        177.513E-03        708.117E-03       -885.532E-03        177.415E-03  
              975.E-03           706.893E-03       -885.128E-03        178.235E-03        709.937E-03       -888.078E-03        178.142E-03  
              977.5E-03          708.697E-03       -887.654E-03        178.957E-03        711.757E-03       -890.624E-03        178.868E-03  
              980.E-03           710.501E-03       -890.18E-03         179.679E-03        713.577E-03       -893.171E-03        179.594E-03  
              982.5E-03          712.304E-03       -892.705E-03        180.401E-03        715.397E-03       -895.717E-03        180.32E-03   
              985.E-03           714.108E-03       -895.231E-03        181.123E-03        717.217E-03       -898.264E-03        181.047E-03  
              987.5E-03          715.912E-03       -897.756E-03        181.845E-03        719.037E-03       -900.81E-03         181.773E-03  
              990.E-03           717.715E-03       -900.282E-03        182.567E-03        720.858E-03       -903.357E-03        182.499E-03  
              992.5E-03          719.519E-03       -902.807E-03        183.288E-03        722.678E-03       -905.904E-03        183.226E-03  
              995.E-03           721.322E-03       -905.333E-03        184.01E-03         724.499E-03       -908.451E-03        183.952E-03  
              997.5E-03          723.126E-03       -907.858E-03        184.732E-03        726.319E-03       -910.998E-03        184.679E-03  
                1.               724.929E-03       -910.383E-03        185.454E-03        728.14E-03        -913.545E-03        185.405E-03  




