
                  X              SENER-out           SENER-in    

                0.                 0.                 0.         
                1.E-03            52.3319E+03        52.3319E+03 




