
                  X               ep1-out            ep2-out            ep3-out             ep1-in             ep2-in             ep3-in     

                0.                 0.                 0.                 0.                 0.                 0.                 0.         
                2.5E-03          927.052E-06         -1.29025E-03      363.193E-06          1.01583E-03       -1.4033E-03       387.468E-06  
                5.E-03             3.03112E-03       -4.38381E-03        1.35269E-03        3.18339E-03       -4.57491E-03        1.39153E-03
                7.5E-03            5.11813E-03       -7.50073E-03        2.3826E-03         5.31676E-03       -7.7499E-03         2.43314E-03
               10.E-03             7.20621E-03      -10.6267E-03         3.42047E-03        7.44284E-03      -10.9237E-03         3.48085E-03
               12.5E-03            9.29697E-03      -13.7589E-03         4.46193E-03        9.5654E-03       -14.0961E-03         4.53067E-03
               15.E-03            11.3904E-03       -16.896E-03          5.50552E-03       11.686E-03        -17.2674E-03         5.58143E-03
               17.5E-03           13.4863E-03       -20.0369E-03         6.55064E-03       13.8052E-03       -20.438E-03          6.63276E-03
               20.E-03            15.5842E-03       -23.1812E-03         7.59697E-03       15.9236E-03       -23.6082E-03         7.68454E-03
               22.5E-03           17.6838E-03       -26.3282E-03         8.64432E-03       18.0415E-03       -26.7782E-03         8.73671E-03
               25.E-03            19.785E-03        -29.4776E-03         9.69255E-03       20.1588E-03       -29.9481E-03         9.78923E-03
               27.5E-03           21.8875E-03       -32.6291E-03        10.7416E-03        22.276E-03        -33.118E-03         10.8421E-03 
               30.E-03            23.9912E-03       -35.7824E-03        11.7912E-03        24.3929E-03       -36.2881E-03        11.8952E-03 
               32.5E-03           26.0959E-03       -38.9374E-03        12.8415E-03        26.5097E-03       -39.4584E-03        12.9486E-03 
               35.E-03            28.2015E-03       -42.0938E-03        13.8923E-03        28.6265E-03       -42.6288E-03        14.0023E-03 
               37.5E-03           30.308E-03        -45.2516E-03        14.9436E-03        30.7433E-03       -45.7995E-03        15.0563E-03 
               40.E-03            32.4151E-03       -48.4105E-03        15.9954E-03        32.8601E-03       -48.9705E-03        16.1105E-03 
               42.5E-03           34.523E-03        -51.5705E-03        17.0475E-03        34.9769E-03       -52.1418E-03        17.1649E-03 
               45.E-03            36.6315E-03       -54.7315E-03        18.1E-03           37.0938E-03       -55.3133E-03        18.2195E-03 
               47.5E-03           38.7405E-03       -57.8934E-03        19.1529E-03        39.2108E-03       -58.4851E-03        19.2743E-03 
               50.E-03            40.8501E-03       -61.0561E-03        20.206E-03         41.3279E-03       -61.6572E-03        20.3293E-03 
               52.5E-03           42.9601E-03       -64.2196E-03        21.2595E-03        43.4451E-03       -64.8296E-03        21.3845E-03 
               55.E-03            45.0706E-03       -67.3838E-03        22.3132E-03        45.5625E-03       -68.0023E-03        22.4398E-03 
               57.5E-03           47.1814E-03       -70.5486E-03        23.3672E-03        47.6799E-03       -71.1752E-03        23.4953E-03 
               60.E-03            49.2927E-03       -73.7141E-03        24.4214E-03        49.7975E-03       -74.3485E-03        24.551E-03  
               62.5E-03           51.4043E-03       -76.8801E-03        25.4758E-03        51.9151E-03       -77.522E-03         25.6068E-03 
               65.E-03            53.5163E-03       -80.0467E-03        26.5304E-03        54.0329E-03       -80.6957E-03        26.6628E-03 
               67.5E-03           55.6285E-03       -83.2138E-03        27.5852E-03        56.1509E-03       -83.8698E-03        27.7189E-03 
               70.E-03            57.7411E-03       -86.3813E-03        28.6402E-03        58.2689E-03       -87.0441E-03        28.7752E-03 
               72.5E-03           59.8539E-03       -89.5493E-03        29.6954E-03        60.3871E-03       -90.2186E-03        29.8315E-03 
               75.E-03            61.967E-03        -92.7177E-03        30.7507E-03        62.5054E-03       -93.3934E-03        30.888E-03  
               77.5E-03           64.0803E-03       -95.8865E-03        31.8062E-03        64.6239E-03       -96.5685E-03        31.9446E-03 
               80.E-03            66.1939E-03       -99.0557E-03        32.8618E-03        66.7424E-03       -99.7438E-03        33.0014E-03 
               82.5E-03           68.3077E-03      -102.225E-03         33.9175E-03        68.8611E-03      -102.919E-03         34.0582E-03 
               85.E-03            70.4217E-03      -105.395E-03         34.9734E-03        70.9799E-03      -106.095E-03         35.1151E-03 
               87.5E-03           72.5359E-03      -108.565E-03         36.0294E-03        73.0989E-03      -109.271E-03         36.1722E-03 
               90.E-03            74.6502E-03      -111.736E-03         37.0856E-03        75.2179E-03      -112.447E-03         37.2293E-03 
               92.5E-03           76.7648E-03      -114.907E-03         38.1418E-03        77.3371E-03      -115.624E-03         38.2866E-03 
               95.E-03            78.8795E-03      -118.078E-03         39.1981E-03        79.4564E-03      -118.8E-03           39.3439E-03 
               97.5E-03           80.9944E-03      -121.249E-03         40.2546E-03        81.5758E-03      -121.977E-03         40.4014E-03 
              100.E-03            83.1094E-03      -124.421E-03         41.3111E-03        83.6953E-03      -125.154E-03         41.4589E-03 
              102.5E-03           85.2246E-03      -127.592E-03         42.3678E-03        85.8149E-03      -128.331E-03         42.5165E-03 
              105.E-03            87.3399E-03      -130.764E-03         43.4245E-03        87.9346E-03      -131.509E-03         43.5742E-03 
              107.5E-03           89.4554E-03      -133.937E-03         44.4813E-03        90.0545E-03      -134.686E-03         44.6319E-03 
              110.E-03            91.571E-03       -137.109E-03         45.5382E-03        92.1744E-03      -137.864E-03         45.6898E-03 
              112.5E-03           93.6867E-03      -140.282E-03         46.5952E-03        94.2944E-03      -141.042E-03         46.7477E-03 
              115.E-03            95.8025E-03      -143.455E-03         47.6523E-03        96.4146E-03      -144.22E-03          47.8057E-03 
              117.5E-03           97.9185E-03      -146.628E-03         48.7094E-03        98.5349E-03      -147.399E-03         48.8638E-03 
              120.E-03           100.035E-03       -149.801E-03         49.7666E-03       100.655E-03       -150.577E-03         49.922E-03  
              122.5E-03          102.151E-03       -152.975E-03         50.8239E-03       102.776E-03       -153.756E-03         50.9802E-03 
              125.E-03           104.267E-03       -156.148E-03         51.8812E-03       104.896E-03       -156.935E-03         52.0385E-03 
              127.5E-03          106.383E-03       -159.322E-03         52.9386E-03       107.017E-03       -160.114E-03         53.0969E-03 
              130.E-03           108.5E-03         -162.496E-03         53.9961E-03       109.138E-03       -163.293E-03         54.1553E-03 
              132.5E-03          110.616E-03       -165.67E-03          55.0536E-03       111.258E-03       -166.472E-03         55.2138E-03 
              135.E-03           112.733E-03       -168.844E-03         56.1112E-03       113.379E-03       -169.652E-03         56.2723E-03 
              137.5E-03          114.85E-03        -172.019E-03         57.1688E-03       115.5E-03         -172.831E-03         57.3309E-03 
              140.E-03           116.967E-03       -175.193E-03         58.2265E-03       117.622E-03       -176.011E-03         58.3896E-03 
              142.5E-03          119.083E-03       -178.368E-03         59.2842E-03       119.743E-03       -179.191E-03         59.4484E-03 
              145.E-03           121.2E-03         -181.542E-03         60.342E-03        121.864E-03       -182.371E-03         60.5071E-03 
              147.5E-03          123.318E-03       -184.717E-03         61.3998E-03       123.985E-03       -185.551E-03         61.566E-03  
              150.E-03           125.435E-03       -187.892E-03         62.4577E-03       126.107E-03       -188.732E-03         62.6249E-03 
              152.5E-03          127.552E-03       -191.067E-03         63.5157E-03       128.229E-03       -191.912E-03         63.6839E-03 
              155.E-03           129.669E-03       -194.243E-03         64.5736E-03       130.35E-03        -195.093E-03         64.7429E-03 
              157.5E-03          131.786E-03       -197.418E-03         65.6317E-03       132.472E-03       -198.274E-03         65.802E-03  
              160.E-03           133.904E-03       -200.593E-03         66.6897E-03       134.594E-03       -201.455E-03         66.8611E-03 
              162.5E-03          136.021E-03       -203.769E-03         67.7478E-03       136.716E-03       -204.636E-03         67.9203E-03 
              165.E-03           138.139E-03       -206.945E-03         68.806E-03        138.838E-03       -207.817E-03         68.9795E-03 
              167.5E-03          140.256E-03       -210.12E-03          69.8641E-03       140.96E-03        -210.998E-03         70.0388E-03 
              170.E-03           142.374E-03       -213.296E-03         70.9224E-03       143.082E-03       -214.18E-03          71.0981E-03 
              172.5E-03          144.492E-03       -216.472E-03         71.9806E-03       145.204E-03       -217.361E-03         72.1575E-03 
              175.E-03           146.609E-03       -219.648E-03         73.0389E-03       147.326E-03       -220.543E-03         73.2169E-03 
              177.5E-03          148.727E-03       -222.824E-03         74.0972E-03       149.449E-03       -223.725E-03         74.2764E-03 
              180.E-03           150.845E-03       -226.E-03            75.1556E-03       151.571E-03       -226.907E-03         75.3359E-03 
              182.5E-03          152.963E-03       -229.177E-03         76.214E-03        153.694E-03       -230.089E-03         76.3955E-03 
              185.E-03           155.081E-03       -232.353E-03         77.2724E-03       155.816E-03       -233.271E-03         77.4551E-03 
              187.5E-03          157.199E-03       -235.529E-03         78.3308E-03       157.939E-03       -236.454E-03         78.5147E-03 
              190.E-03           159.317E-03       -238.706E-03         79.3893E-03       160.062E-03       -239.636E-03         79.5744E-03 
              192.5E-03          161.435E-03       -241.883E-03         80.4478E-03       162.184E-03       -242.819E-03         80.6342E-03 
              195.E-03           163.553E-03       -245.059E-03         81.5064E-03       164.307E-03       -246.001E-03         81.694E-03  
              197.5E-03          165.671E-03       -248.236E-03         82.5649E-03       166.43E-03        -249.184E-03         82.7538E-03 
              200.E-03           167.789E-03       -251.413E-03         83.6235E-03       168.553E-03       -252.367E-03         83.8137E-03 
              202.5E-03          169.907E-03       -254.589E-03         84.6822E-03       170.676E-03       -255.55E-03          84.8736E-03 
              205.E-03           172.026E-03       -257.766E-03         85.7408E-03       172.799E-03       -258.733E-03         85.9336E-03 
              207.5E-03          174.144E-03       -260.943E-03         86.7995E-03       174.923E-03       -261.916E-03         86.9936E-03 
              210.E-03           176.262E-03       -264.12E-03          87.8582E-03       177.046E-03       -265.1E-03           88.0536E-03 
              212.5E-03          178.38E-03        -267.297E-03         88.9169E-03       179.169E-03       -268.283E-03         89.1137E-03 
              215.E-03           180.499E-03       -270.474E-03         89.9756E-03       181.293E-03       -271.467E-03         90.1738E-03 
              217.5E-03          182.617E-03       -273.652E-03         91.0344E-03       183.416E-03       -274.65E-03          91.234E-03  
              220.E-03           184.736E-03       -276.829E-03         92.0932E-03       185.54E-03        -277.834E-03         92.2942E-03 
              222.5E-03          186.854E-03       -280.006E-03         93.152E-03        187.664E-03       -281.018E-03         93.3544E-03 
              225.E-03           188.973E-03       -283.183E-03         94.2108E-03       189.787E-03       -284.202E-03         94.4147E-03 
              227.5E-03          191.091E-03       -286.361E-03         95.2696E-03       191.911E-03       -287.386E-03         95.475E-03  
              230.E-03           193.21E-03        -289.538E-03         96.3285E-03       194.035E-03       -290.57E-03          96.5353E-03 
              232.5E-03          195.328E-03       -292.716E-03         97.3874E-03       196.159E-03       -293.754E-03         97.5957E-03 
              235.E-03           197.447E-03       -295.893E-03         98.4463E-03       198.283E-03       -296.939E-03         98.6562E-03 
              237.5E-03          199.566E-03       -299.071E-03         99.5052E-03       200.407E-03       -300.123E-03         99.7166E-03 
              240.E-03           201.684E-03       -302.248E-03        100.564E-03        202.531E-03       -303.308E-03        100.777E-03  
              242.5E-03          203.803E-03       -305.426E-03        101.623E-03        204.655E-03       -306.493E-03        101.838E-03  
              245.E-03           205.922E-03       -308.604E-03        102.682E-03        206.779E-03       -309.677E-03        102.898E-03  
              247.5E-03          208.04E-03        -311.781E-03        103.741E-03        208.904E-03       -312.862E-03        103.959E-03  
              250.E-03           210.159E-03       -314.959E-03        104.8E-03          211.028E-03       -316.047E-03        105.019E-03  
              252.5E-03          212.278E-03       -318.137E-03        105.859E-03        213.152E-03       -319.232E-03        106.08E-03   
              255.E-03           214.397E-03       -321.315E-03        106.918E-03        215.277E-03       -322.418E-03        107.141E-03  
              257.5E-03          216.516E-03       -324.493E-03        107.977E-03        217.401E-03       -325.603E-03        108.202E-03  
              260.E-03           218.634E-03       -327.671E-03        109.036E-03        219.526E-03       -328.788E-03        109.262E-03  
              262.5E-03          220.753E-03       -330.849E-03        110.095E-03        221.651E-03       -331.974E-03        110.323E-03  
              265.E-03           222.762E-03       -334.106E-03        111.344E-03        223.665E-03       -335.239E-03        111.574E-03  
              267.5E-03          224.683E-03       -337.419E-03        112.736E-03        225.59E-03        -338.559E-03        112.969E-03  
              270.E-03           226.562E-03       -340.744E-03        114.182E-03        227.474E-03       -341.891E-03        114.417E-03  
              272.5E-03          228.424E-03       -344.072E-03        115.648E-03        229.34E-03        -345.227E-03        115.887E-03  
              275.E-03           230.278E-03       -347.401E-03        117.123E-03        231.199E-03       -348.563E-03        117.364E-03  
              277.5E-03          232.13E-03        -350.73E-03         118.6E-03          233.056E-03       -351.9E-03          118.845E-03  
              280.E-03           233.98E-03        -354.06E-03         120.079E-03        234.911E-03       -355.238E-03        120.327E-03  
              282.5E-03          235.831E-03       -357.39E-03         121.559E-03        236.766E-03       -358.576E-03        121.809E-03  
              285.E-03           237.681E-03       -360.719E-03        123.039E-03        238.621E-03       -361.913E-03        123.292E-03  
              287.5E-03          239.531E-03       -364.049E-03        124.519E-03        240.476E-03       -365.251E-03        124.775E-03  
              290.E-03           241.381E-03       -367.379E-03        125.998E-03        242.331E-03       -368.589E-03        126.258E-03  
              292.5E-03          243.23E-03        -370.709E-03        127.478E-03        244.186E-03       -371.927E-03        127.741E-03  
              295.E-03           245.08E-03        -374.039E-03        128.958E-03        246.041E-03       -375.265E-03        129.224E-03  
              297.5E-03          246.93E-03        -377.369E-03        130.438E-03        247.896E-03       -378.603E-03        130.708E-03  
              300.E-03           248.78E-03        -380.698E-03        131.918E-03        249.751E-03       -381.942E-03        132.191E-03  
              302.5E-03          250.63E-03        -384.028E-03        133.398E-03        251.606E-03       -385.28E-03         133.674E-03  
              305.E-03           252.48E-03        -387.358E-03        134.878E-03        253.461E-03       -388.619E-03        135.158E-03  
              307.5E-03          254.33E-03        -390.688E-03        136.358E-03        255.316E-03       -391.957E-03        136.641E-03  
              310.E-03           256.18E-03        -394.018E-03        137.838E-03        257.172E-03       -395.296E-03        138.124E-03  
              312.5E-03          258.03E-03        -397.348E-03        139.318E-03        259.027E-03       -398.635E-03        139.608E-03  
              315.E-03           259.88E-03        -400.678E-03        140.798E-03        260.883E-03       -401.974E-03        141.091E-03  
              317.5E-03          261.73E-03        -404.008E-03        142.278E-03        262.738E-03       -405.313E-03        142.575E-03  
              320.E-03           263.581E-03       -407.338E-03        143.758E-03        264.594E-03       -408.652E-03        144.059E-03  
              322.5E-03          265.431E-03       -410.669E-03        145.238E-03        266.449E-03       -411.991E-03        145.542E-03  
              325.E-03           267.281E-03       -413.999E-03        146.718E-03        268.305E-03       -415.331E-03        147.026E-03  
              327.5E-03          269.131E-03       -417.329E-03        148.198E-03        270.161E-03       -418.67E-03         148.51E-03   
              330.E-03           270.981E-03       -420.659E-03        149.678E-03        272.016E-03       -422.01E-03         149.993E-03  
              332.5E-03          272.831E-03       -423.989E-03        151.158E-03        273.872E-03       -425.349E-03        151.477E-03  
              335.E-03           274.681E-03       -427.319E-03        152.638E-03        275.728E-03       -428.689E-03        152.961E-03  
              337.5E-03          276.531E-03       -430.649E-03        154.118E-03        277.584E-03       -432.029E-03        154.445E-03  
              340.E-03           278.381E-03       -433.979E-03        155.598E-03        279.44E-03        -435.369E-03        155.929E-03  
              342.5E-03          280.231E-03       -437.31E-03         157.078E-03        281.296E-03       -438.709E-03        157.413E-03  
              345.E-03           282.081E-03       -440.64E-03         158.558E-03        283.152E-03       -442.049E-03        158.897E-03  
              347.5E-03          283.931E-03       -443.97E-03         160.039E-03        285.009E-03       -445.39E-03         160.381E-03  
              350.E-03           285.782E-03       -447.3E-03          161.519E-03        286.865E-03       -448.73E-03         161.865E-03  
              352.5E-03          287.632E-03       -450.63E-03         162.999E-03        288.721E-03       -452.07E-03         163.349E-03  
              355.E-03           289.482E-03       -453.961E-03        164.479E-03        290.577E-03       -455.411E-03        164.834E-03  
              357.5E-03          291.332E-03       -457.291E-03        165.959E-03        292.434E-03       -458.752E-03        166.318E-03  
              360.E-03           293.182E-03       -460.621E-03        167.439E-03        294.29E-03        -462.093E-03        167.802E-03  
              362.5E-03          295.032E-03       -463.951E-03        168.919E-03        296.147E-03       -465.433E-03        169.287E-03  
              365.E-03           296.882E-03       -467.282E-03        170.399E-03        298.004E-03       -468.774E-03        170.771E-03  
              367.5E-03          298.732E-03       -470.612E-03        171.879E-03        299.86E-03        -472.116E-03        172.255E-03  
              370.E-03           300.583E-03       -473.942E-03        173.36E-03         301.717E-03       -475.457E-03        173.74E-03   
              372.5E-03          302.433E-03       -477.272E-03        174.84E-03         303.574E-03       -478.798E-03        175.224E-03  
              375.E-03           304.283E-03       -480.603E-03        176.32E-03         305.431E-03       -482.139E-03        176.709E-03  
              377.5E-03          306.133E-03       -483.933E-03        177.8E-03          307.287E-03       -485.481E-03        178.194E-03  
              380.E-03           307.983E-03       -487.263E-03        179.28E-03         309.144E-03       -488.823E-03        179.678E-03  
              382.5E-03          309.833E-03       -490.593E-03        180.76E-03         311.001E-03       -492.164E-03        181.163E-03  
              385.E-03           311.683E-03       -493.924E-03        182.24E-03         312.858E-03       -495.506E-03        182.648E-03  
              387.5E-03          313.533E-03       -497.254E-03        183.72E-03         314.716E-03       -498.848E-03        184.133E-03  
              390.E-03           315.384E-03       -500.584E-03        185.201E-03        316.573E-03       -502.19E-03         185.617E-03  
              392.5E-03          317.234E-03       -503.914E-03        186.681E-03        318.43E-03        -505.532E-03        187.102E-03  
              395.E-03           319.084E-03       -507.245E-03        188.161E-03        320.287E-03       -508.875E-03        188.587E-03  
              397.5E-03          320.934E-03       -510.575E-03        189.641E-03        322.145E-03       -512.217E-03        190.072E-03  
              400.E-03           322.784E-03       -513.905E-03        191.121E-03        324.002E-03       -515.56E-03         191.557E-03  
              402.5E-03          324.634E-03       -517.235E-03        192.601E-03        325.86E-03        -518.902E-03        193.042E-03  
              405.E-03           326.484E-03       -520.566E-03        194.081E-03        327.717E-03       -522.245E-03        194.528E-03  
              407.5E-03          328.334E-03       -523.896E-03        195.561E-03        329.575E-03       -525.588E-03        196.013E-03  
              410.E-03           330.184E-03       -527.226E-03        197.042E-03        331.433E-03       -528.931E-03        197.498E-03  
              412.5E-03          332.035E-03       -530.556E-03        198.522E-03        333.29E-03        -532.274E-03        198.983E-03  
              415.E-03           333.885E-03       -533.887E-03        200.002E-03        335.148E-03       -535.617E-03        200.469E-03  
              417.5E-03          335.735E-03       -537.217E-03        201.482E-03        337.006E-03       -538.96E-03         201.954E-03  
              420.E-03           337.585E-03       -540.547E-03        202.962E-03        338.864E-03       -542.303E-03        203.439E-03  
              422.5E-03          339.435E-03       -543.877E-03        204.442E-03        340.722E-03       -545.647E-03        204.925E-03  
              425.E-03           341.285E-03       -547.207E-03        205.922E-03        342.58E-03        -548.99E-03         206.41E-03   
              427.5E-03          343.135E-03       -550.538E-03        207.402E-03        344.438E-03       -552.334E-03        207.896E-03  
              430.E-03           344.985E-03       -553.868E-03        208.883E-03        346.296E-03       -555.678E-03        209.382E-03  
              432.5E-03          346.835E-03       -557.198E-03        210.363E-03        348.155E-03       -559.022E-03        210.867E-03  
              435.E-03           348.685E-03       -560.528E-03        211.843E-03        350.013E-03       -562.366E-03        212.353E-03  
              437.5E-03          350.535E-03       -563.858E-03        213.323E-03        351.871E-03       -565.71E-03         213.839E-03  
              440.E-03           352.385E-03       -567.188E-03        214.803E-03        353.73E-03        -569.054E-03        215.325E-03  
              442.5E-03          354.235E-03       -570.519E-03        216.283E-03        355.588E-03       -572.399E-03        216.81E-03   
              445.E-03           356.085E-03       -573.849E-03        217.763E-03        357.447E-03       -575.743E-03        218.296E-03  
              447.5E-03          357.936E-03       -577.179E-03        219.243E-03        359.306E-03       -579.088E-03        219.782E-03  
              450.E-03           359.786E-03       -580.509E-03        220.723E-03        361.164E-03       -582.433E-03        221.268E-03  
              452.5E-03          361.636E-03       -583.839E-03        222.203E-03        363.023E-03       -585.777E-03        222.754E-03  
              455.E-03           363.486E-03       -587.169E-03        223.684E-03        364.882E-03       -589.122E-03        224.24E-03   
              457.5E-03          365.336E-03       -590.499E-03        225.164E-03        366.741E-03       -592.468E-03        225.727E-03  
              460.E-03           367.186E-03       -593.829E-03        226.644E-03        368.6E-03         -595.813E-03        227.213E-03  
              462.5E-03          369.035E-03       -597.159E-03        228.124E-03        370.459E-03       -599.158E-03        228.699E-03  
              465.E-03           370.885E-03       -600.489E-03        229.604E-03        372.318E-03       -602.504E-03        230.185E-03  
              467.5E-03          372.735E-03       -603.819E-03        231.084E-03        374.177E-03       -605.849E-03        231.672E-03  
              470.E-03           374.585E-03       -607.149E-03        232.564E-03        376.037E-03       -609.195E-03        233.158E-03  
              472.5E-03          376.435E-03       -610.479E-03        234.044E-03        377.896E-03       -612.541E-03        234.645E-03  
              475.E-03           378.144E-03       -612.861E-03        234.717E-03        379.616E-03       -614.937E-03        235.321E-03  
              477.5E-03          379.982E-03       -614.644E-03        234.662E-03        381.474E-03       -616.736E-03        235.263E-03  
              480.E-03           382.089E-03       -616.336E-03        234.247E-03        383.611E-03       -618.449E-03        234.838E-03  
              482.5E-03          384.267E-03       -617.898E-03        233.631E-03        385.824E-03       -620.033E-03        234.209E-03  
              485.E-03           386.462E-03       -619.368E-03        232.906E-03        388.057E-03       -621.525E-03        233.467E-03  
              487.5E-03          388.66E-03        -620.779E-03        232.119E-03        390.296E-03       -622.957E-03        232.661E-03  
              490.E-03           390.857E-03       -622.153E-03        231.296E-03        392.534E-03       -624.352E-03        231.818E-03  
              492.5E-03          393.053E-03       -623.505E-03        230.451E-03        394.772E-03       -625.725E-03        230.953E-03  
              495.E-03           395.248E-03       -624.843E-03        229.594E-03        397.008E-03       -627.084E-03        230.076E-03  
              497.5E-03          397.443E-03       -626.172E-03        228.729E-03        399.244E-03       -628.434E-03        229.19E-03   
              500.E-03           399.637E-03       -627.497E-03        227.86E-03         401.479E-03       -629.779E-03        228.3E-03    
              502.5E-03          401.831E-03       -628.818E-03        226.988E-03        403.713E-03       -631.12E-03         227.407E-03  
              505.E-03           404.024E-03       -630.138E-03        226.114E-03        405.947E-03       -632.459E-03        226.512E-03  
              507.5E-03          406.218E-03       -631.457E-03        225.238E-03        408.181E-03       -633.797E-03        225.617E-03  
              510.E-03           408.412E-03       -632.775E-03        224.363E-03        410.414E-03       -635.135E-03        224.72E-03   
              512.5E-03          410.606E-03       -634.092E-03        223.486E-03        412.647E-03       -636.471E-03        223.824E-03  
              515.E-03           412.8E-03         -635.41E-03         222.61E-03         414.879E-03       -637.807E-03        222.928E-03  
              517.5E-03          414.994E-03       -636.727E-03        221.733E-03        417.112E-03       -639.143E-03        222.031E-03  
              520.E-03           417.188E-03       -638.044E-03        220.856E-03        419.344E-03       -640.479E-03        221.135E-03  
              522.5E-03          419.382E-03       -639.361E-03        219.979E-03        421.575E-03       -641.814E-03        220.239E-03  
              525.E-03           421.576E-03       -640.679E-03        219.102E-03        423.806E-03       -643.149E-03        219.343E-03  
              527.5E-03          423.771E-03       -641.996E-03        218.225E-03        426.037E-03       -644.484E-03        218.447E-03  
              530.E-03           425.965E-03       -643.313E-03        217.348E-03        428.268E-03       -645.819E-03        217.551E-03  
              532.5E-03          428.159E-03       -644.63E-03         216.471E-03        430.499E-03       -647.154E-03        216.655E-03  
              535.E-03           430.354E-03       -645.948E-03        215.594E-03        432.729E-03       -648.488E-03        215.759E-03  
              537.5E-03          432.549E-03       -647.265E-03        214.717E-03        434.959E-03       -649.822E-03        214.864E-03  
              540.E-03           434.744E-03       -648.583E-03        213.839E-03        437.189E-03       -651.157E-03        213.968E-03  
              542.5E-03          436.939E-03       -649.9E-03          212.962E-03        439.418E-03       -652.491E-03        213.073E-03  
              545.E-03           439.133E-03       -651.218E-03        212.084E-03        441.647E-03       -653.825E-03        212.178E-03  
              547.5E-03          441.328E-03       -652.536E-03        211.207E-03        443.876E-03       -655.158E-03        211.282E-03  
              550.E-03           443.524E-03       -653.853E-03        210.33E-03         446.105E-03       -656.492E-03        210.387E-03  
              552.5E-03          445.719E-03       -655.171E-03        209.452E-03        448.333E-03       -657.826E-03        209.493E-03  
              555.E-03           447.914E-03       -656.489E-03        208.575E-03        450.561E-03       -659.159E-03        208.598E-03  
              557.5E-03          450.11E-03        -657.807E-03        207.697E-03        452.789E-03       -660.492E-03        207.703E-03  
              560.E-03           452.305E-03       -659.124E-03        206.819E-03        455.017E-03       -661.826E-03        206.809E-03  
              562.5E-03          454.501E-03       -660.442E-03        205.942E-03        457.244E-03       -663.159E-03        205.914E-03  
              565.E-03           456.696E-03       -661.76E-03         205.064E-03        459.472E-03       -664.492E-03        205.02E-03   
              567.5E-03          458.892E-03       -663.078E-03        204.186E-03        461.699E-03       -665.824E-03        204.126E-03  
              570.E-03           461.088E-03       -664.396E-03        203.309E-03        463.925E-03       -667.157E-03        203.232E-03  
              572.5E-03          463.283E-03       -665.714E-03        202.431E-03        466.152E-03       -668.49E-03         202.338E-03  
              575.E-03           465.479E-03       -667.032E-03        201.553E-03        468.378E-03       -669.822E-03        201.444E-03  
              577.5E-03          467.675E-03       -668.35E-03         200.675E-03        470.604E-03       -671.154E-03        200.55E-03   
              580.E-03           469.871E-03       -669.669E-03        199.797E-03        472.83E-03        -672.487E-03        199.656E-03  
              582.5E-03          472.068E-03       -670.987E-03        198.919E-03        475.056E-03       -673.819E-03        198.763E-03  
              585.E-03           474.264E-03       -672.305E-03        198.041E-03        477.281E-03       -675.151E-03        197.869E-03  
              587.5E-03          476.46E-03        -673.623E-03        197.163E-03        479.507E-03       -676.483E-03        196.976E-03  
              590.E-03           478.656E-03       -674.942E-03        196.285E-03        481.732E-03       -677.815E-03        196.083E-03  
              592.5E-03          480.853E-03       -676.26E-03         195.407E-03        483.957E-03       -679.146E-03        195.189E-03  
              595.E-03           483.049E-03       -677.578E-03        194.529E-03        486.181E-03       -680.478E-03        194.296E-03  
              597.5E-03          485.246E-03       -678.897E-03        193.651E-03        488.406E-03       -681.809E-03        193.403E-03  
              600.E-03           487.442E-03       -680.215E-03        192.773E-03        490.63E-03        -683.141E-03        192.51E-03   
              602.5E-03          489.639E-03       -681.534E-03        191.895E-03        492.854E-03       -684.472E-03        191.618E-03  
              605.E-03           491.836E-03       -682.852E-03        191.016E-03        495.078E-03       -685.803E-03        190.725E-03  
              607.5E-03          494.033E-03       -684.171E-03        190.138E-03        497.302E-03       -687.134E-03        189.832E-03  
              610.E-03           496.23E-03        -685.49E-03         189.26E-03         499.526E-03       -688.465E-03        188.94E-03   
              612.5E-03          498.426E-03       -686.808E-03        188.382E-03        501.749E-03       -689.796E-03        188.047E-03  
              615.E-03           500.623E-03       -688.127E-03        187.503E-03        503.972E-03       -691.127E-03        187.155E-03  
              617.5E-03          502.82E-03        -689.445E-03        186.625E-03        506.195E-03       -692.458E-03        186.263E-03  
              620.E-03           505.018E-03       -690.764E-03        185.747E-03        508.418E-03       -693.789E-03        185.37E-03   
              622.5E-03          507.215E-03       -692.083E-03        184.868E-03        510.641E-03       -695.119E-03        184.478E-03  
              625.E-03           509.412E-03       -693.402E-03        183.99E-03         512.864E-03       -696.45E-03         183.586E-03  
              627.5E-03          511.609E-03       -694.721E-03        183.111E-03        515.086E-03       -697.78E-03         182.694E-03  
              630.E-03           513.807E-03       -696.039E-03        182.233E-03        517.308E-03       -699.111E-03        181.802E-03  
              632.5E-03          516.004E-03       -697.358E-03        181.354E-03        519.53E-03        -700.441E-03        180.911E-03  
              635.E-03           518.201E-03       -698.677E-03        180.476E-03        521.752E-03       -701.771E-03        180.019E-03  
              637.5E-03          520.399E-03       -699.996E-03        179.597E-03        523.974E-03       -703.101E-03        179.127E-03  
              640.E-03           522.597E-03       -701.315E-03        178.718E-03        526.195E-03       -704.431E-03        178.236E-03  
              642.5E-03          524.794E-03       -702.634E-03        177.84E-03         528.417E-03       -705.761E-03        177.344E-03  
              645.E-03           526.992E-03       -703.953E-03        176.961E-03        530.638E-03       -707.091E-03        176.453E-03  
              647.5E-03          529.19E-03        -705.272E-03        176.082E-03        532.859E-03       -708.421E-03        175.562E-03  
              650.E-03           531.387E-03       -706.591E-03        175.204E-03        535.08E-03        -709.75E-03         174.67E-03   
              652.5E-03          533.585E-03       -707.91E-03         174.325E-03        537.301E-03       -711.08E-03         173.779E-03  
              655.E-03           535.783E-03       -709.229E-03        173.446E-03        539.521E-03       -712.41E-03         172.888E-03  
              657.5E-03          537.981E-03       -710.549E-03        172.567E-03        541.742E-03       -713.739E-03        171.997E-03  
              660.E-03           540.179E-03       -711.868E-03        171.689E-03        543.962E-03       -715.069E-03        171.106E-03  
              662.5E-03          542.377E-03       -713.187E-03        170.81E-03         546.182E-03       -716.398E-03        170.215E-03  
              665.E-03           544.575E-03       -714.506E-03        169.931E-03        548.403E-03       -717.727E-03        169.325E-03  
              667.5E-03          546.773E-03       -715.825E-03        169.052E-03        550.623E-03       -719.056E-03        168.434E-03  
              670.E-03           548.971E-03       -717.145E-03        168.173E-03        552.842E-03       -720.386E-03        167.543E-03  
              672.5E-03          551.17E-03        -718.464E-03        167.294E-03        555.062E-03       -721.715E-03        166.653E-03  
              675.E-03           553.368E-03       -719.783E-03        166.415E-03        557.282E-03       -723.044E-03        165.762E-03  
              677.5E-03          555.566E-03       -721.103E-03        165.536E-03        559.501E-03       -724.373E-03        164.872E-03  
              680.E-03           557.765E-03       -722.422E-03        164.657E-03        561.72E-03        -725.702E-03        163.981E-03  
              682.5E-03          559.963E-03       -723.741E-03        163.778E-03        563.939E-03       -727.03E-03         163.091E-03  
              685.E-03           562.161E-03       -725.061E-03        162.899E-03        566.158E-03       -728.359E-03        162.201E-03  
              687.5E-03          564.36E-03        -726.38E-03         162.02E-03         568.377E-03       -729.688E-03        161.311E-03  
              690.E-03           566.559E-03       -727.7E-03          161.141E-03        570.596E-03       -731.017E-03        160.42E-03   
              692.5E-03          568.757E-03       -729.019E-03        160.262E-03        572.815E-03       -732.345E-03        159.53E-03   
              695.E-03           570.956E-03       -730.339E-03        159.383E-03        575.033E-03       -733.674E-03        158.64E-03   
              697.5E-03          573.154E-03       -731.658E-03        158.504E-03        577.252E-03       -735.002E-03        157.75E-03   
              700.E-03           575.353E-03       -732.978E-03        157.625E-03        579.47E-03        -736.331E-03        156.861E-03  
              702.5E-03          577.552E-03       -734.297E-03        156.745E-03        581.688E-03       -737.659E-03        155.971E-03  
              705.E-03           579.751E-03       -735.617E-03        155.866E-03        583.906E-03       -738.987E-03        155.081E-03  
              707.5E-03          581.95E-03        -736.937E-03        154.987E-03        586.124E-03       -740.315E-03        154.191E-03  
              710.E-03           584.149E-03       -738.256E-03        154.108E-03        588.342E-03       -741.644E-03        153.302E-03  
              712.5E-03          586.348E-03       -739.576E-03        153.228E-03        590.56E-03        -742.972E-03        152.412E-03  
              715.E-03           588.546E-03       -740.896E-03        152.349E-03        592.777E-03       -744.3E-03          151.523E-03  
              717.5E-03          590.745E-03       -742.215E-03        151.47E-03         594.995E-03       -745.628E-03        150.633E-03  
              720.E-03           592.945E-03       -743.535E-03        150.591E-03        597.212E-03       -746.956E-03        149.744E-03  
              722.5E-03          595.144E-03       -744.855E-03        149.711E-03        599.429E-03       -748.284E-03        148.855E-03  
              725.E-03           597.343E-03       -746.175E-03        148.832E-03        601.646E-03       -749.612E-03        147.965E-03  
              727.5E-03          599.542E-03       -747.494E-03        147.952E-03        603.863E-03       -750.94E-03         147.076E-03  
              730.E-03           601.741E-03       -748.814E-03        147.073E-03        606.08E-03        -752.267E-03        146.187E-03  
              732.5E-03          603.94E-03        -750.134E-03        146.194E-03        608.297E-03       -753.595E-03        145.298E-03  
              735.E-03           606.14E-03        -751.454E-03        145.314E-03        610.514E-03       -754.923E-03        144.409E-03  
              737.5E-03          608.339E-03       -752.774E-03        144.435E-03        612.731E-03       -756.25E-03         143.52E-03   
              740.E-03           610.538E-03       -754.094E-03        143.555E-03        614.947E-03       -757.578E-03        142.631E-03  
              742.5E-03          612.738E-03       -755.413E-03        142.676E-03        617.163E-03       -758.905E-03        141.742E-03  
              745.E-03           614.937E-03       -756.733E-03        141.796E-03        619.38E-03        -760.233E-03        140.853E-03  
              747.5E-03          617.137E-03       -758.053E-03        140.917E-03        621.596E-03       -761.56E-03         139.964E-03  
              750.E-03           619.336E-03       -759.373E-03        140.037E-03        623.812E-03       -762.888E-03        139.076E-03  
              752.5E-03          621.536E-03       -760.693E-03        139.157E-03        626.028E-03       -764.215E-03        138.187E-03  
              755.E-03           623.735E-03       -762.013E-03        138.278E-03        628.244E-03       -765.542E-03        137.298E-03  
              757.5E-03          625.935E-03       -763.333E-03        137.398E-03        630.46E-03        -766.87E-03         136.41E-03   
              760.E-03           628.134E-03       -764.653E-03        136.519E-03        632.676E-03       -768.197E-03        135.521E-03  
              762.5E-03          630.334E-03       -765.973E-03        135.639E-03        634.891E-03       -769.524E-03        134.633E-03  
              765.E-03           632.534E-03       -767.293E-03        134.759E-03        637.107E-03       -770.851E-03        133.744E-03  
              767.5E-03          634.734E-03       -768.613E-03        133.88E-03         639.322E-03       -772.178E-03        132.856E-03  
              770.E-03           636.933E-03       -769.933E-03        133.E-03           641.538E-03       -773.505E-03        131.968E-03  
              772.5E-03          639.133E-03       -771.254E-03        132.12E-03         643.753E-03       -774.832E-03        131.08E-03   
              775.E-03           641.333E-03       -772.574E-03        131.241E-03        645.968E-03       -776.159E-03        130.191E-03  
              777.5E-03          643.533E-03       -773.894E-03        130.361E-03        648.183E-03       -777.486E-03        129.303E-03  
              780.E-03           645.733E-03       -775.214E-03        129.481E-03        650.398E-03       -778.813E-03        128.415E-03  
              782.5E-03          647.933E-03       -776.534E-03        128.601E-03        652.613E-03       -780.14E-03         127.527E-03  
              785.E-03           650.133E-03       -777.854E-03        127.722E-03        654.828E-03       -781.467E-03        126.639E-03  
              787.5E-03          652.333E-03       -779.174E-03        126.842E-03        657.043E-03       -782.794E-03        125.751E-03  
              790.E-03           654.533E-03       -780.495E-03        125.962E-03        659.258E-03       -784.121E-03        124.863E-03  
              792.5E-03          656.733E-03       -781.815E-03        125.082E-03        661.472E-03       -785.447E-03        123.975E-03  
              795.E-03           658.933E-03       -783.135E-03        124.202E-03        663.687E-03       -786.774E-03        123.087E-03  
              797.5E-03          661.133E-03       -784.455E-03        123.322E-03        665.901E-03       -788.101E-03        122.2E-03    
              800.E-03           663.333E-03       -785.776E-03        122.442E-03        668.115E-03       -789.427E-03        121.312E-03  
              802.5E-03          665.533E-03       -787.096E-03        121.563E-03        670.33E-03        -790.754E-03        120.424E-03  
              805.E-03           667.734E-03       -788.416E-03        120.683E-03        672.544E-03       -792.08E-03         119.536E-03  
              807.5E-03          669.934E-03       -789.737E-03        119.803E-03        674.758E-03       -793.407E-03        118.649E-03  
              810.E-03           672.134E-03       -791.057E-03        118.923E-03        676.972E-03       -794.733E-03        117.761E-03  
              812.5E-03          674.334E-03       -792.377E-03        118.043E-03        679.186E-03       -796.06E-03         116.874E-03  
              815.E-03           676.535E-03       -793.698E-03        117.163E-03        681.4E-03         -797.386E-03        115.986E-03  
              817.5E-03          678.735E-03       -795.018E-03        116.283E-03        683.614E-03       -798.713E-03        115.099E-03  
              820.E-03           680.935E-03       -796.338E-03        115.403E-03        685.828E-03       -800.039E-03        114.211E-03  
              822.5E-03          683.136E-03       -797.659E-03        114.523E-03        688.041E-03       -801.365E-03        113.324E-03  
              825.E-03           685.336E-03       -798.979E-03        113.643E-03        690.255E-03       -802.691E-03        112.437E-03  
              827.5E-03          687.537E-03       -800.299E-03        112.763E-03        692.468E-03       -804.018E-03        111.549E-03  
              830.E-03           689.737E-03       -801.62E-03         111.883E-03        694.682E-03       -805.344E-03        110.662E-03  
              832.5E-03          691.938E-03       -802.94E-03         111.003E-03        696.895E-03       -806.67E-03         109.775E-03  
              835.E-03           694.138E-03       -804.261E-03        110.123E-03        699.109E-03       -807.996E-03        108.888E-03  
              837.5E-03          696.339E-03       -805.581E-03        109.243E-03        701.322E-03       -809.322E-03        108.001E-03  
              840.E-03           698.539E-03       -806.902E-03        108.362E-03        703.535E-03       -810.648E-03        107.114E-03  
              842.5E-03          700.74E-03        -808.222E-03        107.482E-03        705.748E-03       -811.975E-03        106.226E-03  
              845.E-03           702.941E-03       -809.543E-03        106.602E-03        707.961E-03       -813.301E-03        105.339E-03  
              847.5E-03          705.141E-03       -810.863E-03        105.722E-03        710.174E-03       -814.627E-03        104.452E-03  
              850.E-03           707.342E-03       -812.184E-03        104.842E-03        712.387E-03       -815.953E-03        103.566E-03  
              852.5E-03          709.543E-03       -813.504E-03        103.962E-03        714.6E-03         -817.279E-03        102.679E-03  
              855.E-03           711.743E-03       -814.825E-03        103.082E-03        716.813E-03       -818.604E-03        101.792E-03  
              857.5E-03          713.944E-03       -816.146E-03        102.201E-03        719.025E-03       -819.93E-03         100.905E-03  
              860.E-03           716.145E-03       -817.466E-03        101.321E-03        721.238E-03       -821.256E-03        100.018E-03  
              862.5E-03          718.346E-03       -818.787E-03        100.441E-03        723.451E-03       -822.582E-03         99.1315E-03 
              865.E-03           720.547E-03       -820.107E-03         99.5607E-03       725.663E-03       -823.908E-03         98.2448E-03 
              867.5E-03          722.747E-03       -821.428E-03         98.6804E-03       727.876E-03       -825.234E-03         97.3581E-03 
              870.E-03           724.948E-03       -822.748E-03         97.8002E-03       730.088E-03       -826.559E-03         96.4714E-03 
              872.5E-03          727.149E-03       -824.069E-03         96.9199E-03       732.3E-03         -827.885E-03         95.5848E-03 
              875.E-03           729.35E-03        -825.39E-03          96.0396E-03       734.513E-03       -829.211E-03         94.6983E-03 
              877.5E-03          731.551E-03       -826.71E-03          95.1593E-03       736.725E-03       -830.537E-03         93.8117E-03 
              880.E-03           733.752E-03       -828.031E-03         94.279E-03        738.937E-03       -831.862E-03         92.9252E-03 
              882.5E-03          735.953E-03       -829.352E-03         93.3987E-03       741.149E-03       -833.188E-03         92.0388E-03 
              885.E-03           738.154E-03       -830.672E-03         92.5184E-03       743.361E-03       -834.513E-03         91.1524E-03 
              887.5E-03          740.355E-03       -831.993E-03         91.638E-03        745.573E-03       -835.839E-03         90.266E-03  
              890.E-03           742.556E-03       -833.314E-03         90.7577E-03       747.785E-03       -837.165E-03         89.3796E-03 
              892.5E-03          744.757E-03       -834.635E-03         89.8773E-03       749.997E-03       -838.49E-03          88.4933E-03 
              895.E-03           746.958E-03       -835.955E-03         88.997E-03        752.209E-03       -839.816E-03         87.607E-03  
              897.5E-03          749.159E-03       -837.276E-03         88.1166E-03       754.42E-03        -841.141E-03         86.7207E-03 
              900.E-03           751.361E-03       -838.597E-03         87.2362E-03       756.632E-03       -842.467E-03         85.8345E-03 
              902.5E-03          753.562E-03       -839.917E-03         86.3558E-03       758.844E-03       -843.792E-03         84.9483E-03 
              905.E-03           755.763E-03       -841.238E-03         85.4753E-03       761.055E-03       -845.117E-03         84.0621E-03 
              907.5E-03          757.964E-03       -842.559E-03         84.5949E-03       763.267E-03       -846.443E-03         83.176E-03  
              910.E-03           760.165E-03       -843.88E-03          83.7145E-03       765.478E-03       -847.768E-03         82.2899E-03 
              912.5E-03          762.367E-03       -845.201E-03         82.834E-03        767.69E-03        -849.094E-03         81.4038E-03 
              915.E-03           764.568E-03       -846.521E-03         81.9536E-03       769.901E-03       -850.419E-03         80.5178E-03 
              917.5E-03          766.769E-03       -847.842E-03         81.0731E-03       772.113E-03       -851.744E-03         79.6318E-03 
              920.E-03           768.97E-03        -849.163E-03         80.1926E-03       774.324E-03       -853.07E-03          78.7458E-03 
              922.5E-03          771.172E-03       -850.484E-03         79.3121E-03       776.535E-03       -854.395E-03         77.8598E-03 
              925.E-03           773.373E-03       -851.805E-03         78.4316E-03       778.746E-03       -855.72E-03          76.9739E-03 
              927.5E-03          775.575E-03       -853.126E-03         77.5511E-03       780.957E-03       -857.045E-03         76.088E-03  
              930.E-03           777.776E-03       -854.446E-03         76.6706E-03       783.169E-03       -858.371E-03         75.2022E-03 
              932.5E-03          779.977E-03       -855.767E-03         75.7901E-03       785.379E-03       -859.696E-03         74.3164E-03 
              935.E-03           782.179E-03       -857.088E-03         74.9095E-03       787.59E-03        -861.021E-03         73.4306E-03 
              937.5E-03          784.38E-03        -858.409E-03         74.029E-03        789.801E-03       -862.346E-03         72.5448E-03 
              940.E-03           786.582E-03       -859.73E-03          73.1484E-03       792.012E-03       -863.671E-03         71.6591E-03 
              942.5E-03          788.783E-03       -861.051E-03         72.2678E-03       794.223E-03       -864.996E-03         70.7733E-03 
              945.E-03           790.985E-03       -862.372E-03         71.3872E-03       796.434E-03       -866.322E-03         69.8877E-03 
              947.5E-03          793.186E-03       -863.693E-03         70.5067E-03       798.645E-03       -867.647E-03         69.002E-03  
              950.E-03           795.388E-03       -865.014E-03         69.626E-03        800.855E-03       -868.972E-03         68.1164E-03 
              952.5E-03          797.589E-03       -866.335E-03         68.7454E-03       803.066E-03       -870.297E-03         67.2308E-03 
              955.E-03           799.791E-03       -867.656E-03         67.8648E-03       805.277E-03       -871.622E-03         66.3452E-03 
              957.5E-03          801.992E-03       -868.977E-03         66.9842E-03       807.487E-03       -872.947E-03         65.4597E-03 
              960.E-03           804.194E-03       -870.297E-03         66.1035E-03       809.698E-03       -874.272E-03         64.5742E-03 
              962.5E-03          806.396E-03       -871.618E-03         65.2229E-03       811.908E-03       -875.597E-03         63.6887E-03 
              965.E-03           808.597E-03       -872.939E-03         64.3422E-03       814.119E-03       -876.922E-03         62.8032E-03 
              967.5E-03          810.799E-03       -874.26E-03          63.4616E-03       816.329E-03       -878.247E-03         61.9178E-03 
              970.E-03           813.001E-03       -875.581E-03         62.5809E-03       818.539E-03       -879.572E-03         61.0324E-03 
              972.5E-03          815.202E-03       -876.902E-03         61.7002E-03       820.75E-03        -880.896E-03         60.147E-03  
              975.E-03           817.404E-03       -878.223E-03         60.8195E-03       822.96E-03        -882.221E-03         59.2617E-03 
              977.5E-03          819.606E-03       -879.544E-03         59.9388E-03       825.17E-03        -883.546E-03         58.3763E-03 
              980.E-03           821.807E-03       -880.866E-03         59.0581E-03       827.38E-03        -884.871E-03         57.491E-03  
              982.5E-03          824.009E-03       -882.187E-03         58.1774E-03       829.59E-03        -886.196E-03         56.6057E-03 
              985.E-03           826.211E-03       -883.508E-03         57.2967E-03       831.8E-03         -887.521E-03         55.7205E-03 
              987.5E-03          828.413E-03       -884.829E-03         56.4159E-03       834.01E-03        -888.846E-03         54.8353E-03 
              990.E-03           830.615E-03       -886.15E-03          55.5352E-03       836.22E-03        -890.17E-03          53.9501E-03 
              992.5E-03          832.816E-03       -887.471E-03         54.6544E-03       838.43E-03        -891.495E-03         53.0649E-03 
              995.E-03           835.018E-03       -888.792E-03         53.7737E-03       840.64E-03        -892.82E-03          52.1797E-03 
              997.5E-03          837.22E-03        -890.113E-03         52.8929E-03       842.85E-03        -894.145E-03         51.2946E-03 
                1.               839.422E-03       -891.434E-03         52.0121E-03       845.06E-03        -895.469E-03         50.4095E-03 




