
                  X              SENER-out           SENER-in    

                0.                 0.                 0.         
                2.5E-03          264.645E+03        260.513E+03  
                5.E-03           282.704E+03        279.6E+03    
                7.5E-03          298.925E+03        296.477E+03  
               10.E-03           313.915E+03        311.946E+03  
               12.5E-03          327.915E+03        326.31E+03   
               15.E-03           341.089E+03        339.766E+03  
               17.5E-03          353.555E+03        352.457E+03  
               20.E-03           365.407E+03        364.491E+03  
               22.5E-03          376.719E+03        375.953E+03  
               25.E-03           387.551E+03        386.911E+03  
               27.5E-03          397.955E+03        397.42E+03   
               30.E-03           407.972E+03        407.527E+03  
               32.5E-03          417.638E+03        417.271E+03  
               35.E-03           426.985E+03        426.685E+03  
               37.5E-03          436.038E+03        435.797E+03  
               40.E-03           444.821E+03        444.633E+03  
               42.5E-03          453.354E+03        453.212E+03  
               45.E-03           461.655E+03        461.555E+03  
               47.5E-03          469.741E+03        469.678E+03  
               50.E-03           477.626E+03        477.596E+03  
               52.5E-03          485.321E+03        485.323E+03  
               55.E-03           492.84E+03         492.869E+03  
               57.5E-03          480.853E+03        480.798E+03  
               60.E-03           426.537E+03        427.372E+03  
               62.5E-03          397.593E+03        397.976E+03  
               65.E-03           384.639E+03        384.97E+03   
               67.5E-03          379.564E+03        379.829E+03  
               70.E-03           378.368E+03        378.606E+03  
               72.5E-03          379.148E+03        379.371E+03  
               75.E-03           380.956E+03        381.171E+03  
               77.5E-03          383.302E+03        383.514E+03  
               80.E-03           385.927E+03        386.138E+03  
               82.5E-03          388.69E+03         388.902E+03  
               85.E-03           391.516E+03        391.729E+03  
               87.5E-03          394.362E+03        394.577E+03  
               90.E-03           397.206E+03        397.424E+03  
               92.5E-03          400.036E+03        400.256E+03  
               95.E-03           402.846E+03        403.068E+03  
               97.5E-03          405.631E+03        405.856E+03  
              100.E-03           408.391E+03        408.619E+03  
              102.5E-03          478.362E+03        479.001E+03  
              105.E-03           556.138E+03        556.589E+03  
              107.5E-03          578.621E+03        579.133E+03  
              110.E-03           588.253E+03        588.775E+03  
              112.5E-03          595.017E+03        595.544E+03  
              115.E-03           600.953E+03        601.483E+03  
              117.5E-03          606.576E+03        607.11E+03   
              120.E-03           612.044E+03        612.581E+03  
              122.5E-03          617.411E+03        617.951E+03  
              125.E-03           622.698E+03        623.243E+03  
              127.5E-03          627.916E+03        628.464E+03  
              130.E-03           633.069E+03        633.62E+03   
              132.5E-03          638.159E+03        638.713E+03  
              135.E-03           643.188E+03        643.746E+03  
              137.5E-03          648.16E+03         648.721E+03  
              140.E-03           653.076E+03        653.64E+03   
              142.5E-03          657.936E+03        658.504E+03  
              145.E-03           662.744E+03        663.315E+03  
              147.5E-03          667.5E+03          668.074E+03  
              150.E-03           672.206E+03        672.784E+03  
              152.5E-03          676.864E+03        677.445E+03  
              155.E-03           681.473E+03        682.058E+03  
              157.5E-03          686.037E+03        686.625E+03  
              160.E-03           690.556E+03        691.147E+03  
              162.5E-03          695.031E+03        695.626E+03  
              165.E-03           699.464E+03        700.062E+03  
              167.5E-03          703.854E+03        704.456E+03  
              170.E-03           708.205E+03        708.81E+03   
              172.5E-03          712.515E+03        713.124E+03  
              175.E-03           716.787E+03        717.4E+03    
              177.5E-03          721.022E+03        721.638E+03  
              180.E-03           725.219E+03        725.839E+03  
              182.5E-03          729.381E+03        730.004E+03  
              185.E-03           733.507E+03        734.134E+03  
              187.5E-03          737.599E+03        738.229E+03  
              190.E-03           741.657E+03        742.291E+03  
              192.5E-03          745.682E+03        746.32E+03   
              195.E-03           749.675E+03        750.317E+03  
              197.5E-03          753.637E+03        754.282E+03  
              200.E-03           757.567E+03        758.216E+03  
              202.5E-03          761.467E+03        762.12E+03   
              205.E-03           765.338E+03        765.995E+03  
              207.5E-03          769.179E+03        769.84E+03   
              210.E-03           772.992E+03        773.657E+03  
              212.5E-03          776.777E+03        777.447E+03  
              215.E-03           780.535E+03        781.208E+03  
              217.5E-03          784.266E+03        784.943E+03  
              220.E-03           787.97E+03         788.652E+03  
              222.5E-03          791.649E+03        792.335E+03  
              225.E-03           795.302E+03        795.992E+03  
              227.5E-03          798.93E+03         799.624E+03  
              230.E-03           802.534E+03        803.232E+03  
              232.5E-03          806.113E+03        806.816E+03  
              235.E-03           809.669E+03        810.377E+03  
              237.5E-03          813.202E+03        813.914E+03  
              240.E-03           816.712E+03        817.429E+03  
              242.5E-03          820.2E+03          820.921E+03  
              245.E-03           823.665E+03        824.391E+03  
              247.5E-03          827.109E+03        827.839E+03  
              250.E-03           830.531E+03        831.266E+03  
              252.5E-03          833.933E+03        834.672E+03  
              255.E-03           837.313E+03        838.058E+03  
              257.5E-03          840.674E+03        841.423E+03  
              260.E-03           844.014E+03        844.768E+03  
              262.5E-03          847.335E+03        848.094E+03  
              265.E-03           850.636E+03        851.4E+03    
              267.5E-03          853.919E+03        854.688E+03  
              270.E-03           857.182E+03        857.956E+03  
              272.5E-03          860.427E+03        861.206E+03  
              275.E-03           863.654E+03        864.438E+03  
              277.5E-03          866.862E+03        867.652E+03  
              280.E-03           870.054E+03        870.849E+03  
              282.5E-03          873.227E+03        874.028E+03  
              285.E-03           876.384E+03        877.189E+03  
              287.5E-03          879.523E+03        880.334E+03  
              290.E-03           882.646E+03        883.463E+03  
              292.5E-03          885.752E+03        886.575E+03  
              295.E-03           888.842E+03        889.67E+03   
              297.5E-03          891.917E+03        892.75E+03   
              300.E-03           894.975E+03        895.814E+03  
              302.5E-03          898.017E+03        898.862E+03  
              305.E-03           901.045E+03        901.896E+03  
              307.5E-03          904.057E+03        904.914E+03  
              310.E-03           907.054E+03        907.917E+03  
              312.5E-03          910.036E+03        910.905E+03  
              315.E-03           913.004E+03        913.879E+03  
              317.5E-03          915.958E+03        916.838E+03  
              320.E-03           918.897E+03        919.784E+03  
              322.5E-03          921.822E+03        922.715E+03  
              325.E-03           924.733E+03        925.633E+03  
              327.5E-03          927.631E+03        928.537E+03  
              330.E-03           930.515E+03        931.427E+03  
              332.5E-03          933.386E+03        934.305E+03  
              335.E-03           936.243E+03        937.169E+03  
              337.5E-03          939.088E+03        940.02E+03   
              340.E-03           941.919E+03        942.858E+03  
              342.5E-03          944.738E+03        945.684E+03  
              345.E-03           947.545E+03        948.497E+03  
              347.5E-03          950.339E+03        951.298E+03  
              350.E-03           953.12E+03         954.086E+03  
              352.5E-03          955.89E+03         956.863E+03  
              355.E-03           958.648E+03        959.628E+03  
              357.5E-03          961.393E+03        962.38E+03   
              360.E-03           964.127E+03        965.122E+03  
              362.5E-03          966.85E+03         967.851E+03  
              365.E-03           969.561E+03        970.57E+03   
              367.5E-03          972.26E+03         973.277E+03  
              370.E-03           974.949E+03        975.972E+03  
              372.5E-03          977.626E+03        978.657E+03  
              375.E-03           980.292E+03        981.331E+03  
              377.5E-03          982.948E+03        983.994E+03  
              380.E-03           985.593E+03        986.647E+03  
              382.5E-03          988.227E+03        989.289E+03  
              385.E-03           990.85E+03         991.92E+03   
              387.5E-03          993.464E+03        994.542E+03  
              390.E-03           996.067E+03        997.153E+03  
              392.5E-03          998.659E+03        999.754E+03  
              395.E-03             1.00124E+06        1.00234E+06
              397.5E-03            1.00381E+06        1.00493E+06
              400.E-03             1.00638E+06        1.0075E+06 
              402.5E-03            1.00893E+06        1.01006E+06
              405.E-03             1.01147E+06        1.01261E+06
              407.5E-03            1.01401E+06        1.01515E+06
              410.E-03             1.01653E+06        1.01769E+06
              412.5E-03            1.01905E+06        1.02021E+06
              415.E-03             1.02155E+06        1.02272E+06
              417.5E-03            1.02405E+06        1.02523E+06
              420.E-03             1.02654E+06        1.02773E+06
              422.5E-03            1.02901E+06        1.03021E+06
              425.E-03             1.03148E+06        1.03269E+06
              427.5E-03            1.03394E+06        1.03516E+06
              430.E-03             1.0364E+06         1.03762E+06
              432.5E-03            1.03884E+06        1.04007E+06
              435.E-03             1.04127E+06        1.04252E+06
              437.5E-03            1.0437E+06         1.04495E+06
              440.E-03             1.04612E+06        1.04738E+06
              442.5E-03            1.04853E+06        1.0498E+06 
              445.E-03             1.05093E+06        1.05221E+06
              447.5E-03            1.05332E+06        1.05461E+06
              450.E-03             1.0557E+06         1.05701E+06
              452.5E-03            1.05808E+06        1.05939E+06
              455.E-03             1.06045E+06        1.06177E+06
              457.5E-03            1.06281E+06        1.06414E+06
              460.E-03             1.06516E+06        1.06651E+06
              462.5E-03            1.06751E+06        1.06886E+06
              465.E-03             1.06984E+06        1.07121E+06
              467.5E-03            1.07217E+06        1.07355E+06
              470.E-03             1.07449E+06        1.07588E+06
              472.5E-03            1.07681E+06        1.07821E+06
              475.E-03             1.07911E+06        1.08052E+06
              477.5E-03            1.08141E+06        1.08283E+06
              480.E-03             1.08371E+06        1.08514E+06
              482.5E-03            1.08599E+06        1.08743E+06
              485.E-03             1.08827E+06        1.08972E+06
              487.5E-03            1.09054E+06        1.092E+06  
              490.E-03             1.0928E+06         1.09428E+06
              492.5E-03            1.09506E+06        1.09655E+06
              495.E-03             1.09731E+06        1.09881E+06
              497.5E-03            1.09955E+06        1.10106E+06
              500.E-03             1.10178E+06        1.10331E+06
              502.5E-03            1.10401E+06        1.10555E+06
              505.E-03             1.10623E+06        1.10778E+06
              507.5E-03            1.10845E+06        1.11001E+06
              510.E-03             1.11066E+06        1.11223E+06
              512.5E-03            1.11286E+06        1.11444E+06
              515.E-03             1.11505E+06        1.11665E+06
              517.5E-03            1.11724E+06        1.11885E+06
              520.E-03             1.11942E+06        1.12105E+06
              522.5E-03            1.1216E+06         1.12324E+06
              525.E-03             1.12377E+06        1.12542E+06
              527.5E-03            1.12593E+06        1.1276E+06 
              530.E-03             1.12809E+06        1.12977E+06
              532.5E-03            1.13024E+06        1.13193E+06
              535.E-03             1.13238E+06        1.13409E+06
              537.5E-03            1.13452E+06        1.13624E+06
              540.E-03             1.13666E+06        1.13839E+06
              542.5E-03            1.13878E+06        1.14053E+06
              545.E-03             1.1409E+06         1.14266E+06
              547.5E-03            1.14302E+06        1.14479E+06
              550.E-03             1.14512E+06        1.14691E+06
              552.5E-03            1.14723E+06        1.14903E+06
              555.E-03             1.14932E+06        1.15114E+06
              557.5E-03            1.15141E+06        1.15325E+06
              560.E-03             1.1535E+06         1.15535E+06
              562.5E-03            1.15558E+06        1.15744E+06
              565.E-03             1.15765E+06        1.15953E+06
              567.5E-03            1.15972E+06        1.16162E+06
              570.E-03             1.16178E+06        1.1637E+06 
              572.5E-03            1.16384E+06        1.16577E+06
              575.E-03             1.16589E+06        1.16784E+06
              577.5E-03            1.16794E+06        1.1699E+06 
              580.E-03             1.16998E+06        1.17196E+06
              582.5E-03            1.17201E+06        1.17401E+06
              585.E-03             1.17404E+06        1.17605E+06
              587.5E-03            1.17607E+06        1.1781E+06 
              590.E-03             1.17809E+06        1.18013E+06
              592.5E-03            1.1801E+06         1.18216E+06
              595.E-03             1.18211E+06        1.18419E+06
              597.5E-03            1.18412E+06        1.18621E+06
              600.E-03             1.18611E+06        1.18823E+06
              602.5E-03            1.18811E+06        1.19024E+06
              605.E-03             1.1901E+06         1.19224E+06
              607.5E-03            1.19208E+06        1.19424E+06
              610.E-03             1.19406E+06        1.19624E+06
              612.5E-03            1.19603E+06        1.19823E+06
              615.E-03             1.198E+06          1.20022E+06
              617.5E-03            1.19996E+06        1.2022E+06 
              620.E-03             1.20192E+06        1.20418E+06
              622.5E-03            1.20388E+06        1.20615E+06
              625.E-03             1.20583E+06        1.20812E+06
              627.5E-03            1.20777E+06        1.21009E+06
              630.E-03             1.20971E+06        1.21204E+06
              632.5E-03            1.21164E+06        1.214E+06  
              635.E-03             1.21357E+06        1.21595E+06
              637.5E-03            1.2155E+06         1.21789E+06
              640.E-03             1.21742E+06        1.21984E+06
              642.5E-03            1.21934E+06        1.22177E+06
              645.E-03             1.22125E+06        1.2237E+06 
              647.5E-03            1.22315E+06        1.22563E+06
              650.E-03             1.22506E+06        1.22756E+06
              652.5E-03            1.22696E+06        1.22948E+06
              655.E-03             1.22885E+06        1.23139E+06
              657.5E-03            1.23074E+06        1.2333E+06 
              660.E-03             1.23262E+06        1.23521E+06
              662.5E-03            1.2345E+06         1.23711E+06
              665.E-03             1.23638E+06        1.23901E+06
              667.5E-03            1.23825E+06        1.2409E+06 
              670.E-03             1.24012E+06        1.24279E+06
              672.5E-03            1.24198E+06        1.24468E+06
              675.E-03             1.24384E+06        1.24656E+06
              677.5E-03            1.24569E+06        1.24844E+06
              680.E-03             1.24754E+06        1.25031E+06
              682.5E-03            1.24939E+06        1.25218E+06
              685.E-03             1.25123E+06        1.25405E+06
              687.5E-03            1.25307E+06        1.25591E+06
              690.E-03             1.2549E+06         1.25777E+06
              692.5E-03            1.25673E+06        1.25962E+06
              695.E-03             1.25856E+06        1.26147E+06
              697.5E-03            1.26038E+06        1.26332E+06
              700.E-03             1.2622E+06         1.26516E+06
              702.5E-03            1.26401E+06        1.267E+06  
              705.E-03             1.26582E+06        1.26884E+06
              707.5E-03            1.26762E+06        1.27067E+06
              710.E-03             1.26943E+06        1.2725E+06 
              712.5E-03            1.27122E+06        1.27432E+06
              715.E-03             1.27302E+06        1.27614E+06
              717.5E-03            1.27481E+06        1.27796E+06
              720.E-03             1.27659E+06        1.27977E+06
              722.5E-03            1.27837E+06        1.28158E+06
              725.E-03             1.28015E+06        1.28338E+06
              727.5E-03            1.28193E+06        1.28519E+06
              730.E-03             1.2837E+06         1.28699E+06
              732.5E-03            1.28546E+06        1.28878E+06
              735.E-03             1.28723E+06        1.29057E+06
              737.5E-03            1.28898E+06        1.29236E+06
              740.E-03             1.29074E+06        1.29415E+06
              742.5E-03            1.29249E+06        1.29593E+06
              745.E-03             1.29424E+06        1.29771E+06
              747.5E-03            1.29598E+06        1.29948E+06
              750.E-03             1.29773E+06        1.30125E+06
              752.5E-03            1.29946E+06        1.30302E+06
              755.E-03             1.3012E+06         1.30479E+06
              757.5E-03            1.30293E+06        1.30655E+06
              760.E-03             1.30465E+06        1.30831E+06
              762.5E-03            1.30638E+06        1.31006E+06
              765.E-03             1.3081E+06         1.31181E+06
              767.5E-03            1.30981E+06        1.31356E+06
              770.E-03             1.31152E+06        1.31531E+06
              772.5E-03            1.31323E+06        1.31705E+06
              775.E-03             1.31494E+06        1.31879E+06
              777.5E-03            1.31664E+06        1.32052E+06
              780.E-03             1.31834E+06        1.32225E+06
              782.5E-03            1.32003E+06        1.32398E+06
              785.E-03             1.32173E+06        1.32571E+06
              787.5E-03            1.32341E+06        1.32743E+06
              790.E-03             1.3251E+06         1.32915E+06
              792.5E-03            1.32678E+06        1.33087E+06
              795.E-03             1.32846E+06        1.33259E+06
              797.5E-03            1.33013E+06        1.3343E+06 
              800.E-03             1.33181E+06        1.33601E+06
              802.5E-03            1.33347E+06        1.33771E+06
              805.E-03             1.33514E+06        1.33941E+06
              807.5E-03            1.3368E+06         1.34111E+06
              810.E-03             1.33846E+06        1.34281E+06
              812.5E-03            1.34012E+06        1.3445E+06 
              815.E-03             1.34177E+06        1.34619E+06
              817.5E-03            1.34342E+06        1.34788E+06
              820.E-03             1.34506E+06        1.34957E+06
              822.5E-03            1.34671E+06        1.35125E+06
              825.E-03             1.34835E+06        1.35293E+06
              827.5E-03            1.34998E+06        1.3546E+06 
              830.E-03             1.35162E+06        1.35628E+06
              832.5E-03            1.35325E+06        1.35795E+06
              835.E-03             1.35487E+06        1.35962E+06
              837.5E-03            1.3565E+06         1.36128E+06
              840.E-03             1.35812E+06        1.36294E+06
              842.5E-03            1.35973E+06        1.3646E+06 
              845.E-03             1.36135E+06        1.36626E+06
              847.5E-03            1.36296E+06        1.36792E+06
              850.E-03             1.36457E+06        1.36957E+06
              852.5E-03            1.36618E+06        1.37122E+06
              855.E-03             1.36778E+06        1.37286E+06
              857.5E-03            1.36938E+06        1.37451E+06
              860.E-03             1.37097E+06        1.37615E+06
              862.5E-03            1.37257E+06        1.37779E+06
              865.E-03             1.37416E+06        1.37943E+06
              867.5E-03            1.37575E+06        1.38106E+06
              870.E-03             1.37733E+06        1.38269E+06
              872.5E-03            1.37891E+06        1.38432E+06
              875.E-03             1.38049E+06        1.38594E+06
              877.5E-03            1.38207E+06        1.38757E+06
              880.E-03             1.38364E+06        1.38919E+06
              882.5E-03            1.38521E+06        1.39081E+06
              885.E-03             1.38678E+06        1.39242E+06
              887.5E-03            1.38834E+06        1.39404E+06
              890.E-03             1.3899E+06         1.39565E+06
              892.5E-03            1.39146E+06        1.39726E+06
              895.E-03             1.39302E+06        1.39886E+06
              897.5E-03            1.39457E+06        1.40047E+06
              900.E-03             1.39612E+06        1.40207E+06
              902.5E-03            1.39767E+06        1.40367E+06
              905.E-03             1.39922E+06        1.40526E+06
              907.5E-03            1.40076E+06        1.40686E+06
              910.E-03             1.4023E+06         1.40845E+06
              912.5E-03            1.40383E+06        1.41004E+06
              915.E-03             1.40537E+06        1.41162E+06
              917.5E-03            1.4069E+06         1.41321E+06
              920.E-03             1.40843E+06        1.41479E+06
              922.5E-03            1.40995E+06        1.41637E+06
              925.E-03             1.41147E+06        1.41795E+06
              927.5E-03            1.41299E+06        1.41952E+06
              930.E-03             1.41451E+06        1.4211E+06 
              932.5E-03            1.41603E+06        1.42267E+06
              935.E-03             1.41754E+06        1.42424E+06
              937.5E-03            1.41905E+06        1.4258E+06 
              940.E-03             1.42055E+06        1.42737E+06
              942.5E-03            1.42206E+06        1.42893E+06
              945.E-03             1.42356E+06        1.43049E+06
              947.5E-03            1.42506E+06        1.43204E+06
              950.E-03             1.42655E+06        1.4336E+06 
              952.5E-03            1.42805E+06        1.43515E+06
              955.E-03             1.42954E+06        1.4367E+06 
              957.5E-03            1.43102E+06        1.43825E+06
              960.E-03             1.43251E+06        1.43979E+06
              962.5E-03            1.43399E+06        1.44134E+06
              965.E-03             1.43547E+06        1.44288E+06
              967.5E-03            1.43695E+06        1.44442E+06
              970.E-03             1.43843E+06        1.44595E+06
              972.5E-03            1.4399E+06         1.44749E+06
              975.E-03             1.44137E+06        1.44902E+06
              977.5E-03            1.44283E+06        1.45055E+06
              980.E-03             1.4443E+06         1.45208E+06
              982.5E-03            1.44576E+06        1.4536E+06 
              985.E-03             1.44722E+06        1.45513E+06
              987.5E-03            1.44868E+06        1.45665E+06
              990.E-03             1.45013E+06        1.45817E+06
              992.5E-03            1.45158E+06        1.45968E+06
              995.E-03             1.45303E+06        1.4612E+06 
              997.5E-03            1.45448E+06        1.46271E+06
                1.                 1.45593E+06        1.46422E+06




