
                  X               ep1-out            ep2-out            ep3-out             ep1-in             ep2-in             ep3-in     

                0.                 0.                 0.                 0.                 0.                 0.                 0.         
                2.5E-03          722.342E-06         -1.17018E-03      447.838E-06        787.546E-06         -1.26718E-03      479.632E-06  
                5.E-03             2.52093E-03       -4.18885E-03        1.66791E-03        2.63634E-03       -4.35428E-03        1.71794E-03
                7.5E-03            4.30959E-03       -7.22119E-03        2.9116E-03         4.46248E-03       -7.43861E-03        2.97613E-03
               10.E-03             6.09975E-03      -10.261E-03          4.16129E-03        6.2834E-03       -10.5215E-03         4.23808E-03
               12.5E-03            7.89239E-03      -13.3066E-03         5.4142E-03         8.10179E-03      -13.6032E-03         5.50145E-03
               15.E-03             9.68742E-03      -16.3567E-03         6.66925E-03        9.91874E-03      -16.6843E-03         6.76553E-03
               17.5E-03           11.4846E-03       -19.4105E-03         7.92595E-03       11.7348E-03       -19.7649E-03         8.03009E-03
               20.E-03            13.2835E-03       -22.4675E-03         9.184E-03         13.5502E-03       -22.8453E-03         9.29505E-03
               22.5E-03           15.084E-03        -25.5272E-03        10.4432E-03        15.3653E-03       -25.9257E-03        10.5604E-03 
               25.E-03            16.8859E-03       -28.5892E-03        11.7034E-03        17.1801E-03       -29.0061E-03        11.826E-03  
               27.5E-03           18.6889E-03       -31.6533E-03        12.9644E-03        18.9947E-03       -32.0867E-03        13.092E-03  
               30.E-03            20.493E-03        -34.7192E-03        14.2262E-03        20.8093E-03       -35.1675E-03        14.3582E-03 
               32.5E-03           22.298E-03        -37.7866E-03        15.4887E-03        22.6238E-03       -38.2485E-03        15.6247E-03 
               35.E-03            24.1038E-03       -40.8556E-03        16.7518E-03        24.4383E-03       -41.3298E-03        16.8915E-03 
               37.5E-03           25.9103E-03       -43.9258E-03        18.0154E-03        26.2529E-03       -44.4114E-03        18.1585E-03 
               40.E-03            27.7175E-03       -46.9971E-03        19.2796E-03        28.0676E-03       -47.4933E-03        19.4258E-03 
               42.5E-03           29.5254E-03       -50.0696E-03        20.5442E-03        29.8823E-03       -50.5755E-03        20.6932E-03 
               45.E-03            31.3338E-03       -53.143E-03         21.8092E-03        31.6971E-03       -53.658E-03         21.9609E-03 
               47.5E-03           33.1427E-03       -56.2173E-03        23.0746E-03        33.512E-03        -56.7408E-03        23.2288E-03 
               50.E-03            34.952E-03        -59.2924E-03        24.3404E-03        35.3271E-03       -59.8239E-03        24.4969E-03 
               52.5E-03           36.7618E-03       -62.3683E-03        25.6064E-03        37.1422E-03       -62.9074E-03        25.7651E-03 
               55.E-03            38.572E-03        -65.4449E-03        26.8728E-03        38.9575E-03       -65.9911E-03        27.0336E-03 
               57.5E-03           40.2283E-03       -67.5403E-03        27.312E-03         40.6213E-03       -68.0947E-03        27.4734E-03 
               60.E-03            41.987E-03        -68.9895E-03        27.0025E-03        42.4038E-03       -69.5615E-03        27.1577E-03 
               62.5E-03           43.9447E-03       -70.2893E-03        26.3446E-03        44.4005E-03       -70.8847E-03        26.4841E-03 
               65.E-03            45.9296E-03       -71.4544E-03        25.5248E-03        46.435E-03        -72.076E-03         25.641E-03  
               67.5E-03           47.9136E-03       -72.5396E-03        24.6259E-03        48.4709E-03       -73.1867E-03        24.7158E-03 
               70.E-03            49.894E-03        -73.5802E-03        23.6862E-03        50.5003E-03       -74.2504E-03        23.75E-03   
               72.5E-03           51.872E-03        -74.5964E-03        22.7244E-03        52.5228E-03       -75.287E-03         22.7642E-03 
               75.E-03            53.8489E-03       -75.5994E-03        21.7505E-03        54.5395E-03       -76.3079E-03        21.7685E-03 
               77.5E-03           55.8255E-03       -76.5952E-03        20.7697E-03        56.5515E-03       -77.3197E-03        20.7681E-03 
               80.E-03            57.8023E-03       -77.5873E-03        19.785E-03         58.56E-03         -78.3258E-03        19.7658E-03 
               82.5E-03           59.7795E-03       -78.5775E-03        18.7979E-03        60.5656E-03       -79.3285E-03        18.7629E-03 
               85.E-03            61.7571E-03       -79.5666E-03        17.8095E-03        62.5688E-03       -80.3288E-03        17.76E-03   
               87.5E-03           63.7352E-03       -80.5554E-03        16.8201E-03        64.5701E-03       -81.3276E-03        16.7575E-03 
               90.E-03            65.7138E-03       -81.544E-03         15.8302E-03        66.5698E-03       -82.3253E-03        15.7556E-03 
               92.5E-03           67.6927E-03       -82.5326E-03        14.8398E-03        68.5681E-03       -83.3222E-03        14.7541E-03 
               95.E-03            69.6721E-03       -83.5212E-03        13.8492E-03        70.5653E-03       -84.3185E-03        13.7532E-03 
               97.5E-03           71.6517E-03       -84.51E-03          12.8583E-03        72.5615E-03       -85.3142E-03        12.7527E-03 
              100.E-03            73.6317E-03       -85.4989E-03        11.8672E-03        74.5568E-03       -86.3095E-03        11.7527E-03 
              102.5E-03           75.5455E-03       -86.3693E-03        10.8238E-03        76.4934E-03       -87.189E-03         10.6956E-03 
              105.E-03            77.4023E-03       -87.0966E-03         9.6943E-03        78.3851E-03       -87.9287E-03         9.54356E-03
              107.5E-03           79.2444E-03       -87.7496E-03         8.50515E-03       80.2634E-03       -88.5933E-03         8.32991E-03
              110.E-03            81.0757E-03       -88.3583E-03         7.28251E-03       82.1284E-03       -89.2121E-03         7.08373E-03
              112.5E-03           82.9004E-03       -88.9407E-03         6.04031E-03       83.9818E-03       -89.8028E-03         5.82102E-03
              115.E-03            84.721E-03        -89.5075E-03         4.78651E-03       85.8266E-03       -90.3764E-03         4.5498E-03 
              117.5E-03           86.5392E-03       -90.065E-03          3.52577E-03       87.6652E-03       -90.9395E-03         3.27424E-03
              120.E-03            88.3562E-03       -90.6171E-03         2.26083E-03       89.4996E-03       -91.4962E-03         1.99657E-03
              122.5E-03           90.1725E-03       -91.1658E-03       993.326E-06         91.3309E-03       -92.0489E-03       717.973E-06  
              125.E-03            91.9885E-03       -91.7127E-03      -275.763E-06         93.1601E-03       -92.5991E-03      -560.943E-06  
              127.5E-03           93.8043E-03       -92.2584E-03        -1.54585E-03       94.9877E-03       -93.1478E-03        -1.83986E-03
              130.E-03            95.62E-03         -92.8035E-03        -2.81656E-03       96.8141E-03       -93.6955E-03        -3.11864E-03
              132.5E-03           97.4359E-03       -93.3482E-03        -4.0877E-03        98.6397E-03       -94.2425E-03        -4.39722E-03
              135.E-03            99.2517E-03       -93.8926E-03        -5.3591E-03       100.465E-03        -94.7891E-03        -5.67559E-03
              137.5E-03          101.068E-03        -94.437E-03         -6.63071E-03      102.289E-03        -95.3354E-03        -6.95378E-03
              140.E-03           102.884E-03        -94.9813E-03        -7.90245E-03      104.113E-03        -95.8815E-03        -8.23179E-03
              142.5E-03          104.7E-03          -95.5256E-03        -9.17429E-03      105.937E-03        -96.4274E-03        -9.50966E-03
              145.E-03           106.516E-03        -96.0699E-03       -10.4462E-03       107.761E-03        -96.9732E-03       -10.7874E-03 
              147.5E-03          108.332E-03        -96.6142E-03       -11.7182E-03       109.584E-03        -97.519E-03        -12.0651E-03 
              150.E-03           110.149E-03        -97.1585E-03       -12.9903E-03       111.407E-03        -98.0647E-03       -13.3427E-03 
              152.5E-03          111.965E-03        -97.7028E-03       -14.2624E-03       113.231E-03        -98.6103E-03       -14.6202E-03 
              155.E-03           113.782E-03        -98.2472E-03       -15.5345E-03       115.054E-03        -99.1559E-03       -15.8977E-03 
              157.5E-03          115.598E-03        -98.7916E-03       -16.8067E-03       116.877E-03        -99.7015E-03       -17.1751E-03 
              160.E-03           117.415E-03        -99.336E-03        -18.0789E-03       118.7E-03         -100.247E-03        -18.4525E-03 
              162.5E-03          119.232E-03        -99.8804E-03       -19.3512E-03       120.523E-03       -100.793E-03        -19.7299E-03 
              165.E-03           121.048E-03       -100.425E-03        -20.6234E-03       122.345E-03       -101.338E-03        -21.0073E-03 
              167.5E-03          122.865E-03       -100.969E-03        -21.8958E-03       124.168E-03       -101.884E-03        -22.2847E-03 
              170.E-03           124.682E-03       -101.514E-03        -23.1681E-03       125.991E-03       -102.429E-03        -23.5621E-03 
              172.5E-03          126.499E-03       -102.058E-03        -24.4405E-03       127.814E-03       -102.975E-03        -24.8394E-03 
              175.E-03           128.316E-03       -102.603E-03        -25.7129E-03       129.637E-03       -103.52E-03         -26.1168E-03 
              177.5E-03          130.133E-03       -103.148E-03        -26.9853E-03       131.46E-03        -104.066E-03        -27.3942E-03 
              180.E-03           131.95E-03        -103.692E-03        -28.2578E-03       133.283E-03       -104.611E-03        -28.6715E-03 
              182.5E-03          133.767E-03       -104.237E-03        -29.5303E-03       135.106E-03       -105.157E-03        -29.9489E-03 
              185.E-03           135.584E-03       -104.781E-03        -30.8028E-03       136.928E-03       -105.702E-03        -31.2263E-03 
              187.5E-03          137.401E-03       -105.326E-03        -32.0754E-03       138.751E-03       -106.248E-03        -32.5037E-03 
              190.E-03           139.219E-03       -105.871E-03        -33.3479E-03       140.574E-03       -106.793E-03        -33.7811E-03 
              192.5E-03          141.036E-03       -106.415E-03        -34.6205E-03       142.397E-03       -107.339E-03        -35.0585E-03 
              195.E-03           142.853E-03       -106.96E-03         -35.8932E-03       144.22E-03        -107.884E-03        -36.3359E-03 
              197.5E-03          144.671E-03       -107.505E-03        -37.1658E-03       146.043E-03       -108.43E-03         -37.6133E-03 
              200.E-03           146.488E-03       -108.05E-03         -38.4385E-03       147.866E-03       -108.975E-03        -38.8908E-03 
              202.5E-03          148.305E-03       -108.594E-03        -39.7112E-03       149.689E-03       -109.52E-03         -40.1682E-03 
              205.E-03           150.123E-03       -109.139E-03        -40.9839E-03       151.512E-03       -110.066E-03        -41.4456E-03 
              207.5E-03          151.941E-03       -109.684E-03        -42.2566E-03       153.335E-03       -110.611E-03        -42.723E-03  
              210.E-03           153.758E-03       -110.229E-03        -43.5294E-03       155.157E-03       -111.157E-03        -44.0005E-03 
              212.5E-03          155.576E-03       -110.774E-03        -44.8021E-03       156.98E-03        -111.702E-03        -45.2779E-03 
              215.E-03           157.393E-03       -111.318E-03        -46.0749E-03       158.803E-03       -112.248E-03        -46.5554E-03 
              217.5E-03          159.211E-03       -111.863E-03        -47.3478E-03       160.626E-03       -112.793E-03        -47.8328E-03 
              220.E-03           161.029E-03       -112.408E-03        -48.6206E-03       162.449E-03       -113.339E-03        -49.1102E-03 
              222.5E-03          162.847E-03       -112.953E-03        -49.8935E-03       164.272E-03       -113.884E-03        -50.3877E-03 
              225.E-03           164.664E-03       -113.498E-03        -51.1664E-03       166.095E-03       -114.43E-03         -51.6651E-03 
              227.5E-03          166.482E-03       -114.043E-03        -52.4393E-03       167.918E-03       -114.975E-03        -52.9426E-03 
              230.E-03           168.3E-03         -114.588E-03        -53.7122E-03       169.741E-03       -115.521E-03        -54.22E-03   
              232.5E-03          170.118E-03       -115.133E-03        -54.9852E-03       171.564E-03       -116.066E-03        -55.4974E-03 
              235.E-03           171.936E-03       -115.678E-03        -56.2581E-03       173.387E-03       -116.612E-03        -56.7749E-03 
              237.5E-03          173.754E-03       -116.223E-03        -57.5311E-03       175.21E-03        -117.157E-03        -58.0523E-03 
              240.E-03           175.572E-03       -116.768E-03        -58.8041E-03       177.033E-03       -117.703E-03        -59.3297E-03 
              242.5E-03          177.39E-03        -117.313E-03        -60.0772E-03       178.856E-03       -118.248E-03        -60.6072E-03 
              245.E-03           179.208E-03       -117.858E-03        -61.3502E-03       180.678E-03       -118.794E-03        -61.8846E-03 
              247.5E-03          181.026E-03       -118.403E-03        -62.6233E-03       182.501E-03       -119.339E-03        -63.162E-03  
              250.E-03           182.844E-03       -118.948E-03        -63.8964E-03       184.324E-03       -119.885E-03        -64.4394E-03 
              252.5E-03          184.662E-03       -119.493E-03        -65.1695E-03       186.147E-03       -120.43E-03         -65.7168E-03 
              255.E-03           186.481E-03       -120.038E-03        -66.4426E-03       187.97E-03        -120.976E-03        -66.9942E-03 
              257.5E-03          188.299E-03       -120.583E-03        -67.7157E-03       189.793E-03       -121.521E-03        -68.2716E-03 
              260.E-03           190.117E-03       -121.128E-03        -68.9889E-03       191.616E-03       -122.067E-03        -69.549E-03  
              262.5E-03          191.935E-03       -121.673E-03        -70.2621E-03       193.439E-03       -122.612E-03        -70.8264E-03 
              265.E-03           193.754E-03       -122.218E-03        -71.5353E-03       195.262E-03       -123.158E-03        -72.1038E-03 
              267.5E-03          195.572E-03       -122.764E-03        -72.8085E-03       197.085E-03       -123.703E-03        -73.3812E-03 
              270.E-03           197.39E-03        -123.309E-03        -74.0817E-03       198.907E-03       -124.249E-03        -74.6585E-03 
              272.5E-03          199.209E-03       -123.854E-03        -75.3549E-03       200.73E-03        -124.794E-03        -75.9359E-03 
              275.E-03           201.027E-03       -124.399E-03        -76.6282E-03       202.553E-03       -125.34E-03         -77.2132E-03 
              277.5E-03          202.846E-03       -124.944E-03        -77.9015E-03       204.376E-03       -125.885E-03        -78.4906E-03 
              280.E-03           204.664E-03       -125.489E-03        -79.1748E-03       206.199E-03       -126.431E-03        -79.7679E-03 
              282.5E-03          206.483E-03       -126.035E-03        -80.4481E-03       208.022E-03       -126.976E-03        -81.0452E-03 
              285.E-03           208.301E-03       -126.58E-03         -81.7214E-03       209.844E-03       -127.522E-03        -82.3226E-03 
              287.5E-03          210.12E-03        -127.125E-03        -82.9948E-03       211.667E-03       -128.067E-03        -83.5999E-03 
              290.E-03           211.938E-03       -127.67E-03         -84.2681E-03       213.49E-03        -128.613E-03        -84.8772E-03 
              292.5E-03          213.757E-03       -128.216E-03        -85.5415E-03       215.313E-03       -129.158E-03        -86.1545E-03 
              295.E-03           215.576E-03       -128.761E-03        -86.8149E-03       217.136E-03       -129.704E-03        -87.4318E-03 
              297.5E-03          217.394E-03       -129.306E-03        -88.0883E-03       218.958E-03       -130.249E-03        -88.709E-03  
              300.E-03           219.213E-03       -129.851E-03        -89.3617E-03       220.781E-03       -130.795E-03        -89.9863E-03 
              302.5E-03          221.032E-03       -130.397E-03        -90.6351E-03       222.604E-03       -131.34E-03         -91.2636E-03 
              305.E-03           222.851E-03       -130.942E-03        -91.9086E-03       224.427E-03       -131.886E-03        -92.5408E-03 
              307.5E-03          224.669E-03       -131.487E-03        -93.1821E-03       226.249E-03       -132.431E-03        -93.8181E-03 
              310.E-03           226.488E-03       -132.033E-03        -94.4556E-03       228.072E-03       -132.977E-03        -95.0953E-03 
              312.5E-03          228.307E-03       -132.578E-03        -95.729E-03        229.895E-03       -133.522E-03        -96.3725E-03 
              315.E-03           230.126E-03       -133.123E-03        -97.0025E-03       231.718E-03       -134.068E-03        -97.6497E-03 
              317.5E-03          231.945E-03       -133.669E-03        -98.2761E-03       233.54E-03        -134.613E-03        -98.927E-03  
              320.E-03           233.764E-03       -134.214E-03        -99.5496E-03       235.363E-03       -135.159E-03       -100.204E-03  
              322.5E-03          235.583E-03       -134.759E-03       -100.823E-03        237.186E-03       -135.704E-03       -101.481E-03  
              325.E-03           237.402E-03       -135.305E-03       -102.097E-03        239.008E-03       -136.25E-03        -102.759E-03  
              327.5E-03          239.221E-03       -135.85E-03        -103.37E-03         240.831E-03       -136.795E-03       -104.036E-03  
              330.E-03           241.04E-03        -136.396E-03       -104.644E-03        242.654E-03       -137.341E-03       -105.313E-03  
              332.5E-03          242.859E-03       -136.941E-03       -105.918E-03        244.477E-03       -137.886E-03       -106.59E-03   
              335.E-03           244.678E-03       -137.486E-03       -107.191E-03        246.299E-03       -138.432E-03       -107.867E-03  
              337.5E-03          246.497E-03       -138.032E-03       -108.465E-03        248.122E-03       -138.978E-03       -109.144E-03  
              340.E-03           248.316E-03       -138.577E-03       -109.738E-03        249.944E-03       -139.523E-03       -110.421E-03  
              342.5E-03          250.135E-03       -139.123E-03       -111.012E-03        251.767E-03       -140.069E-03       -111.699E-03  
              345.E-03           251.954E-03       -139.668E-03       -112.286E-03        253.59E-03        -140.614E-03       -112.976E-03  
              347.5E-03          253.773E-03       -140.214E-03       -113.559E-03        255.412E-03       -141.16E-03        -114.253E-03  
              350.E-03           255.592E-03       -140.759E-03       -114.833E-03        257.235E-03       -141.705E-03       -115.53E-03   
              352.5E-03          257.411E-03       -141.305E-03       -116.107E-03        259.057E-03       -142.251E-03       -116.807E-03  
              355.E-03           259.231E-03       -141.85E-03        -117.381E-03        260.88E-03        -142.796E-03       -118.084E-03  
              357.5E-03          261.05E-03        -142.396E-03       -118.654E-03        262.703E-03       -143.342E-03       -119.361E-03  
              360.E-03           262.869E-03       -142.941E-03       -119.928E-03        264.525E-03       -143.887E-03       -120.638E-03  
              362.5E-03          264.688E-03       -143.487E-03       -121.202E-03        266.348E-03       -144.433E-03       -121.915E-03  
              365.E-03           266.508E-03       -144.032E-03       -122.476E-03        268.17E-03        -144.978E-03       -123.192E-03  
              367.5E-03          268.327E-03       -144.578E-03       -123.749E-03        269.993E-03       -145.524E-03       -124.469E-03  
              370.E-03           270.146E-03       -145.123E-03       -125.023E-03        271.815E-03       -146.069E-03       -125.746E-03  
              372.5E-03          271.966E-03       -145.669E-03       -126.297E-03        273.638E-03       -146.615E-03       -127.023E-03  
              375.E-03           273.785E-03       -146.214E-03       -127.571E-03        275.46E-03        -147.16E-03        -128.3E-03    
              377.5E-03          275.604E-03       -146.76E-03        -128.845E-03        277.283E-03       -147.706E-03       -129.577E-03  
              380.E-03           277.424E-03       -147.305E-03       -130.118E-03        279.105E-03       -148.251E-03       -130.854E-03  
              382.5E-03          279.243E-03       -147.851E-03       -131.392E-03        280.928E-03       -148.797E-03       -132.131E-03  
              385.E-03           281.063E-03       -148.397E-03       -132.666E-03        282.75E-03        -149.342E-03       -133.408E-03  
              387.5E-03          282.882E-03       -148.942E-03       -133.94E-03         284.573E-03       -149.888E-03       -134.685E-03  
              390.E-03           284.702E-03       -149.488E-03       -135.214E-03        286.395E-03       -150.433E-03       -135.962E-03  
              392.5E-03          286.521E-03       -150.033E-03       -136.488E-03        288.218E-03       -150.979E-03       -137.239E-03  
              395.E-03           288.341E-03       -150.579E-03       -137.762E-03        290.04E-03        -151.524E-03       -138.516E-03  
              397.5E-03          290.16E-03        -151.125E-03       -139.036E-03        291.862E-03       -152.07E-03        -139.793E-03  
              400.E-03           291.98E-03        -151.67E-03        -140.309E-03        293.685E-03       -152.615E-03       -141.069E-03  
              402.5E-03          293.799E-03       -152.216E-03       -141.583E-03        295.507E-03       -153.161E-03       -142.346E-03  
              405.E-03           295.619E-03       -152.761E-03       -142.857E-03        297.33E-03        -153.707E-03       -143.623E-03  
              407.5E-03          297.438E-03       -153.307E-03       -144.131E-03        299.152E-03       -154.252E-03       -144.9E-03    
              410.E-03           299.258E-03       -153.853E-03       -145.405E-03        300.975E-03       -154.798E-03       -146.177E-03  
              412.5E-03          301.078E-03       -154.398E-03       -146.679E-03        302.797E-03       -155.343E-03       -147.454E-03  
              415.E-03           302.897E-03       -154.944E-03       -147.953E-03        304.619E-03       -155.889E-03       -148.731E-03  
              417.5E-03          304.717E-03       -155.49E-03        -149.227E-03        306.442E-03       -156.434E-03       -150.007E-03  
              420.E-03           306.537E-03       -156.035E-03       -150.501E-03        308.264E-03       -156.98E-03        -151.284E-03  
              422.5E-03          308.356E-03       -156.581E-03       -151.775E-03        310.086E-03       -157.525E-03       -152.561E-03  
              425.E-03           310.176E-03       -157.127E-03       -153.049E-03        311.909E-03       -158.071E-03       -153.838E-03  
              427.5E-03          311.996E-03       -157.672E-03       -154.323E-03        313.731E-03       -158.616E-03       -155.115E-03  
              430.E-03           313.815E-03       -158.218E-03       -155.597E-03        315.553E-03       -159.162E-03       -156.391E-03  
              432.5E-03          315.635E-03       -158.764E-03       -156.871E-03        317.376E-03       -159.707E-03       -157.668E-03  
              435.E-03           317.455E-03       -159.31E-03        -158.145E-03        319.198E-03       -160.253E-03       -158.945E-03  
              437.5E-03          319.275E-03       -159.855E-03       -159.42E-03         321.02E-03        -160.799E-03       -160.222E-03  
              440.E-03           321.095E-03       -160.694E-03       -160.401E-03        322.843E-03       -161.499E-03       -161.344E-03  
              442.5E-03          322.914E-03       -161.968E-03       -160.947E-03        324.665E-03       -162.775E-03       -161.89E-03   
              445.E-03           324.734E-03       -163.242E-03       -161.492E-03        326.487E-03       -164.052E-03       -162.435E-03  
              447.5E-03          326.554E-03       -164.516E-03       -162.038E-03        328.309E-03       -165.329E-03       -162.981E-03  
              450.E-03           328.374E-03       -165.79E-03        -162.584E-03        330.132E-03       -166.605E-03       -163.526E-03  
              452.5E-03          330.194E-03       -167.064E-03       -163.13E-03         331.954E-03       -167.882E-03       -164.072E-03  
              455.E-03           332.014E-03       -168.338E-03       -163.675E-03        333.776E-03       -169.159E-03       -164.617E-03  
              457.5E-03          333.833E-03       -169.612E-03       -164.221E-03        335.599E-03       -170.436E-03       -165.163E-03  
              460.E-03           335.653E-03       -170.887E-03       -164.767E-03        337.421E-03       -171.712E-03       -165.708E-03  
              462.5E-03          337.473E-03       -172.161E-03       -165.313E-03        339.243E-03       -172.989E-03       -166.254E-03  
              465.E-03           339.293E-03       -173.435E-03       -165.858E-03        341.065E-03       -174.266E-03       -166.8E-03    
              467.5E-03          341.113E-03       -174.709E-03       -166.404E-03        342.887E-03       -175.542E-03       -167.345E-03  
              470.E-03           342.933E-03       -175.983E-03       -166.95E-03         344.71E-03        -176.819E-03       -167.891E-03  
              472.5E-03          344.753E-03       -177.257E-03       -167.496E-03        346.532E-03       -178.096E-03       -168.436E-03  
              475.E-03           346.573E-03       -178.532E-03       -168.042E-03        348.354E-03       -179.372E-03       -168.982E-03  
              477.5E-03          348.393E-03       -179.806E-03       -168.587E-03        350.176E-03       -180.649E-03       -169.527E-03  
              480.E-03           350.213E-03       -181.08E-03        -169.133E-03        351.998E-03       -181.926E-03       -170.073E-03  
              482.5E-03          352.033E-03       -182.354E-03       -169.679E-03        353.821E-03       -183.202E-03       -170.618E-03  
              485.E-03           353.853E-03       -183.628E-03       -170.225E-03        355.643E-03       -184.479E-03       -171.164E-03  
              487.5E-03          355.673E-03       -184.903E-03       -170.771E-03        357.465E-03       -185.755E-03       -171.71E-03   
              490.E-03           357.493E-03       -186.177E-03       -171.316E-03        359.287E-03       -187.032E-03       -172.255E-03  
              492.5E-03          359.313E-03       -187.451E-03       -171.862E-03        361.109E-03       -188.309E-03       -172.801E-03  
              495.E-03           361.133E-03       -188.725E-03       -172.408E-03        362.931E-03       -189.585E-03       -173.346E-03  
              497.5E-03          362.954E-03       -190.E-03          -172.954E-03        364.754E-03       -190.862E-03       -173.892E-03  
              500.E-03           364.774E-03       -191.274E-03       -173.5E-03          366.576E-03       -192.138E-03       -174.438E-03  
              502.5E-03          366.594E-03       -192.548E-03       -174.046E-03        368.398E-03       -193.415E-03       -174.983E-03  
              505.E-03           368.414E-03       -193.823E-03       -174.591E-03        370.22E-03        -194.691E-03       -175.529E-03  
              507.5E-03          370.234E-03       -195.097E-03       -175.137E-03        372.042E-03       -195.968E-03       -176.074E-03  
              510.E-03           372.054E-03       -196.371E-03       -175.683E-03        373.864E-03       -197.244E-03       -176.62E-03   
              512.5E-03          373.874E-03       -197.645E-03       -176.229E-03        375.686E-03       -198.521E-03       -177.165E-03  
              515.E-03           375.695E-03       -198.92E-03        -176.775E-03        377.509E-03       -199.798E-03       -177.711E-03  
              517.5E-03          377.515E-03       -200.194E-03       -177.321E-03        379.331E-03       -201.074E-03       -178.257E-03  
              520.E-03           379.335E-03       -201.468E-03       -177.867E-03        381.153E-03       -202.351E-03       -178.802E-03  
              522.5E-03          381.155E-03       -202.743E-03       -178.412E-03        382.975E-03       -203.627E-03       -179.348E-03  
              525.E-03           382.975E-03       -204.017E-03       -178.958E-03        384.797E-03       -204.904E-03       -179.893E-03  
              527.5E-03          384.796E-03       -205.291E-03       -179.504E-03        386.619E-03       -206.18E-03        -180.439E-03  
              530.E-03           386.616E-03       -206.566E-03       -180.05E-03         388.441E-03       -207.457E-03       -180.985E-03  
              532.5E-03          388.436E-03       -207.84E-03        -180.596E-03        390.263E-03       -208.733E-03       -181.53E-03   
              535.E-03           390.256E-03       -209.115E-03       -181.142E-03        392.085E-03       -210.01E-03        -182.076E-03  
              537.5E-03          392.077E-03       -210.389E-03       -181.688E-03        393.907E-03       -211.286E-03       -182.621E-03  
              540.E-03           393.897E-03       -211.663E-03       -182.234E-03        395.729E-03       -212.562E-03       -183.167E-03  
              542.5E-03          395.717E-03       -212.938E-03       -182.78E-03         397.551E-03       -213.839E-03       -183.713E-03  
              545.E-03           397.538E-03       -214.212E-03       -183.325E-03        399.374E-03       -215.115E-03       -184.258E-03  
              547.5E-03          399.358E-03       -215.487E-03       -183.871E-03        401.196E-03       -216.392E-03       -184.804E-03  
              550.E-03           401.178E-03       -216.761E-03       -184.417E-03        403.018E-03       -217.668E-03       -185.349E-03  
              552.5E-03          402.999E-03       -218.035E-03       -184.963E-03        404.84E-03        -218.945E-03       -185.895E-03  
              555.E-03           404.819E-03       -219.31E-03        -185.509E-03        406.662E-03       -220.221E-03       -186.441E-03  
              557.5E-03          406.639E-03       -220.584E-03       -186.055E-03        408.484E-03       -221.497E-03       -186.986E-03  
              560.E-03           408.46E-03        -221.859E-03       -186.601E-03        410.306E-03       -222.774E-03       -187.532E-03  
              562.5E-03          410.28E-03        -223.133E-03       -187.147E-03        412.128E-03       -224.05E-03        -188.077E-03  
              565.E-03           412.1E-03         -224.408E-03       -187.693E-03        413.95E-03        -225.327E-03       -188.623E-03  
              567.5E-03          413.921E-03       -225.682E-03       -188.239E-03        415.772E-03       -226.603E-03       -189.169E-03  
              570.E-03           415.741E-03       -226.956E-03       -188.785E-03        417.594E-03       -227.88E-03        -189.714E-03  
              572.5E-03          417.562E-03       -228.231E-03       -189.331E-03        419.416E-03       -229.156E-03       -190.26E-03   
              575.E-03           419.382E-03       -229.505E-03       -189.877E-03        421.238E-03       -230.432E-03       -190.806E-03  
              577.5E-03          421.202E-03       -230.78E-03        -190.423E-03        423.06E-03        -231.709E-03       -191.351E-03  
              580.E-03           423.023E-03       -232.054E-03       -190.969E-03        424.882E-03       -232.985E-03       -191.897E-03  
              582.5E-03          424.843E-03       -233.329E-03       -191.515E-03        426.704E-03       -234.261E-03       -192.442E-03  
              585.E-03           426.664E-03       -234.603E-03       -192.06E-03         428.526E-03       -235.538E-03       -192.988E-03  
              587.5E-03          428.484E-03       -235.878E-03       -192.606E-03        430.348E-03       -236.814E-03       -193.534E-03  
              590.E-03           430.305E-03       -237.152E-03       -193.152E-03        432.17E-03        -238.09E-03        -194.079E-03  
              592.5E-03          432.125E-03       -238.427E-03       -193.698E-03        433.992E-03       -239.367E-03       -194.625E-03  
              595.E-03           433.946E-03       -239.701E-03       -194.244E-03        435.814E-03       -240.643E-03       -195.171E-03  
              597.5E-03          435.766E-03       -240.976E-03       -194.79E-03         437.636E-03       -241.919E-03       -195.716E-03  
              600.E-03           437.587E-03       -242.25E-03        -195.336E-03        439.458E-03       -243.196E-03       -196.262E-03  
              602.5E-03          439.407E-03       -243.525E-03       -195.882E-03        441.28E-03        -244.472E-03       -196.808E-03  
              605.E-03           441.228E-03       -244.799E-03       -196.428E-03        443.102E-03       -245.748E-03       -197.353E-03  
              607.5E-03          443.048E-03       -246.074E-03       -196.974E-03        444.924E-03       -247.025E-03       -197.899E-03  
              610.E-03           444.869E-03       -247.349E-03       -197.52E-03         446.746E-03       -248.301E-03       -198.445E-03  
              612.5E-03          446.689E-03       -248.623E-03       -198.066E-03        448.567E-03       -249.577E-03       -198.99E-03   
              615.E-03           448.51E-03        -249.898E-03       -198.612E-03        450.389E-03       -250.854E-03       -199.536E-03  
              617.5E-03          450.331E-03       -251.172E-03       -199.158E-03        452.211E-03       -252.13E-03        -200.082E-03  
              620.E-03           452.151E-03       -252.447E-03       -199.704E-03        454.033E-03       -253.406E-03       -200.627E-03  
              622.5E-03          453.972E-03       -253.721E-03       -200.25E-03         455.855E-03       -254.682E-03       -201.173E-03  
              625.E-03           455.792E-03       -254.996E-03       -200.796E-03        457.677E-03       -255.959E-03       -201.718E-03  
              627.5E-03          457.613E-03       -256.271E-03       -201.342E-03        459.499E-03       -257.235E-03       -202.264E-03  
              630.E-03           459.434E-03       -257.545E-03       -201.888E-03        461.321E-03       -258.511E-03       -202.81E-03   
              632.5E-03          461.254E-03       -258.82E-03        -202.434E-03        463.143E-03       -259.787E-03       -203.355E-03  
              635.E-03           463.075E-03       -260.094E-03       -202.981E-03        464.965E-03       -261.064E-03       -203.901E-03  
              637.5E-03          464.895E-03       -261.369E-03       -203.527E-03        466.787E-03       -262.34E-03        -204.447E-03  
              640.E-03           466.716E-03       -262.644E-03       -204.073E-03        468.609E-03       -263.616E-03       -204.993E-03  
              642.5E-03          468.537E-03       -263.918E-03       -204.619E-03        470.431E-03       -264.892E-03       -205.538E-03  
              645.E-03           470.357E-03       -265.193E-03       -205.165E-03        472.253E-03       -266.169E-03       -206.084E-03  
              647.5E-03          472.178E-03       -266.467E-03       -205.711E-03        474.074E-03       -267.445E-03       -206.63E-03   
              650.E-03           473.999E-03       -267.742E-03       -206.257E-03        475.896E-03       -268.721E-03       -207.175E-03  
              652.5E-03          475.819E-03       -269.017E-03       -206.803E-03        477.718E-03       -269.997E-03       -207.721E-03  
              655.E-03           477.64E-03        -270.291E-03       -207.349E-03        479.54E-03        -271.274E-03       -208.267E-03  
              657.5E-03          479.461E-03       -271.566E-03       -207.895E-03        481.362E-03       -272.55E-03        -208.812E-03  
              660.E-03           481.282E-03       -272.841E-03       -208.441E-03        483.184E-03       -273.826E-03       -209.358E-03  
              662.5E-03          483.102E-03       -274.115E-03       -208.987E-03        485.006E-03       -275.102E-03       -209.904E-03  
              665.E-03           484.923E-03       -275.39E-03        -209.533E-03        486.828E-03       -276.378E-03       -210.449E-03  
              667.5E-03          486.744E-03       -276.665E-03       -210.079E-03        488.65E-03        -277.655E-03       -210.995E-03  
              670.E-03           488.564E-03       -277.939E-03       -210.625E-03        490.472E-03       -278.931E-03       -211.541E-03  
              672.5E-03          490.385E-03       -279.214E-03       -211.171E-03        492.293E-03       -280.207E-03       -212.086E-03  
              675.E-03           492.206E-03       -280.489E-03       -211.717E-03        494.115E-03       -281.483E-03       -212.632E-03  
              677.5E-03          494.027E-03       -281.763E-03       -212.263E-03        495.937E-03       -282.759E-03       -213.178E-03  
              680.E-03           495.847E-03       -283.038E-03       -212.81E-03         497.759E-03       -284.035E-03       -213.724E-03  
              682.5E-03          497.668E-03       -284.313E-03       -213.356E-03        499.581E-03       -285.312E-03       -214.269E-03  
              685.E-03           499.489E-03       -285.587E-03       -213.902E-03        501.403E-03       -286.588E-03       -214.815E-03  
              687.5E-03          501.31E-03        -286.862E-03       -214.448E-03        503.225E-03       -287.864E-03       -215.361E-03  
              690.E-03           503.131E-03       -288.137E-03       -214.994E-03        505.047E-03       -289.14E-03        -215.906E-03  
              692.5E-03          504.951E-03       -289.411E-03       -215.54E-03         506.868E-03       -290.416E-03       -216.452E-03  
              695.E-03           506.772E-03       -290.686E-03       -216.086E-03        508.69E-03        -291.692E-03       -216.998E-03  
              697.5E-03          508.593E-03       -291.961E-03       -216.632E-03        510.512E-03       -292.969E-03       -217.544E-03  
              700.E-03           510.414E-03       -293.235E-03       -217.178E-03        512.334E-03       -294.245E-03       -218.089E-03  
              702.5E-03          512.235E-03       -294.51E-03        -217.724E-03        514.156E-03       -295.521E-03       -218.635E-03  
              705.E-03           514.055E-03       -295.785E-03       -218.27E-03         515.978E-03       -296.797E-03       -219.181E-03  
              707.5E-03          515.876E-03       -297.06E-03        -218.817E-03        517.8E-03         -298.073E-03       -219.726E-03  
              710.E-03           517.697E-03       -298.334E-03       -219.363E-03        519.621E-03       -299.349E-03       -220.272E-03  
              712.5E-03          519.518E-03       -299.609E-03       -219.909E-03        521.443E-03       -300.625E-03       -220.818E-03  
              715.E-03           521.339E-03       -300.884E-03       -220.455E-03        523.265E-03       -301.902E-03       -221.364E-03  
              717.5E-03          523.16E-03        -302.159E-03       -221.001E-03        525.087E-03       -303.178E-03       -221.909E-03  
              720.E-03           524.98E-03        -303.433E-03       -221.547E-03        526.909E-03       -304.454E-03       -222.455E-03  
              722.5E-03          526.801E-03       -304.708E-03       -222.093E-03        528.731E-03       -305.73E-03        -223.001E-03  
              725.E-03           528.622E-03       -305.983E-03       -222.639E-03        530.552E-03       -307.006E-03       -223.547E-03  
              727.5E-03          530.443E-03       -307.258E-03       -223.186E-03        532.374E-03       -308.282E-03       -224.092E-03  
              730.E-03           532.264E-03       -308.532E-03       -223.732E-03        534.196E-03       -309.558E-03       -224.638E-03  
              732.5E-03          534.085E-03       -309.807E-03       -224.278E-03        536.018E-03       -310.834E-03       -225.184E-03  
              735.E-03           535.906E-03       -311.082E-03       -224.824E-03        537.84E-03        -312.11E-03        -225.729E-03  
              737.5E-03          537.727E-03       -312.357E-03       -225.37E-03         539.662E-03       -313.386E-03       -226.275E-03  
              740.E-03           539.548E-03       -313.631E-03       -225.916E-03        541.484E-03       -314.663E-03       -226.821E-03  
              742.5E-03          541.369E-03       -314.906E-03       -226.462E-03        543.305E-03       -315.939E-03       -227.367E-03  
              745.E-03           543.19E-03        -316.181E-03       -227.008E-03        545.127E-03       -317.215E-03       -227.912E-03  
              747.5E-03          545.01E-03        -317.456E-03       -227.555E-03        546.949E-03       -318.491E-03       -228.458E-03  
              750.E-03           546.831E-03       -318.731E-03       -228.101E-03        548.771E-03       -319.767E-03       -229.004E-03  
              752.5E-03          548.652E-03       -320.005E-03       -228.647E-03        550.593E-03       -321.043E-03       -229.55E-03   
              755.E-03           550.473E-03       -321.28E-03        -229.193E-03        552.414E-03       -322.319E-03       -230.096E-03  
              757.5E-03          552.294E-03       -322.555E-03       -229.739E-03        554.236E-03       -323.595E-03       -230.641E-03  
              760.E-03           554.115E-03       -323.83E-03        -230.285E-03        556.058E-03       -324.871E-03       -231.187E-03  
              762.5E-03          555.936E-03       -325.105E-03       -230.831E-03        557.88E-03        -326.147E-03       -231.733E-03  
              765.E-03           557.757E-03       -326.379E-03       -231.378E-03        559.702E-03       -327.423E-03       -232.279E-03  
              767.5E-03          559.578E-03       -327.654E-03       -231.924E-03        561.524E-03       -328.699E-03       -232.824E-03  
              770.E-03           561.399E-03       -328.929E-03       -232.47E-03         563.345E-03       -329.975E-03       -233.37E-03   
              772.5E-03          563.22E-03        -330.204E-03       -233.016E-03        565.167E-03       -331.251E-03       -233.916E-03  
              775.E-03           565.041E-03       -331.479E-03       -233.562E-03        566.989E-03       -332.527E-03       -234.462E-03  
              777.5E-03          566.862E-03       -332.754E-03       -234.108E-03        568.811E-03       -333.803E-03       -235.007E-03  
              780.E-03           568.683E-03       -334.028E-03       -234.655E-03        570.633E-03       -335.079E-03       -235.553E-03  
              782.5E-03          570.504E-03       -335.303E-03       -235.201E-03        572.454E-03       -336.355E-03       -236.099E-03  
              785.E-03           572.325E-03       -336.578E-03       -235.747E-03        574.276E-03       -337.631E-03       -236.645E-03  
              787.5E-03          574.146E-03       -337.853E-03       -236.293E-03        576.098E-03       -338.907E-03       -237.191E-03  
              790.E-03           575.967E-03       -339.128E-03       -236.839E-03        577.92E-03        -340.184E-03       -237.736E-03  
              792.5E-03          577.788E-03       -340.403E-03       -237.386E-03        579.742E-03       -341.46E-03        -238.282E-03  
              795.E-03           579.609E-03       -341.678E-03       -237.932E-03        581.563E-03       -342.736E-03       -238.828E-03  
              797.5E-03          581.43E-03        -342.952E-03       -238.478E-03        583.385E-03       -344.012E-03       -239.374E-03  
              800.E-03           583.251E-03       -344.227E-03       -239.024E-03        585.207E-03       -345.288E-03       -239.92E-03   
              802.5E-03          585.072E-03       -345.502E-03       -239.57E-03         587.029E-03       -346.564E-03       -240.465E-03  
              805.E-03           586.893E-03       -346.777E-03       -240.116E-03        588.851E-03       -347.84E-03        -241.011E-03  
              807.5E-03          588.714E-03       -348.052E-03       -240.663E-03        590.672E-03       -349.116E-03       -241.557E-03  
              810.E-03           590.536E-03       -349.327E-03       -241.209E-03        592.494E-03       -350.392E-03       -242.103E-03  
              812.5E-03          592.357E-03       -350.602E-03       -241.755E-03        594.316E-03       -351.668E-03       -242.648E-03  
              815.E-03           594.178E-03       -351.876E-03       -242.301E-03        596.138E-03       -352.944E-03       -243.194E-03  
              817.5E-03          595.999E-03       -353.151E-03       -242.847E-03        597.96E-03        -354.22E-03        -243.74E-03   
              820.E-03           597.82E-03        -354.426E-03       -243.394E-03        599.781E-03       -355.496E-03       -244.286E-03  
              822.5E-03          599.641E-03       -355.701E-03       -243.94E-03         601.603E-03       -356.772E-03       -244.832E-03  
              825.E-03           601.462E-03       -356.976E-03       -244.486E-03        603.425E-03       -358.048E-03       -245.378E-03  
              827.5E-03          603.283E-03       -358.251E-03       -245.032E-03        605.247E-03       -359.323E-03       -245.923E-03  
              830.E-03           605.104E-03       -359.526E-03       -245.578E-03        607.069E-03       -360.599E-03       -246.469E-03  
              832.5E-03          606.925E-03       -360.801E-03       -246.125E-03        608.89E-03        -361.875E-03       -247.015E-03  
              835.E-03           608.746E-03       -362.076E-03       -246.671E-03        610.712E-03       -363.151E-03       -247.561E-03  
              837.5E-03          610.568E-03       -363.351E-03       -247.217E-03        612.534E-03       -364.427E-03       -248.107E-03  
              840.E-03           612.389E-03       -364.625E-03       -247.763E-03        614.356E-03       -365.703E-03       -248.652E-03  
              842.5E-03          614.21E-03        -365.9E-03         -248.309E-03        616.178E-03       -366.979E-03       -249.198E-03  
              845.E-03           616.031E-03       -367.175E-03       -248.856E-03        617.999E-03       -368.255E-03       -249.744E-03  
              847.5E-03          617.852E-03       -368.45E-03        -249.402E-03        619.821E-03       -369.531E-03       -250.29E-03   
              850.E-03           619.673E-03       -369.725E-03       -249.948E-03        621.643E-03       -370.807E-03       -250.836E-03  
              852.5E-03          621.494E-03       -371.E-03          -250.494E-03        623.465E-03       -372.083E-03       -251.382E-03  
              855.E-03           623.315E-03       -372.275E-03       -251.041E-03        625.286E-03       -373.359E-03       -251.927E-03  
              857.5E-03          625.137E-03       -373.55E-03        -251.587E-03        627.108E-03       -374.635E-03       -252.473E-03  
              860.E-03           626.958E-03       -374.825E-03       -252.133E-03        628.93E-03        -375.911E-03       -253.019E-03  
              862.5E-03          628.779E-03       -376.1E-03         -252.679E-03        630.752E-03       -377.187E-03       -253.565E-03  
              865.E-03           630.6E-03         -377.375E-03       -253.225E-03        632.574E-03       -378.463E-03       -254.111E-03  
              867.5E-03          632.421E-03       -378.65E-03        -253.772E-03        634.395E-03       -379.739E-03       -254.657E-03  
              870.E-03           634.243E-03       -379.925E-03       -254.318E-03        636.217E-03       -381.015E-03       -255.202E-03  
              872.5E-03          636.064E-03       -381.2E-03         -254.864E-03        638.039E-03       -382.291E-03       -255.748E-03  
              875.E-03           637.885E-03       -382.474E-03       -255.41E-03         639.861E-03       -383.567E-03       -256.294E-03  
              877.5E-03          639.706E-03       -383.749E-03       -255.957E-03        641.683E-03       -384.843E-03       -256.84E-03   
              880.E-03           641.527E-03       -385.024E-03       -256.503E-03        643.504E-03       -386.118E-03       -257.386E-03  
              882.5E-03          643.348E-03       -386.299E-03       -257.049E-03        645.326E-03       -387.394E-03       -257.932E-03  
              885.E-03           645.17E-03        -387.574E-03       -257.595E-03        647.148E-03       -388.67E-03        -258.478E-03  
              887.5E-03          646.991E-03       -388.849E-03       -258.142E-03        648.97E-03        -389.946E-03       -259.023E-03  
              890.E-03           648.812E-03       -390.124E-03       -258.688E-03        650.791E-03       -391.222E-03       -259.569E-03  
              892.5E-03          650.633E-03       -391.399E-03       -259.234E-03        652.613E-03       -392.498E-03       -260.115E-03  
              895.E-03           652.454E-03       -392.674E-03       -259.78E-03         654.435E-03       -393.774E-03       -260.661E-03  
              897.5E-03          654.276E-03       -393.949E-03       -260.327E-03        656.257E-03       -395.05E-03        -261.207E-03  
              900.E-03           656.097E-03       -395.224E-03       -260.873E-03        658.079E-03       -396.326E-03       -261.753E-03  
              902.5E-03          657.918E-03       -396.499E-03       -261.419E-03        659.9E-03         -397.602E-03       -262.299E-03  
              905.E-03           659.739E-03       -397.774E-03       -261.965E-03        661.722E-03       -398.878E-03       -262.844E-03  
              907.5E-03          661.561E-03       -399.049E-03       -262.512E-03        663.544E-03       -400.154E-03       -263.39E-03   
              910.E-03           663.382E-03       -400.324E-03       -263.058E-03        665.366E-03       -401.429E-03       -263.936E-03  
              912.5E-03          665.203E-03       -401.599E-03       -263.604E-03        667.187E-03       -402.705E-03       -264.482E-03  
              915.E-03           667.024E-03       -402.874E-03       -264.15E-03         669.009E-03       -403.981E-03       -265.028E-03  
              917.5E-03          668.846E-03       -404.149E-03       -264.697E-03        670.831E-03       -405.257E-03       -265.574E-03  
              920.E-03           670.667E-03       -405.424E-03       -265.243E-03        672.653E-03       -406.533E-03       -266.12E-03   
              922.5E-03          672.488E-03       -406.699E-03       -265.789E-03        674.475E-03       -407.809E-03       -266.666E-03  
              925.E-03           674.309E-03       -407.974E-03       -266.335E-03        676.296E-03       -409.085E-03       -267.211E-03  
              927.5E-03          676.131E-03       -409.249E-03       -266.882E-03        678.118E-03       -410.361E-03       -267.757E-03  
              930.E-03           677.952E-03       -410.524E-03       -267.428E-03        679.94E-03        -411.637E-03       -268.303E-03  
              932.5E-03          679.773E-03       -411.799E-03       -267.974E-03        681.762E-03       -412.913E-03       -268.849E-03  
              935.E-03           681.595E-03       -413.074E-03       -268.521E-03        683.583E-03       -414.188E-03       -269.395E-03  
              937.5E-03          683.416E-03       -414.349E-03       -269.067E-03        685.405E-03       -415.464E-03       -269.941E-03  
              940.E-03           685.237E-03       -415.624E-03       -269.613E-03        687.227E-03       -416.74E-03        -270.487E-03  
              942.5E-03          687.058E-03       -416.899E-03       -270.159E-03        689.049E-03       -418.016E-03       -271.033E-03  
              945.E-03           688.88E-03        -418.174E-03       -270.706E-03        690.87E-03        -419.292E-03       -271.579E-03  
              947.5E-03          690.701E-03       -419.449E-03       -271.252E-03        692.692E-03       -420.568E-03       -272.124E-03  
              950.E-03           692.522E-03       -420.724E-03       -271.798E-03        694.514E-03       -421.844E-03       -272.67E-03   
              952.5E-03          694.344E-03       -421.999E-03       -272.345E-03        696.336E-03       -423.12E-03        -273.216E-03  
              955.E-03           696.165E-03       -423.274E-03       -272.891E-03        698.158E-03       -424.395E-03       -273.762E-03  
              957.5E-03          697.986E-03       -424.549E-03       -273.437E-03        699.979E-03       -425.671E-03       -274.308E-03  
              960.E-03           699.808E-03       -425.824E-03       -273.983E-03        701.801E-03       -426.947E-03       -274.854E-03  
              962.5E-03          701.629E-03       -427.099E-03       -274.53E-03         703.623E-03       -428.223E-03       -275.4E-03    
              965.E-03           703.45E-03        -428.374E-03       -275.076E-03        705.445E-03       -429.499E-03       -275.946E-03  
              967.5E-03          705.272E-03       -429.649E-03       -275.622E-03        707.266E-03       -430.775E-03       -276.492E-03  
              970.E-03           707.093E-03       -430.924E-03       -276.168E-03        709.088E-03       -432.051E-03       -277.038E-03  
              972.5E-03          708.914E-03       -432.199E-03       -276.715E-03        710.91E-03        -433.326E-03       -277.583E-03  
              975.E-03           710.736E-03       -433.474E-03       -277.261E-03        712.732E-03       -434.602E-03       -278.129E-03  
              977.5E-03          712.557E-03       -434.75E-03        -277.807E-03        714.553E-03       -435.878E-03       -278.675E-03  
              980.E-03           714.378E-03       -436.025E-03       -278.354E-03        716.375E-03       -437.154E-03       -279.221E-03  
              982.5E-03          716.2E-03         -437.3E-03         -278.9E-03          718.197E-03       -438.43E-03        -279.767E-03  
              985.E-03           718.021E-03       -438.575E-03       -279.446E-03        720.019E-03       -439.706E-03       -280.313E-03  
              987.5E-03          719.842E-03       -439.85E-03        -279.993E-03        721.841E-03       -440.982E-03       -280.859E-03  
              990.E-03           721.664E-03       -441.125E-03       -280.539E-03        723.662E-03       -442.257E-03       -281.405E-03  
              992.5E-03          723.485E-03       -442.4E-03         -281.085E-03        725.484E-03       -443.533E-03       -281.951E-03  
              995.E-03           725.306E-03       -443.675E-03       -281.631E-03        727.306E-03       -444.809E-03       -282.497E-03  
              997.5E-03          727.128E-03       -444.95E-03        -282.178E-03        729.128E-03       -446.085E-03       -283.043E-03  
                1.               728.949E-03       -446.225E-03       -282.724E-03        730.949E-03       -447.361E-03       -283.589E-03  




