
                  X              SENER-out           SENER-in    

                0.                 0.                 0.         
                2.5E-03          162.512E+03        159.592E+03  
                5.E-03           168.981E+03        166.311E+03  
                7.5E-03          175.091E+03        172.625E+03  
               10.E-03           180.895E+03        178.602E+03  
               12.5E-03          186.433E+03        184.29E+03   
               15.E-03           191.736E+03        189.723E+03  
               17.5E-03          196.83E+03         194.931E+03  
               20.E-03           201.735E+03        199.939E+03  
               22.5E-03          206.47E+03         204.765E+03  
               25.E-03           211.049E+03        209.426E+03  
               27.5E-03          215.485E+03        213.937E+03  
               30.E-03           219.79E+03         218.31E+03   
               32.5E-03          223.973E+03        222.556E+03  
               35.E-03           228.043E+03        226.683E+03  
               37.5E-03          232.009E+03        230.702E+03  
               40.E-03           235.876E+03        234.618E+03  
               42.5E-03          239.652E+03        238.439E+03  
               45.E-03           243.341E+03        242.171E+03  
               47.5E-03          246.948E+03        245.818E+03  
               50.E-03           250.48E+03         249.387E+03  
               52.5E-03          253.938E+03        252.88E+03   
               55.E-03           257.328E+03        256.303E+03  
               57.5E-03          260.653E+03        259.659E+03  
               60.E-03           263.916E+03        262.951E+03  
               62.5E-03          267.12E+03         266.183E+03  
               65.E-03           270.268E+03        269.357E+03  
               67.5E-03          273.362E+03        272.476E+03  
               70.E-03           276.405E+03        275.542E+03  
               72.5E-03          279.399E+03        278.558E+03  
               75.E-03           282.345E+03        281.527E+03  
               77.5E-03          285.247E+03        284.449E+03  
               80.E-03           288.106E+03        287.327E+03  
               82.5E-03          290.922E+03        290.162E+03  
               85.E-03           293.699E+03        292.957E+03  
               87.5E-03          296.437E+03        295.712E+03  
               90.E-03           299.138E+03        298.429E+03  
               92.5E-03          301.803E+03        301.11E+03   
               95.E-03           304.433E+03        303.756E+03  
               97.5E-03          307.03E+03         306.367E+03  
              100.E-03           309.595E+03        308.946E+03  
              102.5E-03          312.128E+03        311.493E+03  
              105.E-03           314.631E+03        314.009E+03  
              107.5E-03          317.105E+03        316.496E+03  
              110.E-03           319.55E+03         318.953E+03  
              112.5E-03          321.967E+03        321.382E+03  
              115.E-03           324.358E+03        323.785E+03  
              117.5E-03          326.723E+03        326.161E+03  
              120.E-03           329.062E+03        328.511E+03  
              122.5E-03          331.377E+03        330.836E+03  
              125.E-03           333.668E+03        333.138E+03  
              127.5E-03          335.936E+03        335.415E+03  
              130.E-03           338.181E+03        337.67E+03   
              132.5E-03          340.404E+03        339.903E+03  
              135.E-03           342.606E+03        342.113E+03  
              137.5E-03          344.787E+03        344.303E+03  
              140.E-03           346.947E+03        346.472E+03  
              142.5E-03          349.088E+03        348.621E+03  
              145.E-03           351.209E+03        350.75E+03   
              147.5E-03          353.311E+03        352.86E+03   
              150.E-03           355.394E+03        354.951E+03  
              152.5E-03          357.46E+03         357.024E+03  
              155.E-03           359.508E+03        359.079E+03  
              157.5E-03          361.538E+03        361.117E+03  
              160.E-03           363.552E+03        363.138E+03  
              162.5E-03          365.549E+03        365.142E+03  
              165.E-03           367.53E+03         367.129E+03  
              167.5E-03          369.495E+03        369.101E+03  
              170.E-03           371.444E+03        371.057E+03  
              172.5E-03          373.379E+03        372.998E+03  
              175.E-03           375.298E+03        374.924E+03  
              177.5E-03          377.203E+03        376.835E+03  
              180.E-03           379.094E+03        378.732E+03  
              182.5E-03          380.971E+03        380.614E+03  
              185.E-03           382.834E+03        382.483E+03  
              187.5E-03          384.683E+03        384.338E+03  
              190.E-03           386.52E+03         386.18E+03   
              192.5E-03          388.343E+03        388.009E+03  
              195.E-03           390.154E+03        389.825E+03  
              197.5E-03          391.952E+03        391.628E+03  
              200.E-03           393.738E+03        393.42E+03   
              202.5E-03          395.512E+03        395.199E+03  
              205.E-03           397.274E+03        396.966E+03  
              207.5E-03          399.025E+03        398.721E+03  
              210.E-03           400.764E+03        400.465E+03  
              212.5E-03          402.492E+03        402.198E+03  
              215.E-03           404.209E+03        403.919E+03  
              217.5E-03          405.915E+03        405.63E+03   
              220.E-03           407.61E+03         407.33E+03   
              222.5E-03          409.295E+03        409.019E+03  
              225.E-03           410.97E+03         410.698E+03  
              227.5E-03          412.634E+03        412.367E+03  
              230.E-03           414.289E+03        414.026E+03  
              232.5E-03          415.933E+03        415.675E+03  
              235.E-03           417.568E+03        417.314E+03  
              237.5E-03          419.194E+03        418.944E+03  
              240.E-03           420.81E+03         420.564E+03  
              242.5E-03          422.417E+03        422.175E+03  
              245.E-03           424.014E+03        423.776E+03  
              247.5E-03          425.603E+03        425.369E+03  
              250.E-03           427.183E+03        426.953E+03  
              252.5E-03          428.755E+03        428.528E+03  
              255.E-03           430.317E+03        430.095E+03  
              257.5E-03          431.872E+03        431.653E+03  
              260.E-03           433.418E+03        433.202E+03  
              262.5E-03          434.955E+03        434.744E+03  
              265.E-03           436.485E+03        436.277E+03  
              267.5E-03          438.007E+03        437.802E+03  
              270.E-03           439.521E+03        439.32E+03   
              272.5E-03          441.027E+03        440.829E+03  
              275.E-03           442.525E+03        442.331E+03  
              277.5E-03          444.016E+03        443.825E+03  
              280.E-03           445.499E+03        445.312E+03  
              282.5E-03          446.975E+03        446.792E+03  
              285.E-03           448.444E+03        448.264E+03  
              287.5E-03          449.906E+03        449.729E+03  
              290.E-03           451.36E+03         451.187E+03  
              292.5E-03          452.808E+03        452.637E+03  
              295.E-03           454.248E+03        454.081E+03  
              297.5E-03          455.682E+03        455.518E+03  
              300.E-03           457.109E+03        456.949E+03  
              302.5E-03          458.53E+03         458.372E+03  
              305.E-03           459.944E+03        459.789E+03  
              307.5E-03          461.351E+03        461.2E+03    
              310.E-03           462.752E+03        462.604E+03  
              312.5E-03          464.147E+03        464.002E+03  
              315.E-03           465.536E+03        465.394E+03  
              317.5E-03          466.918E+03        466.779E+03  
              320.E-03           468.294E+03        468.158E+03  
              322.5E-03          469.664E+03        469.531E+03  
              325.E-03           471.029E+03        470.899E+03  
              327.5E-03          472.387E+03        472.26E+03   
              330.E-03           473.739E+03        473.616E+03  
              332.5E-03          475.086E+03        474.965E+03  
              335.E-03           476.427E+03        476.309E+03  
              337.5E-03          477.763E+03        477.648E+03  
              340.E-03           479.093E+03        478.98E+03   
              342.5E-03          480.417E+03        480.308E+03  
              345.E-03           481.736E+03        481.629E+03  
              347.5E-03          483.049E+03        482.946E+03  
              350.E-03           484.358E+03        484.257E+03  
              352.5E-03          485.661E+03        485.563E+03  
              355.E-03           549.812E+03        550.175E+03  
              357.5E-03          653.553E+03        653.678E+03  
              360.E-03           710.627E+03        710.973E+03  
              362.5E-03          737.028E+03        737.369E+03  
              365.E-03           749.911E+03        750.252E+03  
              367.5E-03          757.22E+03         757.561E+03  
              370.E-03           762.118E+03        762.463E+03  
              372.5E-03          765.942E+03        766.292E+03  
              375.E-03           769.276E+03        769.631E+03  
              377.5E-03          772.377E+03        772.739E+03  
              380.E-03           775.365E+03        775.732E+03  
              382.5E-03          778.291E+03        778.664E+03  
              385.E-03           781.181E+03        781.56E+03   
              387.5E-03          784.046E+03        784.431E+03  
              390.E-03           786.891E+03        787.282E+03  
              392.5E-03          789.719E+03        790.116E+03  
              395.E-03           792.531E+03        792.933E+03  
              397.5E-03          795.328E+03        795.735E+03  
              400.E-03           798.11E+03         798.523E+03  
              402.5E-03          800.877E+03        801.296E+03  
              405.E-03           803.63E+03         804.055E+03  
              407.5E-03          806.369E+03        806.799E+03  
              410.E-03           809.094E+03        809.53E+03   
              412.5E-03          811.806E+03        812.247E+03  
              415.E-03           814.503E+03        814.95E+03   
              417.5E-03          817.188E+03        817.641E+03  
              420.E-03           819.859E+03        820.318E+03  
              422.5E-03          822.518E+03        822.982E+03  
              425.E-03           825.164E+03        825.633E+03  
              427.5E-03          827.797E+03        828.272E+03  
              430.E-03           830.417E+03        830.898E+03  
              432.5E-03          833.025E+03        833.511E+03  
              435.E-03           835.621E+03        836.113E+03  
              437.5E-03          838.205E+03        838.703E+03  
              440.E-03           840.778E+03        841.281E+03  
              442.5E-03          843.338E+03        843.846E+03  
              445.E-03           845.887E+03        846.401E+03  
              447.5E-03          848.424E+03        848.944E+03  
              450.E-03           850.95E+03         851.476E+03  
              452.5E-03          853.465E+03        853.996E+03  
              455.E-03           855.969E+03        856.505E+03  
              457.5E-03          858.461E+03        859.004E+03  
              460.E-03           860.943E+03        861.492E+03  
              462.5E-03          863.415E+03        863.969E+03  
              465.E-03           865.876E+03        866.435E+03  
              467.5E-03          868.326E+03        868.891E+03  
              470.E-03           870.766E+03        871.337E+03  
              472.5E-03          873.196E+03        873.773E+03  
              475.E-03           875.616E+03        876.198E+03  
              477.5E-03          878.025E+03        878.614E+03  
              480.E-03           880.425E+03        881.02E+03   
              482.5E-03          882.815E+03        883.416E+03  
              485.E-03           885.196E+03        885.802E+03  
              487.5E-03          887.567E+03        888.179E+03  
              490.E-03           889.928E+03        890.546E+03  
              492.5E-03          892.28E+03         892.904E+03  
              495.E-03           894.623E+03        895.253E+03  
              497.5E-03          896.957E+03        897.593E+03  
              500.E-03           899.281E+03        899.923E+03  
              502.5E-03          901.597E+03        902.245E+03  
              505.E-03           903.904E+03        904.558E+03  
              507.5E-03          906.201E+03        906.862E+03  
              510.E-03           908.491E+03        909.157E+03  
              512.5E-03          910.771E+03        911.444E+03  
              515.E-03           913.043E+03        913.722E+03  
              517.5E-03          915.307E+03        915.992E+03  
              520.E-03           917.562E+03        918.254E+03  
              522.5E-03          919.809E+03        920.507E+03  
              525.E-03           922.048E+03        922.752E+03  
              527.5E-03          924.278E+03        924.989E+03  
              530.E-03           925.9E+03          926.614E+03  
              532.5E-03          964.756E+03        965.68E+03   
              535.E-03           974.497E+03        975.471E+03  
              537.5E-03          979.292E+03        980.282E+03  
              540.E-03           982.61E+03         983.607E+03  
              542.5E-03          985.458E+03        986.46E+03   
              545.E-03           988.125E+03        989.13E+03   
              547.5E-03          990.714E+03        991.721E+03  
              550.E-03           993.265E+03        994.273E+03  
              552.5E-03          995.793E+03        996.803E+03  
              555.E-03           998.306E+03        999.318E+03  
              557.5E-03            1.00081E+06        1.00182E+06
              560.E-03             1.0033E+06         1.00431E+06
              562.5E-03            1.00578E+06        1.0068E+06 
              565.E-03             1.00825E+06        1.00927E+06
              567.5E-03            1.01072E+06        1.01174E+06
              570.E-03             1.01317E+06        1.01419E+06
              572.5E-03            1.01562E+06        1.01664E+06
              575.E-03             1.01805E+06        1.01908E+06
              577.5E-03            1.02048E+06        1.02151E+06
              580.E-03             1.0229E+06         1.02393E+06
              582.5E-03            1.02531E+06        1.02634E+06
              585.E-03             1.02771E+06        1.02875E+06
              587.5E-03            1.0301E+06         1.03114E+06
              590.E-03             1.03249E+06        1.03353E+06
              592.5E-03            1.03487E+06        1.03591E+06
              595.E-03             1.03724E+06        1.03828E+06
              597.5E-03            1.0396E+06         1.04065E+06
              600.E-03             1.04195E+06        1.043E+06  
              602.5E-03            1.04429E+06        1.04535E+06
              605.E-03             1.04663E+06        1.04769E+06
              607.5E-03            1.04896E+06        1.05002E+06
              610.E-03             1.05128E+06        1.05234E+06
              612.5E-03            1.0536E+06         1.05466E+06
              615.E-03             1.0559E+06         1.05697E+06
              617.5E-03            1.0582E+06         1.05927E+06
              620.E-03             1.06049E+06        1.06157E+06
              622.5E-03            1.06278E+06        1.06385E+06
              625.E-03             1.06505E+06        1.06613E+06
              627.5E-03            1.06732E+06        1.06841E+06
              630.E-03             1.06958E+06        1.07067E+06
              632.5E-03            1.07184E+06        1.07293E+06
              635.E-03             1.07409E+06        1.07518E+06
              637.5E-03            1.07633E+06        1.07742E+06
              640.E-03             1.07856E+06        1.07966E+06
              642.5E-03            1.08079E+06        1.08189E+06
              645.E-03             1.08301E+06        1.08412E+06
              647.5E-03            1.08522E+06        1.08633E+06
              650.E-03             1.08743E+06        1.08854E+06
              652.5E-03            1.08963E+06        1.09075E+06
              655.E-03             1.09182E+06        1.09294E+06
              657.5E-03            1.094E+06          1.09513E+06
              660.E-03             1.09618E+06        1.09732E+06
              662.5E-03            1.09836E+06        1.09949E+06
              665.E-03             1.10052E+06        1.10166E+06
              667.5E-03            1.10269E+06        1.10383E+06
              670.E-03             1.10484E+06        1.10599E+06
              672.5E-03            1.10699E+06        1.10814E+06
              675.E-03             1.10913E+06        1.11029E+06
              677.5E-03            1.11126E+06        1.11242E+06
              680.E-03             1.11339E+06        1.11456E+06
              682.5E-03            1.11552E+06        1.11669E+06
              685.E-03             1.11763E+06        1.11881E+06
              687.5E-03            1.11975E+06        1.12092E+06
              690.E-03             1.12185E+06        1.12303E+06
              692.5E-03            1.12395E+06        1.12514E+06
              695.E-03             1.12604E+06        1.12723E+06
              697.5E-03            1.12813E+06        1.12933E+06
              700.E-03             1.13021E+06        1.13141E+06
              702.5E-03            1.13229E+06        1.13349E+06
              705.E-03             1.13436E+06        1.13557E+06
              707.5E-03            1.13642E+06        1.13764E+06
              710.E-03             1.13848E+06        1.1397E+06 
              712.5E-03            1.14054E+06        1.14176E+06
              715.E-03             1.14258E+06        1.14381E+06
              717.5E-03            1.14463E+06        1.14586E+06
              720.E-03             1.14666E+06        1.1479E+06 
              722.5E-03            1.14869E+06        1.14994E+06
              725.E-03             1.15072E+06        1.15197E+06
              727.5E-03            1.15274E+06        1.154E+06  
              730.E-03             1.15476E+06        1.15602E+06
              732.5E-03            1.15677E+06        1.15803E+06
              735.E-03             1.15877E+06        1.16005E+06
              737.5E-03            1.16077E+06        1.16205E+06
              740.E-03             1.16277E+06        1.16405E+06
              742.5E-03            1.16475E+06        1.16605E+06
              745.E-03             1.16674E+06        1.16804E+06
              747.5E-03            1.16872E+06        1.17002E+06
              750.E-03             1.17069E+06        1.172E+06  
              752.5E-03            1.17266E+06        1.17398E+06
              755.E-03             1.17463E+06        1.17595E+06
              757.5E-03            1.17659E+06        1.17791E+06
              760.E-03             1.17854E+06        1.17987E+06
              762.5E-03            1.18049E+06        1.18183E+06
              765.E-03             1.18243E+06        1.18378E+06
              767.5E-03            1.18437E+06        1.18572E+06
              770.E-03             1.18631E+06        1.18767E+06
              772.5E-03            1.18824E+06        1.1896E+06 
              775.E-03             1.19017E+06        1.19154E+06
              777.5E-03            1.19209E+06        1.19346E+06
              780.E-03             1.194E+06          1.19539E+06
              782.5E-03            1.19591E+06        1.1973E+06 
              785.E-03             1.19782E+06        1.19922E+06
              787.5E-03            1.19972E+06        1.20113E+06
              790.E-03             1.20162E+06        1.20303E+06
              792.5E-03            1.20352E+06        1.20493E+06
              795.E-03             1.20541E+06        1.20683E+06
              797.5E-03            1.20729E+06        1.20872E+06
              800.E-03             1.20917E+06        1.21061E+06
              802.5E-03            1.21105E+06        1.21249E+06
              805.E-03             1.21292E+06        1.21437E+06
              807.5E-03            1.21478E+06        1.21624E+06
              810.E-03             1.21665E+06        1.21811E+06
              812.5E-03            1.21851E+06        1.21998E+06
              815.E-03             1.22036E+06        1.22184E+06
              817.5E-03            1.22221E+06        1.2237E+06 
              820.E-03             1.22406E+06        1.22555E+06
              822.5E-03            1.2259E+06         1.2274E+06 
              825.E-03             1.22773E+06        1.22925E+06
              827.5E-03            1.22957E+06        1.23109E+06
              830.E-03             1.2314E+06         1.23292E+06
              832.5E-03            1.23322E+06        1.23476E+06
              835.E-03             1.23504E+06        1.23659E+06
              837.5E-03            1.23686E+06        1.23841E+06
              840.E-03             1.23867E+06        1.24023E+06
              842.5E-03            1.24048E+06        1.24205E+06
              845.E-03             1.24229E+06        1.24386E+06
              847.5E-03            1.24409E+06        1.24567E+06
              850.E-03             1.24589E+06        1.24748E+06
              852.5E-03            1.24768E+06        1.24928E+06
              855.E-03             1.24947E+06        1.25108E+06
              857.5E-03            1.25125E+06        1.25287E+06
              860.E-03             1.25304E+06        1.25466E+06
              862.5E-03            1.25481E+06        1.25645E+06
              865.E-03             1.25659E+06        1.25823E+06
              867.5E-03            1.25836E+06        1.26001E+06
              870.E-03             1.26012E+06        1.26179E+06
              872.5E-03            1.26189E+06        1.26356E+06
              875.E-03             1.26365E+06        1.26532E+06
              877.5E-03            1.2654E+06         1.26709E+06
              880.E-03             1.26715E+06        1.26885E+06
              882.5E-03            1.2689E+06         1.27061E+06
              885.E-03             1.27065E+06        1.27236E+06
              887.5E-03            1.27239E+06        1.27411E+06
              890.E-03             1.27412E+06        1.27586E+06
              892.5E-03            1.27586E+06        1.2776E+06 
              895.E-03             1.27759E+06        1.27934E+06
              897.5E-03            1.27931E+06        1.28108E+06
              900.E-03             1.28104E+06        1.28281E+06
              902.5E-03            1.28276E+06        1.28454E+06
              905.E-03             1.28447E+06        1.28627E+06
              907.5E-03            1.28619E+06        1.28799E+06
              910.E-03             1.28789E+06        1.28971E+06
              912.5E-03            1.2896E+06         1.29142E+06
              915.E-03             1.2913E+06         1.29314E+06
              917.5E-03            1.293E+06          1.29485E+06
              920.E-03             1.2947E+06         1.29655E+06
              922.5E-03            1.29639E+06        1.29825E+06
              925.E-03             1.29808E+06        1.29995E+06
              927.5E-03            1.29976E+06        1.30165E+06
              930.E-03             1.30145E+06        1.30334E+06
              932.5E-03            1.30312E+06        1.30503E+06
              935.E-03             1.3048E+06         1.30672E+06
              937.5E-03            1.30647E+06        1.3084E+06 
              940.E-03             1.30814E+06        1.31008E+06
              942.5E-03            1.30981E+06        1.31176E+06
              945.E-03             1.31147E+06        1.31344E+06
              947.5E-03            1.31313E+06        1.31511E+06
              950.E-03             1.31479E+06        1.31677E+06
              952.5E-03            1.31644E+06        1.31844E+06
              955.E-03             1.31809E+06        1.3201E+06 
              957.5E-03            1.31974E+06        1.32176E+06
              960.E-03             1.32138E+06        1.32342E+06
              962.5E-03            1.32302E+06        1.32507E+06
              965.E-03             1.32466E+06        1.32672E+06
              967.5E-03            1.32629E+06        1.32837E+06
              970.E-03             1.32793E+06        1.33001E+06
              972.5E-03            1.32955E+06        1.33165E+06
              975.E-03             1.33118E+06        1.33329E+06
              977.5E-03            1.3328E+06         1.33492E+06
              980.E-03             1.33442E+06        1.33656E+06
              982.5E-03            1.33604E+06        1.33818E+06
              985.E-03             1.33765E+06        1.33981E+06
              987.5E-03            1.33926E+06        1.34143E+06
              990.E-03             1.34087E+06        1.34306E+06
              992.5E-03            1.34247E+06        1.34467E+06
              995.E-03             1.34408E+06        1.34629E+06
              997.5E-03            1.34568E+06        1.3479E+06 
                1.                 1.34727E+06        1.34951E+06




