
                  X                 Dinn               Dout      

                0.                 0.                 0.         
                2.5E-03            1.14237E-03        1.01823E-03
                5.E-03             3.73996E-03        3.5445E-03 
                7.5E-03            6.2883E-03         6.05366E-03
               10.E-03             8.82222E-03        8.56525E-03
               12.5E-03           11.3476E-03        11.0809E-03 
               15.E-03            13.8674E-03        13.6004E-03 
               17.5E-03           16.3832E-03        16.1233E-03 
               20.E-03            18.896E-03         18.6491E-03 
               22.5E-03           21.4065E-03        21.1773E-03 
               25.E-03            23.9155E-03        23.7076E-03 
               27.5E-03           26.4232E-03        26.2396E-03 
               30.E-03            28.93E-03          28.7732E-03 
               32.5E-03           31.4362E-03        31.3082E-03 
               35.E-03            33.9419E-03        33.8444E-03 
               37.5E-03           36.4473E-03        36.3817E-03 
               40.E-03            38.9525E-03        38.92E-03   
               42.5E-03           41.4577E-03        41.4591E-03 
               45.E-03            43.9629E-03        43.999E-03  
               47.5E-03           46.4682E-03        46.5397E-03 
               50.E-03            48.9736E-03        49.081E-03  
               52.5E-03           51.4792E-03        51.6229E-03 
               55.E-03            53.985E-03         54.1653E-03 
               57.5E-03           56.4922E-03        56.6511E-03 
               60.E-03            58.9617E-03        58.7088E-03 
               62.5E-03           60.8618E-03        60.6042E-03 
               65.E-03            62.5146E-03        62.2471E-03 
               67.5E-03           64.0383E-03        63.764E-03  
               70.E-03            65.5004E-03        65.2202E-03 
               72.5E-03           66.9333E-03        66.6481E-03 
               75.E-03            68.3525E-03        68.0628E-03 
               77.5E-03           69.7654E-03        69.4716E-03 
               80.E-03            71.1752E-03        70.8776E-03 
               82.5E-03           72.5836E-03        72.2824E-03 
               85.E-03            73.9914E-03        73.6869E-03 
               87.5E-03           75.399E-03         75.0914E-03 
               90.E-03            76.8064E-03        76.4959E-03 
               92.5E-03           78.2139E-03        77.9005E-03 
               95.E-03            79.6213E-03        79.3052E-03 
               97.5E-03           81.0289E-03        80.7099E-03 
              100.E-03            82.4365E-03        82.1146E-03 
              102.5E-03           84.6873E-03        84.2591E-03 
              105.E-03            87.7469E-03        87.3229E-03 
              107.5E-03           90.5914E-03        90.1966E-03 
              110.E-03            93.2298E-03        92.8758E-03 
              112.5E-03           95.7818E-03        95.4739E-03 
              115.E-03            98.3012E-03        98.0414E-03 
              117.5E-03          100.809E-03        100.598E-03  
              120.E-03           103.313E-03        103.15E-03   
              122.5E-03          105.816E-03        105.701E-03  
              125.E-03           108.32E-03         108.251E-03  
              127.5E-03          110.824E-03        110.801E-03  
              130.E-03           113.328E-03        113.351E-03  
              132.5E-03          115.834E-03        115.901E-03  
              135.E-03           118.34E-03         118.452E-03  
              137.5E-03          120.846E-03        121.002E-03  
              140.E-03           123.354E-03        123.552E-03  
              142.5E-03          125.862E-03        126.103E-03  
              145.E-03           128.371E-03        128.653E-03  
              147.5E-03          130.88E-03         131.204E-03  
              150.E-03           133.39E-03         133.754E-03  
              152.5E-03          135.901E-03        136.305E-03  
              155.E-03           138.412E-03        138.856E-03  
              157.5E-03          140.924E-03        141.406E-03  
              160.E-03           143.437E-03        143.957E-03  
              162.5E-03          145.95E-03         146.508E-03  
              165.E-03           148.464E-03        149.059E-03  
              167.5E-03          150.978E-03        151.61E-03   
              170.E-03           153.493E-03        154.161E-03  
              172.5E-03          156.008E-03        156.712E-03  
              175.E-03           158.524E-03        159.263E-03  
              177.5E-03          161.041E-03        161.814E-03  
              180.E-03           163.558E-03        164.365E-03  
              182.5E-03          166.075E-03        166.916E-03  
              185.E-03           168.593E-03        169.467E-03  
              187.5E-03          171.112E-03        172.018E-03  
              190.E-03           173.631E-03        174.57E-03   
              192.5E-03          176.151E-03        177.121E-03  
              195.E-03           178.671E-03        179.672E-03  
              197.5E-03          181.191E-03        182.223E-03  
              200.E-03           183.712E-03        184.775E-03  
              202.5E-03          186.234E-03        187.326E-03  
              205.E-03           188.756E-03        189.877E-03  
              207.5E-03          191.278E-03        192.429E-03  
              210.E-03           193.801E-03        194.98E-03   
              212.5E-03          196.325E-03        197.532E-03  
              215.E-03           198.849E-03        200.083E-03  
              217.5E-03          201.373E-03        202.634E-03  
              220.E-03           203.898E-03        205.186E-03  
              222.5E-03          206.423E-03        207.737E-03  
              225.E-03           208.948E-03        210.289E-03  
              227.5E-03          211.474E-03        212.84E-03   
              230.E-03           214.001E-03        215.392E-03  
              232.5E-03          216.527E-03        217.943E-03  
              235.E-03           219.055E-03        220.495E-03  
              237.5E-03          221.582E-03        223.046E-03  
              240.E-03           224.11E-03         225.598E-03  
              242.5E-03          226.639E-03        228.149E-03  
              245.E-03           229.168E-03        230.701E-03  
              247.5E-03          231.697E-03        233.252E-03  
              250.E-03           234.227E-03        235.804E-03  
              252.5E-03          236.757E-03        238.355E-03  
              255.E-03           239.287E-03        240.907E-03  
              257.5E-03          241.818E-03        243.458E-03  
              260.E-03           244.349E-03        246.01E-03   
              262.5E-03          246.881E-03        248.562E-03  
              265.E-03           249.413E-03        251.113E-03  
              267.5E-03          251.945E-03        253.664E-03  
              270.E-03           254.478E-03        256.216E-03  
              272.5E-03          257.011E-03        258.767E-03  
              275.E-03           259.544E-03        261.319E-03  
              277.5E-03          262.078E-03        263.87E-03   
              280.E-03           264.612E-03        266.422E-03  
              282.5E-03          267.147E-03        268.973E-03  
              285.E-03           269.681E-03        271.525E-03  
              287.5E-03          272.217E-03        274.076E-03  
              290.E-03           274.752E-03        276.628E-03  
              292.5E-03          277.288E-03        279.179E-03  
              295.E-03           279.824E-03        281.73E-03   
              297.5E-03          282.361E-03        284.282E-03  
              300.E-03           284.898E-03        286.833E-03  
              302.5E-03          287.435E-03        289.384E-03  
              305.E-03           289.973E-03        291.936E-03  
              307.5E-03          292.511E-03        294.487E-03  
              310.E-03           295.049E-03        297.038E-03  
              312.5E-03          297.588E-03        299.589E-03  
              315.E-03           300.127E-03        302.141E-03  
              317.5E-03          302.666E-03        304.692E-03  
              320.E-03           305.206E-03        307.243E-03  
              322.5E-03          307.746E-03        309.794E-03  
              325.E-03           310.286E-03        312.345E-03  
              327.5E-03          312.826E-03        314.896E-03  
              330.E-03           315.367E-03        317.447E-03  
              332.5E-03          317.909E-03        319.998E-03  
              335.E-03           320.45E-03         322.549E-03  
              337.5E-03          322.992E-03        325.1E-03    
              340.E-03           325.534E-03        327.651E-03  
              342.5E-03          328.077E-03        330.202E-03  
              345.E-03           330.62E-03         332.753E-03  
              347.5E-03          333.163E-03        335.304E-03  
              350.E-03           335.707E-03        337.855E-03  
              352.5E-03          338.251E-03        340.406E-03  
              355.E-03           340.795E-03        342.956E-03  
              357.5E-03          343.339E-03        345.507E-03  
              360.E-03           345.884E-03        348.058E-03  
              362.5E-03          348.429E-03        350.608E-03  
              365.E-03           350.975E-03        353.159E-03  
              367.5E-03          353.521E-03        355.709E-03  
              370.E-03           356.067E-03        358.26E-03   
              372.5E-03          358.613E-03        360.81E-03   
              375.E-03           361.16E-03         363.361E-03  
              377.5E-03          363.707E-03        365.911E-03  
              380.E-03           366.254E-03        368.461E-03  
              382.5E-03          368.802E-03        371.012E-03  
              385.E-03           371.35E-03         373.562E-03  
              387.5E-03          373.898E-03        376.112E-03  
              390.E-03           376.447E-03        378.662E-03  
              392.5E-03          378.996E-03        381.212E-03  
              395.E-03           381.545E-03        383.762E-03  
              397.5E-03          384.095E-03        386.312E-03  
              400.E-03           386.644E-03        388.862E-03  
              402.5E-03          389.195E-03        391.412E-03  
              405.E-03           391.745E-03        393.962E-03  
              407.5E-03          394.296E-03        396.512E-03  
              410.E-03           396.847E-03        399.062E-03  
              412.5E-03          399.399E-03        401.611E-03  
              415.E-03           401.951E-03        404.161E-03  
              417.5E-03          404.503E-03        406.71E-03   
              420.E-03           407.055E-03        409.26E-03   
              422.5E-03          409.608E-03        411.809E-03  
              425.E-03           412.161E-03        414.359E-03  
              427.5E-03          414.714E-03        416.908E-03  
              430.E-03           417.268E-03        419.457E-03  
              432.5E-03          419.822E-03        422.007E-03  
              435.E-03           422.377E-03        424.556E-03  
              437.5E-03          424.931E-03        427.105E-03  
              440.E-03           427.486E-03        429.654E-03  
              442.5E-03          430.042E-03        432.203E-03  
              445.E-03           432.598E-03        434.751E-03  
              447.5E-03          435.154E-03        437.3E-03    
              450.E-03           437.71E-03         439.849E-03  
              452.5E-03          440.267E-03        442.398E-03  
              455.E-03           442.824E-03        444.946E-03  
              457.5E-03          445.381E-03        447.495E-03  
              460.E-03           447.939E-03        450.043E-03  
              462.5E-03          450.497E-03        452.591E-03  
              465.E-03           453.055E-03        455.14E-03   
              467.5E-03          455.614E-03        457.688E-03  
              470.E-03           458.173E-03        460.236E-03  
              472.5E-03          460.732E-03        462.784E-03  
              475.E-03           463.292E-03        465.332E-03  
              477.5E-03          465.852E-03        467.88E-03   
              480.E-03           468.413E-03        470.428E-03  
              482.5E-03          470.973E-03        472.975E-03  
              485.E-03           473.534E-03        475.523E-03  
              487.5E-03          476.096E-03        478.07E-03   
              490.E-03           478.658E-03        480.618E-03  
              492.5E-03          481.22E-03         483.165E-03  
              495.E-03           483.783E-03        485.713E-03  
              497.5E-03          486.345E-03        488.26E-03   
              500.E-03           488.909E-03        490.807E-03  
              502.5E-03          491.472E-03        493.354E-03  
              505.E-03           494.036E-03        495.901E-03  
              507.5E-03          496.601E-03        498.447E-03  
              510.E-03           499.165E-03        500.994E-03  
              512.5E-03          501.73E-03         503.541E-03  
              515.E-03           504.296E-03        506.087E-03  
              517.5E-03          506.862E-03        508.634E-03  
              520.E-03           509.428E-03        511.18E-03   
              522.5E-03          511.994E-03        513.726E-03  
              525.E-03           514.561E-03        516.272E-03  
              527.5E-03          517.129E-03        518.818E-03  
              530.E-03           519.696E-03        521.364E-03  
              532.5E-03          522.264E-03        523.91E-03   
              535.E-03           524.833E-03        526.456E-03  
              537.5E-03          527.402E-03        529.001E-03  
              540.E-03           529.971E-03        531.546E-03  
              542.5E-03          532.541E-03        534.092E-03  
              545.E-03           535.111E-03        536.637E-03  
              547.5E-03          537.681E-03        539.182E-03  
              550.E-03           540.252E-03        541.727E-03  
              552.5E-03          542.823E-03        544.272E-03  
              555.E-03           545.395E-03        546.817E-03  
              557.5E-03          547.967E-03        549.361E-03  
              560.E-03           550.539E-03        551.906E-03  
              562.5E-03          553.112E-03        554.45E-03   
              565.E-03           555.685E-03        556.994E-03  
              567.5E-03          558.259E-03        559.538E-03  
              570.E-03           560.833E-03        562.082E-03  
              572.5E-03          563.408E-03        564.626E-03  
              575.E-03           565.983E-03        567.17E-03   
              577.5E-03          568.558E-03        569.713E-03  
              580.E-03           571.134E-03        572.257E-03  
              582.5E-03          573.71E-03         574.8E-03    
              585.E-03           576.287E-03        577.343E-03  
              587.5E-03          578.864E-03        579.886E-03  
              590.E-03           581.442E-03        582.429E-03  
              592.5E-03          584.02E-03         584.972E-03  
              595.E-03           586.599E-03        587.514E-03  
              597.5E-03          589.178E-03        590.057E-03  
              600.E-03           591.757E-03        592.599E-03  
              602.5E-03          594.337E-03        595.141E-03  
              605.E-03           596.917E-03        597.683E-03  
              607.5E-03          599.498E-03        600.225E-03  
              610.E-03           602.08E-03         602.766E-03  
              612.5E-03          604.661E-03        605.308E-03  
              615.E-03           607.244E-03        607.849E-03  
              617.5E-03          609.826E-03        610.39E-03   
              620.E-03           612.41E-03         612.931E-03  
              622.5E-03          614.993E-03        615.472E-03  
              625.E-03           617.578E-03        618.013E-03  
              627.5E-03          620.162E-03        620.553E-03  
              630.E-03           622.748E-03        623.094E-03  
              632.5E-03          625.333E-03        625.634E-03  
              635.E-03           627.92E-03         628.174E-03  
              637.5E-03          630.507E-03        630.713E-03  
              640.E-03           633.094E-03        633.253E-03  
              642.5E-03          635.682E-03        635.792E-03  
              645.E-03           638.27E-03         638.332E-03  
              647.5E-03          640.859E-03        640.871E-03  
              650.E-03           643.448E-03        643.41E-03   
              652.5E-03          646.038E-03        645.948E-03  
              655.E-03           648.629E-03        648.487E-03  
              657.5E-03          651.22E-03         651.025E-03  
              660.E-03           653.812E-03        653.563E-03  
              662.5E-03          656.404E-03        656.101E-03  
              665.E-03           658.997E-03        658.638E-03  
              667.5E-03          661.59E-03         661.176E-03  
              670.E-03           664.184E-03        663.713E-03  
              672.5E-03          666.779E-03        666.25E-03   
              675.E-03           669.374E-03        668.787E-03  
              677.5E-03          671.97E-03         671.324E-03  
              680.E-03           674.566E-03        673.86E-03   
              682.5E-03          677.163E-03        676.396E-03  
              685.E-03           679.76E-03         678.932E-03  
              687.5E-03          682.359E-03        681.468E-03  
              690.E-03           684.957E-03        684.003E-03  
              692.5E-03          687.557E-03        686.539E-03  
              695.E-03           690.157E-03        689.074E-03  
              697.5E-03          692.758E-03        691.609E-03  
              700.E-03           695.359E-03        694.143E-03  
              702.5E-03          697.961E-03        696.677E-03  
              705.E-03           700.564E-03        699.211E-03  
              707.5E-03          703.167E-03        701.745E-03  
              710.E-03           705.771E-03        704.279E-03  
              712.5E-03          708.376E-03        706.812E-03  
              715.E-03           710.981E-03        709.345E-03  
              717.5E-03          713.587E-03        711.878E-03  
              720.E-03           716.194E-03        714.411E-03  
              722.5E-03          718.802E-03        716.943E-03  
              725.E-03           721.41E-03         719.475E-03  
              727.5E-03          724.019E-03        722.007E-03  
              730.E-03           726.629E-03        724.538E-03  
              732.5E-03          729.239E-03        727.07E-03   
              735.E-03           731.85E-03         729.6E-03    
              737.5E-03          734.462E-03        732.131E-03  
              740.E-03           737.075E-03        734.661E-03  
              742.5E-03          739.688E-03        737.192E-03  
              745.E-03           742.303E-03        739.721E-03  
              747.5E-03          744.918E-03        742.251E-03  
              750.E-03           747.533E-03        744.78E-03   
              752.5E-03          750.15E-03         747.309E-03  
              755.E-03           752.768E-03        749.838E-03  
              757.5E-03          755.386E-03        752.366E-03  
              760.E-03           758.005E-03        754.894E-03  
              762.5E-03          760.625E-03        757.422E-03  
              765.E-03           763.246E-03        759.949E-03  
              767.5E-03          765.867E-03        762.476E-03  
              770.E-03           768.49E-03         765.003E-03  
              772.5E-03          771.113E-03        767.529E-03  
              775.E-03           773.737E-03        770.055E-03  
              777.5E-03          776.363E-03        772.581E-03  
              780.E-03           778.989E-03        775.106E-03  
              782.5E-03          781.616E-03        777.631E-03  
              785.E-03           784.244E-03        780.156E-03  
              787.5E-03          786.873E-03        782.68E-03   
              790.E-03           789.502E-03        785.204E-03  
              792.5E-03          792.133E-03        787.728E-03  
              795.E-03           794.765E-03        790.251E-03  
              797.5E-03          797.398E-03        792.774E-03  
              800.E-03           800.031E-03        795.296E-03  
              802.5E-03          802.666E-03        797.818E-03  
              805.E-03           805.302E-03        800.34E-03   
              807.5E-03          807.939E-03        802.862E-03  
              810.E-03           810.576E-03        805.383E-03  
              812.5E-03          813.215E-03        807.903E-03  
              815.E-03           815.855E-03        810.423E-03  
              817.5E-03          818.496E-03        812.943E-03  
              820.E-03           821.138E-03        815.462E-03  
              822.5E-03          823.782E-03        817.981E-03  
              825.E-03           826.426E-03        820.5E-03    
              827.5E-03          829.071E-03        823.018E-03  
              830.E-03           831.718E-03        825.536E-03  
              832.5E-03          834.366E-03        828.053E-03  
              835.E-03           837.015E-03        830.57E-03   
              837.5E-03          839.665E-03        833.086E-03  
              840.E-03           842.316E-03        835.602E-03  
              842.5E-03          844.968E-03        838.118E-03  
              845.E-03           847.622E-03        840.633E-03  
              847.5E-03          850.277E-03        843.148E-03  
              850.E-03           852.933E-03        845.662E-03  
              852.5E-03          855.591E-03        848.176E-03  
              855.E-03           858.249E-03        850.689E-03  
              857.5E-03          860.91E-03         853.202E-03  
              860.E-03           863.571E-03        855.714E-03  
              862.5E-03          866.234E-03        858.226E-03  
              865.E-03           868.898E-03        860.737E-03  
              867.5E-03          871.563E-03        863.248E-03  
              870.E-03           874.23E-03         865.758E-03  
              872.5E-03          876.898E-03        868.268E-03  
              875.E-03           879.568E-03        870.777E-03  
              877.5E-03          882.239E-03        873.286E-03  
              880.E-03           884.911E-03        875.794E-03  
              882.5E-03          887.585E-03        878.301E-03  
              885.E-03           890.261E-03        880.809E-03  
              887.5E-03          892.938E-03        883.315E-03  
              890.E-03           895.616E-03        885.821E-03  
              892.5E-03          898.297E-03        888.327E-03  
              895.E-03           900.978E-03        890.831E-03  
              897.5E-03          903.661E-03        893.336E-03  
              900.E-03           906.346E-03        895.84E-03   
              902.5E-03          909.033E-03        898.343E-03  
              905.E-03           911.721E-03        900.845E-03  
              907.5E-03          914.411E-03        903.347E-03  
              910.E-03           917.102E-03        905.849E-03  
              912.5E-03          919.795E-03        908.349E-03  
              915.E-03           922.49E-03         910.85E-03   
              917.5E-03          925.187E-03        913.349E-03  
              920.E-03           927.886E-03        915.848E-03  
              922.5E-03          930.586E-03        918.346E-03  
              925.E-03           933.288E-03        920.844E-03  
              927.5E-03          935.992E-03        923.341E-03  
              930.E-03           938.698E-03        925.837E-03  
              932.5E-03          941.406E-03        928.333E-03  
              935.E-03           944.115E-03        930.828E-03  
              937.5E-03          946.827E-03        933.322E-03  
              940.E-03           949.541E-03        935.816E-03  
              942.5E-03          952.256E-03        938.309E-03  
              945.E-03           954.974E-03        940.801E-03  
              947.5E-03          957.694E-03        943.292E-03  
              950.E-03           960.416E-03        945.783E-03  
              952.5E-03          963.14E-03         948.273E-03  
              955.E-03           965.866E-03        950.762E-03  
              957.5E-03          968.594E-03        953.251E-03  
              960.E-03           971.324E-03        955.739E-03  
              962.5E-03          974.057E-03        958.226E-03  
              965.E-03           976.792E-03        960.712E-03  
              967.5E-03          979.529E-03        963.198E-03  
              970.E-03           982.269E-03        965.682E-03  
              972.5E-03          985.011E-03        968.166E-03  
              975.E-03           987.755E-03        970.649E-03  
              977.5E-03          990.502E-03        973.132E-03  
              980.E-03           993.252E-03        975.613E-03  
              982.5E-03          996.003E-03        978.094E-03  
              985.E-03           998.758E-03        980.574E-03  
              987.5E-03            1.00151          983.053E-03  
              990.E-03             1.00427          985.531E-03  
              992.5E-03            1.00704          988.008E-03  
              995.E-03             1.0098           990.484E-03  
              997.5E-03            1.01257          992.96E-03   
                1.                 1.01534          995.434E-03  




