
                  X              SENER-out           SENER-in    

                0.                 0.                 0.         
                2.5E-03          264.642E+03        260.499E+03  
                5.E-03           282.715E+03        279.518E+03  
                7.5E-03          298.942E+03        296.374E+03  
               10.E-03           313.934E+03        311.835E+03  
               12.5E-03          327.936E+03        326.195E+03  
               15.E-03           341.11E+03         339.65E+03   
               17.5E-03          353.576E+03        352.343E+03  
               20.E-03           365.428E+03        364.379E+03  
               22.5E-03          376.74E+03         375.844E+03  
               25.E-03           387.572E+03        386.805E+03  
               27.5E-03          397.976E+03        397.318E+03  
               30.E-03           407.993E+03        407.429E+03  
               32.5E-03          417.659E+03        417.176E+03  
               35.E-03           427.004E+03        426.594E+03  
               37.5E-03          436.057E+03        435.709E+03  
               40.E-03           444.84E+03         444.547E+03  
               42.5E-03          453.372E+03        453.13E+03   
               45.E-03           461.674E+03        461.476E+03  
               47.5E-03          469.759E+03        469.602E+03  
               50.E-03           477.643E+03        477.522E+03  
               52.5E-03          485.339E+03        485.251E+03  
               55.E-03           492.857E+03        492.8E+03    
               57.5E-03          480.858E+03        480.723E+03  
               60.E-03           426.418E+03        427.767E+03  
               62.5E-03          397.471E+03        398.345E+03  
               65.E-03           384.558E+03        385.284E+03  
               67.5E-03          379.481E+03        380.126E+03  
               70.E-03           378.285E+03        378.889E+03  
               72.5E-03          379.066E+03        379.648E+03  
               75.E-03           380.874E+03        381.445E+03  
               77.5E-03          383.22E+03         383.787E+03  
               80.E-03           385.845E+03        386.411E+03  
               82.5E-03          388.609E+03        389.176E+03  
               85.E-03           391.435E+03        392.005E+03  
               87.5E-03          394.281E+03        394.854E+03  
               90.E-03           397.125E+03        397.703E+03  
               92.5E-03          399.955E+03        400.537E+03  
               95.E-03           402.765E+03        403.351E+03  
               97.5E-03          405.55E+03         406.14E+03   
              100.E-03           408.309E+03        408.905E+03  
              102.5E-03          478.24E+03         479.455E+03  
              105.E-03           555.989E+03        557.042E+03  
              107.5E-03          578.447E+03        579.587E+03  
              110.E-03           588.088E+03        589.216E+03  
              112.5E-03          594.859E+03        595.972E+03  
              115.E-03           600.8E+03          601.899E+03  
              117.5E-03          606.427E+03        607.515E+03  
              120.E-03           611.898E+03        612.975E+03  
              122.5E-03          617.269E+03        618.335E+03  
              125.E-03           622.56E+03         623.617E+03  
              127.5E-03          627.781E+03        628.828E+03  
              130.E-03           632.936E+03        633.975E+03  
              132.5E-03          638.029E+03        639.06E+03   
              135.E-03           643.062E+03        644.085E+03  
              137.5E-03          648.036E+03        649.052E+03  
              140.E-03           652.954E+03        653.964E+03  
              142.5E-03          657.817E+03        658.82E+03   
              145.E-03           662.627E+03        663.625E+03  
              147.5E-03          667.385E+03        668.378E+03  
              150.E-03           672.094E+03        673.081E+03  
              152.5E-03          676.753E+03        677.735E+03  
              155.E-03           681.365E+03        682.343E+03  
              157.5E-03          685.931E+03        686.904E+03  
              160.E-03           690.451E+03        691.421E+03  
              162.5E-03          694.928E+03        695.895E+03  
              165.E-03           699.362E+03        700.326E+03  
              167.5E-03          703.755E+03        704.715E+03  
              170.E-03           708.107E+03        709.064E+03  
              172.5E-03          712.419E+03        713.374E+03  
              175.E-03           716.693E+03        717.645E+03  
              177.5E-03          720.929E+03        721.879E+03  
              180.E-03           725.128E+03        726.076E+03  
              182.5E-03          729.29E+03         730.237E+03  
              185.E-03           733.418E+03        734.363E+03  
              187.5E-03          737.511E+03        738.455E+03  
              190.E-03           741.571E+03        742.513E+03  
              192.5E-03          745.597E+03        746.539E+03  
              195.E-03           749.591E+03        750.532E+03  
              197.5E-03          753.554E+03        754.494E+03  
              200.E-03           757.485E+03        758.425E+03  
              202.5E-03          761.387E+03        762.326E+03  
              205.E-03           765.258E+03        766.198E+03  
              207.5E-03          769.101E+03        770.04E+03   
              210.E-03           772.915E+03        773.854E+03  
              212.5E-03          776.701E+03        777.641E+03  
              215.E-03           780.46E+03         781.4E+03    
              217.5E-03          784.192E+03        785.132E+03  
              220.E-03           787.897E+03        788.838E+03  
              222.5E-03          791.576E+03        792.518E+03  
              225.E-03           795.231E+03        796.173E+03  
              227.5E-03          798.86E+03         799.803E+03  
              230.E-03           802.464E+03        803.409E+03  
              232.5E-03          806.045E+03        806.99E+03   
              235.E-03           809.601E+03        810.548E+03  
              237.5E-03          813.135E+03        814.083E+03  
              240.E-03           816.646E+03        817.596E+03  
              242.5E-03          820.134E+03        821.085E+03  
              245.E-03           823.6E+03          824.553E+03  
              247.5E-03          827.045E+03        828.E+03     
              250.E-03           830.468E+03        831.425E+03  
              252.5E-03          833.87E+03         834.829E+03  
              255.E-03           837.252E+03        838.212E+03  
              257.5E-03          840.613E+03        841.576E+03  
              260.E-03           843.954E+03        844.919E+03  
              262.5E-03          847.275E+03        848.243E+03  
              265.E-03           850.577E+03        851.547E+03  
              267.5E-03          853.86E+03         854.833E+03  
              270.E-03           857.124E+03        858.1E+03    
              272.5E-03          860.37E+03         861.348E+03  
              275.E-03           863.597E+03        864.578E+03  
              277.5E-03          866.807E+03        867.791E+03  
              280.E-03           869.999E+03        870.985E+03  
              282.5E-03          873.173E+03        874.163E+03  
              285.E-03           876.33E+03         877.323E+03  
              287.5E-03          879.47E+03         880.466E+03  
              290.E-03           882.593E+03        883.593E+03  
              292.5E-03          885.7E+03          886.703E+03  
              295.E-03           888.791E+03        889.797E+03  
              297.5E-03          891.866E+03        892.876E+03  
              300.E-03           894.924E+03        895.938E+03  
              302.5E-03          897.968E+03        898.985E+03  
              305.E-03           900.996E+03        902.017E+03  
              307.5E-03          904.008E+03        905.033E+03  
              310.E-03           907.006E+03        908.035E+03  
              312.5E-03          909.989E+03        911.022E+03  
              315.E-03           912.957E+03        913.994E+03  
              317.5E-03          915.911E+03        916.952E+03  
              320.E-03           918.851E+03        919.896E+03  
              322.5E-03          921.777E+03        922.826E+03  
              325.E-03           924.688E+03        925.743E+03  
              327.5E-03          927.587E+03        928.645E+03  
              330.E-03           930.471E+03        931.534E+03  
              332.5E-03          933.343E+03        934.41E+03   
              335.E-03           936.201E+03        937.273E+03  
              337.5E-03          939.046E+03        940.123E+03  
              340.E-03           941.878E+03        942.96E+03   
              342.5E-03          944.697E+03        945.784E+03  
              345.E-03           947.504E+03        948.596E+03  
              347.5E-03          950.299E+03        951.396E+03  
              350.E-03           953.081E+03        954.183E+03  
              352.5E-03          955.851E+03        956.958E+03  
              355.E-03           958.609E+03        959.721E+03  
              357.5E-03          961.355E+03        962.473E+03  
              360.E-03           964.09E+03         965.213E+03  
              362.5E-03          966.813E+03        967.941E+03  
              365.E-03           969.524E+03        970.658E+03  
              367.5E-03          972.224E+03        973.364E+03  
              370.E-03           974.913E+03        976.059E+03  
              372.5E-03          977.591E+03        978.742E+03  
              375.E-03           980.258E+03        981.415E+03  
              377.5E-03          982.914E+03        984.077E+03  
              380.E-03           985.559E+03        986.728E+03  
              382.5E-03          988.194E+03        989.369E+03  
              385.E-03           990.818E+03        991.999E+03  
              387.5E-03          993.432E+03        994.619E+03  
              390.E-03           996.035E+03        997.229E+03  
              392.5E-03          998.628E+03        999.829E+03  
              395.E-03             1.00121E+06        1.00242E+06
              397.5E-03            1.00378E+06        1.005E+06  
              400.E-03             1.00635E+06        1.00757E+06
              402.5E-03            1.0089E+06         1.01013E+06
              405.E-03             1.01145E+06        1.01268E+06
              407.5E-03            1.01398E+06        1.01522E+06
              410.E-03             1.01651E+06        1.01775E+06
              412.5E-03            1.01902E+06        1.02027E+06
              415.E-03             1.02153E+06        1.02279E+06
              417.5E-03            1.02402E+06        1.02529E+06
              420.E-03             1.02651E+06        1.02779E+06
              422.5E-03            1.02899E+06        1.03027E+06
              425.E-03             1.03146E+06        1.03275E+06
              427.5E-03            1.03392E+06        1.03522E+06
              430.E-03             1.03637E+06        1.03768E+06
              432.5E-03            1.03882E+06        1.04013E+06
              435.E-03             1.04125E+06        1.04257E+06
              437.5E-03            1.04368E+06        1.04501E+06
              440.E-03             1.0461E+06         1.04743E+06
              442.5E-03            1.04851E+06        1.04985E+06
              445.E-03             1.05091E+06        1.05226E+06
              447.5E-03            1.0533E+06         1.05466E+06
              450.E-03             1.05569E+06        1.05705E+06
              452.5E-03            1.05806E+06        1.05944E+06
              455.E-03             1.06043E+06        1.06182E+06
              457.5E-03            1.06279E+06        1.06418E+06
              460.E-03             1.06514E+06        1.06655E+06
              462.5E-03            1.06749E+06        1.0689E+06 
              465.E-03             1.06983E+06        1.07125E+06
              467.5E-03            1.07216E+06        1.07358E+06
              470.E-03             1.07448E+06        1.07592E+06
              472.5E-03            1.07679E+06        1.07824E+06
              475.E-03             1.0791E+06         1.08056E+06
              477.5E-03            1.0814E+06         1.08286E+06
              480.E-03             1.08369E+06        1.08517E+06
              482.5E-03            1.08598E+06        1.08746E+06
              485.E-03             1.08826E+06        1.08975E+06
              487.5E-03            1.09053E+06        1.09203E+06
              490.E-03             1.09279E+06        1.0943E+06 
              492.5E-03            1.09505E+06        1.09657E+06
              495.E-03             1.0973E+06         1.09883E+06
              497.5E-03            1.09954E+06        1.10108E+06
              500.E-03             1.10178E+06        1.10333E+06
              502.5E-03            1.10401E+06        1.10556E+06
              505.E-03             1.10623E+06        1.1078E+06 
              507.5E-03            1.10844E+06        1.11002E+06
              510.E-03             1.11065E+06        1.11224E+06
              512.5E-03            1.11285E+06        1.11446E+06
              515.E-03             1.11505E+06        1.11666E+06
              517.5E-03            1.11724E+06        1.11886E+06
              520.E-03             1.11942E+06        1.12106E+06
              522.5E-03            1.1216E+06         1.12324E+06
              525.E-03             1.12377E+06        1.12542E+06
              527.5E-03            1.12593E+06        1.1276E+06 
              530.E-03             1.12809E+06        1.12977E+06
              532.5E-03            1.13024E+06        1.13193E+06
              535.E-03             1.13239E+06        1.13409E+06
              537.5E-03            1.13453E+06        1.13624E+06
              540.E-03             1.13666E+06        1.13838E+06
              542.5E-03            1.13879E+06        1.14052E+06
              545.E-03             1.14091E+06        1.14265E+06
              547.5E-03            1.14302E+06        1.14478E+06
              550.E-03             1.14513E+06        1.1469E+06 
              552.5E-03            1.14723E+06        1.14902E+06
              555.E-03             1.14933E+06        1.15113E+06
              557.5E-03            1.15142E+06        1.15323E+06
              560.E-03             1.15351E+06        1.15533E+06
              562.5E-03            1.15559E+06        1.15742E+06
              565.E-03             1.15766E+06        1.15951E+06
              567.5E-03            1.15973E+06        1.16159E+06
              570.E-03             1.1618E+06         1.16367E+06
              572.5E-03            1.16385E+06        1.16574E+06
              575.E-03             1.16591E+06        1.1678E+06 
              577.5E-03            1.16795E+06        1.16986E+06
              580.E-03             1.17E+06           1.17192E+06
              582.5E-03            1.17203E+06        1.17397E+06
              585.E-03             1.17406E+06        1.17601E+06
              587.5E-03            1.17609E+06        1.17805E+06
              590.E-03             1.17811E+06        1.18009E+06
              592.5E-03            1.18012E+06        1.18211E+06
              595.E-03             1.18213E+06        1.18414E+06
              597.5E-03            1.18414E+06        1.18616E+06
              600.E-03             1.18614E+06        1.18817E+06
              602.5E-03            1.18813E+06        1.19018E+06
              605.E-03             1.19012E+06        1.19218E+06
              607.5E-03            1.19211E+06        1.19418E+06
              610.E-03             1.19409E+06        1.19618E+06
              612.5E-03            1.19606E+06        1.19817E+06
              615.E-03             1.19803E+06        1.20015E+06
              617.5E-03            1.19999E+06        1.20213E+06
              620.E-03             1.20195E+06        1.20411E+06
              622.5E-03            1.20391E+06        1.20608E+06
              625.E-03             1.20586E+06        1.20804E+06
              627.5E-03            1.2078E+06         1.21001E+06
              630.E-03             1.20974E+06        1.21196E+06
              632.5E-03            1.21168E+06        1.21391E+06
              635.E-03             1.21361E+06        1.21586E+06
              637.5E-03            1.21554E+06        1.2178E+06 
              640.E-03             1.21746E+06        1.21974E+06
              642.5E-03            1.21938E+06        1.22168E+06
              645.E-03             1.22129E+06        1.22361E+06
              647.5E-03            1.2232E+06         1.22553E+06
              650.E-03             1.2251E+06         1.22745E+06
              652.5E-03            1.227E+06          1.22937E+06
              655.E-03             1.2289E+06         1.23128E+06
              657.5E-03            1.23079E+06        1.23319E+06
              660.E-03             1.23267E+06        1.23509E+06
              662.5E-03            1.23455E+06        1.23699E+06
              665.E-03             1.23643E+06        1.23889E+06
              667.5E-03            1.2383E+06         1.24078E+06
              670.E-03             1.24017E+06        1.24267E+06
              672.5E-03            1.24204E+06        1.24455E+06
              675.E-03             1.2439E+06         1.24643E+06
              677.5E-03            1.24575E+06        1.2483E+06 
              680.E-03             1.2476E+06         1.25017E+06
              682.5E-03            1.24945E+06        1.25204E+06
              685.E-03             1.25129E+06        1.2539E+06 
              687.5E-03            1.25313E+06        1.25576E+06
              690.E-03             1.25497E+06        1.25762E+06
              692.5E-03            1.2568E+06         1.25947E+06
              695.E-03             1.25862E+06        1.26132E+06
              697.5E-03            1.26045E+06        1.26316E+06
              700.E-03             1.26227E+06        1.265E+06  
              702.5E-03            1.26408E+06        1.26683E+06
              705.E-03             1.26589E+06        1.26867E+06
              707.5E-03            1.2677E+06         1.27049E+06
              710.E-03             1.2695E+06         1.27232E+06
              712.5E-03            1.2713E+06         1.27414E+06
              715.E-03             1.27309E+06        1.27596E+06
              717.5E-03            1.27489E+06        1.27777E+06
              720.E-03             1.27667E+06        1.27958E+06
              722.5E-03            1.27846E+06        1.28138E+06
              725.E-03             1.28024E+06        1.28319E+06
              727.5E-03            1.28201E+06        1.28499E+06
              730.E-03             1.28378E+06        1.28678E+06
              732.5E-03            1.28555E+06        1.28857E+06
              735.E-03             1.28732E+06        1.29036E+06
              737.5E-03            1.28908E+06        1.29215E+06
              740.E-03             1.29084E+06        1.29393E+06
              742.5E-03            1.29259E+06        1.2957E+06 
              745.E-03             1.29434E+06        1.29748E+06
              747.5E-03            1.29609E+06        1.29925E+06
              750.E-03             1.29783E+06        1.30102E+06
              752.5E-03            1.29957E+06        1.30278E+06
              755.E-03             1.3013E+06         1.30454E+06
              757.5E-03            1.30303E+06        1.3063E+06 
              760.E-03             1.30476E+06        1.30805E+06
              762.5E-03            1.30649E+06        1.3098E+06 
              765.E-03             1.30821E+06        1.31155E+06
              767.5E-03            1.30993E+06        1.3133E+06 
              770.E-03             1.31164E+06        1.31504E+06
              772.5E-03            1.31335E+06        1.31677E+06
              775.E-03             1.31506E+06        1.31851E+06
              777.5E-03            1.31676E+06        1.32024E+06
              780.E-03             1.31847E+06        1.32197E+06
              782.5E-03            1.32016E+06        1.32369E+06
              785.E-03             1.32186E+06        1.32542E+06
              787.5E-03            1.32355E+06        1.32713E+06
              790.E-03             1.32523E+06        1.32885E+06
              792.5E-03            1.32692E+06        1.33056E+06
              795.E-03             1.3286E+06         1.33227E+06
              797.5E-03            1.33028E+06        1.33398E+06
              800.E-03             1.33195E+06        1.33568E+06
              802.5E-03            1.33362E+06        1.33738E+06
              805.E-03             1.33529E+06        1.33908E+06
              807.5E-03            1.33695E+06        1.34078E+06
              810.E-03             1.33861E+06        1.34247E+06
              812.5E-03            1.34027E+06        1.34416E+06
              815.E-03             1.34193E+06        1.34584E+06
              817.5E-03            1.34358E+06        1.34752E+06
              820.E-03             1.34523E+06        1.3492E+06 
              822.5E-03            1.34687E+06        1.35088E+06
              825.E-03             1.34852E+06        1.35256E+06
              827.5E-03            1.35015E+06        1.35423E+06
              830.E-03             1.35179E+06        1.3559E+06 
              832.5E-03            1.35342E+06        1.35756E+06
              835.E-03             1.35505E+06        1.35923E+06
              837.5E-03            1.35668E+06        1.36089E+06
              840.E-03             1.3583E+06         1.36254E+06
              842.5E-03            1.35992E+06        1.3642E+06 
              845.E-03             1.36154E+06        1.36585E+06
              847.5E-03            1.36316E+06        1.3675E+06 
              850.E-03             1.36477E+06        1.36915E+06
              852.5E-03            1.36638E+06        1.37079E+06
              855.E-03             1.36798E+06        1.37243E+06
              857.5E-03            1.36958E+06        1.37407E+06
              860.E-03             1.37118E+06        1.37571E+06
              862.5E-03            1.37278E+06        1.37734E+06
              865.E-03             1.37438E+06        1.37897E+06
              867.5E-03            1.37597E+06        1.3806E+06 
              870.E-03             1.37755E+06        1.38222E+06
              872.5E-03            1.37914E+06        1.38385E+06
              875.E-03             1.38072E+06        1.38547E+06
              877.5E-03            1.3823E+06         1.38709E+06
              880.E-03             1.38388E+06        1.3887E+06 
              882.5E-03            1.38545E+06        1.39031E+06
              885.E-03             1.38702E+06        1.39192E+06
              887.5E-03            1.38859E+06        1.39353E+06
              890.E-03             1.39016E+06        1.39514E+06
              892.5E-03            1.39172E+06        1.39674E+06
              895.E-03             1.39328E+06        1.39834E+06
              897.5E-03            1.39484E+06        1.39994E+06
              900.E-03             1.39639E+06        1.40154E+06
              902.5E-03            1.39794E+06        1.40313E+06
              905.E-03             1.39949E+06        1.40472E+06
              907.5E-03            1.40104E+06        1.40631E+06
              910.E-03             1.40258E+06        1.4079E+06 
              912.5E-03            1.40412E+06        1.40948E+06
              915.E-03             1.40566E+06        1.41106E+06
              917.5E-03            1.40719E+06        1.41264E+06
              920.E-03             1.40873E+06        1.41422E+06
              922.5E-03            1.41026E+06        1.41579E+06
              925.E-03             1.41178E+06        1.41736E+06
              927.5E-03            1.41331E+06        1.41893E+06
              930.E-03             1.41483E+06        1.4205E+06 
              932.5E-03            1.41635E+06        1.42207E+06
              935.E-03             1.41786E+06        1.42363E+06
              937.5E-03            1.41938E+06        1.42519E+06
              940.E-03             1.42089E+06        1.42675E+06
              942.5E-03            1.4224E+06         1.42831E+06
              945.E-03             1.42391E+06        1.42986E+06
              947.5E-03            1.42541E+06        1.43142E+06
              950.E-03             1.42691E+06        1.43297E+06
              952.5E-03            1.42841E+06        1.43451E+06
              955.E-03             1.4299E+06         1.43606E+06
              957.5E-03            1.4314E+06         1.4376E+06 
              960.E-03             1.43289E+06        1.43915E+06
              962.5E-03            1.43438E+06        1.44069E+06
              965.E-03             1.43586E+06        1.44222E+06
              967.5E-03            1.43735E+06        1.44376E+06
              970.E-03             1.43883E+06        1.44529E+06
              972.5E-03            1.4403E+06         1.44682E+06
              975.E-03             1.44178E+06        1.44835E+06
              977.5E-03            1.44325E+06        1.44988E+06
              980.E-03             1.44472E+06        1.45141E+06
              982.5E-03            1.44619E+06        1.45293E+06
              985.E-03             1.44766E+06        1.45445E+06
              987.5E-03            1.44912E+06        1.45597E+06
              990.E-03             1.45058E+06        1.45749E+06
              992.5E-03            1.45204E+06        1.459E+06  
              995.E-03             1.4535E+06         1.46051E+06
              997.5E-03            1.45495E+06        1.46203E+06
                1.                 1.4564E+06         1.46354E+06




