
                  X                 Dinn               Dout      

                0.                 0.                 0.         
                2.5E-03          844.407E-06        727.27E-06   
                5.E-03             3.16977E-03        2.97705E-03
                7.5E-03            5.44451E-03        5.2046E-03 
               10.E-03             7.70421E-03        7.43253E-03
               12.5E-03            9.95516E-03        9.66344E-03
               15.E-03            12.2003E-03        11.8976E-03 
               17.5E-03           14.4411E-03        14.1348E-03 
               20.E-03            16.6789E-03        16.3746E-03 
               22.5E-03           18.9141E-03        18.6166E-03 
               25.E-03            21.1475E-03        20.8605E-03 
               27.5E-03           23.3794E-03        23.1061E-03 
               30.E-03            25.6101E-03        25.3532E-03 
               32.5E-03           27.84E-03          27.6015E-03 
               35.E-03            30.0691E-03        29.851E-03  
               37.5E-03           32.2977E-03        32.1016E-03 
               40.E-03            34.5258E-03        34.353E-03  
               42.5E-03           36.7537E-03        36.6053E-03 
               45.E-03            38.9814E-03        38.8584E-03 
               47.5E-03           41.209E-03         41.1122E-03 
               50.E-03            43.4365E-03        43.3666E-03 
               52.5E-03           45.6639E-03        45.6216E-03 
               55.E-03            47.8915E-03        47.8771E-03 
               57.5E-03           50.1191E-03        50.1331E-03 
               60.E-03            52.3468E-03        52.3896E-03 
               62.5E-03           54.5746E-03        54.6465E-03 
               65.E-03            56.729E-03         56.7581E-03 
               67.5E-03           58.9459E-03        58.5937E-03 
               70.E-03            60.6468E-03        60.2919E-03 
               72.5E-03           62.1362E-03        61.7716E-03 
               75.E-03            63.5071E-03        63.1356E-03 
               77.5E-03           64.8175E-03        64.4402E-03 
               80.E-03            66.0974E-03        65.715E-03  
               82.5E-03           67.362E-03         66.9751E-03 
               85.E-03            68.6189E-03        68.228E-03  
               87.5E-03           69.872E-03         69.4772E-03 
               90.E-03            71.1232E-03        70.7248E-03 
               92.5E-03           72.3734E-03        71.9716E-03 
               95.E-03            73.6232E-03        73.2182E-03 
               97.5E-03           74.8727E-03        74.4648E-03 
              100.E-03            76.1222E-03        75.7115E-03 
              102.5E-03           77.3717E-03        76.9582E-03 
              105.E-03            78.6211E-03        78.205E-03  
              107.5E-03           79.8707E-03        79.4518E-03 
              110.E-03            81.1203E-03        80.6986E-03 
              112.5E-03           82.37E-03          81.9454E-03 
              115.E-03            84.0472E-03        83.5995E-03 
              117.5E-03           86.8609E-03        86.3116E-03 
              120.E-03            89.8202E-03        89.2923E-03 
              122.5E-03           92.739E-03         92.2158E-03 
              125.E-03            95.6021E-03        95.0885E-03 
              127.5E-03           98.4378E-03        97.9341E-03 
              130.E-03           101.261E-03        100.767E-03  
              132.5E-03          104.08E-03         103.595E-03  
              135.E-03           106.897E-03        106.421E-03  
              137.5E-03          109.714E-03        109.246E-03  
              140.E-03           112.53E-03         112.07E-03   
              142.5E-03          115.347E-03        114.894E-03  
              145.E-03           118.165E-03        117.719E-03  
              147.5E-03          120.983E-03        120.543E-03  
              150.E-03           123.801E-03        123.367E-03  
              152.5E-03          126.62E-03         126.191E-03  
              155.E-03           129.439E-03        129.015E-03  
              157.5E-03          132.259E-03        131.84E-03   
              160.E-03           135.079E-03        134.664E-03  
              162.5E-03          137.9E-03          137.488E-03  
              165.E-03           140.721E-03        140.313E-03  
              167.5E-03          143.543E-03        143.137E-03  
              170.E-03           146.365E-03        145.961E-03  
              172.5E-03          149.188E-03        148.786E-03  
              175.E-03           152.01E-03         151.61E-03   
              177.5E-03          154.834E-03        154.434E-03  
              180.E-03           157.657E-03        157.259E-03  
              182.5E-03          160.482E-03        160.083E-03  
              185.E-03           163.306E-03        162.908E-03  
              187.5E-03          166.131E-03        165.732E-03  
              190.E-03           168.956E-03        168.556E-03  
              192.5E-03          171.782E-03        171.381E-03  
              195.E-03           174.608E-03        174.205E-03  
              197.5E-03          177.434E-03        177.03E-03   
              200.E-03           180.261E-03        179.854E-03  
              202.5E-03          183.088E-03        182.678E-03  
              205.E-03           185.915E-03        185.503E-03  
              207.5E-03          188.743E-03        188.327E-03  
              210.E-03           191.571E-03        191.151E-03  
              212.5E-03          194.399E-03        193.976E-03  
              215.E-03           197.228E-03        196.8E-03    
              217.5E-03          200.057E-03        199.624E-03  
              220.E-03           202.887E-03        202.449E-03  
              222.5E-03          205.716E-03        205.273E-03  
              225.E-03           208.547E-03        208.097E-03  
              227.5E-03          211.377E-03        210.921E-03  
              230.E-03           214.208E-03        213.745E-03  
              232.5E-03          217.039E-03        216.57E-03   
              235.E-03           219.87E-03         219.394E-03  
              237.5E-03          222.702E-03        222.218E-03  
              240.E-03           225.534E-03        225.042E-03  
              242.5E-03          228.367E-03        227.866E-03  
              245.E-03           231.2E-03          230.69E-03   
              247.5E-03          234.033E-03        233.514E-03  
              250.E-03           236.866E-03        236.337E-03  
              252.5E-03          239.7E-03          239.161E-03  
              255.E-03           242.534E-03        241.985E-03  
              257.5E-03          245.368E-03        244.809E-03  
              260.E-03           248.203E-03        247.632E-03  
              262.5E-03          251.038E-03        250.456E-03  
              265.E-03           253.874E-03        253.279E-03  
              267.5E-03          256.709E-03        256.103E-03  
              270.E-03           259.545E-03        258.926E-03  
              272.5E-03          262.382E-03        261.75E-03   
              275.E-03           265.219E-03        264.573E-03  
              277.5E-03          268.056E-03        267.396E-03  
              280.E-03           270.893E-03        270.219E-03  
              282.5E-03          273.731E-03        273.042E-03  
              285.E-03           276.569E-03        275.865E-03  
              287.5E-03          279.407E-03        278.688E-03  
              290.E-03           282.246E-03        281.511E-03  
              292.5E-03          285.085E-03        284.334E-03  
              295.E-03           287.925E-03        287.157E-03  
              297.5E-03          290.765E-03        289.979E-03  
              300.E-03           293.605E-03        292.802E-03  
              302.5E-03          296.445E-03        295.624E-03  
              305.E-03           299.286E-03        298.447E-03  
              307.5E-03          302.127E-03        301.269E-03  
              310.E-03           304.969E-03        304.091E-03  
              312.5E-03          307.811E-03        306.913E-03  
              315.E-03           310.653E-03        309.735E-03  
              317.5E-03          313.496E-03        312.557E-03  
              320.E-03           316.339E-03        315.379E-03  
              322.5E-03          319.182E-03        318.201E-03  
              325.E-03           322.026E-03        321.022E-03  
              327.5E-03          324.87E-03         323.844E-03  
              330.E-03           327.715E-03        326.665E-03  
              332.5E-03          330.56E-03         329.486E-03  
              335.E-03           333.405E-03        332.308E-03  
              337.5E-03          336.251E-03        335.129E-03  
              340.E-03           339.097E-03        337.949E-03  
              342.5E-03          341.943E-03        340.77E-03   
              345.E-03           344.79E-03         343.591E-03  
              347.5E-03          347.637E-03        346.411E-03  
              350.E-03           350.485E-03        349.232E-03  
              352.5E-03          353.333E-03        352.052E-03  
              355.E-03           356.181E-03        354.872E-03  
              357.5E-03          359.03E-03         357.692E-03  
              360.E-03           361.88E-03         360.512E-03  
              362.5E-03          364.729E-03        363.332E-03  
              365.E-03           367.58E-03         366.151E-03  
              367.5E-03          370.43E-03         368.971E-03  
              370.E-03           373.281E-03        371.79E-03   
              372.5E-03          376.133E-03        374.609E-03  
              375.E-03           378.984E-03        377.428E-03  
              377.5E-03          381.837E-03        380.247E-03  
              380.E-03           384.69E-03         383.066E-03  
              382.5E-03          387.543E-03        385.884E-03  
              385.E-03           390.397E-03        388.703E-03  
              387.5E-03          393.251E-03        391.521E-03  
              390.E-03           396.105E-03        394.339E-03  
              392.5E-03          398.96E-03         397.157E-03  
              395.E-03           401.816E-03        399.974E-03  
              397.5E-03          404.672E-03        402.792E-03  
              400.E-03           407.529E-03        405.609E-03  
              402.5E-03          410.386E-03        408.426E-03  
              405.E-03           413.243E-03        411.243E-03  
              407.5E-03          416.101E-03        414.06E-03   
              410.E-03           418.96E-03         416.876E-03  
              412.5E-03          421.819E-03        419.693E-03  
              415.E-03           424.679E-03        422.509E-03  
              417.5E-03          427.539E-03        425.325E-03  
              420.E-03           430.4E-03          428.14E-03   
              422.5E-03          433.261E-03        430.956E-03  
              425.E-03           436.123E-03        433.771E-03  
              427.5E-03          438.985E-03        436.586E-03  
              430.E-03           441.848E-03        439.401E-03  
              432.5E-03          444.711E-03        442.216E-03  
              435.E-03           447.575E-03        445.03E-03   
              437.5E-03          450.44E-03         447.844E-03  
              440.E-03           453.305E-03        450.658E-03  
              442.5E-03          456.171E-03        453.472E-03  
              445.E-03           459.037E-03        456.285E-03  
              447.5E-03          461.904E-03        459.098E-03  
              450.E-03           464.772E-03        461.911E-03  
              452.5E-03          467.64E-03         464.724E-03  
              455.E-03           470.509E-03        467.536E-03  
              457.5E-03          473.378E-03        470.349E-03  
              460.E-03           476.249E-03        473.161E-03  
              462.5E-03          479.119E-03        475.972E-03  
              465.E-03           481.991E-03        478.784E-03  
              467.5E-03          484.863E-03        481.595E-03  
              470.E-03           487.736E-03        484.406E-03  
              472.5E-03          490.609E-03        487.216E-03  
              475.E-03           493.484E-03        490.026E-03  
              477.5E-03          496.359E-03        492.836E-03  
              480.E-03           499.234E-03        495.646E-03  
              482.5E-03          502.11E-03         498.455E-03  
              485.E-03           504.988E-03        501.264E-03  
              487.5E-03          507.865E-03        504.073E-03  
              490.E-03           510.744E-03        506.882E-03  
              492.5E-03          513.623E-03        509.69E-03   
              495.E-03           516.503E-03        512.497E-03  
              497.5E-03          519.384E-03        515.305E-03  
              500.E-03           522.266E-03        518.112E-03  
              502.5E-03          525.148E-03        520.919E-03  
              505.E-03           528.032E-03        523.725E-03  
              507.5E-03          530.916E-03        526.531E-03  
              510.E-03           533.801E-03        529.337E-03  
              512.5E-03          536.686E-03        532.142E-03  
              515.E-03           539.573E-03        534.947E-03  
              517.5E-03          542.46E-03         537.752E-03  
              520.E-03           545.349E-03        540.556E-03  
              522.5E-03          548.238E-03        543.36E-03   
              525.E-03           551.128E-03        546.164E-03  
              527.5E-03          554.019E-03        548.967E-03  
              530.E-03           556.911E-03        551.769E-03  
              532.5E-03          559.804E-03        554.572E-03  
              535.E-03           562.698E-03        557.374E-03  
              537.5E-03          565.592E-03        560.175E-03  
              540.E-03           568.488E-03        562.976E-03  
              542.5E-03          571.385E-03        565.777E-03  
              545.E-03           574.283E-03        568.577E-03  
              547.5E-03          577.181E-03        571.377E-03  
              550.E-03           580.081E-03        574.176E-03  
              552.5E-03          582.982E-03        576.975E-03  
              555.E-03           585.884E-03        579.774E-03  
              557.5E-03          588.787E-03        582.572E-03  
              560.E-03           591.691E-03        585.369E-03  
              562.5E-03          594.596E-03        588.167E-03  
              565.E-03           597.502E-03        590.963E-03  
              567.5E-03          600.409E-03        593.759E-03  
              570.E-03           603.318E-03        596.555E-03  
              572.5E-03          606.227E-03        599.35E-03   
              575.E-03           609.138E-03        602.145E-03  
              577.5E-03          612.05E-03         604.939E-03  
              580.E-03           614.963E-03        607.732E-03  
              582.5E-03          617.877E-03        610.525E-03  
              585.E-03           620.793E-03        613.318E-03  
              587.5E-03          623.71E-03         616.11E-03   
              590.E-03           626.628E-03        618.901E-03  
              592.5E-03          629.547E-03        621.692E-03  
              595.E-03           632.468E-03        624.483E-03  
              597.5E-03          635.39E-03         627.272E-03  
              600.E-03           638.313E-03        630.062E-03  
              602.5E-03          641.238E-03        632.85E-03   
              605.E-03           644.164E-03        635.638E-03  
              607.5E-03          647.091E-03        638.426E-03  
              610.E-03           650.02E-03         641.213E-03  
              612.5E-03          652.95E-03         643.999E-03  
              615.E-03           655.882E-03        646.785E-03  
              617.5E-03          658.815E-03        649.57E-03   
              620.E-03           661.75E-03         652.354E-03  
              622.5E-03          664.686E-03        655.138E-03  
              625.E-03           667.623E-03        657.921E-03  
              627.5E-03          670.563E-03        660.703E-03  
              630.E-03           673.503E-03        663.485E-03  
              632.5E-03          676.446E-03        666.266E-03  
              635.E-03           679.39E-03         669.046E-03  
              637.5E-03          682.335E-03        671.826E-03  
              640.E-03           685.283E-03        674.605E-03  
              642.5E-03          688.232E-03        677.383E-03  
              645.E-03           691.182E-03        680.16E-03   
              647.5E-03          694.135E-03        682.937E-03  
              650.E-03           697.089E-03        685.713E-03  
              652.5E-03          700.045E-03        688.489E-03  
              655.E-03           703.003E-03        691.263E-03  
              657.5E-03          705.962E-03        694.037E-03  
              660.E-03           708.924E-03        696.81E-03   
              662.5E-03          711.887E-03        699.582E-03  
              665.E-03           714.852E-03        702.353E-03  
              667.5E-03          717.82E-03         705.124E-03  
              670.E-03           720.789E-03        707.894E-03  
              672.5E-03          723.76E-03         710.663E-03  
              675.E-03           726.733E-03        713.431E-03  
              677.5E-03          729.708E-03        716.198E-03  
              680.E-03           732.685E-03        718.964E-03  
              682.5E-03          735.665E-03        721.73E-03   
              685.E-03           738.646E-03        724.494E-03  
              687.5E-03          741.63E-03         727.258E-03  
              690.E-03           744.616E-03        730.021E-03  
              692.5E-03          747.604E-03        732.783E-03  
              695.E-03           750.595E-03        735.544E-03  
              697.5E-03          753.587E-03        738.304E-03  
              700.E-03           756.582E-03        741.063E-03  
              702.5E-03          759.58E-03         743.821E-03  
              705.E-03           762.58E-03         746.578E-03  
              707.5E-03          765.582E-03        749.334E-03  
              710.E-03           768.586E-03        752.089E-03  
              712.5E-03          771.594E-03        754.843E-03  
              715.E-03           774.603E-03        757.596E-03  
              717.5E-03          777.616E-03        760.348E-03  
              720.E-03           780.631E-03        763.099E-03  
              722.5E-03          783.648E-03        765.849E-03  
              725.E-03           786.669E-03        768.598E-03  
              727.5E-03          789.692E-03        771.346E-03  
              730.E-03           792.717E-03        774.093E-03  
              732.5E-03          795.746E-03        776.838E-03  
              735.E-03           798.778E-03        779.583E-03  
              737.5E-03          801.812E-03        782.326E-03  
              740.E-03           804.849E-03        785.068E-03  
              742.5E-03          807.89E-03         787.809E-03  
              745.E-03           810.933E-03        790.549E-03  
              747.5E-03          813.98E-03         793.287E-03  
              750.E-03           817.029E-03        796.024E-03  
              752.5E-03          820.082E-03        798.76E-03   
              755.E-03           823.138E-03        801.495E-03  
              757.5E-03          826.197E-03        804.229E-03  
              760.E-03           829.26E-03         806.961E-03  
              762.5E-03          832.326E-03        809.692E-03  
              765.E-03           835.395E-03        812.422E-03  
              767.5E-03          838.468E-03        815.15E-03   
              770.E-03           841.545E-03        817.877E-03  
              772.5E-03          844.625E-03        820.603E-03  
              775.E-03           847.709E-03        823.327E-03  
              777.5E-03          850.796E-03        826.05E-03   
              780.E-03           853.887E-03        828.772E-03  
              782.5E-03          856.982E-03        831.492E-03  
              785.E-03           860.081E-03        834.21E-03   
              787.5E-03          863.184E-03        836.928E-03  
              790.E-03           866.291E-03        839.643E-03  
              792.5E-03          869.402E-03        842.357E-03  
              795.E-03           872.517E-03        845.07E-03   
              797.5E-03          875.636E-03        847.781E-03  
              800.E-03           878.76E-03         850.491E-03  
              802.5E-03          881.888E-03        853.199E-03  
              805.E-03           885.02E-03         855.905E-03  
              807.5E-03          888.157E-03        858.61E-03   
              810.E-03           891.299E-03        861.314E-03  
              812.5E-03          894.445E-03        864.015E-03  
              815.E-03           897.596E-03        866.715E-03  
              817.5E-03          900.751E-03        869.413E-03  
              820.E-03           903.912E-03        872.11E-03   
              822.5E-03          907.077E-03        874.805E-03  
              825.E-03           910.248E-03        877.498E-03  
              827.5E-03          913.423E-03        880.189E-03  
              830.E-03           916.604E-03        882.879E-03  
              832.5E-03          919.791E-03        885.566E-03  
              835.E-03           922.982E-03        888.252E-03  
              837.5E-03          926.179E-03        890.936E-03  
              840.E-03           929.382E-03        893.618E-03  
              842.5E-03          932.59E-03         896.299E-03  
              845.E-03           935.805E-03        898.977E-03  
              847.5E-03          939.025E-03        901.653E-03  
              850.E-03           942.251E-03        904.328E-03  
              852.5E-03          945.483E-03        907.E-03     
              855.E-03           948.722E-03        909.671E-03  
              857.5E-03          951.967E-03        912.339E-03  
              860.E-03           955.218E-03        915.005E-03  
              862.5E-03          958.476E-03        917.67E-03   
              865.E-03           961.74E-03         920.332E-03  
              867.5E-03          965.011E-03        922.992E-03  
              870.E-03           968.29E-03         925.65E-03   
              872.5E-03          971.575E-03        928.305E-03  
              875.E-03           974.868E-03        930.959E-03  
              877.5E-03          978.168E-03        933.61E-03   
              880.E-03           981.475E-03        936.259E-03  
              882.5E-03          984.79E-03         938.905E-03  
              885.E-03           988.113E-03        941.55E-03   
              887.5E-03          991.444E-03        944.192E-03  
              890.E-03           994.783E-03        946.831E-03  
              892.5E-03          998.13E-03         949.468E-03  
              895.E-03             1.00149          952.103E-03  
              897.5E-03            1.00485          954.735E-03  
              900.E-03             1.00822          957.365E-03  
              902.5E-03            1.0116           959.992E-03  
              905.E-03             1.015            962.617E-03  
              907.5E-03            1.0184           965.239E-03  
              910.E-03             1.02181          967.858E-03  
              912.5E-03            1.02523          970.475E-03  
              915.E-03             1.02866          973.089E-03  
              917.5E-03            1.03209          975.7E-03    
              920.E-03             1.03555          978.309E-03  
              922.5E-03            1.03901          980.914E-03  
              925.E-03             1.04248          983.517E-03  
              927.5E-03            1.04596          986.117E-03  
              930.E-03             1.04945          988.714E-03  
              932.5E-03            1.05296          991.308E-03  
              935.E-03             1.05648          993.9E-03    
              937.5E-03            1.06001          996.488E-03  
              940.E-03             1.06355          999.073E-03  
              942.5E-03            1.0671             1.00165    
              945.E-03             1.07067            1.00423    
              947.5E-03            1.07425            1.00681    
              950.E-03             1.07785            1.00938    
              952.5E-03            1.08146            1.01195    
              955.E-03             1.08508            1.01452    
              957.5E-03            1.08872            1.01708    
              960.E-03             1.09237            1.01964    
              962.5E-03            1.09604            1.02219    
              965.E-03             1.09972            1.02475    
              967.5E-03            1.10343            1.02729    
              970.E-03             1.10714            1.02984    
              972.5E-03            1.11088            1.03238    
              975.E-03             1.11463            1.03492    
              977.5E-03            1.1184             1.03745    
              980.E-03             1.12219            1.03998    
              982.5E-03            1.126              1.04251    
              985.E-03             1.12983            1.04503    
              987.5E-03            1.13368            1.04755    
              990.E-03             1.13755            1.05006    
              992.5E-03            1.14145            1.05257    
              995.E-03             1.14536            1.05508    
              997.5E-03            1.1493             1.05758    
                1.                 1.15326            1.06008    




