
                  X               ep1-out            ep2-out            ep3-out             ep1-in             ep2-in             ep3-in     

                0.                 0.                 0.                 0.                 0.                 0.                 0.         
                2.5E-03          514.108E-06       -828.566E-06        314.458E-06        595.832E-06       -940.532E-06        344.701E-06  
                5.E-03             2.11057E-03       -3.50302E-03        1.39245E-03        2.26379E-03       -3.68918E-03        1.4254E-03 
                7.5E-03            3.69538E-03       -6.1909E-03         2.49552E-03        3.90183E-03       -6.43349E-03        2.53165E-03
               10.E-03             5.28105E-03       -8.88578E-03        3.60474E-03        5.531E-03         -9.17492E-03        3.64393E-03
               12.5E-03            6.86895E-03      -11.5859E-03         4.71698E-03        7.15513E-03      -11.9141E-03         4.75896E-03
               15.E-03             8.45917E-03      -14.2903E-03         5.8311E-03         8.77602E-03      -14.6516E-03         5.8756E-03 
               17.5E-03           10.0515E-03       -16.9981E-03         6.9466E-03        10.3946E-03       -17.388E-03          6.99338E-03
               20.E-03            11.6456E-03       -19.7088E-03         8.06323E-03       12.0115E-03       -20.1236E-03         8.11206E-03
               22.5E-03           13.2413E-03       -22.4221E-03         9.18081E-03       13.6272E-03       -22.8587E-03         9.23148E-03
               25.E-03            14.8383E-03       -25.1376E-03        10.2992E-03        15.2419E-03       -25.5934E-03        10.3516E-03 
               27.5E-03           16.4366E-03       -27.8549E-03        11.4183E-03        16.8558E-03       -28.328E-03         11.4722E-03 
               30.E-03            18.0359E-03       -30.574E-03         12.5381E-03        18.4692E-03       -31.0626E-03        12.5934E-03 
               32.5E-03           19.6361E-03       -33.2946E-03        13.6585E-03        20.0821E-03       -33.7971E-03        13.715E-03  
               35.E-03            21.2371E-03       -36.0165E-03        14.7794E-03        21.6947E-03       -36.5317E-03        14.837E-03  
               37.5E-03           22.8389E-03       -38.7396E-03        15.9008E-03        23.307E-03        -39.2664E-03        15.9595E-03 
               40.E-03            24.4413E-03       -41.4639E-03        17.0226E-03        24.9191E-03       -42.0013E-03        17.0823E-03 
               42.5E-03           26.0444E-03       -44.1891E-03        18.1448E-03        26.531E-03        -44.7364E-03        18.2054E-03 
               45.E-03            27.648E-03        -46.9153E-03        19.2673E-03        28.1429E-03       -47.4717E-03        19.3288E-03 
               47.5E-03           29.2521E-03       -49.6423E-03        20.3902E-03        29.7547E-03       -50.2072E-03        20.4525E-03 
               50.E-03            30.8566E-03       -52.3701E-03        21.5135E-03        31.3665E-03       -52.9429E-03        21.5764E-03 
               52.5E-03           32.4616E-03       -55.0986E-03        22.637E-03         32.9782E-03       -55.6788E-03        22.7006E-03 
               55.E-03            34.067E-03        -57.8278E-03        23.7608E-03        34.59E-03         -58.415E-03         23.825E-03  
               57.5E-03           35.6728E-03       -60.5576E-03        24.8848E-03        36.2017E-03       -61.1514E-03        24.9497E-03 
               60.E-03            37.2789E-03       -63.288E-03         26.0091E-03        37.8135E-03       -63.8881E-03        26.0745E-03 
               62.5E-03           38.8853E-03       -66.0189E-03        27.1336E-03        39.4254E-03       -66.625E-03         27.1996E-03 
               65.E-03            40.2899E-03       -67.6609E-03        27.371E-03         40.8531E-03       -68.2904E-03        27.4373E-03 
               67.5E-03           41.7797E-03       -68.8743E-03        27.0946E-03        42.6586E-03       -69.758E-03         27.0993E-03 
               70.E-03            43.5197E-03       -70.0376E-03        26.5179E-03        44.4375E-03       -70.9462E-03        26.5087E-03 
               72.5E-03           45.2844E-03       -71.0854E-03        25.801E-03         46.2322E-03       -72.0135E-03        25.7813E-03 
               75.E-03            47.0571E-03       -72.0659E-03        25.0088E-03        48.011E-03        -72.9985E-03        24.9875E-03 
               77.5E-03           48.825E-03        -73.0032E-03        24.1782E-03        49.7867E-03       -73.9411E-03        24.1543E-03 
               80.E-03            50.5899E-03       -73.9158E-03        23.3259E-03        51.5584E-03       -74.8581E-03        23.2997E-03 
               82.5E-03           52.3525E-03       -74.8139E-03        22.4615E-03        53.3276E-03       -75.7604E-03        22.4328E-03 
               85.E-03            54.1136E-03       -75.7037E-03        21.5901E-03        55.0954E-03       -76.6543E-03        21.5589E-03 
               87.5E-03           55.8738E-03       -76.5885E-03        20.7147E-03        56.8623E-03       -77.5432E-03        20.6809E-03 
               90.E-03            57.6335E-03       -77.4706E-03        19.837E-03         58.6288E-03       -78.4293E-03        19.8005E-03 
               92.5E-03           59.3929E-03       -78.3509E-03        18.958E-03         60.395E-03        -79.3138E-03        18.9187E-03 
               95.E-03            61.1521E-03       -79.2303E-03        18.0782E-03        62.1611E-03       -80.1972E-03        18.0361E-03 
               97.5E-03           62.9112E-03       -80.1092E-03        17.198E-03         63.9272E-03       -81.0802E-03        17.153E-03  
              100.E-03            64.6702E-03       -80.9877E-03        16.3174E-03        65.6933E-03       -81.9629E-03        16.2696E-03 
              102.5E-03           66.4292E-03       -81.866E-03         15.4368E-03        67.4595E-03       -82.8455E-03        15.3859E-03 
              105.E-03            68.1882E-03       -82.7442E-03        14.556E-03         69.2258E-03       -83.7279E-03        14.5022E-03 
              107.5E-03           69.9472E-03       -83.6224E-03        13.6752E-03        70.9921E-03       -84.6104E-03        13.6183E-03 
              110.E-03            71.7061E-03       -84.5005E-03        12.7944E-03        72.7585E-03       -85.4929E-03        12.7343E-03 
              112.5E-03           73.4651E-03       -85.3786E-03        11.9135E-03        74.5251E-03       -86.3754E-03        11.8503E-03 
              115.E-03            75.2162E-03       -86.5208E-03        11.3046E-03        76.317E-03        -87.5454E-03        11.2284E-03 
              117.5E-03           77.1612E-03       -88.3851E-03        11.2239E-03        78.2779E-03       -89.4243E-03        11.1463E-03 
              120.E-03            79.1447E-03       -90.6382E-03        11.4935E-03        80.2578E-03       -91.6727E-03        11.415E-03  
              122.5E-03           81.0855E-03       -93.0176E-03        11.9321E-03        82.1968E-03       -94.0496E-03        11.8528E-03 
              125.E-03            82.9961E-03       -95.4393E-03        12.4432E-03        84.1057E-03       -96.4689E-03        12.3632E-03 
              127.5E-03           84.8916E-03       -97.8765E-03        12.9849E-03        86.E-03           -98.9042E-03        12.9042E-03 
              130.E-03            86.7805E-03      -100.32E-03          13.5394E-03        87.8878E-03      -101.346E-03         13.4582E-03 
              132.5E-03           88.6665E-03      -102.766E-03         14.0994E-03        89.7731E-03      -103.791E-03         14.0176E-03 
              135.E-03            90.5513E-03      -105.213E-03         14.6618E-03        91.6575E-03      -106.237E-03         14.5795E-03 
              137.5E-03           92.4356E-03      -107.661E-03         15.2251E-03        93.5417E-03      -108.684E-03         15.1423E-03 
              140.E-03            94.3197E-03      -110.109E-03         15.789E-03         95.426E-03       -111.132E-03         15.7057E-03 
              142.5E-03           96.2038E-03      -112.557E-03         16.3531E-03        97.3105E-03      -113.58E-03          16.2693E-03 
              145.E-03            98.0878E-03      -115.005E-03         16.9172E-03        99.1953E-03      -116.028E-03         16.833E-03  
              147.5E-03           99.9719E-03      -117.453E-03         17.4815E-03       101.08E-03        -118.477E-03         17.3967E-03 
              150.E-03           101.856E-03       -119.902E-03         18.0458E-03       102.966E-03       -120.926E-03         17.9606E-03 
              152.5E-03          103.74E-03        -122.35E-03          18.6102E-03       104.851E-03       -123.376E-03         18.5245E-03 
              155.E-03           105.624E-03       -124.799E-03         19.1746E-03       106.737E-03       -125.825E-03         19.0885E-03 
              157.5E-03          107.508E-03       -127.248E-03         19.7391E-03       108.623E-03       -128.275E-03         19.6525E-03 
              160.E-03           109.393E-03       -129.696E-03         20.3036E-03       110.509E-03       -130.726E-03         20.2165E-03 
              162.5E-03          111.277E-03       -132.145E-03         20.8681E-03       112.396E-03       -133.176E-03         20.7806E-03 
              165.E-03           113.161E-03       -134.594E-03         21.4327E-03       114.283E-03       -135.627E-03         21.3447E-03 
              167.5E-03          115.046E-03       -137.043E-03         21.9973E-03       116.17E-03        -138.079E-03         21.9089E-03 
              170.E-03           116.93E-03        -139.492E-03         22.5619E-03       118.057E-03       -140.53E-03          22.4731E-03 
              172.5E-03          118.814E-03       -141.941E-03         23.1266E-03       119.944E-03       -142.982E-03         23.0374E-03 
              175.E-03           120.699E-03       -144.39E-03          23.6913E-03       121.832E-03       -145.434E-03         23.6016E-03 
              177.5E-03          122.583E-03       -146.839E-03         24.256E-03        123.72E-03        -147.886E-03         24.166E-03  
              180.E-03           124.467E-03       -149.288E-03         24.8208E-03       125.608E-03       -150.338E-03         24.7303E-03 
              182.5E-03          126.352E-03       -151.737E-03         25.3856E-03       127.496E-03       -152.791E-03         25.2947E-03 
              185.E-03           128.236E-03       -154.187E-03         25.9504E-03       129.385E-03       -155.244E-03         25.8592E-03 
              187.5E-03          130.121E-03       -156.636E-03         26.5153E-03       131.274E-03       -157.697E-03         26.4236E-03 
              190.E-03           132.005E-03       -159.085E-03         27.0802E-03       133.162E-03       -160.151E-03         26.9881E-03 
              192.5E-03          133.89E-03        -161.535E-03         27.6451E-03       135.051E-03       -162.604E-03         27.5527E-03 
              195.E-03           135.774E-03       -163.984E-03         28.21E-03         136.941E-03       -165.058E-03         28.1172E-03 
              197.5E-03          137.659E-03       -166.434E-03         28.775E-03        138.83E-03        -167.512E-03         28.6818E-03 
              200.E-03           139.543E-03       -168.883E-03         29.34E-03         140.72E-03        -169.966E-03         29.2464E-03 
              202.5E-03          141.428E-03       -171.333E-03         29.905E-03        142.609E-03       -172.42E-03          29.8111E-03 
              205.E-03           143.313E-03       -173.783E-03         30.47E-03         144.499E-03       -174.875E-03         30.3758E-03 
              207.5E-03          145.197E-03       -176.232E-03         31.0351E-03       146.389E-03       -177.33E-03          30.9405E-03 
              210.E-03           147.082E-03       -178.682E-03         31.6002E-03       148.28E-03        -179.785E-03         31.5052E-03 
              212.5E-03          148.966E-03       -181.132E-03         32.1653E-03       150.17E-03        -182.24E-03          32.07E-03   
              215.E-03           150.851E-03       -183.582E-03         32.7304E-03       152.061E-03       -184.695E-03         32.6348E-03 
              217.5E-03          152.736E-03       -186.031E-03         33.2956E-03       153.951E-03       -187.151E-03         33.1996E-03 
              220.E-03           154.62E-03        -188.481E-03         33.8608E-03       155.842E-03       -189.607E-03         33.7644E-03 
              222.5E-03          156.505E-03       -190.931E-03         34.4259E-03       157.733E-03       -192.063E-03         34.3293E-03 
              225.E-03           158.39E-03        -193.381E-03         34.9912E-03       159.625E-03       -194.519E-03         34.8942E-03 
              227.5E-03          160.274E-03       -195.831E-03         35.5564E-03       161.516E-03       -196.975E-03         35.4591E-03 
              230.E-03           162.159E-03       -198.281E-03         36.1217E-03       163.407E-03       -199.431E-03         36.024E-03  
              232.5E-03          164.044E-03       -200.731E-03         36.6869E-03       165.299E-03       -201.888E-03         36.589E-03  
              235.E-03           165.928E-03       -203.181E-03         37.2522E-03       167.191E-03       -204.345E-03         37.154E-03  
              237.5E-03          167.813E-03       -205.631E-03         37.8175E-03       169.083E-03       -206.802E-03         37.719E-03  
              240.E-03           169.698E-03       -208.081E-03         38.3829E-03       170.975E-03       -209.259E-03         38.284E-03  
              242.5E-03          171.582E-03       -210.531E-03         38.9482E-03       172.867E-03       -211.716E-03         38.8491E-03 
              245.E-03           173.467E-03       -212.981E-03         39.5136E-03       174.76E-03        -214.174E-03         39.4141E-03 
              247.5E-03          175.352E-03       -215.431E-03         40.079E-03        176.652E-03       -216.631E-03         39.9792E-03 
              250.E-03           177.236E-03       -217.881E-03         40.6444E-03       178.545E-03       -219.089E-03         40.5444E-03 
              252.5E-03          179.121E-03       -220.331E-03         41.2098E-03       180.438E-03       -221.547E-03         41.1095E-03 
              255.E-03           181.006E-03       -222.781E-03         41.7752E-03       182.331E-03       -224.005E-03         41.6746E-03 
              257.5E-03          182.89E-03        -225.231E-03         42.3407E-03       184.224E-03       -226.464E-03         42.2398E-03 
              260.E-03           184.775E-03       -227.681E-03         42.9061E-03       186.117E-03       -228.922E-03         42.805E-03  
              262.5E-03          186.66E-03        -230.131E-03         43.4716E-03       188.01E-03        -231.381E-03         43.3702E-03 
              265.E-03           188.544E-03       -232.581E-03         44.0371E-03       189.904E-03       -233.839E-03         43.9355E-03 
              267.5E-03          190.429E-03       -235.031E-03         44.6026E-03       191.798E-03       -236.298E-03         44.5007E-03 
              270.E-03           192.313E-03       -237.482E-03         45.1682E-03       193.691E-03       -238.757E-03         45.066E-03  
              272.5E-03          194.198E-03       -239.932E-03         45.7337E-03       195.585E-03       -241.217E-03         45.6313E-03 
              275.E-03           196.083E-03       -242.382E-03         46.2993E-03       197.48E-03        -243.676E-03         46.1966E-03 
              277.5E-03          197.967E-03       -244.832E-03         46.8648E-03       199.374E-03       -246.136E-03         46.7619E-03 
              280.E-03           199.852E-03       -247.282E-03         47.4304E-03       201.268E-03       -248.595E-03         47.3272E-03 
              282.5E-03          201.736E-03       -249.732E-03         47.996E-03        203.163E-03       -251.055E-03         47.8926E-03 
              285.E-03           203.621E-03       -252.183E-03         48.5616E-03       205.057E-03       -253.515E-03         48.458E-03  
              287.5E-03          205.505E-03       -254.633E-03         49.1272E-03       206.952E-03       -255.975E-03         49.0233E-03 
              290.E-03           207.39E-03        -257.083E-03         49.6929E-03       208.847E-03       -258.436E-03         49.5888E-03 
              292.5E-03          209.274E-03       -259.533E-03         50.2585E-03       210.742E-03       -260.896E-03         50.1542E-03 
              295.E-03           211.159E-03       -261.983E-03         50.8242E-03       212.637E-03       -263.357E-03         50.7196E-03 
              297.5E-03          213.043E-03       -264.433E-03         51.3898E-03       214.533E-03       -265.818E-03         51.2851E-03 
              300.E-03           214.928E-03       -266.883E-03         51.9555E-03       216.428E-03       -268.279E-03         51.8505E-03 
              302.5E-03          216.812E-03       -269.334E-03         52.5212E-03       218.324E-03       -270.74E-03          52.416E-03  
              305.E-03           218.697E-03       -271.784E-03         53.0869E-03       220.219E-03       -273.201E-03         52.9815E-03 
              307.5E-03          220.581E-03       -274.234E-03         53.6526E-03       222.115E-03       -275.662E-03         53.547E-03  
              310.E-03           222.465E-03       -276.684E-03         54.2184E-03       224.011E-03       -278.124E-03         54.1126E-03 
              312.5E-03          224.35E-03        -279.134E-03         54.7841E-03       225.907E-03       -280.586E-03         54.6781E-03 
              315.E-03           226.234E-03       -281.584E-03         55.3498E-03       227.804E-03       -283.047E-03         55.2437E-03 
              317.5E-03          228.118E-03       -284.034E-03         55.9156E-03       229.7E-03         -285.509E-03         55.8092E-03 
              320.E-03           230.003E-03       -286.484E-03         56.4814E-03       231.597E-03       -287.972E-03         56.3748E-03 
              322.5E-03          231.887E-03       -288.934E-03         57.0471E-03       233.493E-03       -290.434E-03         56.9404E-03 
              325.E-03           233.771E-03       -291.384E-03         57.6129E-03       235.39E-03        -292.896E-03         57.506E-03  
              327.5E-03          235.655E-03       -293.834E-03         58.1787E-03       237.287E-03       -295.359E-03         58.0717E-03 
              330.E-03           237.54E-03        -296.284E-03         58.7445E-03       239.184E-03       -297.822E-03         58.6373E-03 
              332.5E-03          239.424E-03       -298.734E-03         59.3104E-03       241.082E-03       -300.285E-03         59.203E-03  
              335.E-03           241.308E-03       -301.184E-03         59.8762E-03       242.979E-03       -302.748E-03         59.7686E-03 
              337.5E-03          243.192E-03       -303.634E-03         60.442E-03        244.877E-03       -305.211E-03         60.3343E-03 
              340.E-03           245.076E-03       -306.084E-03         61.0079E-03       246.774E-03       -307.674E-03         60.9E-03    
              342.5E-03          246.96E-03        -308.534E-03         61.5737E-03       248.672E-03       -310.138E-03         61.4657E-03 
              345.E-03           248.844E-03       -310.984E-03         62.1396E-03       250.57E-03        -312.602E-03         62.0314E-03 
              347.5E-03          250.728E-03       -313.434E-03         62.7055E-03       252.468E-03       -315.065E-03         62.5972E-03 
              350.E-03           252.612E-03       -315.884E-03         63.2714E-03       254.366E-03       -317.529E-03         63.1629E-03 
              352.5E-03          254.496E-03       -318.333E-03         63.8372E-03       256.265E-03       -319.994E-03         63.7287E-03 
              355.E-03           256.38E-03        -320.783E-03         64.4031E-03       258.163E-03       -322.458E-03         64.2944E-03 
              357.5E-03          258.264E-03       -323.233E-03         64.969E-03        260.062E-03       -324.922E-03         64.8602E-03 
              360.E-03           260.148E-03       -325.683E-03         65.535E-03        261.961E-03       -327.387E-03         65.426E-03  
              362.5E-03          262.031E-03       -328.132E-03         66.1009E-03       263.86E-03        -329.852E-03         65.9918E-03 
              365.E-03           263.915E-03       -330.582E-03         66.6668E-03       265.759E-03       -332.317E-03         66.5577E-03 
              367.5E-03          265.799E-03       -333.032E-03         67.2328E-03       267.658E-03       -334.782E-03         67.1235E-03 
              370.E-03           267.683E-03       -335.481E-03         67.7987E-03       269.558E-03       -337.247E-03         67.6893E-03 
              372.5E-03          269.566E-03       -337.931E-03         68.3647E-03       271.457E-03       -339.713E-03         68.2552E-03 
              375.E-03           271.45E-03        -340.381E-03         68.9306E-03       273.357E-03       -342.178E-03         68.8211E-03 
              377.5E-03          273.333E-03       -342.83E-03          69.4966E-03       275.257E-03       -344.644E-03         69.3869E-03 
              380.E-03           275.217E-03       -345.28E-03          70.0626E-03       277.157E-03       -347.11E-03          69.9528E-03 
              382.5E-03          277.1E-03         -347.729E-03         70.6285E-03       279.057E-03       -349.576E-03         70.5187E-03 
              385.E-03           278.984E-03       -350.178E-03         71.1945E-03       280.958E-03       -352.042E-03         71.0846E-03 
              387.5E-03          280.867E-03       -352.628E-03         71.7605E-03       282.858E-03       -354.509E-03         71.6506E-03 
              390.E-03           282.751E-03       -355.077E-03         72.3265E-03       284.759E-03       -356.975E-03         72.2165E-03 
              392.5E-03          284.634E-03       -357.527E-03         72.8925E-03       286.66E-03        -359.442E-03         72.7825E-03 
              395.E-03           286.517E-03       -359.976E-03         73.4585E-03       288.561E-03       -361.909E-03         73.3484E-03 
              397.5E-03          288.401E-03       -362.425E-03         74.0246E-03       290.462E-03       -364.376E-03         73.9144E-03 
              400.E-03           290.284E-03       -364.874E-03         74.5906E-03       292.363E-03       -366.843E-03         74.4804E-03 
              402.5E-03          292.167E-03       -367.324E-03         75.1566E-03       294.264E-03       -369.311E-03         75.0464E-03 
              405.E-03           294.05E-03        -369.773E-03         75.7227E-03       296.166E-03       -371.778E-03         75.6124E-03 
              407.5E-03          295.933E-03       -372.222E-03         76.2887E-03       298.068E-03       -374.246E-03         76.1784E-03 
              410.E-03           297.816E-03       -374.671E-03         76.8548E-03       299.97E-03        -376.714E-03         76.7444E-03 
              412.5E-03          299.699E-03       -377.12E-03          77.4208E-03       301.872E-03       -379.182E-03         77.3104E-03 
              415.E-03           301.582E-03       -379.569E-03         77.9869E-03       303.774E-03       -381.651E-03         77.8765E-03 
              417.5E-03          303.465E-03       -382.018E-03         78.5529E-03       305.677E-03       -384.119E-03         78.4426E-03 
              420.E-03           305.348E-03       -384.467E-03         79.119E-03        307.579E-03       -386.588E-03         79.0086E-03 
              422.5E-03          307.23E-03        -386.916E-03         79.6851E-03       309.482E-03       -389.057E-03         79.5747E-03 
              425.E-03           309.113E-03       -389.364E-03         80.2512E-03       311.385E-03       -391.526E-03         80.1408E-03 
              427.5E-03          310.996E-03       -391.813E-03         80.8173E-03       313.288E-03       -393.995E-03         80.7069E-03 
              430.E-03           312.878E-03       -394.262E-03         81.3834E-03       315.191E-03       -396.464E-03         81.273E-03  
              432.5E-03          314.761E-03       -396.71E-03          81.9495E-03       317.095E-03       -398.934E-03         81.8391E-03 
              435.E-03           316.643E-03       -399.159E-03         82.5156E-03       318.998E-03       -401.404E-03         82.4053E-03 
              437.5E-03          318.526E-03       -401.608E-03         83.0817E-03       320.902E-03       -403.874E-03         82.9714E-03 
              440.E-03           320.408E-03       -404.056E-03         83.6478E-03       322.806E-03       -406.344E-03         83.5376E-03 
              442.5E-03          322.291E-03       -406.505E-03         84.2139E-03       324.71E-03        -408.814E-03         84.1037E-03 
              445.E-03           324.173E-03       -408.953E-03         84.78E-03         326.615E-03       -411.285E-03         84.6699E-03 
              447.5E-03          326.055E-03       -411.401E-03         85.3461E-03       328.519E-03       -413.755E-03         85.2361E-03 
              450.E-03           327.937E-03       -413.85E-03          85.9123E-03       330.424E-03       -416.226E-03         85.8023E-03 
              452.5E-03          329.819E-03       -416.298E-03         86.4784E-03       332.329E-03       -418.697E-03         86.3685E-03 
              455.E-03           331.701E-03       -418.746E-03         87.0446E-03       334.234E-03       -421.169E-03         86.9348E-03 
              457.5E-03          333.583E-03       -421.194E-03         87.6107E-03       336.139E-03       -423.64E-03          87.501E-03  
              460.E-03           335.465E-03       -423.642E-03         88.1768E-03       338.044E-03       -426.112E-03         88.0672E-03 
              462.5E-03          337.347E-03       -426.09E-03          88.743E-03        339.95E-03        -428.584E-03         88.6335E-03 
              465.E-03           339.229E-03       -428.538E-03         89.3091E-03       341.856E-03       -431.056E-03         89.1997E-03 
              467.5E-03          341.111E-03       -430.986E-03         89.8753E-03       343.762E-03       -433.528E-03         89.766E-03  
              470.E-03           342.992E-03       -433.434E-03         90.4415E-03       345.668E-03       -436.E-03            90.3323E-03 
              472.5E-03          344.874E-03       -435.882E-03         91.0076E-03       347.574E-03       -438.473E-03         90.8986E-03 
              475.E-03           346.755E-03       -438.329E-03         91.5738E-03       349.481E-03       -440.946E-03         91.4649E-03 
              477.5E-03          348.637E-03       -440.777E-03         92.14E-03         351.388E-03       -443.419E-03         92.0312E-03 
              480.E-03           350.518E-03       -443.224E-03         92.7061E-03       353.295E-03       -445.892E-03         92.5975E-03 
              482.5E-03          352.4E-03         -445.672E-03         93.2723E-03       355.202E-03       -448.366E-03         93.1639E-03 
              485.E-03           354.281E-03       -448.119E-03         93.8385E-03       357.109E-03       -450.84E-03          93.7302E-03 
              487.5E-03          356.162E-03       -450.567E-03         94.4047E-03       359.017E-03       -453.314E-03         94.2966E-03 
              490.E-03           358.043E-03       -453.014E-03         94.9709E-03       360.925E-03       -455.788E-03         94.863E-03  
              492.5E-03          359.924E-03       -455.461E-03         95.537E-03        362.833E-03       -458.262E-03         95.4294E-03 
              495.E-03           361.805E-03       -457.908E-03         96.1032E-03       364.741E-03       -460.737E-03         95.9958E-03 
              497.5E-03          363.686E-03       -460.355E-03         96.6694E-03       366.649E-03       -463.212E-03         96.5622E-03 
              500.E-03           365.567E-03       -462.802E-03         97.2356E-03       368.558E-03       -465.687E-03         97.1286E-03 
              502.5E-03          367.448E-03       -465.249E-03         97.8018E-03       370.467E-03       -468.162E-03         97.695E-03  
              505.E-03           369.328E-03       -467.696E-03         98.368E-03        372.376E-03       -470.637E-03         98.2615E-03 
              507.5E-03          371.209E-03       -470.143E-03         98.9342E-03       374.285E-03       -473.113E-03         98.8279E-03 
              510.E-03           373.089E-03       -472.59E-03          99.5004E-03       376.195E-03       -475.589E-03         99.3944E-03 
              512.5E-03          374.97E-03        -475.036E-03        100.067E-03        378.104E-03       -478.065E-03         99.9608E-03 
              515.E-03           376.85E-03        -477.483E-03        100.633E-03        380.014E-03       -480.542E-03        100.527E-03  
              517.5E-03          378.73E-03        -479.929E-03        101.199E-03        381.924E-03       -483.018E-03        101.094E-03  
              520.E-03           380.611E-03       -482.376E-03        101.765E-03        383.835E-03       -485.495E-03        101.66E-03   
              522.5E-03          382.491E-03       -484.822E-03        102.331E-03        385.745E-03       -487.972E-03        102.227E-03  
              525.E-03           384.371E-03       -487.268E-03        102.898E-03        387.656E-03       -490.449E-03        102.793E-03  
              527.5E-03          386.251E-03       -489.715E-03        103.464E-03        389.567E-03       -492.927E-03        103.36E-03   
              530.E-03           388.13E-03        -492.161E-03        104.03E-03         391.478E-03       -495.405E-03        103.926E-03  
              532.5E-03          390.01E-03        -494.607E-03        104.596E-03        393.39E-03        -497.883E-03        104.493E-03  
              535.E-03           391.89E-03        -497.053E-03        105.163E-03        395.302E-03       -500.361E-03        105.06E-03   
              537.5E-03          393.77E-03        -499.498E-03        105.729E-03        397.214E-03       -502.84E-03         105.626E-03  
              540.E-03           395.649E-03       -501.944E-03        106.295E-03        399.126E-03       -505.319E-03        106.193E-03  
              542.5E-03          397.528E-03       -504.39E-03         106.861E-03        401.038E-03       -507.798E-03        106.759E-03  
              545.E-03           399.408E-03       -506.835E-03        107.427E-03        402.951E-03       -510.277E-03        107.326E-03  
              547.5E-03          401.287E-03       -509.281E-03        107.994E-03        404.864E-03       -512.757E-03        107.893E-03  
              550.E-03           403.166E-03       -511.726E-03        108.56E-03         406.777E-03       -515.237E-03        108.459E-03  
              552.5E-03          405.045E-03       -514.171E-03        109.126E-03        408.691E-03       -517.717E-03        109.026E-03  
              555.E-03           406.924E-03       -516.617E-03        109.692E-03        410.604E-03       -520.197E-03        109.593E-03  
              557.5E-03          408.803E-03       -519.062E-03        110.259E-03        412.518E-03       -522.678E-03        110.159E-03  
              560.E-03           410.682E-03       -521.507E-03        110.825E-03        414.432E-03       -525.158E-03        110.726E-03  
              562.5E-03          412.56E-03        -523.951E-03        111.391E-03        416.347E-03       -527.64E-03         111.293E-03  
              565.E-03           414.439E-03       -526.396E-03        111.957E-03        418.262E-03       -530.121E-03        111.86E-03   
              567.5E-03          416.317E-03       -528.841E-03        112.524E-03        420.177E-03       -532.603E-03        112.426E-03  
              570.E-03           418.196E-03       -531.286E-03        113.09E-03         422.092E-03       -535.085E-03        112.993E-03  
              572.5E-03          420.074E-03       -533.73E-03         113.656E-03        424.007E-03       -537.567E-03        113.56E-03   
              575.E-03           421.952E-03       -536.174E-03        114.222E-03        425.923E-03       -540.05E-03         114.127E-03  
              577.5E-03          423.83E-03        -538.619E-03        114.788E-03        427.839E-03       -542.532E-03        114.693E-03  
              580.E-03           425.708E-03       -541.063E-03        115.355E-03        429.755E-03       -545.016E-03        115.26E-03   
              582.5E-03          427.586E-03       -543.507E-03        115.921E-03        431.672E-03       -547.499E-03        115.827E-03  
              585.E-03           429.464E-03       -545.951E-03        116.487E-03        433.589E-03       -549.983E-03        116.394E-03  
              587.5E-03          431.341E-03       -548.395E-03        117.053E-03        435.506E-03       -552.467E-03        116.961E-03  
              590.E-03           433.219E-03       -550.839E-03        117.62E-03         437.423E-03       -554.951E-03        117.528E-03  
              592.5E-03          435.096E-03       -553.282E-03        118.186E-03        439.341E-03       -557.435E-03        118.094E-03  
              595.E-03           436.974E-03       -555.726E-03        118.752E-03        441.259E-03       -559.92E-03         118.661E-03  
              597.5E-03          438.851E-03       -558.169E-03        119.318E-03        443.177E-03       -562.405E-03        119.228E-03  
              600.E-03           440.728E-03       -560.612E-03        119.884E-03        445.096E-03       -564.891E-03        119.795E-03  
              602.5E-03          442.605E-03       -563.056E-03        120.451E-03        447.014E-03       -567.377E-03        120.362E-03  
              605.E-03           444.482E-03       -565.499E-03        121.017E-03        448.934E-03       -569.863E-03        120.929E-03  
              607.5E-03          446.359E-03       -567.942E-03        121.583E-03        450.853E-03       -572.349E-03        121.496E-03  
              610.E-03           448.235E-03       -570.385E-03        122.149E-03        452.773E-03       -574.836E-03        122.063E-03  
              612.5E-03          450.112E-03       -572.827E-03        122.715E-03        454.693E-03       -577.323E-03        122.63E-03   
              615.E-03           451.988E-03       -575.27E-03         123.282E-03        456.613E-03       -579.81E-03         123.197E-03  
              617.5E-03          453.865E-03       -577.712E-03        123.848E-03        458.534E-03       -582.298E-03        123.764E-03  
              620.E-03           455.741E-03       -580.155E-03        124.414E-03        460.455E-03       -584.786E-03        124.331E-03  
              622.5E-03          457.617E-03       -582.597E-03        124.98E-03         462.376E-03       -587.274E-03        124.898E-03  
              625.E-03           459.493E-03       -585.039E-03        125.547E-03        464.297E-03       -589.763E-03        125.465E-03  
              627.5E-03          461.368E-03       -587.481E-03        126.113E-03        466.219E-03       -592.252E-03        126.032E-03  
              630.E-03           463.244E-03       -589.923E-03        126.679E-03        468.142E-03       -594.741E-03        126.599E-03  
              632.5E-03          465.12E-03        -592.365E-03        127.245E-03        470.064E-03       -597.231E-03        127.167E-03  
              635.E-03           466.995E-03       -594.806E-03        127.811E-03        471.987E-03       -599.721E-03        127.734E-03  
              637.5E-03          468.87E-03        -597.248E-03        128.377E-03        473.91E-03        -602.211E-03        128.301E-03  
              640.E-03           470.746E-03       -599.689E-03        128.944E-03        475.833E-03       -604.702E-03        128.868E-03  
              642.5E-03          472.621E-03       -602.13E-03         129.51E-03         477.757E-03       -607.193E-03        129.435E-03  
              645.E-03           474.495E-03       -604.571E-03        130.076E-03        479.681E-03       -609.684E-03        130.003E-03  
              647.5E-03          476.37E-03        -607.012E-03        130.642E-03        481.606E-03       -612.176E-03        130.57E-03   
              650.E-03           478.245E-03       -609.453E-03        131.208E-03        483.531E-03       -614.668E-03        131.137E-03  
              652.5E-03          480.119E-03       -611.894E-03        131.774E-03        485.456E-03       -617.16E-03         131.704E-03  
              655.E-03           481.994E-03       -614.334E-03        132.341E-03        487.381E-03       -619.653E-03        132.272E-03  
              657.5E-03          483.868E-03       -616.775E-03        132.907E-03        489.307E-03       -622.146E-03        132.839E-03  
              660.E-03           485.742E-03       -619.215E-03        133.473E-03        491.233E-03       -624.64E-03         133.406E-03  
              662.5E-03          487.616E-03       -621.655E-03        134.039E-03        493.16E-03        -627.134E-03        133.974E-03  
              665.E-03           489.49E-03        -624.095E-03        134.605E-03        495.087E-03       -629.628E-03        134.541E-03  
              667.5E-03          491.363E-03       -626.535E-03        135.171E-03        497.014E-03       -632.122E-03        135.108E-03  
              670.E-03           493.237E-03       -628.975E-03        135.738E-03        498.942E-03       -634.617E-03        135.676E-03  
              672.5E-03          495.11E-03        -631.414E-03        136.304E-03        500.87E-03        -637.113E-03        136.243E-03  
              675.E-03           496.984E-03       -633.853E-03        136.87E-03         502.798E-03       -639.609E-03        136.811E-03  
              677.5E-03          498.857E-03       -636.293E-03        137.436E-03        504.727E-03       -642.105E-03        137.378E-03  
              680.E-03           500.73E-03        -638.732E-03        138.002E-03        506.656E-03       -644.601E-03        137.945E-03  
              682.5E-03          502.602E-03       -641.171E-03        138.568E-03        508.585E-03       -647.098E-03        138.513E-03  
              685.E-03           504.475E-03       -643.609E-03        139.134E-03        510.515E-03       -649.596E-03        139.081E-03  
              687.5E-03          506.348E-03       -646.048E-03        139.7E-03          512.445E-03       -652.094E-03        139.648E-03  
              690.E-03           508.22E-03        -648.486E-03        140.266E-03        514.376E-03       -654.592E-03        140.216E-03  
              692.5E-03          510.092E-03       -650.925E-03        140.832E-03        516.307E-03       -657.09E-03         140.783E-03  
              695.E-03           511.964E-03       -653.363E-03        141.399E-03        518.239E-03       -659.589E-03        141.351E-03  
              697.5E-03          513.836E-03       -655.801E-03        141.965E-03        520.17E-03        -662.089E-03        141.918E-03  
              700.E-03           515.708E-03       -658.238E-03        142.531E-03        522.103E-03       -664.589E-03        142.486E-03  
              702.5E-03          517.579E-03       -660.676E-03        143.097E-03        524.035E-03       -667.089E-03        143.054E-03  
              705.E-03           519.451E-03       -663.114E-03        143.663E-03        525.968E-03       -669.59E-03         143.622E-03  
              707.5E-03          521.322E-03       -665.551E-03        144.229E-03        527.901E-03       -672.091E-03        144.189E-03  
              710.E-03           523.193E-03       -667.988E-03        144.795E-03        529.835E-03       -674.592E-03        144.757E-03  
              712.5E-03          525.064E-03       -670.425E-03        145.361E-03        531.77E-03        -677.094E-03        145.325E-03  
              715.E-03           526.935E-03       -672.862E-03        145.927E-03        533.704E-03       -679.597E-03        145.893E-03  
              717.5E-03          528.805E-03       -675.298E-03        146.493E-03        535.639E-03       -682.1E-03          146.46E-03   
              720.E-03           530.676E-03       -677.735E-03        147.059E-03        537.575E-03       -684.603E-03        147.028E-03  
              722.5E-03          532.546E-03       -680.171E-03        147.625E-03        539.511E-03       -687.107E-03        147.596E-03  
              725.E-03           534.416E-03       -682.607E-03        148.191E-03        541.447E-03       -689.611E-03        148.164E-03  
              727.5E-03          536.286E-03       -685.043E-03        148.757E-03        543.384E-03       -692.116E-03        148.732E-03  
              730.E-03           538.156E-03       -687.479E-03        149.323E-03        545.321E-03       -694.621E-03        149.3E-03    
              732.5E-03          540.025E-03       -689.914E-03        149.889E-03        547.258E-03       -697.126E-03        149.868E-03  
              735.E-03           541.895E-03       -692.349E-03        150.455E-03        549.197E-03       -699.633E-03        150.436E-03  
              737.5E-03          543.764E-03       -694.785E-03        151.021E-03        551.135E-03       -702.139E-03        151.004E-03  
              740.E-03           545.633E-03       -697.22E-03         151.587E-03        553.074E-03       -704.646E-03        151.572E-03  
              742.5E-03          547.502E-03       -699.654E-03        152.153E-03        555.013E-03       -707.154E-03        152.14E-03   
              745.E-03           549.37E-03        -702.089E-03        152.719E-03        556.953E-03       -709.662E-03        152.708E-03  
              747.5E-03          551.239E-03       -704.523E-03        153.285E-03        558.894E-03       -712.17E-03         153.276E-03  
              750.E-03           553.107E-03       -706.958E-03        153.85E-03         560.835E-03       -714.679E-03        153.845E-03  
              752.5E-03          554.975E-03       -709.392E-03        154.416E-03        562.776E-03       -717.189E-03        154.413E-03  
              755.E-03           556.843E-03       -711.825E-03        154.982E-03        564.718E-03       -719.699E-03        154.981E-03  
              757.5E-03          558.711E-03       -714.259E-03        155.548E-03        566.66E-03        -722.209E-03        155.549E-03  
              760.E-03           560.578E-03       -716.692E-03        156.114E-03        568.602E-03       -724.72E-03         156.118E-03  
              762.5E-03          562.446E-03       -719.126E-03        156.68E-03         570.546E-03       -727.232E-03        156.686E-03  
              765.E-03           564.313E-03       -721.559E-03        157.246E-03        572.489E-03       -729.744E-03        157.254E-03  
              767.5E-03          566.18E-03        -723.991E-03        157.811E-03        574.434E-03       -732.256E-03        157.823E-03  
              770.E-03           568.047E-03       -726.424E-03        158.377E-03        576.378E-03       -734.769E-03        158.391E-03  
              772.5E-03          569.913E-03       -728.856E-03        158.943E-03        578.323E-03       -737.283E-03        158.96E-03   
              775.E-03           571.78E-03        -731.289E-03        159.509E-03        580.269E-03       -739.797E-03        159.528E-03  
              777.5E-03          573.646E-03       -733.72E-03         160.075E-03        582.215E-03       -742.312E-03        160.097E-03  
              780.E-03           575.512E-03       -736.152E-03        160.64E-03         584.162E-03       -744.827E-03        160.665E-03  
              782.5E-03          577.378E-03       -738.584E-03        161.206E-03        586.109E-03       -747.343E-03        161.234E-03  
              785.E-03           579.243E-03       -741.015E-03        161.772E-03        588.057E-03       -749.859E-03        161.802E-03  
              787.5E-03          581.109E-03       -743.446E-03        162.338E-03        590.005E-03       -752.376E-03        162.371E-03  
              790.E-03           582.974E-03       -745.877E-03        162.903E-03        591.954E-03       -754.894E-03        162.94E-03   
              792.5E-03          584.839E-03       -748.308E-03        163.469E-03        593.903E-03       -757.412E-03        163.509E-03  
              795.E-03           586.703E-03       -750.738E-03        164.035E-03        595.853E-03       -759.93E-03         164.077E-03  
              797.5E-03          588.568E-03       -753.168E-03        164.6E-03          597.803E-03       -762.449E-03        164.646E-03  
              800.E-03           590.432E-03       -755.598E-03        165.166E-03        599.754E-03       -764.969E-03        165.215E-03  
              802.5E-03          592.296E-03       -758.028E-03        165.732E-03        601.706E-03       -767.49E-03         165.784E-03  
              805.E-03           594.16E-03        -760.458E-03        166.297E-03        603.658E-03       -770.01E-03         166.353E-03  
              807.5E-03          596.024E-03       -762.887E-03        166.863E-03        605.61E-03        -772.532E-03        166.922E-03  
              810.E-03           597.887E-03       -765.316E-03        167.429E-03        607.563E-03       -775.054E-03        167.491E-03  
              812.5E-03          599.75E-03        -767.745E-03        167.994E-03        609.517E-03       -777.577E-03        168.06E-03   
              815.E-03           601.614E-03       -770.173E-03        168.56E-03         611.471E-03       -780.1E-03          168.629E-03  
              817.5E-03          603.476E-03       -772.602E-03        169.125E-03        613.426E-03       -782.624E-03        169.198E-03  
              820.E-03           605.339E-03       -775.03E-03         169.691E-03        615.381E-03       -785.149E-03        169.767E-03  
              822.5E-03          607.201E-03       -777.457E-03        170.256E-03        617.337E-03       -787.674E-03        170.337E-03  
              825.E-03           609.063E-03       -779.885E-03        170.822E-03        619.294E-03       -790.2E-03          170.906E-03  
              827.5E-03          610.925E-03       -782.312E-03        171.387E-03        621.251E-03       -792.726E-03        171.475E-03  
              830.E-03           612.787E-03       -784.74E-03         171.953E-03        623.209E-03       -795.253E-03        172.044E-03  
              832.5E-03          614.648E-03       -787.166E-03        172.518E-03        625.167E-03       -797.781E-03        172.614E-03  
              835.E-03           616.509E-03       -789.593E-03        173.084E-03        627.126E-03       -800.309E-03        173.183E-03  
              837.5E-03          618.37E-03        -792.019E-03        173.649E-03        629.086E-03       -802.839E-03        173.753E-03  
              840.E-03           620.231E-03       -794.445E-03        174.215E-03        631.046E-03       -805.368E-03        174.322E-03  
              842.5E-03          622.091E-03       -796.871E-03        174.78E-03         633.007E-03       -807.899E-03        174.892E-03  
              845.E-03           623.952E-03       -799.297E-03        175.345E-03        634.968E-03       -810.43E-03         175.462E-03  
              847.5E-03          625.812E-03       -801.722E-03        175.911E-03        636.93E-03        -812.961E-03        176.031E-03  
              850.E-03           627.671E-03       -804.147E-03        176.476E-03        638.893E-03       -815.494E-03        176.601E-03  
              852.5E-03          629.531E-03       -806.572E-03        177.041E-03        640.856E-03       -818.027E-03        177.171E-03  
              855.E-03           631.39E-03        -808.996E-03        177.607E-03        642.82E-03        -820.561E-03        177.741E-03  
              857.5E-03          633.249E-03       -811.421E-03        178.172E-03        644.785E-03       -823.095E-03        178.31E-03   
              860.E-03           635.108E-03       -813.845E-03        178.737E-03        646.75E-03        -825.63E-03         178.88E-03   
              862.5E-03          636.966E-03       -816.268E-03        179.302E-03        648.716E-03       -828.166E-03        179.45E-03   
              865.E-03           638.824E-03       -818.692E-03        179.867E-03        650.682E-03       -830.703E-03        180.02E-03   
              867.5E-03          640.682E-03       -821.115E-03        180.433E-03        652.65E-03        -833.24E-03         180.59E-03   
              870.E-03           642.54E-03        -823.538E-03        180.998E-03        654.618E-03       -835.778E-03        181.161E-03  
              872.5E-03          644.397E-03       -825.96E-03         181.563E-03        656.586E-03       -838.317E-03        181.731E-03  
              875.E-03           646.254E-03       -828.383E-03        182.128E-03        658.556E-03       -840.857E-03        182.301E-03  
              877.5E-03          648.111E-03       -830.804E-03        182.693E-03        660.526E-03       -843.397E-03        182.871E-03  
              880.E-03           649.968E-03       -833.226E-03        183.258E-03        662.496E-03       -845.938E-03        183.442E-03  
              882.5E-03          651.824E-03       -835.648E-03        183.823E-03        664.468E-03       -848.48E-03         184.012E-03  
              885.E-03           653.68E-03        -838.069E-03        184.388E-03        666.44E-03        -851.022E-03        184.583E-03  
              887.5E-03          655.536E-03       -840.49E-03         184.953E-03        668.412E-03       -853.566E-03        185.153E-03  
              890.E-03           657.392E-03       -842.91E-03         185.518E-03        670.386E-03       -856.11E-03         185.724E-03  
              892.5E-03          659.247E-03       -845.33E-03         186.083E-03        672.36E-03        -858.655E-03        186.294E-03  
              895.E-03           661.102E-03       -847.75E-03         186.648E-03        674.335E-03       -861.2E-03          186.865E-03  
              897.5E-03          662.957E-03       -850.17E-03         187.213E-03        676.311E-03       -863.747E-03        187.436E-03  
              900.E-03           664.811E-03       -852.589E-03        187.778E-03        678.287E-03       -866.294E-03        188.007E-03  
              902.5E-03          666.665E-03       -855.008E-03        188.343E-03        680.264E-03       -868.842E-03        188.578E-03  
              905.E-03           668.519E-03       -857.427E-03        188.908E-03        682.242E-03       -871.391E-03        189.149E-03  
              907.5E-03          670.373E-03       -859.845E-03        189.472E-03        684.221E-03       -873.941E-03        189.72E-03   
              910.E-03           672.226E-03       -862.263E-03        190.037E-03        686.2E-03         -876.491E-03        190.291E-03  
              912.5E-03          674.079E-03       -864.681E-03        190.602E-03        688.18E-03        -879.043E-03        190.862E-03  
              915.E-03           675.932E-03       -867.098E-03        191.167E-03        690.161E-03       -881.595E-03        191.433E-03  
              917.5E-03          677.784E-03       -869.516E-03        191.731E-03        692.143E-03       -884.148E-03        192.005E-03  
              920.E-03           679.636E-03       -871.932E-03        192.296E-03        694.126E-03       -886.702E-03        192.576E-03  
              922.5E-03          681.488E-03       -874.349E-03        192.86E-03         696.109E-03       -889.257E-03        193.147E-03  
              925.E-03           683.34E-03        -876.765E-03        193.425E-03        698.093E-03       -891.812E-03        193.719E-03  
              927.5E-03          685.191E-03       -879.181E-03        193.99E-03         700.078E-03       -894.369E-03        194.291E-03  
              930.E-03           687.042E-03       -881.596E-03        194.554E-03        702.064E-03       -896.926E-03        194.862E-03  
              932.5E-03          688.893E-03       -884.011E-03        195.119E-03        704.05E-03        -899.484E-03        195.434E-03  
              935.E-03           690.743E-03       -886.426E-03        195.683E-03        706.038E-03       -902.044E-03        196.006E-03  
              937.5E-03          692.593E-03       -888.84E-03         196.248E-03        708.026E-03       -904.604E-03        196.578E-03  
              940.E-03           694.443E-03       -891.254E-03        196.812E-03        710.015E-03       -907.165E-03        197.15E-03   
              942.5E-03          696.292E-03       -893.668E-03        197.376E-03        712.005E-03       -909.727E-03        197.722E-03  
              945.E-03           698.141E-03       -896.082E-03        197.941E-03        713.995E-03       -912.289E-03        198.294E-03  
              947.5E-03          699.99E-03        -898.495E-03        198.505E-03        715.987E-03       -914.853E-03        198.866E-03  
              950.E-03           701.838E-03       -900.907E-03        199.069E-03        717.979E-03       -917.418E-03        199.439E-03  
              952.5E-03          703.686E-03       -903.32E-03         199.633E-03        719.973E-03       -919.984E-03        200.011E-03  
              955.E-03           705.534E-03       -905.732E-03        200.198E-03        721.967E-03       -922.55E-03         200.583E-03  
              957.5E-03          707.382E-03       -908.143E-03        200.762E-03        723.962E-03       -925.118E-03        201.156E-03  
              960.E-03           709.229E-03       -910.555E-03        201.326E-03        725.958E-03       -927.686E-03        201.729E-03  
              962.5E-03          711.076E-03       -912.966E-03        201.89E-03         727.954E-03       -930.256E-03        202.301E-03  
              965.E-03           712.922E-03       -915.376E-03        202.454E-03        729.952E-03       -932.826E-03        202.874E-03  
              967.5E-03          714.768E-03       -917.786E-03        203.018E-03        731.951E-03       -935.398E-03        203.447E-03  
              970.E-03           716.614E-03       -920.196E-03        203.582E-03        733.95E-03        -937.97E-03         204.02E-03   
              972.5E-03          718.459E-03       -922.605E-03        204.146E-03        735.951E-03       -940.544E-03        204.593E-03  
              975.E-03           720.305E-03       -925.014E-03        204.71E-03         737.952E-03       -943.118E-03        205.167E-03  
              977.5E-03          722.149E-03       -927.423E-03        205.274E-03        739.954E-03       -945.694E-03        205.74E-03   
              980.E-03           723.994E-03       -929.831E-03        205.838E-03        741.957E-03       -948.271E-03        206.313E-03  
              982.5E-03          725.838E-03       -932.239E-03        206.401E-03        743.962E-03       -950.848E-03        206.887E-03  
              985.E-03           727.682E-03       -934.647E-03        206.965E-03        745.967E-03       -953.427E-03        207.46E-03   
              987.5E-03          729.525E-03       -937.054E-03        207.529E-03        747.973E-03       -956.007E-03        208.034E-03  
              990.E-03           731.368E-03       -939.461E-03        208.093E-03        749.98E-03        -958.588E-03        208.608E-03  
              992.5E-03          733.211E-03       -941.867E-03        208.656E-03        751.988E-03       -961.17E-03         209.182E-03  
              995.E-03           735.053E-03       -944.273E-03        209.22E-03         753.997E-03       -963.753E-03        209.756E-03  
              997.5E-03          736.895E-03       -946.678E-03        209.783E-03        756.007E-03       -966.337E-03        210.33E-03   
                1.               738.737E-03       -949.083E-03        210.347E-03        758.018E-03       -968.922E-03        210.904E-03  




