
                  X               ep1-out            ep2-out            ep3-out             ep1-in             ep2-in             ep3-in     

                0.                 0.                 0.                 0.                 0.                 0.                 0.         
                2.5E-03          715.237E-06         -1.16312E-03      447.884E-06        822.313E-06         -1.30045E-03      478.134E-06  
                5.E-03             2.50698E-03       -4.17889E-03        1.67192E-03        2.70109E-03       -4.39907E-03        1.69798E-03
                7.5E-03            4.29083E-03       -7.20937E-03        2.91854E-03        4.54688E-03       -7.48964E-03        2.94276E-03
               10.E-03             6.0772E-03       -10.2478E-03         4.17065E-03        6.3825E-03       -10.5764E-03         4.19387E-03
               12.5E-03            7.86675E-03      -13.2923E-03         5.42559E-03        8.21207E-03      -13.6603E-03         5.44825E-03
               15.E-03             9.65923E-03      -16.3416E-03         6.68239E-03       10.0377E-03       -16.7424E-03         6.70474E-03
               17.5E-03           11.4542E-03       -19.3948E-03         7.94061E-03       11.8604E-03       -19.8232E-03         7.96281E-03
               20.E-03            13.2513E-03       -22.4513E-03         9.20002E-03       13.6811E-03       -22.9033E-03         9.22215E-03
               22.5E-03           15.0501E-03       -25.5105E-03        10.4604E-03        15.5003E-03       -25.9829E-03        10.4826E-03 
               25.E-03            16.8505E-03       -28.5722E-03        11.7217E-03        17.3184E-03       -29.0623E-03        11.7439E-03 
               27.5E-03           18.6522E-03       -31.636E-03         12.9838E-03        19.1356E-03       -32.1415E-03        13.006E-03  
               30.E-03            20.4551E-03       -34.7016E-03        14.2465E-03        20.9521E-03       -35.2209E-03        14.2688E-03 
               32.5E-03           22.259E-03        -37.7688E-03        15.5098E-03        22.7681E-03       -38.3004E-03        15.5322E-03 
               35.E-03            24.0638E-03       -40.8375E-03        16.7738E-03        24.5838E-03       -41.38E-03          16.7962E-03 
               37.5E-03           25.8693E-03       -43.9075E-03        18.0382E-03        26.3992E-03       -44.4599E-03        18.0607E-03 
               40.E-03            27.6756E-03       -46.9787E-03        19.303E-03         28.2145E-03       -47.5401E-03        19.3257E-03 
               42.5E-03           29.4826E-03       -50.0509E-03        20.5683E-03        30.0296E-03       -50.6206E-03        20.591E-03  
               45.E-03            31.2902E-03       -53.1241E-03        21.834E-03         31.8446E-03       -53.7014E-03        21.8568E-03 
               47.5E-03           33.0983E-03       -56.1983E-03        23.1E-03           33.6597E-03       -56.7825E-03        23.1229E-03 
               50.E-03            34.9068E-03       -59.2732E-03        24.3663E-03        35.4747E-03       -59.864E-03         24.3893E-03 
               52.5E-03           36.7159E-03       -62.3489E-03        25.633E-03         37.2897E-03       -62.9457E-03        25.656E-03  
               55.E-03            38.5253E-03       -65.4253E-03        26.8999E-03        39.1048E-03       -66.0278E-03        26.923E-03  
               57.5E-03           40.1764E-03       -67.5153E-03        27.3389E-03        40.7791E-03       -68.1424E-03        27.3633E-03 
               60.E-03            41.8879E-03       -68.9236E-03        27.0357E-03        42.6704E-03       -69.7049E-03        27.0344E-03 
               62.5E-03           43.8622E-03       -70.2338E-03        26.3716E-03        44.6155E-03       -70.995E-03         26.3795E-03 
               65.E-03            45.8537E-03       -71.4015E-03        25.5478E-03        46.6219E-03       -72.1733E-03        25.5514E-03 
               67.5E-03           47.8483E-03       -72.4912E-03        24.6429E-03        48.618E-03        -73.2649E-03        24.6469E-03 
               70.E-03            49.838E-03        -73.5356E-03        23.6976E-03        50.611E-03        -74.3119E-03        23.7009E-03 
               72.5E-03           51.8244E-03       -74.5551E-03        22.7307E-03        52.6003E-03       -75.3337E-03        22.7333E-03 
               75.E-03            53.8086E-03       -75.5609E-03        21.7523E-03        54.5875E-03       -76.3416E-03        21.7541E-03 
               77.5E-03           55.7916E-03       -76.5591E-03        20.7674E-03        56.5733E-03       -77.3418E-03        20.7685E-03 
               80.E-03            57.774E-03        -77.5531E-03        19.7791E-03        58.5585E-03       -78.3379E-03        19.7794E-03 
               82.5E-03           59.756E-03        -78.5449E-03        18.7889E-03        60.5433E-03       -79.3316E-03        18.7883E-03 
               85.E-03            61.7379E-03       -79.5355E-03        17.7976E-03        62.528E-03        -80.3242E-03        17.7962E-03 
               87.5E-03           63.7197E-03       -80.5254E-03        16.8057E-03        64.5127E-03       -81.3161E-03        16.8034E-03 
               90.E-03            65.7016E-03       -81.515E-03         15.8134E-03        66.4974E-03       -82.3076E-03        15.8102E-03 
               92.5E-03           67.6835E-03       -82.5044E-03        14.8209E-03        68.4821E-03       -83.299E-03         14.8169E-03 
               95.E-03            69.6655E-03       -83.4938E-03        13.8283E-03        70.467E-03        -84.2903E-03        13.8234E-03 
               97.5E-03           71.6476E-03       -84.4831E-03        12.8356E-03        72.4519E-03       -85.2817E-03        12.8298E-03 
              100.E-03            73.6297E-03       -85.4725E-03        11.8428E-03        74.4369E-03       -86.273E-03         11.8361E-03 
              102.5E-03           75.551E-03        -86.9164E-03        11.3654E-03        76.3916E-03       -87.7441E-03        11.3525E-03 
              105.E-03            77.6824E-03       -89.3294E-03        11.647E-03         78.5519E-03       -90.1881E-03        11.6362E-03 
              107.5E-03           79.796E-03        -92.164E-03         12.368E-03         80.6685E-03       -93.025E-03         12.3565E-03 
              110.E-03            81.837E-03        -95.0961E-03        13.2591E-03        82.7115E-03       -95.9586E-03        13.2471E-03 
              112.5E-03           83.8418E-03       -98.0541E-03        14.2123E-03        84.718E-03        -98.9181E-03        14.2001E-03 
              115.E-03            85.8317E-03      -101.02E-03          15.1885E-03        86.7098E-03      -101.886E-03         15.1761E-03 
              117.5E-03           87.816E-03       -103.989E-03         16.1733E-03        88.696E-03       -104.857E-03         16.1608E-03 
              120.E-03            89.7981E-03      -106.959E-03         17.1614E-03        90.6803E-03      -107.829E-03         17.1488E-03 
              122.5E-03           91.7794E-03      -109.93E-03          18.1508E-03        92.664E-03       -110.802E-03         18.1381E-03 
              125.E-03            93.7606E-03      -112.901E-03         19.1407E-03        94.6476E-03      -113.776E-03         19.1279E-03 
              127.5E-03           95.7417E-03      -115.873E-03         20.1308E-03        96.6314E-03      -116.749E-03         20.118E-03  
              130.E-03            97.7228E-03      -118.844E-03         21.1212E-03        98.6154E-03      -119.724E-03         21.1082E-03 
              132.5E-03           99.704E-03       -121.816E-03         22.1116E-03       100.6E-03         -122.698E-03         22.0986E-03 
              135.E-03           101.685E-03       -124.787E-03         23.1021E-03       102.584E-03       -125.673E-03         23.089E-03  
              137.5E-03          103.667E-03       -127.759E-03         24.0926E-03       104.569E-03       -128.648E-03         24.0796E-03 
              140.E-03           105.648E-03       -130.731E-03         25.0833E-03       106.554E-03       -131.624E-03         25.0701E-03 
              142.5E-03          107.629E-03       -133.703E-03         26.0739E-03       108.539E-03       -134.6E-03           26.0608E-03 
              145.E-03           109.611E-03       -136.676E-03         27.0647E-03       110.524E-03       -137.576E-03         27.0515E-03 
              147.5E-03          111.592E-03       -139.648E-03         28.0555E-03       112.51E-03        -140.552E-03         28.0423E-03 
              150.E-03           113.574E-03       -142.62E-03          29.0464E-03       114.496E-03       -143.529E-03         29.0332E-03 
              152.5E-03          115.556E-03       -145.593E-03         30.0373E-03       116.482E-03       -146.506E-03         30.0241E-03 
              155.E-03           117.537E-03       -148.566E-03         31.0283E-03       118.468E-03       -149.483E-03         31.015E-03  
              157.5E-03          119.519E-03       -151.538E-03         32.0193E-03       120.455E-03       -152.461E-03         32.0061E-03 
              160.E-03           121.501E-03       -154.511E-03         33.0104E-03       122.441E-03       -155.439E-03         32.9971E-03 
              162.5E-03          123.483E-03       -157.484E-03         34.0015E-03       124.428E-03       -158.417E-03         33.9883E-03 
              165.E-03           125.464E-03       -160.457E-03         34.9927E-03       126.415E-03       -161.395E-03         34.9795E-03 
              167.5E-03          127.446E-03       -163.43E-03          35.9839E-03       128.403E-03       -164.373E-03         35.9707E-03 
              170.E-03           129.428E-03       -166.403E-03         36.9752E-03       130.39E-03        -167.352E-03         36.962E-03  
              172.5E-03          131.41E-03        -169.377E-03         37.9665E-03       132.378E-03       -170.331E-03         37.9533E-03 
              175.E-03           133.392E-03       -172.35E-03          38.9578E-03       134.366E-03       -173.311E-03         38.9447E-03 
              177.5E-03          135.374E-03       -175.323E-03         39.9492E-03       136.354E-03       -176.29E-03          39.9362E-03 
              180.E-03           137.356E-03       -178.297E-03         40.9407E-03       138.342E-03       -179.27E-03          40.9276E-03 
              182.5E-03          139.338E-03       -181.27E-03          41.9321E-03       140.331E-03       -182.25E-03          41.9192E-03 
              185.E-03           141.32E-03        -184.244E-03         42.9236E-03       142.319E-03       -185.23E-03          42.9107E-03 
              187.5E-03          143.302E-03       -187.217E-03         43.9152E-03       144.308E-03       -188.21E-03          43.9023E-03 
              190.E-03           145.284E-03       -190.191E-03         44.9068E-03       146.297E-03       -191.191E-03         44.894E-03  
              192.5E-03          147.266E-03       -193.165E-03         45.8984E-03       148.286E-03       -194.172E-03         45.8857E-03 
              195.E-03           149.248E-03       -196.139E-03         46.89E-03         150.276E-03       -197.153E-03         46.8774E-03 
              197.5E-03          151.231E-03       -199.112E-03         47.8817E-03       152.265E-03       -200.134E-03         47.8692E-03 
              200.E-03           153.213E-03       -202.086E-03         48.8734E-03       154.255E-03       -203.116E-03         48.861E-03  
              202.5E-03          155.195E-03       -205.06E-03          49.8652E-03       156.245E-03       -206.098E-03         49.8528E-03 
              205.E-03           157.177E-03       -208.034E-03         50.857E-03        158.235E-03       -209.08E-03          50.8447E-03 
              207.5E-03          159.159E-03       -211.008E-03         51.8488E-03       160.225E-03       -212.062E-03         51.8366E-03 
              210.E-03           161.141E-03       -213.982E-03         52.8406E-03       162.216E-03       -215.044E-03         52.8286E-03 
              212.5E-03          163.123E-03       -216.956E-03         53.8325E-03       164.206E-03       -218.027E-03         53.8206E-03 
              215.E-03           165.106E-03       -219.93E-03          54.8244E-03       166.197E-03       -221.01E-03          54.8126E-03 
              217.5E-03          167.088E-03       -222.904E-03         55.8163E-03       168.188E-03       -223.993E-03         55.8047E-03 
              220.E-03           169.07E-03        -225.878E-03         56.8083E-03       170.179E-03       -226.976E-03         56.7968E-03 
              222.5E-03          171.052E-03       -228.852E-03         57.8002E-03       172.171E-03       -229.96E-03          57.7889E-03 
              225.E-03           173.034E-03       -231.826E-03         58.7922E-03       174.162E-03       -232.943E-03         58.781E-03  
              227.5E-03          175.016E-03       -234.801E-03         59.7843E-03       176.154E-03       -235.927E-03         59.7732E-03 
              230.E-03           176.998E-03       -237.775E-03         60.7763E-03       178.146E-03       -238.911E-03         60.7654E-03 
              232.5E-03          178.98E-03        -240.749E-03         61.7684E-03       180.138E-03       -241.896E-03         61.7577E-03 
              235.E-03           180.963E-03       -243.723E-03         62.7605E-03       182.13E-03        -244.88E-03          62.75E-03   
              237.5E-03          182.945E-03       -246.697E-03         63.7526E-03       184.123E-03       -247.865E-03         63.7423E-03 
              240.E-03           184.927E-03       -249.671E-03         64.7448E-03       186.115E-03       -250.85E-03          64.7346E-03 
              242.5E-03          186.909E-03       -252.646E-03         65.737E-03        188.108E-03       -253.835E-03         65.727E-03  
              245.E-03           188.891E-03       -255.62E-03          66.7291E-03       190.101E-03       -256.82E-03          66.7194E-03 
              247.5E-03          190.873E-03       -258.594E-03         67.7214E-03       192.094E-03       -259.806E-03         67.7118E-03 
              250.E-03           192.855E-03       -261.568E-03         68.7136E-03       194.087E-03       -262.792E-03         68.7042E-03 
              252.5E-03          194.837E-03       -264.542E-03         69.7058E-03       196.081E-03       -265.777E-03         69.6967E-03 
              255.E-03           196.819E-03       -267.517E-03         70.6981E-03       198.074E-03       -268.764E-03         70.6892E-03 
              257.5E-03          198.8E-03         -270.491E-03         71.6904E-03       200.068E-03       -271.75E-03          71.6817E-03 
              260.E-03           200.782E-03       -273.465E-03         72.6827E-03       202.062E-03       -274.737E-03         72.6743E-03 
              262.5E-03          202.764E-03       -276.439E-03         73.6751E-03       204.057E-03       -277.723E-03         73.6669E-03 
              265.E-03           204.746E-03       -279.413E-03         74.6674E-03       206.051E-03       -280.71E-03          74.6595E-03 
              267.5E-03          206.728E-03       -282.388E-03         75.6598E-03       208.046E-03       -283.698E-03         75.6521E-03 
              270.E-03           208.71E-03        -285.362E-03         76.6522E-03       210.04E-03        -286.685E-03         76.6447E-03 
              272.5E-03          210.691E-03       -288.336E-03         77.6446E-03       212.035E-03       -289.673E-03         77.6374E-03 
              275.E-03           212.673E-03       -291.31E-03          78.637E-03        214.03E-03        -292.66E-03          78.6301E-03 
              277.5E-03          214.655E-03       -294.284E-03         79.6294E-03       216.026E-03       -295.649E-03         79.6228E-03 
              280.E-03           216.636E-03       -297.258E-03         80.6219E-03       218.021E-03       -298.637E-03         80.6156E-03 
              282.5E-03          218.618E-03       -300.232E-03         81.6143E-03       220.017E-03       -301.625E-03         81.6084E-03 
              285.E-03           220.599E-03       -303.206E-03         82.6068E-03       222.013E-03       -304.614E-03         82.6012E-03 
              287.5E-03          222.581E-03       -306.18E-03          83.5993E-03       224.009E-03       -307.603E-03         83.594E-03  
              290.E-03           224.562E-03       -309.154E-03         84.5918E-03       226.005E-03       -310.592E-03         84.5868E-03 
              292.5E-03          226.544E-03       -312.128E-03         85.5844E-03       228.002E-03       -313.581E-03         85.5797E-03 
              295.E-03           228.525E-03       -315.102E-03         86.5769E-03       229.998E-03       -316.571E-03         86.5726E-03 
              297.5E-03          230.507E-03       -318.076E-03         87.5695E-03       231.995E-03       -319.561E-03         87.5655E-03 
              300.E-03           232.488E-03       -321.05E-03          88.562E-03        233.992E-03       -322.551E-03         88.5584E-03 
              302.5E-03          234.469E-03       -324.024E-03         89.5546E-03       235.99E-03        -325.541E-03         89.5514E-03 
              305.E-03           236.45E-03        -326.998E-03         90.5472E-03       237.987E-03       -328.532E-03         90.5443E-03 
              307.5E-03          238.431E-03       -329.971E-03         91.5398E-03       239.985E-03       -331.522E-03         91.5373E-03 
              310.E-03           240.413E-03       -332.945E-03         92.5324E-03       241.983E-03       -334.513E-03         92.5303E-03 
              312.5E-03          242.394E-03       -335.919E-03         93.5251E-03       243.981E-03       -337.504E-03         93.5234E-03 
              315.E-03           244.375E-03       -338.892E-03         94.5177E-03       245.979E-03       -340.496E-03         94.5164E-03 
              317.5E-03          246.355E-03       -341.866E-03         95.5104E-03       247.978E-03       -343.487E-03         95.5095E-03 
              320.E-03           248.336E-03       -344.839E-03         96.5031E-03       249.977E-03       -346.479E-03         96.5026E-03 
              322.5E-03          250.317E-03       -347.813E-03         97.4957E-03       251.976E-03       -349.471E-03         97.4957E-03 
              325.E-03           252.298E-03       -350.786E-03         98.4884E-03       253.975E-03       -352.464E-03         98.4889E-03 
              327.5E-03          254.279E-03       -353.76E-03          99.4811E-03       255.974E-03       -355.456E-03         99.482E-03  
              330.E-03           256.259E-03       -356.733E-03        100.474E-03        257.974E-03       -358.449E-03        100.475E-03  
              332.5E-03          258.24E-03        -359.706E-03        101.467E-03        259.974E-03       -361.442E-03        101.468E-03  
              335.E-03           260.22E-03        -362.679E-03        102.459E-03        261.974E-03       -364.436E-03        102.462E-03  
              337.5E-03          262.201E-03       -365.653E-03        103.452E-03        263.974E-03       -367.429E-03        103.455E-03  
              340.E-03           264.181E-03       -368.626E-03        104.445E-03        265.975E-03       -370.423E-03        104.448E-03  
              342.5E-03          266.161E-03       -371.599E-03        105.438E-03        267.976E-03       -373.417E-03        105.441E-03  
              345.E-03           268.141E-03       -374.572E-03        106.43E-03         269.977E-03       -376.412E-03        106.435E-03  
              347.5E-03          270.121E-03       -377.545E-03        107.423E-03        271.978E-03       -379.406E-03        107.428E-03  
              350.E-03           272.102E-03       -380.517E-03        108.416E-03        273.98E-03        -382.401E-03        108.421E-03  
              352.5E-03          274.081E-03       -383.49E-03         109.409E-03        275.981E-03       -385.396E-03        109.415E-03  
              355.E-03           276.061E-03       -386.463E-03        110.402E-03        277.983E-03       -388.392E-03        110.408E-03  
              357.5E-03          278.041E-03       -389.435E-03        111.394E-03        279.986E-03       -391.387E-03        111.402E-03  
              360.E-03           280.021E-03       -392.408E-03        112.387E-03        281.988E-03       -394.383E-03        112.395E-03  
              362.5E-03          282.E-03          -395.38E-03         113.38E-03         283.991E-03       -397.379E-03        113.388E-03  
              365.E-03           283.98E-03        -398.353E-03        114.373E-03        285.994E-03       -400.376E-03        114.382E-03  
              367.5E-03          285.959E-03       -401.325E-03        115.366E-03        287.997E-03       -403.373E-03        115.375E-03  
              370.E-03           287.939E-03       -404.297E-03        116.359E-03        290.001E-03       -406.37E-03         116.369E-03  
              372.5E-03          289.918E-03       -407.27E-03         117.351E-03        292.005E-03       -409.367E-03        117.362E-03  
              375.E-03           291.897E-03       -410.242E-03        118.344E-03        294.009E-03       -412.365E-03        118.356E-03  
              377.5E-03          293.876E-03       -413.214E-03        119.337E-03        296.013E-03       -415.363E-03        119.349E-03  
              380.E-03           295.855E-03       -416.185E-03        120.33E-03         298.018E-03       -418.361E-03        120.343E-03  
              382.5E-03          297.834E-03       -419.157E-03        121.323E-03        300.023E-03       -421.36E-03         121.337E-03  
              385.E-03           299.813E-03       -422.129E-03        122.316E-03        302.028E-03       -424.358E-03        122.33E-03   
              387.5E-03          301.792E-03       -425.1E-03          123.309E-03        304.034E-03       -427.358E-03        123.324E-03  
              390.E-03           303.77E-03        -428.072E-03        124.302E-03        306.04E-03        -430.357E-03        124.317E-03  
              392.5E-03          305.749E-03       -431.043E-03        125.295E-03        308.046E-03       -433.357E-03        125.311E-03  
              395.E-03           307.727E-03       -434.015E-03        126.287E-03        310.052E-03       -436.357E-03        126.305E-03  
              397.5E-03          309.705E-03       -436.986E-03        127.28E-03         312.059E-03       -439.358E-03        127.299E-03  
              400.E-03           311.684E-03       -439.957E-03        128.273E-03        314.066E-03       -442.358E-03        128.292E-03  
              402.5E-03          313.662E-03       -442.928E-03        129.266E-03        316.073E-03       -445.359E-03        129.286E-03  
              405.E-03           315.639E-03       -445.899E-03        130.259E-03        318.081E-03       -448.361E-03        130.28E-03   
              407.5E-03          317.617E-03       -448.869E-03        131.252E-03        320.089E-03       -451.363E-03        131.274E-03  
              410.E-03           319.595E-03       -451.84E-03         132.245E-03        322.097E-03       -454.365E-03        132.267E-03  
              412.5E-03          321.572E-03       -454.811E-03        133.238E-03        324.106E-03       -457.367E-03        133.261E-03  
              415.E-03           323.55E-03        -457.781E-03        134.231E-03        326.115E-03       -460.37E-03         134.255E-03  
              417.5E-03          325.527E-03       -460.751E-03        135.224E-03        328.124E-03       -463.373E-03        135.249E-03  
              420.E-03           327.504E-03       -463.721E-03        136.217E-03        330.134E-03       -466.377E-03        136.243E-03  
              422.5E-03          329.481E-03       -466.691E-03        137.21E-03         332.144E-03       -469.381E-03        137.237E-03  
              425.E-03           331.458E-03       -469.661E-03        138.203E-03        334.154E-03       -472.385E-03        138.231E-03  
              427.5E-03          333.435E-03       -472.631E-03        139.196E-03        336.165E-03       -475.39E-03         139.225E-03  
              430.E-03           335.412E-03       -475.6E-03          140.189E-03        338.176E-03       -478.395E-03        140.219E-03  
              432.5E-03          337.388E-03       -478.57E-03         141.182E-03        340.188E-03       -481.4E-03          141.213E-03  
              435.E-03           339.364E-03       -481.539E-03        142.175E-03        342.199E-03       -484.406E-03        142.207E-03  
              437.5E-03          341.341E-03       -484.508E-03        143.168E-03        344.212E-03       -487.412E-03        143.201E-03  
              440.E-03           343.317E-03       -487.477E-03        144.161E-03        346.224E-03       -490.419E-03        144.195E-03  
              442.5E-03          345.293E-03       -490.446E-03        145.154E-03        348.237E-03       -493.426E-03        145.189E-03  
              445.E-03           347.268E-03       -493.415E-03        146.147E-03        350.25E-03        -496.433E-03        146.183E-03  
              447.5E-03          349.244E-03       -496.384E-03        147.14E-03         352.264E-03       -499.441E-03        147.177E-03  
              450.E-03           351.219E-03       -499.352E-03        148.133E-03        354.278E-03       -502.449E-03        148.171E-03  
              452.5E-03          353.195E-03       -502.32E-03         149.126E-03        356.293E-03       -505.458E-03        149.165E-03  
              455.E-03           355.17E-03        -505.288E-03        150.119E-03        358.308E-03       -508.467E-03        150.159E-03  
              457.5E-03          357.145E-03       -508.256E-03        151.112E-03        360.323E-03       -511.477E-03        151.154E-03  
              460.E-03           359.119E-03       -511.224E-03        152.105E-03        362.339E-03       -514.487E-03        152.148E-03  
              462.5E-03          361.094E-03       -514.192E-03        153.098E-03        364.355E-03       -517.497E-03        153.142E-03  
              465.E-03           363.068E-03       -517.159E-03        154.091E-03        366.372E-03       -520.508E-03        154.136E-03  
              467.5E-03          365.043E-03       -520.126E-03        155.084E-03        368.389E-03       -523.519E-03        155.131E-03  
              470.E-03           367.017E-03       -523.093E-03        156.077E-03        370.406E-03       -526.531E-03        156.125E-03  
              472.5E-03          368.991E-03       -526.06E-03         157.07E-03         372.424E-03       -529.544E-03        157.119E-03  
              475.E-03           370.964E-03       -529.027E-03        158.063E-03        374.443E-03       -532.556E-03        158.114E-03  
              477.5E-03          372.938E-03       -531.994E-03        159.056E-03        376.462E-03       -535.57E-03         159.108E-03  
              480.E-03           374.911E-03       -534.96E-03         160.049E-03        378.481E-03       -538.583E-03        160.102E-03  
              482.5E-03          376.884E-03       -537.926E-03        161.042E-03        380.501E-03       -541.598E-03        161.097E-03  
              485.E-03           378.857E-03       -540.892E-03        162.035E-03        382.521E-03       -544.613E-03        162.091E-03  
              487.5E-03          380.83E-03        -543.858E-03        163.028E-03        384.542E-03       -547.628E-03        163.086E-03  
              490.E-03           382.802E-03       -546.823E-03        164.021E-03        386.563E-03       -550.644E-03        164.08E-03   
              492.5E-03          384.775E-03       -549.788E-03        165.014E-03        388.585E-03       -553.66E-03         165.075E-03  
              495.E-03           386.747E-03       -552.753E-03        166.007E-03        390.608E-03       -556.677E-03        166.069E-03  
              497.5E-03          388.719E-03       -555.718E-03        167.E-03           392.631E-03       -559.694E-03        167.064E-03  
              500.E-03           390.69E-03        -558.683E-03        167.993E-03        394.654E-03       -562.712E-03        168.058E-03  
              502.5E-03          392.662E-03       -561.647E-03        168.986E-03        396.678E-03       -565.731E-03        169.053E-03  
              505.E-03           394.633E-03       -564.612E-03        169.979E-03        398.702E-03       -568.75E-03         170.048E-03  
              507.5E-03          396.604E-03       -567.575E-03        170.972E-03        400.728E-03       -571.77E-03         171.042E-03  
              510.E-03           398.575E-03       -570.539E-03        171.965E-03        402.753E-03       -574.79E-03         172.037E-03  
              512.5E-03          400.545E-03       -573.503E-03        172.958E-03        404.779E-03       -577.811E-03        173.032E-03  
              515.E-03           402.515E-03       -576.466E-03        173.951E-03        406.806E-03       -580.833E-03        174.027E-03  
              517.5E-03          404.485E-03       -579.429E-03        174.944E-03        408.833E-03       -583.855E-03        175.021E-03  
              520.E-03           406.455E-03       -582.392E-03        175.936E-03        410.861E-03       -586.878E-03        176.016E-03  
              522.5E-03          408.425E-03       -585.354E-03        176.929E-03        412.89E-03        -589.901E-03        177.011E-03  
              525.E-03           410.394E-03       -588.316E-03        177.922E-03        414.919E-03       -592.925E-03        178.006E-03  
              527.5E-03          412.363E-03       -591.278E-03        178.915E-03        416.949E-03       -595.95E-03         179.001E-03  
              530.E-03           414.332E-03       -594.24E-03         179.908E-03        418.979E-03       -598.975E-03        179.996E-03  
              532.5E-03          416.3E-03         -597.201E-03        180.901E-03        421.011E-03       -602.001E-03        180.991E-03  
              535.E-03           418.268E-03       -600.162E-03        181.894E-03        423.042E-03       -605.028E-03        181.986E-03  
              537.5E-03          420.236E-03       -603.123E-03        182.887E-03        425.075E-03       -608.055E-03        182.981E-03  
              540.E-03           422.204E-03       -606.084E-03        183.88E-03         427.108E-03       -611.083E-03        183.976E-03  
              542.5E-03          424.171E-03       -609.044E-03        184.873E-03        429.141E-03       -614.112E-03        184.971E-03  
              545.E-03           426.138E-03       -612.004E-03        185.866E-03        431.176E-03       -617.142E-03        185.966E-03  
              547.5E-03          428.105E-03       -614.964E-03        186.859E-03        433.211E-03       -620.172E-03        186.961E-03  
              550.E-03           430.071E-03       -617.923E-03        187.852E-03        435.247E-03       -623.203E-03        187.956E-03  
              552.5E-03          432.038E-03       -620.882E-03        188.845E-03        437.283E-03       -626.235E-03        188.951E-03  
              555.E-03           434.003E-03       -623.841E-03        189.837E-03        439.321E-03       -629.267E-03        189.946E-03  
              557.5E-03          435.969E-03       -626.799E-03        190.83E-03         441.359E-03       -632.301E-03        190.942E-03  
              560.E-03           437.934E-03       -629.757E-03        191.823E-03        443.398E-03       -635.335E-03        191.937E-03  
              562.5E-03          439.899E-03       -632.715E-03        192.816E-03        445.437E-03       -638.37E-03         192.932E-03  
              565.E-03           441.864E-03       -635.672E-03        193.809E-03        447.478E-03       -641.405E-03        193.928E-03  
              567.5E-03          443.828E-03       -638.63E-03         194.802E-03        449.519E-03       -644.442E-03        194.923E-03  
              570.E-03           445.792E-03       -641.586E-03        195.795E-03        451.561E-03       -647.479E-03        195.919E-03  
              572.5E-03          447.755E-03       -644.543E-03        196.787E-03        453.604E-03       -650.518E-03        196.914E-03  
              575.E-03           449.718E-03       -647.499E-03        197.78E-03         455.647E-03       -653.557E-03        197.909E-03  
              577.5E-03          451.681E-03       -650.454E-03        198.773E-03        457.692E-03       -656.597E-03        198.905E-03  
              580.E-03           453.644E-03       -653.41E-03         199.766E-03        459.737E-03       -659.638E-03        199.901E-03  
              582.5E-03          455.606E-03       -656.365E-03        200.759E-03        461.783E-03       -662.679E-03        200.896E-03  
              585.E-03           457.568E-03       -659.319E-03        201.751E-03        463.83E-03        -665.722E-03        201.892E-03  
              587.5E-03          459.529E-03       -662.273E-03        202.744E-03        465.878E-03       -668.766E-03        202.887E-03  
              590.E-03           461.49E-03        -665.227E-03        203.737E-03        467.927E-03       -671.81E-03         203.883E-03  
              592.5E-03          463.451E-03       -668.18E-03         204.73E-03         469.977E-03       -674.856E-03        204.879E-03  
              595.E-03           465.411E-03       -671.133E-03        205.722E-03        472.028E-03       -677.902E-03        205.875E-03  
              597.5E-03          467.371E-03       -674.086E-03        206.715E-03        474.079E-03       -680.95E-03         206.871E-03  
              600.E-03           469.33E-03        -677.038E-03        207.708E-03        476.132E-03       -683.998E-03        207.866E-03  
              602.5E-03          471.289E-03       -679.989E-03        208.7E-03          478.186E-03       -687.048E-03        208.862E-03  
              605.E-03           473.248E-03       -682.941E-03        209.693E-03        480.24E-03        -690.099E-03        209.858E-03  
              607.5E-03          475.206E-03       -685.891E-03        210.686E-03        482.296E-03       -693.15E-03         210.854E-03  
              610.E-03           477.163E-03       -688.842E-03        211.678E-03        484.353E-03       -696.203E-03        211.85E-03   
              612.5E-03          479.121E-03       -691.792E-03        212.671E-03        486.411E-03       -699.257E-03        212.846E-03  
              615.E-03           481.077E-03       -694.741E-03        213.664E-03        488.469E-03       -702.312E-03        213.843E-03  
              617.5E-03          483.034E-03       -697.69E-03         214.656E-03        490.529E-03       -705.368E-03        214.839E-03  
              620.E-03           484.99E-03        -700.639E-03        215.649E-03        492.59E-03        -708.425E-03        215.835E-03  
              622.5E-03          486.945E-03       -703.587E-03        216.641E-03        494.653E-03       -711.484E-03        216.831E-03  
              625.E-03           488.9E-03         -706.534E-03        217.634E-03        496.716E-03       -714.543E-03        217.828E-03  
              627.5E-03          490.854E-03       -709.481E-03        218.627E-03        498.78E-03        -717.604E-03        218.824E-03  
              630.E-03           492.808E-03       -712.427E-03        219.619E-03        500.846E-03       -720.666E-03        219.82E-03   
              632.5E-03          494.762E-03       -715.374E-03        220.612E-03        502.913E-03       -723.73E-03         220.817E-03  
              635.E-03           496.715E-03       -718.319E-03        221.604E-03        504.981E-03       -726.794E-03        221.813E-03  
              637.5E-03          498.667E-03       -721.264E-03        222.597E-03        507.05E-03        -729.86E-03         222.81E-03   
              640.E-03           500.619E-03       -724.208E-03        223.589E-03        509.121E-03       -732.927E-03        223.807E-03  
              642.5E-03          502.571E-03       -727.152E-03        224.581E-03        511.193E-03       -735.996E-03        224.803E-03  
              645.E-03           504.521E-03       -730.095E-03        225.574E-03        513.266E-03       -739.066E-03        225.8E-03    
              647.5E-03          506.472E-03       -733.038E-03        226.566E-03        515.34E-03        -742.137E-03        226.797E-03  
              650.E-03           508.422E-03       -735.98E-03         227.559E-03        517.416E-03       -745.21E-03         227.794E-03  
              652.5E-03          510.371E-03       -738.922E-03        228.551E-03        519.493E-03       -748.284E-03        228.791E-03  
              655.E-03           512.319E-03       -741.863E-03        229.543E-03        521.572E-03       -751.359E-03        229.788E-03  
              657.5E-03          514.267E-03       -744.803E-03        230.536E-03        523.651E-03       -754.436E-03        230.785E-03  
              660.E-03           516.215E-03       -747.743E-03        231.528E-03        525.733E-03       -757.514E-03        231.782E-03  
              662.5E-03          518.162E-03       -750.682E-03        232.52E-03         527.816E-03       -760.594E-03        232.779E-03  
              665.E-03           520.108E-03       -753.62E-03         233.512E-03        529.9E-03         -763.676E-03        233.776E-03  
              667.5E-03          522.054E-03       -756.558E-03        234.505E-03        531.986E-03       -766.759E-03        234.773E-03  
              670.E-03           523.999E-03       -759.495E-03        235.497E-03        534.073E-03       -769.844E-03        235.771E-03  
              672.5E-03          525.943E-03       -762.432E-03        236.489E-03        536.162E-03       -772.93E-03         236.768E-03  
              675.E-03           527.887E-03       -765.368E-03        237.481E-03        538.253E-03       -776.018E-03        237.765E-03  
              677.5E-03          529.83E-03        -768.303E-03        238.473E-03        540.345E-03       -779.108E-03        238.763E-03  
              680.E-03           531.772E-03       -771.238E-03        239.465E-03        542.439E-03       -782.199E-03        239.76E-03   
              682.5E-03          533.714E-03       -774.171E-03        240.457E-03        544.534E-03       -785.292E-03        240.758E-03  
              685.E-03           535.655E-03       -777.104E-03        241.45E-03         546.631E-03       -788.387E-03        241.756E-03  
              687.5E-03          537.595E-03       -780.037E-03        242.442E-03        548.73E-03        -791.484E-03        242.754E-03  
              690.E-03           539.535E-03       -782.968E-03        243.434E-03        550.831E-03       -794.582E-03        243.752E-03  
              692.5E-03          541.474E-03       -785.899E-03        244.425E-03        552.933E-03       -797.683E-03        244.749E-03  
              695.E-03           543.412E-03       -788.829E-03        245.417E-03        555.037E-03       -800.785E-03        245.748E-03  
              697.5E-03          545.349E-03       -791.759E-03        246.409E-03        557.144E-03       -803.889E-03        246.746E-03  
              700.E-03           547.286E-03       -794.687E-03        247.401E-03        559.252E-03       -806.995E-03        247.744E-03  
              702.5E-03          549.222E-03       -797.615E-03        248.393E-03        561.362E-03       -810.104E-03        248.742E-03  
              705.E-03           551.157E-03       -800.542E-03        249.385E-03        563.473E-03       -813.214E-03        249.74E-03   
              707.5E-03          553.091E-03       -803.468E-03        250.377E-03        565.587E-03       -816.326E-03        250.739E-03  
              710.E-03           555.025E-03       -806.393E-03        251.368E-03        567.703E-03       -819.44E-03         251.737E-03  
              712.5E-03          556.958E-03       -809.318E-03        252.36E-03         569.821E-03       -822.557E-03        252.736E-03  
              715.E-03           558.889E-03       -812.241E-03        253.352E-03        571.941E-03       -825.676E-03        253.735E-03  
              717.5E-03          560.82E-03        -815.164E-03        254.343E-03        574.063E-03       -828.797E-03        254.733E-03  
              720.E-03           562.751E-03       -818.086E-03        255.335E-03        576.188E-03       -831.92E-03         255.732E-03  
              722.5E-03          564.68E-03        -821.006E-03        256.326E-03        578.314E-03       -835.045E-03        256.731E-03  
              725.E-03           566.608E-03       -823.926E-03        257.318E-03        580.443E-03       -838.173E-03        257.73E-03   
              727.5E-03          568.536E-03       -826.845E-03        258.309E-03        582.574E-03       -841.303E-03        258.729E-03  
              730.E-03           570.463E-03       -829.763E-03        259.301E-03        584.708E-03       -844.436E-03        259.728E-03  
              732.5E-03          572.388E-03       -832.68E-03         260.292E-03        586.844E-03       -847.571E-03        260.728E-03  
              735.E-03           574.313E-03       -835.597E-03        261.284E-03        588.982E-03       -850.709E-03        261.727E-03  
              737.5E-03          576.237E-03       -838.512E-03        262.275E-03        591.122E-03       -853.849E-03        262.727E-03  
              740.E-03           578.16E-03        -841.426E-03        263.266E-03        593.266E-03       -856.992E-03        263.726E-03  
              742.5E-03          580.081E-03       -844.339E-03        264.257E-03        595.412E-03       -860.138E-03        264.726E-03  
              745.E-03           582.002E-03       -847.251E-03        265.249E-03        597.56E-03        -863.286E-03        265.726E-03  
              747.5E-03          583.922E-03       -850.162E-03        266.24E-03         599.711E-03       -866.437E-03        266.726E-03  
              750.E-03           585.841E-03       -853.072E-03        267.231E-03        601.865E-03       -869.591E-03        267.726E-03  
              752.5E-03          587.759E-03       -855.981E-03        268.222E-03        604.021E-03       -872.748E-03        268.726E-03  
              755.E-03           589.675E-03       -858.888E-03        269.213E-03        606.181E-03       -875.907E-03        269.726E-03  
              757.5E-03          591.591E-03       -861.795E-03        270.204E-03        608.343E-03       -879.07E-03         270.727E-03  
              760.E-03           593.505E-03       -864.7E-03          271.195E-03        610.508E-03       -882.236E-03        271.727E-03  
              762.5E-03          595.419E-03       -867.604E-03        272.186E-03        612.676E-03       -885.404E-03        272.728E-03  
              765.E-03           597.331E-03       -870.508E-03        273.176E-03        614.848E-03       -888.576E-03        273.729E-03  
              767.5E-03          599.242E-03       -873.409E-03        274.167E-03        617.022E-03       -891.752E-03        274.73E-03   
              770.E-03           601.152E-03       -876.31E-03         275.158E-03        619.199E-03       -894.93E-03         275.731E-03  
              772.5E-03          603.061E-03       -879.209E-03        276.148E-03        621.38E-03        -898.112E-03        276.732E-03  
              775.E-03           604.968E-03       -882.107E-03        277.139E-03        623.564E-03       -901.297E-03        277.733E-03  
              777.5E-03          606.875E-03       -885.004E-03        278.129E-03        625.751E-03       -904.486E-03        278.735E-03  
              780.E-03           608.78E-03        -887.9E-03          279.12E-03         627.942E-03       -907.678E-03        279.736E-03  
              782.5E-03          610.684E-03       -890.794E-03        280.11E-03         630.136E-03       -910.874E-03        280.738E-03  
              785.E-03           612.586E-03       -893.687E-03        281.101E-03        632.334E-03       -914.074E-03        281.74E-03   
              787.5E-03          614.487E-03       -896.578E-03        282.091E-03        634.535E-03       -917.277E-03        282.742E-03  
              790.E-03           616.387E-03       -899.468E-03        283.081E-03        636.74E-03        -920.484E-03        283.744E-03  
              792.5E-03          618.286E-03       -902.357E-03        284.071E-03        638.949E-03       -923.696E-03        284.747E-03  
              795.E-03           620.183E-03       -905.244E-03        285.061E-03        641.162E-03       -926.911E-03        285.749E-03  
              797.5E-03          622.079E-03       -908.13E-03         286.051E-03        643.378E-03       -930.13E-03         286.752E-03  
              800.E-03           623.973E-03       -911.014E-03        287.041E-03        645.599E-03       -933.354E-03        287.755E-03  
              802.5E-03          625.866E-03       -913.897E-03        288.031E-03        647.824E-03       -936.581E-03        288.758E-03  
              805.E-03           627.757E-03       -916.778E-03        289.021E-03        650.053E-03       -939.813E-03        289.761E-03  
              807.5E-03          629.647E-03       -919.658E-03        290.011E-03        652.286E-03       -943.05E-03         290.764E-03  
              810.E-03           631.536E-03       -922.536E-03        291.E-03           654.524E-03       -946.291E-03        291.768E-03  
              812.5E-03          633.422E-03       -925.412E-03        291.99E-03         656.766E-03       -949.537E-03        292.771E-03  
              815.E-03           635.308E-03       -928.287E-03        292.979E-03        659.012E-03       -952.788E-03        293.775E-03  
              817.5E-03          637.192E-03       -931.16E-03         293.969E-03        661.263E-03       -956.043E-03        294.779E-03  
              820.E-03           639.074E-03       -934.032E-03        294.958E-03        663.52E-03        -959.303E-03        295.784E-03  
              822.5E-03          640.954E-03       -936.901E-03        295.947E-03        665.78E-03        -962.569E-03        296.788E-03  
              825.E-03           642.833E-03       -939.769E-03        296.936E-03        668.046E-03       -965.839E-03        297.793E-03  
              827.5E-03          644.71E-03        -942.635E-03        297.925E-03        670.317E-03       -969.115E-03        298.798E-03  
              830.E-03           646.585E-03       -945.5E-03          298.914E-03        672.593E-03       -972.396E-03        299.803E-03  
              832.5E-03          648.459E-03       -948.362E-03        299.903E-03        674.875E-03       -975.683E-03        300.808E-03  
              835.E-03           650.331E-03       -951.223E-03        300.892E-03        677.162E-03       -978.976E-03        301.814E-03  
              837.5E-03          652.201E-03       -954.082E-03        301.881E-03        679.454E-03       -982.274E-03        302.82E-03   
              840.E-03           654.069E-03       -956.938E-03        302.869E-03        681.752E-03       -985.578E-03        303.826E-03  
              842.5E-03          655.935E-03       -959.793E-03        303.858E-03        684.056E-03       -988.888E-03        304.832E-03  
              845.E-03           657.8E-03         -962.646E-03        304.846E-03        686.366E-03       -992.205E-03        305.839E-03  
              847.5E-03          659.662E-03       -965.497E-03        305.834E-03        688.682E-03       -995.528E-03        306.845E-03  
              850.E-03           661.523E-03       -968.345E-03        306.823E-03        691.005E-03       -998.857E-03        307.852E-03  
              852.5E-03          663.381E-03       -971.192E-03        307.811E-03        693.333E-03         -1.00219          308.86E-03   
              855.E-03           665.238E-03       -974.036E-03        308.799E-03        695.669E-03         -1.00554          309.867E-03  
              857.5E-03          667.092E-03       -976.879E-03        309.787E-03        698.011E-03         -1.00889          310.875E-03  
              860.E-03           668.944E-03       -979.719E-03        310.774E-03        700.359E-03         -1.01224          311.883E-03  
              862.5E-03          670.794E-03       -982.556E-03        311.762E-03        702.715E-03         -1.01561          312.892E-03  
              865.E-03           672.642E-03       -985.392E-03        312.749E-03        705.079E-03         -1.01898          313.9E-03    
              867.5E-03          674.488E-03       -988.225E-03        313.737E-03        707.449E-03         -1.02236          314.909E-03  
              870.E-03           676.332E-03       -991.056E-03        314.724E-03        709.827E-03         -1.02575          315.919E-03  
              872.5E-03          678.173E-03       -993.884E-03        315.711E-03        712.213E-03         -1.02914          316.928E-03  
              875.E-03           680.011E-03       -996.71E-03         316.698E-03        714.607E-03         -1.03255          317.938E-03  
              877.5E-03          681.848E-03       -999.533E-03        317.685E-03        717.01E-03          -1.03596          318.949E-03  
              880.E-03           683.682E-03         -1.00235          318.672E-03        719.42E-03          -1.03938          319.959E-03  
              882.5E-03          685.513E-03         -1.00517          319.658E-03        721.84E-03          -1.04281          320.97E-03   
              885.E-03           687.342E-03         -1.00799          320.645E-03        724.268E-03         -1.04625          321.982E-03  
              887.5E-03          689.169E-03         -1.0108           321.631E-03        726.706E-03         -1.0497           322.993E-03  
              890.E-03           690.993E-03         -1.01361          322.617E-03        729.153E-03         -1.05316          324.006E-03  
              892.5E-03          692.814E-03         -1.01642          323.603E-03        731.609E-03         -1.05663          325.018E-03  
              895.E-03           694.632E-03         -1.01922          324.589E-03        734.076E-03         -1.06011          326.031E-03  
              897.5E-03          696.448E-03         -1.02202          325.575E-03        736.553E-03         -1.0636           327.044E-03  
              900.E-03           698.261E-03         -1.02482          326.56E-03         739.04E-03          -1.0671           328.058E-03  
              902.5E-03          700.071E-03         -1.02762          327.546E-03        741.539E-03         -1.07061          329.072E-03  
              905.E-03           701.878E-03         -1.03041          328.531E-03        744.048E-03         -1.07414          330.087E-03  
              907.5E-03          703.682E-03         -1.0332           329.516E-03        746.569E-03         -1.07767          331.102E-03  
              910.E-03           705.483E-03         -1.03598          330.501E-03        749.103E-03         -1.08122          332.118E-03  
              912.5E-03          707.281E-03         -1.03877          331.486E-03        751.648E-03         -1.08478          333.134E-03  
              915.E-03           709.076E-03         -1.04155          332.47E-03         754.206E-03         -1.08836          334.151E-03  
              917.5E-03          710.868E-03         -1.04432          333.454E-03        756.777E-03         -1.09195          335.168E-03  
              920.E-03           712.656E-03         -1.04709          334.438E-03        759.362E-03         -1.09555          336.185E-03  
              922.5E-03          714.441E-03         -1.04986          335.422E-03        761.961E-03         -1.09916          337.204E-03  
              925.E-03           716.223E-03         -1.05263          336.406E-03        764.574E-03         -1.1028           338.223E-03  
              927.5E-03          718.001E-03         -1.05539          337.389E-03        767.202E-03         -1.10644          339.242E-03  
              930.E-03           719.776E-03         -1.05815          338.373E-03        769.846E-03         -1.11011          340.262E-03  
              932.5E-03          721.547E-03         -1.0609           339.356E-03        772.506E-03         -1.11379          341.283E-03  
              935.E-03           723.314E-03         -1.06365          340.339E-03        775.183E-03         -1.11749          342.304E-03  
              937.5E-03          725.078E-03         -1.0664           341.321E-03        777.877E-03         -1.1212           343.326E-03  
              940.E-03           726.837E-03         -1.06914          342.303E-03        780.589E-03         -1.12494          344.349E-03  
              942.5E-03          728.593E-03         -1.07188          343.285E-03        783.319E-03         -1.12869          345.373E-03  
              945.E-03           730.345E-03         -1.07461          344.267E-03        786.069E-03         -1.13247          346.397E-03  
              947.5E-03          732.093E-03         -1.07734          345.249E-03        788.839E-03         -1.13626          347.422E-03  
              950.E-03           733.836E-03         -1.08007          346.23E-03         791.631E-03         -1.14008          348.448E-03  
              952.5E-03          735.575E-03         -1.08279          347.211E-03        794.444E-03         -1.14392          349.475E-03  
              955.E-03           737.31E-03          -1.0855           348.192E-03        797.28E-03          -1.14778          350.502E-03  
              957.5E-03          739.04E-03          -1.08821          349.172E-03        800.14E-03          -1.15167          351.531E-03  
              960.E-03           740.766E-03         -1.09092          350.152E-03        803.025E-03         -1.15559          352.561E-03  
              962.5E-03          742.487E-03         -1.09362          351.132E-03        805.936E-03         -1.15953          353.591E-03  
              965.E-03           744.203E-03         -1.09631          352.112E-03        808.875E-03         -1.1635           354.623E-03  
              967.5E-03          745.914E-03         -1.099            353.091E-03        811.843E-03         -1.1675           355.656E-03  
              970.E-03           747.62E-03          -1.10169          354.07E-03         814.84E-03          -1.17153          356.69E-03   
              972.5E-03          749.321E-03         -1.10437          355.048E-03        817.87E-03          -1.1756           357.725E-03  
              975.E-03           751.016E-03         -1.10704          356.026E-03        820.933E-03         -1.17969          358.761E-03  
              977.5E-03          752.706E-03         -1.10971          357.004E-03        824.032E-03         -1.18383          359.799E-03  
              980.E-03           754.39E-03          -1.11237          357.982E-03        827.169E-03         -1.18801          360.839E-03  
              982.5E-03          756.069E-03         -1.11503          358.958E-03        830.345E-03         -1.19222          361.879E-03  
              985.E-03           757.741E-03         -1.11768          359.935E-03        833.563E-03         -1.19649          362.922E-03  
              987.5E-03          759.407E-03         -1.12032          360.911E-03        836.827E-03         -1.20079          363.966E-03  
              990.E-03           761.067E-03         -1.12295          361.887E-03        840.138E-03         -1.20515          365.012E-03  
              992.5E-03          762.721E-03         -1.12558          362.862E-03        843.501E-03         -1.20956          366.06E-03   
              995.E-03           764.367E-03         -1.1282           363.837E-03        846.919E-03         -1.21403          367.11E-03   
              997.5E-03          766.007E-03         -1.13082          364.811E-03        850.396E-03         -1.21856          368.163E-03  
                1.               767.639E-03         -1.13342          365.784E-03        853.937E-03         -1.22315          369.217E-03  




