
                  X              SENER-out           SENER-in    

                0.                 0.                 0.         
                2.5E-03          175.327E+03        175.393E+03  
                5.E-03           187.967E+03        188.085E+03  
                7.5E-03          197.513E+03        197.639E+03  
               10.E-03           205.592E+03        205.72E+03   
               12.5E-03          212.748E+03        212.875E+03  
               15.E-03           219.3E+03          219.428E+03  
               17.5E-03          225.433E+03        225.56E+03   
               20.E-03           231.251E+03        231.379E+03  
               22.5E-03          236.82E+03         236.947E+03  
               25.E-03           242.18E+03         242.306E+03  
               27.5E-03          247.358E+03        247.483E+03  
               30.E-03           252.373E+03        252.498E+03  
               32.5E-03          257.242E+03        257.365E+03  
               35.E-03           261.976E+03        262.098E+03  
               37.5E-03          266.586E+03        266.706E+03  
               40.E-03           271.079E+03        271.198E+03  
               42.5E-03          275.465E+03        275.582E+03  
               45.E-03           279.749E+03        279.865E+03  
               47.5E-03          283.938E+03        284.052E+03  
               50.E-03           288.036E+03        288.15E+03   
               52.5E-03          292.05E+03         292.162E+03  
               55.E-03           295.984E+03        296.095E+03  
               57.5E-03          299.841E+03        299.951E+03  
               60.E-03           303.626E+03        303.735E+03  
               62.5E-03          307.342E+03        307.45E+03   
               65.E-03           310.992E+03        311.099E+03  
               67.5E-03          314.58E+03         314.686E+03  
               70.E-03           318.108E+03        318.213E+03  
               72.5E-03          321.578E+03        321.683E+03  
               75.E-03           324.994E+03        325.098E+03  
               77.5E-03          328.357E+03        328.461E+03  
               80.E-03           331.669E+03        331.772E+03  
               82.5E-03          334.933E+03        335.036E+03  
               85.E-03           338.15E+03         338.253E+03  
               87.5E-03          341.323E+03        341.424E+03  
               90.E-03           344.452E+03        344.553E+03  
               92.5E-03          347.539E+03        347.64E+03   
               95.E-03           350.586E+03        350.686E+03  
               97.5E-03          353.594E+03        353.694E+03  
              100.E-03           356.564E+03        356.664E+03  
              102.5E-03          359.498E+03        359.597E+03  
              105.E-03           410.284E+03        410.47E+03   
              107.5E-03          441.105E+03        441.354E+03  
              110.E-03           457.993E+03        458.277E+03  
              112.5E-03          468.134E+03        468.435E+03  
              115.E-03           475.189E+03        475.495E+03  
              117.5E-03          480.796E+03        481.101E+03  
              120.E-03           485.704E+03        486.004E+03  
              122.5E-03          490.257E+03        490.552E+03  
              125.E-03           494.617E+03        494.905E+03  
              127.5E-03          498.858E+03        499.14E+03   
              130.E-03           503.017E+03        503.293E+03  
              132.5E-03          507.112E+03        507.381E+03  
              135.E-03           511.152E+03        511.415E+03  
              137.5E-03          515.142E+03        515.399E+03  
              140.E-03           519.085E+03        519.336E+03  
              142.5E-03          522.983E+03        523.229E+03  
              145.E-03           526.838E+03        527.079E+03  
              147.5E-03          530.651E+03        530.887E+03  
              150.E-03           534.424E+03        534.654E+03  
              152.5E-03          538.157E+03        538.383E+03  
              155.E-03           541.852E+03        542.074E+03  
              157.5E-03          545.509E+03        545.727E+03  
              160.E-03           549.131E+03        549.344E+03  
              162.5E-03          552.717E+03        552.927E+03  
              165.E-03           556.269E+03        556.475E+03  
              167.5E-03          559.787E+03        559.989E+03  
              170.E-03           563.273E+03        563.471E+03  
              172.5E-03          566.726E+03        566.922E+03  
              175.E-03           570.149E+03        570.341E+03  
              177.5E-03          573.541E+03        573.73E+03   
              180.E-03           576.903E+03        577.089E+03  
              182.5E-03          580.236E+03        580.419E+03  
              185.E-03           583.542E+03        583.722E+03  
              187.5E-03          586.819E+03        586.996E+03  
              190.E-03           590.069E+03        590.244E+03  
              192.5E-03          593.293E+03        593.465E+03  
              195.E-03           596.49E+03         596.66E+03   
              197.5E-03          599.663E+03        599.83E+03   
              200.E-03           602.81E+03         602.975E+03  
              202.5E-03          605.933E+03        606.096E+03  
              205.E-03           609.033E+03        609.193E+03  
              207.5E-03          612.108E+03        612.266E+03  
              210.E-03           615.161E+03        615.317E+03  
              212.5E-03          618.192E+03        618.346E+03  
              215.E-03           621.2E+03          621.352E+03  
              217.5E-03          624.187E+03        624.337E+03  
              220.E-03           627.153E+03        627.301E+03  
              222.5E-03          630.098E+03        630.244E+03  
              225.E-03           633.022E+03        633.166E+03  
              227.5E-03          635.926E+03        636.069E+03  
              230.E-03           638.811E+03        638.952E+03  
              232.5E-03          665.555E+03        665.738E+03  
              235.E-03           686.331E+03        686.55E+03   
              237.5E-03          696.363E+03        696.597E+03  
              240.E-03           702.487E+03        702.726E+03  
              242.5E-03          707.072E+03        707.311E+03  
              245.E-03           711.006E+03        711.244E+03  
              247.5E-03          714.648E+03        714.883E+03  
              250.E-03           718.149E+03        718.381E+03  
              252.5E-03          721.575E+03        721.804E+03  
              255.E-03           724.955E+03        725.181E+03  
              257.5E-03          728.302E+03        728.525E+03  
              260.E-03           731.622E+03        731.842E+03  
              262.5E-03          734.918E+03        735.134E+03  
              265.E-03           738.191E+03        738.404E+03  
              267.5E-03          741.442E+03        741.652E+03  
              270.E-03           744.671E+03        744.878E+03  
              272.5E-03          747.88E+03         748.084E+03  
              275.E-03           751.068E+03        751.27E+03   
              277.5E-03          754.236E+03        754.435E+03  
              280.E-03           757.385E+03        757.581E+03  
              282.5E-03          760.514E+03        760.707E+03  
              285.E-03           763.623E+03        763.814E+03  
              287.5E-03          766.714E+03        766.902E+03  
              290.E-03           769.787E+03        769.972E+03  
              292.5E-03          772.841E+03        773.024E+03  
              295.E-03           775.877E+03        776.058E+03  
              297.5E-03          778.896E+03        779.074E+03  
              300.E-03           781.897E+03        782.073E+03  
              302.5E-03          784.881E+03        785.054E+03  
              305.E-03           787.848E+03        788.019E+03  
              307.5E-03          790.799E+03        790.968E+03  
              310.E-03           793.733E+03        793.899E+03  
              312.5E-03          796.651E+03        796.815E+03  
              315.E-03           799.553E+03        799.715E+03  
              317.5E-03          802.44E+03         802.6E+03    
              320.E-03           805.311E+03        805.469E+03  
              322.5E-03          808.167E+03        808.322E+03  
              325.E-03           811.008E+03        811.161E+03  
              327.5E-03          813.833E+03        813.985E+03  
              330.E-03           816.645E+03        816.795E+03  
              332.5E-03          819.442E+03        819.59E+03   
              335.E-03           822.225E+03        822.371E+03  
              337.5E-03          824.993E+03        825.138E+03  
              340.E-03           827.748E+03        827.891E+03  
              342.5E-03          830.49E+03         830.63E+03   
              345.E-03           833.217E+03        833.356E+03  
              347.5E-03          835.932E+03        836.069E+03  
              350.E-03           838.633E+03        838.768E+03  
              352.5E-03          841.322E+03        841.455E+03  
              355.E-03           843.997E+03        844.129E+03  
              357.5E-03          846.66E+03         846.79E+03   
              360.E-03           849.311E+03        849.439E+03  
              362.5E-03          851.949E+03        852.076E+03  
              365.E-03           854.575E+03        854.7E+03    
              367.5E-03          857.189E+03        857.313E+03  
              370.E-03           859.791E+03        859.913E+03  
              372.5E-03          862.381E+03        862.502E+03  
              375.E-03           864.96E+03         865.08E+03   
              377.5E-03          867.528E+03        867.646E+03  
              380.E-03           870.084E+03        870.2E+03    
              382.5E-03          872.628E+03        872.744E+03  
              385.E-03           875.162E+03        875.276E+03  
              387.5E-03          877.685E+03        877.797E+03  
              390.E-03           880.197E+03        880.308E+03  
              392.5E-03          882.698E+03        882.808E+03  
              395.E-03           885.189E+03        885.298E+03  
              397.5E-03          887.67E+03         887.777E+03  
              400.E-03           890.14E+03         890.245E+03  
              402.5E-03          892.599E+03        892.704E+03  
              405.E-03           895.049E+03        895.152E+03  
              407.5E-03          897.489E+03        897.591E+03  
              410.E-03           899.919E+03        900.019E+03  
              412.5E-03          902.339E+03        902.438E+03  
              415.E-03           904.749E+03        904.847E+03  
              417.5E-03          907.15E+03         907.247E+03  
              420.E-03           909.541E+03        909.637E+03  
              422.5E-03          911.923E+03        912.018E+03  
              425.E-03           914.296E+03        914.39E+03   
              427.5E-03          916.659E+03        916.752E+03  
              430.E-03           919.014E+03        919.105E+03  
              432.5E-03          921.359E+03        921.45E+03   
              435.E-03           923.695E+03        923.785E+03  
              437.5E-03          926.023E+03        926.112E+03  
              440.E-03           928.342E+03        928.43E+03   
              442.5E-03          930.652E+03        930.739E+03  
              445.E-03           932.954E+03        933.04E+03   
              447.5E-03          935.247E+03        935.332E+03  
              450.E-03           937.532E+03        937.616E+03  
              452.5E-03          939.809E+03        939.892E+03  
              455.E-03           942.077E+03        942.159E+03  
              457.5E-03          944.337E+03        944.418E+03  
              460.E-03           946.59E+03         946.669E+03  
              462.5E-03          948.834E+03        948.913E+03  
              465.E-03           951.07E+03         951.148E+03  
              467.5E-03          953.298E+03        953.376E+03  
              470.E-03           955.519E+03        955.595E+03  
              472.5E-03          957.732E+03        957.807E+03  
              475.E-03           959.937E+03        960.012E+03  
              477.5E-03          962.135E+03        962.209E+03  
              480.E-03           964.325E+03        964.398E+03  
              482.5E-03          966.508E+03        966.58E+03   
              485.E-03           968.683E+03        968.755E+03  
              487.5E-03          970.851E+03        970.922E+03  
              490.E-03           973.012E+03        973.082E+03  
              492.5E-03          975.166E+03        975.235E+03  
              495.E-03           977.313E+03        977.381E+03  
              497.5E-03          979.452E+03        979.52E+03   
              500.E-03           981.585E+03        981.652E+03  
              502.5E-03          983.711E+03        983.777E+03  
              505.E-03           985.83E+03         985.895E+03  
              507.5E-03          987.942E+03        988.006E+03  
              510.E-03           990.047E+03        990.111E+03  
              512.5E-03          992.146E+03        992.209E+03  
              515.E-03           994.238E+03        994.3E+03    
              517.5E-03          996.323E+03        996.385E+03  
              520.E-03           998.402E+03        998.464E+03  
              522.5E-03            1.00047E+06        1.00054E+06
              525.E-03             1.00254E+06        1.0026E+06 
              527.5E-03            1.0046E+06         1.00466E+06
              530.E-03             1.00665E+06        1.00671E+06
              532.5E-03            1.0087E+06         1.00876E+06
              535.E-03             1.01074E+06        1.0108E+06 
              537.5E-03            1.01278E+06        1.01283E+06
              540.E-03             1.0148E+06         1.01486E+06
              542.5E-03            1.01683E+06        1.01688E+06
              545.E-03             1.01884E+06        1.0189E+06 
              547.5E-03            1.02085E+06        1.02091E+06
              550.E-03             1.02286E+06        1.02291E+06
              552.5E-03            1.02486E+06        1.02491E+06
              555.E-03             1.02685E+06        1.0269E+06 
              557.5E-03            1.02884E+06        1.02889E+06
              560.E-03             1.03082E+06        1.03087E+06
              562.5E-03            1.0328E+06         1.03285E+06
              565.E-03             1.03477E+06        1.03482E+06
              567.5E-03            1.03673E+06        1.03678E+06
              570.E-03             1.03869E+06        1.03874E+06
              572.5E-03            1.04064E+06        1.04069E+06
              575.E-03             1.04259E+06        1.04264E+06
              577.5E-03            1.04453E+06        1.04458E+06
              580.E-03             1.04647E+06        1.04652E+06
              582.5E-03            1.0484E+06         1.04845E+06
              585.E-03             1.05033E+06        1.05038E+06
              587.5E-03            1.05225E+06        1.0523E+06 
              590.E-03             1.05417E+06        1.05421E+06
              592.5E-03            1.05608E+06        1.05612E+06
              595.E-03             1.05798E+06        1.05803E+06
              597.5E-03            1.05988E+06        1.05993E+06
              600.E-03             1.06178E+06        1.06182E+06
              602.5E-03            1.06367E+06        1.06371E+06
              605.E-03             1.06555E+06        1.0656E+06 
              607.5E-03            1.06743E+06        1.06748E+06
              610.E-03             1.06931E+06        1.06935E+06
              612.5E-03            1.07118E+06        1.07122E+06
              615.E-03             1.07305E+06        1.07309E+06
              617.5E-03            1.07491E+06        1.07495E+06
              620.E-03             1.07676E+06        1.0768E+06 
              622.5E-03            1.07861E+06        1.07866E+06
              625.E-03             1.08046E+06        1.0805E+06 
              627.5E-03            1.0823E+06         1.08234E+06
              630.E-03             1.08414E+06        1.08418E+06
              632.5E-03            1.08597E+06        1.08601E+06
              635.E-03             1.0878E+06         1.08784E+06
              637.5E-03            1.08962E+06        1.08966E+06
              640.E-03             1.09144E+06        1.09148E+06
              642.5E-03            1.09325E+06        1.09329E+06
              645.E-03             1.09506E+06        1.0951E+06 
              647.5E-03            1.09687E+06        1.09691E+06
              650.E-03             1.09867E+06        1.09871E+06
              652.5E-03            1.10047E+06        1.1005E+06 
              655.E-03             1.10226E+06        1.10229E+06
              657.5E-03            1.10405E+06        1.10408E+06
              660.E-03             1.10583E+06        1.10586E+06
              662.5E-03            1.10761E+06        1.10764E+06
              665.E-03             1.10938E+06        1.10942E+06
              667.5E-03            1.11115E+06        1.11119E+06
              670.E-03             1.11292E+06        1.11295E+06
              672.5E-03            1.11468E+06        1.11471E+06
              675.E-03             1.11644E+06        1.11647E+06
              677.5E-03            1.11819E+06        1.11823E+06
              680.E-03             1.11994E+06        1.11998E+06
              682.5E-03            1.12169E+06        1.12172E+06
              685.E-03             1.12343E+06        1.12346E+06
              687.5E-03            1.12516E+06        1.1252E+06 
              690.E-03             1.1269E+06         1.12693E+06
              692.5E-03            1.12863E+06        1.12866E+06
              695.E-03             1.13035E+06        1.13039E+06
              697.5E-03            1.13207E+06        1.13211E+06
              700.E-03             1.13379E+06        1.13382E+06
              702.5E-03            1.13551E+06        1.13554E+06
              705.E-03             1.13721E+06        1.13725E+06
              707.5E-03            1.13892E+06        1.13895E+06
              710.E-03             1.14062E+06        1.14065E+06
              712.5E-03            1.14232E+06        1.14235E+06
              715.E-03             1.14402E+06        1.14405E+06
              717.5E-03            1.14571E+06        1.14574E+06
              720.E-03             1.14739E+06        1.14742E+06
              722.5E-03            1.14908E+06        1.14911E+06
              725.E-03             1.15076E+06        1.15079E+06
              727.5E-03            1.15243E+06        1.15246E+06
              730.E-03             1.1541E+06         1.15413E+06
              732.5E-03            1.15577E+06        1.1558E+06 
              735.E-03             1.15744E+06        1.15747E+06
              737.5E-03            1.1591E+06         1.15913E+06
              740.E-03             1.16076E+06        1.16079E+06
              742.5E-03            1.16241E+06        1.16244E+06
              745.E-03             1.16406E+06        1.16409E+06
              747.5E-03            1.16571E+06        1.16574E+06
              750.E-03             1.16735E+06        1.16738E+06
              752.5E-03            1.16899E+06        1.16902E+06
              755.E-03             1.17063E+06        1.17066E+06
              757.5E-03            1.17226E+06        1.17229E+06
              760.E-03             1.17389E+06        1.17392E+06
              762.5E-03            1.17552E+06        1.17555E+06
              765.E-03             1.17714E+06        1.17717E+06
              767.5E-03            1.17876E+06        1.17879E+06
              770.E-03             1.18038E+06        1.18041E+06
              772.5E-03            1.18199E+06        1.18202E+06
              775.E-03             1.1836E+06         1.18363E+06
              777.5E-03            1.18521E+06        1.18524E+06
              780.E-03             1.18681E+06        1.18684E+06
              782.5E-03            1.18841E+06        1.18844E+06
              785.E-03             1.19001E+06        1.19004E+06
              787.5E-03            1.19161E+06        1.19163E+06
              790.E-03             1.1932E+06         1.19322E+06
              792.5E-03            1.19478E+06        1.19481E+06
              795.E-03             1.19637E+06        1.1964E+06 
              797.5E-03            1.19795E+06        1.19798E+06
              800.E-03             1.19953E+06        1.19956E+06
              802.5E-03            1.2011E+06         1.20113E+06
              805.E-03             1.20267E+06        1.2027E+06 
              807.5E-03            1.20424E+06        1.20427E+06
              810.E-03             1.20581E+06        1.20584E+06
              812.5E-03            1.20737E+06        1.2074E+06 
              815.E-03             1.20893E+06        1.20896E+06
              817.5E-03            1.21049E+06        1.21052E+06
              820.E-03             1.21204E+06        1.21207E+06
              822.5E-03            1.21359E+06        1.21362E+06
              825.E-03             1.21514E+06        1.21517E+06
              827.5E-03            1.21668E+06        1.21671E+06
              830.E-03             1.21823E+06        1.21825E+06
              832.5E-03            1.21976E+06        1.21979E+06
              835.E-03             1.2213E+06         1.22133E+06
              837.5E-03            1.22283E+06        1.22286E+06
              840.E-03             1.22436E+06        1.22439E+06
              842.5E-03            1.22589E+06        1.22592E+06
              845.E-03             1.22742E+06        1.22745E+06
              847.5E-03            1.22894E+06        1.22897E+06
              850.E-03             1.23046E+06        1.23049E+06
              852.5E-03            1.23197E+06        1.232E+06  
              855.E-03             1.23349E+06        1.23352E+06
              857.5E-03            1.235E+06          1.23503E+06
              860.E-03             1.2365E+06         1.23653E+06
              862.5E-03            1.23801E+06        1.23804E+06
              865.E-03             1.23951E+06        1.23954E+06
              867.5E-03            1.24101E+06        1.24104E+06
              870.E-03             1.24251E+06        1.24254E+06
              872.5E-03            1.244E+06          1.24403E+06
              875.E-03             1.24549E+06        1.24552E+06
              877.5E-03            1.24698E+06        1.24701E+06
              880.E-03             1.24847E+06        1.2485E+06 
              882.5E-03            1.24995E+06        1.24998E+06
              885.E-03             1.25143E+06        1.25146E+06
              887.5E-03            1.25291E+06        1.25294E+06
              890.E-03             1.25438E+06        1.25442E+06
              892.5E-03            1.25586E+06        1.25589E+06
              895.E-03             1.25733E+06        1.25736E+06
              897.5E-03            1.25879E+06        1.25883E+06
              900.E-03             1.26026E+06        1.26029E+06
              902.5E-03            1.26172E+06        1.26176E+06
              905.E-03             1.26318E+06        1.26322E+06
              907.5E-03            1.26464E+06        1.26468E+06
              910.E-03             1.26609E+06        1.26613E+06
              912.5E-03            1.26755E+06        1.26758E+06
              915.E-03             1.269E+06          1.26903E+06
              917.5E-03            1.27044E+06        1.27048E+06
              920.E-03             1.27189E+06        1.27193E+06
              922.5E-03            1.27333E+06        1.27337E+06
              925.E-03             1.27477E+06        1.27481E+06
              927.5E-03            1.27621E+06        1.27625E+06
              930.E-03             1.27765E+06        1.27768E+06
              932.5E-03            1.27908E+06        1.27912E+06
              935.E-03             1.28051E+06        1.28055E+06
              937.5E-03            1.28194E+06        1.28198E+06
              940.E-03             1.28336E+06        1.2834E+06 
              942.5E-03            1.28479E+06        1.28483E+06
              945.E-03             1.28621E+06        1.28625E+06
              947.5E-03            1.28762E+06        1.28767E+06
              950.E-03             1.28904E+06        1.28908E+06
              952.5E-03            1.29045E+06        1.2905E+06 
              955.E-03             1.29187E+06        1.29191E+06
              957.5E-03            1.29328E+06        1.29332E+06
              960.E-03             1.29468E+06        1.29473E+06
              962.5E-03            1.29609E+06        1.29613E+06
              965.E-03             1.29749E+06        1.29754E+06
              967.5E-03            1.29889E+06        1.29894E+06
              970.E-03             1.30029E+06        1.30033E+06
              972.5E-03            1.30168E+06        1.30173E+06
              975.E-03             1.30308E+06        1.30312E+06
              977.5E-03            1.30447E+06        1.30452E+06
              980.E-03             1.30586E+06        1.30591E+06
              982.5E-03            1.30724E+06        1.30729E+06
              985.E-03             1.30863E+06        1.30868E+06
              987.5E-03            1.31001E+06        1.31006E+06
              990.E-03             1.31139E+06        1.31144E+06
              992.5E-03            1.31277E+06        1.31282E+06
              995.E-03             1.31414E+06        1.3142E+06 
              997.5E-03            1.31552E+06        1.31557E+06
                1.                 1.31689E+06        1.31694E+06




