
                  X              SENER-out           SENER-in    

                0.                 0.                 0.         
                2.5E-03          211.387E+03        211.387E+03  
                5.E-03           266.586E+03        262.535E+03  
                7.5E-03          276.693E+03        273.08E+03   
               10.E-03           286.14E+03         282.9E+03    
               12.5E-03          295.095E+03        292.173E+03  
               15.E-03           303.647E+03        300.999E+03  
               17.5E-03          311.852E+03        309.441E+03  
               20.E-03           319.748E+03        317.543E+03  
               22.5E-03          327.367E+03        325.344E+03  
               25.E-03           334.735E+03        332.871E+03  
               27.5E-03          341.871E+03        340.149E+03  
               30.E-03           348.795E+03        347.2E+03    
               32.5E-03          355.523E+03        354.042E+03  
               35.E-03           362.069E+03        360.691E+03  
               37.5E-03          368.445E+03        367.16E+03   
               40.E-03           374.663E+03        373.462E+03  
               42.5E-03          380.732E+03        379.609E+03  
               45.E-03           386.662E+03        385.61E+03   
               47.5E-03          392.46E+03         391.474E+03  
               50.E-03           398.135E+03        397.209E+03  
               52.5E-03          403.693E+03        402.823E+03  
               55.E-03           409.14E+03         408.322E+03  
               57.5E-03          414.482E+03        413.712E+03  
               60.E-03           419.723E+03        418.999E+03  
               62.5E-03          424.87E+03         424.188E+03  
               65.E-03           429.926E+03        429.283E+03  
               67.5E-03          434.896E+03        434.29E+03   
               70.E-03           439.783E+03        439.211E+03  
               72.5E-03          444.59E+03         444.052E+03  
               75.E-03           449.322E+03        448.815E+03  
               77.5E-03          453.981E+03        453.503E+03  
               80.E-03           458.57E+03         458.12E+03   
               82.5E-03          463.093E+03        462.669E+03  
               85.E-03           467.55E+03         467.151E+03  
               87.5E-03          471.945E+03        471.57E+03   
               90.E-03           476.281E+03        475.928E+03  
               92.5E-03          480.558E+03        480.227E+03  
               95.E-03           484.78E+03         484.47E+03   
               97.5E-03          488.948E+03        488.657E+03  
              100.E-03           493.064E+03        492.792E+03  
              102.5E-03          496.368E+03        496.111E+03  
              105.E-03           457.944E+03        457.586E+03  
              107.5E-03          425.961E+03        425.544E+03  
              110.E-03           404.957E+03        404.528E+03  
              112.5E-03          392.016E+03        391.607E+03  
              115.E-03           384.265E+03        383.898E+03  
              117.5E-03          379.79E+03         379.478E+03  
              120.E-03           377.403E+03        377.151E+03  
              122.5E-03          376.366E+03        376.174E+03  
              125.E-03           376.214E+03        376.08E+03   
              127.5E-03          376.651E+03        376.571E+03  
              130.E-03           377.48E+03         377.45E+03   
              132.5E-03          378.574E+03        378.589E+03  
              135.E-03           379.845E+03        379.901E+03  
              137.5E-03          381.234E+03        381.327E+03  
              140.E-03           382.702E+03        382.828E+03  
              142.5E-03          384.221E+03        384.378E+03  
              145.E-03           385.773E+03        385.958E+03  
              147.5E-03          387.344E+03        387.554E+03  
              150.E-03           388.926E+03        389.159E+03  
              152.5E-03          390.512E+03        390.767E+03  
              155.E-03           392.099E+03        392.373E+03  
              157.5E-03          393.683E+03        393.976E+03  
              160.E-03           395.262E+03        395.572E+03  
              162.5E-03          396.836E+03        397.161E+03  
              165.E-03           398.403E+03        398.743E+03  
              167.5E-03          399.963E+03        400.316E+03  
              170.E-03           401.514E+03        401.881E+03  
              172.5E-03          403.058E+03        403.436E+03  
              175.E-03           404.594E+03        404.983E+03  
              177.5E-03          406.122E+03        406.522E+03  
              180.E-03           407.642E+03        408.051E+03  
              182.5E-03          409.153E+03        409.572E+03  
              185.E-03           426.78E+03         427.239E+03  
              187.5E-03          455.357E+03        455.884E+03  
              190.E-03           475.625E+03        476.201E+03  
              192.5E-03          489.404E+03        490.015E+03  
              195.E-03           498.85E+03         499.485E+03  
              197.5E-03          505.528E+03        506.179E+03  
              200.E-03           510.475E+03        511.136E+03  
              202.5E-03          514.346E+03        515.013E+03  
              205.E-03           517.547E+03        518.218E+03  
              207.5E-03          520.332E+03        521.004E+03  
              210.E-03           522.854E+03        523.527E+03  
              212.5E-03          525.21E+03         525.883E+03  
              215.E-03           527.458E+03        528.13E+03   
              217.5E-03          529.636E+03        530.306E+03  
              220.E-03           531.765E+03        532.434E+03  
              222.5E-03          533.859E+03        534.526E+03  
              225.E-03           535.928E+03        536.594E+03  
              227.5E-03          537.976E+03        538.641E+03  
              230.E-03           540.008E+03        540.671E+03  
              232.5E-03          542.025E+03        542.687E+03  
              235.E-03           544.029E+03        544.689E+03  
              237.5E-03          546.021E+03        546.679E+03  
              240.E-03           548.001E+03        548.658E+03  
              242.5E-03          549.971E+03        550.626E+03  
              245.E-03           551.929E+03        552.583E+03  
              247.5E-03          553.877E+03        554.53E+03   
              250.E-03           555.814E+03        556.466E+03  
              252.5E-03          557.742E+03        558.392E+03  
              255.E-03           559.659E+03        560.309E+03  
              257.5E-03          561.567E+03        562.216E+03  
              260.E-03           563.465E+03        564.113E+03  
              262.5E-03          565.354E+03        566.E+03     
              265.E-03           567.233E+03        567.878E+03  
              267.5E-03          569.103E+03        569.747E+03  
              270.E-03           570.964E+03        571.607E+03  
              272.5E-03          572.815E+03        573.458E+03  
              275.E-03           574.658E+03        575.3E+03    
              277.5E-03          576.492E+03        577.134E+03  
              280.E-03           578.318E+03        578.958E+03  
              282.5E-03          580.135E+03        580.774E+03  
              285.E-03           581.943E+03        582.582E+03  
              287.5E-03          583.743E+03        584.381E+03  
              290.E-03           585.535E+03        586.173E+03  
              292.5E-03          587.318E+03        587.956E+03  
              295.E-03           589.094E+03        589.731E+03  
              297.5E-03          590.861E+03        591.498E+03  
              300.E-03           592.621E+03        593.257E+03  
              302.5E-03          594.373E+03        595.008E+03  
              305.E-03           596.117E+03        596.752E+03  
              307.5E-03          597.854E+03        598.488E+03  
              310.E-03           599.583E+03        600.217E+03  
              312.5E-03          601.305E+03        601.938E+03  
              315.E-03           603.019E+03        603.652E+03  
              317.5E-03          604.726E+03        605.359E+03  
              320.E-03           606.426E+03        607.059E+03  
              322.5E-03          608.119E+03        608.752E+03  
              325.E-03           609.805E+03        610.437E+03  
              327.5E-03          611.484E+03        612.116E+03  
              330.E-03           613.156E+03        613.788E+03  
              332.5E-03          614.821E+03        615.453E+03  
              335.E-03           616.48E+03         617.111E+03  
              337.5E-03          618.132E+03        618.763E+03  
              340.E-03           619.777E+03        620.408E+03  
              342.5E-03          621.416E+03        622.047E+03  
              345.E-03           623.048E+03        623.679E+03  
              347.5E-03          624.674E+03        625.305E+03  
              350.E-03           626.294E+03        626.924E+03  
              352.5E-03          627.907E+03        628.538E+03  
              355.E-03           629.515E+03        630.145E+03  
              357.5E-03          631.116E+03        631.746E+03  
              360.E-03           632.711E+03        633.341E+03  
              362.5E-03          634.3E+03          634.93E+03   
              365.E-03           635.883E+03        636.514E+03  
              367.5E-03          637.461E+03        638.091E+03  
              370.E-03           639.032E+03        639.663E+03  
              372.5E-03          640.598E+03        641.228E+03  
              375.E-03           642.158E+03        642.789E+03  
              377.5E-03          643.713E+03        644.343E+03  
              380.E-03           645.262E+03        645.892E+03  
              382.5E-03          646.805E+03        647.435E+03  
              385.E-03           648.343E+03        648.973E+03  
              387.5E-03          649.875E+03        650.506E+03  
              390.E-03           651.402E+03        652.033E+03  
              392.5E-03          652.924E+03        653.555E+03  
              395.E-03           654.44E+03         655.071E+03  
              397.5E-03          655.951E+03        656.582E+03  
              400.E-03           657.457E+03        658.088E+03  
              402.5E-03          658.958E+03        659.589E+03  
              405.E-03           660.454E+03        661.085E+03  
              407.5E-03          661.944E+03        662.576E+03  
              410.E-03           663.43E+03         664.062E+03  
              412.5E-03          664.911E+03        665.543E+03  
              415.E-03           666.387E+03        667.019E+03  
              417.5E-03          667.857E+03        668.49E+03   
              420.E-03           669.324E+03        669.956E+03  
              422.5E-03          670.785E+03        671.418E+03  
              425.E-03           672.241E+03        672.875E+03  
              427.5E-03          673.693E+03        674.327E+03  
              430.E-03           675.141E+03        675.774E+03  
              432.5E-03          676.583E+03        677.217E+03  
              435.E-03           678.021E+03        678.655E+03  
              437.5E-03          679.455E+03        680.089E+03  
              440.E-03           680.883E+03        681.518E+03  
              442.5E-03          682.308E+03        682.943E+03  
              445.E-03           683.728E+03        684.363E+03  
              447.5E-03          685.143E+03        685.779E+03  
              450.E-03           686.555E+03        687.191E+03  
              452.5E-03          687.962E+03        688.598E+03  
              455.E-03           689.364E+03        690.001E+03  
              457.5E-03          690.763E+03        691.399E+03  
              460.E-03           692.157E+03        692.794E+03  
              462.5E-03          693.547E+03        694.184E+03  
              465.E-03           694.933E+03        695.57E+03   
              467.5E-03          696.314E+03        696.953E+03  
              470.E-03           697.692E+03        698.33E+03   
              472.5E-03          699.065E+03        699.704E+03  
              475.E-03           700.435E+03        701.074E+03  
              477.5E-03          701.8E+03          702.44E+03   
              480.E-03           703.162E+03        703.802E+03  
              482.5E-03          704.52E+03         705.16E+03   
              485.E-03           705.873E+03        706.514E+03  
              487.5E-03          707.223E+03        707.864E+03  
              490.E-03           708.569E+03        709.211E+03  
              492.5E-03          709.911E+03        710.553E+03  
              495.E-03           711.25E+03         711.892E+03  
              497.5E-03          712.585E+03        713.227E+03  
              500.E-03           713.916E+03        714.559E+03  
              502.5E-03          715.243E+03        715.886E+03  
              505.E-03           716.566E+03        717.21E+03   
              507.5E-03          717.886E+03        718.531E+03  
              510.E-03           719.202E+03        719.847E+03  
              512.5E-03          720.515E+03        721.16E+03   
              515.E-03           721.824E+03        722.47E+03   
              517.5E-03          723.13E+03         723.776E+03  
              520.E-03           724.432E+03        725.078E+03  
              522.5E-03          725.73E+03         726.377E+03  
              525.E-03           727.026E+03        727.673E+03  
              527.5E-03          728.317E+03        728.965E+03  
              530.E-03           729.605E+03        730.254E+03  
              532.5E-03          730.89E+03         731.539E+03  
              535.E-03           732.172E+03        732.821E+03  
              537.5E-03          733.45E+03         734.099E+03  
              540.E-03           734.725E+03        735.375E+03  
              542.5E-03          735.996E+03        736.647E+03  
              545.E-03           737.264E+03        737.915E+03  
              547.5E-03          738.529E+03        739.181E+03  
              550.E-03           739.791E+03        740.443E+03  
              552.5E-03          741.05E+03         741.702E+03  
              555.E-03           742.305E+03        742.958E+03  
              557.5E-03          743.557E+03        744.21E+03   
              560.E-03           744.806E+03        745.46E+03   
              562.5E-03          746.052E+03        746.706E+03  
              565.E-03           747.295E+03        747.95E+03   
              567.5E-03          748.534E+03        749.19E+03   
              570.E-03           749.771E+03        750.427E+03  
              572.5E-03          751.005E+03        751.661E+03  
              575.E-03           752.235E+03        752.892E+03  
              577.5E-03          753.463E+03        754.12E+03   
              580.E-03           754.687E+03        755.345E+03  
              582.5E-03          755.909E+03        756.567E+03  
              585.E-03           757.127E+03        757.786E+03  
              587.5E-03          758.343E+03        759.003E+03  
              590.E-03           759.556E+03        760.216E+03  
              592.5E-03          760.766E+03        761.426E+03  
              595.E-03           761.973E+03        762.634E+03  
              597.5E-03          763.177E+03        763.839E+03  
              600.E-03           764.378E+03        765.041E+03  
              602.5E-03          765.577E+03        766.24E+03   
              605.E-03           766.773E+03        767.436E+03  
              607.5E-03          767.966E+03        768.629E+03  
              610.E-03           769.156E+03        769.82E+03   
              612.5E-03          770.343E+03        771.008E+03  
              615.E-03           771.528E+03        772.193E+03  
              617.5E-03          772.71E+03         773.376E+03  
              620.E-03           773.889E+03        774.556E+03  
              622.5E-03          775.066E+03        775.733E+03  
              625.E-03           776.24E+03         776.907E+03  
              627.5E-03          777.411E+03        778.079E+03  
              630.E-03           778.58E+03         779.248E+03  
              632.5E-03          779.746E+03        780.415E+03  
              635.E-03           780.909E+03        781.579E+03  
              637.5E-03          782.07E+03         782.74E+03   
              640.E-03           783.228E+03        783.899E+03  
              642.5E-03          784.384E+03        785.055E+03  
              645.E-03           785.537E+03        786.209E+03  
              647.5E-03          786.688E+03        787.36E+03   
              650.E-03           787.836E+03        788.509E+03  
              652.5E-03          788.981E+03        789.655E+03  
              655.E-03           790.125E+03        790.799E+03  
              657.5E-03          791.265E+03        791.94E+03   
              660.E-03           792.403E+03        793.079E+03  
              662.5E-03          793.539E+03        794.215E+03  
              665.E-03           794.672E+03        795.349E+03  
              667.5E-03          795.803E+03        796.48E+03   
              670.E-03           796.932E+03        797.609E+03  
              672.5E-03          798.058E+03        798.736E+03  
              675.E-03           799.182E+03        799.861E+03  
              677.5E-03          800.303E+03        800.982E+03  
              680.E-03           801.422E+03        802.102E+03  
              682.5E-03          802.539E+03        803.219E+03  
              685.E-03           803.653E+03        804.334E+03  
              687.5E-03          804.765E+03        805.447E+03  
              690.E-03           805.875E+03        806.557E+03  
              692.5E-03          806.983E+03        807.666E+03  
              695.E-03           808.088E+03        808.771E+03  
              697.5E-03          809.191E+03        809.875E+03  
              700.E-03           810.292E+03        810.976E+03  
              702.5E-03          811.39E+03         812.075E+03  
              705.E-03           812.486E+03        813.172E+03  
              707.5E-03          813.58E+03         814.267E+03  
              710.E-03           814.672E+03        815.359E+03  
              712.5E-03          815.762E+03        816.45E+03   
              715.E-03           816.849E+03        817.538E+03  
              717.5E-03          817.935E+03        818.624E+03  
              720.E-03           819.018E+03        819.708E+03  
              722.5E-03          820.099E+03        820.789E+03  
              725.E-03           821.178E+03        821.869E+03  
              727.5E-03          822.255E+03        822.946E+03  
              730.E-03           823.329E+03        824.021E+03  
              732.5E-03          824.402E+03        825.095E+03  
              735.E-03           825.472E+03        826.166E+03  
              737.5E-03          826.541E+03        827.235E+03  
              740.E-03           827.607E+03        828.302E+03  
              742.5E-03          828.672E+03        829.367E+03  
              745.E-03           829.734E+03        830.43E+03   
              747.5E-03          830.794E+03        831.49E+03   
              750.E-03           831.852E+03        832.549E+03  
              752.5E-03          832.908E+03        833.606E+03  
              755.E-03           833.963E+03        834.661E+03  
              757.5E-03          835.015E+03        835.714E+03  
              760.E-03           836.065E+03        836.765E+03  
              762.5E-03          837.113E+03        837.813E+03  
              765.E-03           838.16E+03         838.86E+03   
              767.5E-03          839.204E+03        839.905E+03  
              770.E-03           840.246E+03        840.948E+03  
              772.5E-03          841.287E+03        841.99E+03   
              775.E-03           842.325E+03        843.029E+03  
              777.5E-03          843.362E+03        844.066E+03  
              780.E-03           844.397E+03        845.101E+03  
              782.5E-03          845.43E+03         846.135E+03  
              785.E-03           846.461E+03        847.166E+03  
              787.5E-03          847.49E+03         848.196E+03  
              790.E-03           848.517E+03        849.224E+03  
              792.5E-03          849.542E+03        850.25E+03   
              795.E-03           850.566E+03        851.274E+03  
              797.5E-03          851.587E+03        852.296E+03  
              800.E-03           852.607E+03        853.317E+03  
              802.5E-03          853.625E+03        854.336E+03  
              805.E-03           854.641E+03        855.352E+03  
              807.5E-03          855.656E+03        856.367E+03  
              810.E-03           856.668E+03        857.381E+03  
              812.5E-03          857.679E+03        858.392E+03  
              815.E-03           858.688E+03        859.402E+03  
              817.5E-03          859.695E+03        860.41E+03   
              820.E-03           860.701E+03        861.416E+03  
              822.5E-03          861.704E+03        862.42E+03   
              825.E-03           862.706E+03        863.423E+03  
              827.5E-03          863.707E+03        864.424E+03  
              830.E-03           864.705E+03        865.423E+03  
              832.5E-03          865.702E+03        866.42E+03   
              835.E-03           866.697E+03        867.416E+03  
              837.5E-03          867.69E+03         868.41E+03   
              840.E-03           868.682E+03        869.402E+03  
              842.5E-03          869.672E+03        870.393E+03  
              845.E-03           870.66E+03         871.382E+03  
              847.5E-03          871.647E+03        872.369E+03  
              850.E-03           872.632E+03        873.354E+03  
              852.5E-03          873.615E+03        874.338E+03  
              855.E-03           874.596E+03        875.321E+03  
              857.5E-03          875.576E+03        876.301E+03  
              860.E-03           876.555E+03        877.28E+03   
              862.5E-03          877.531E+03        878.258E+03  
              865.E-03           878.507E+03        879.233E+03  
              867.5E-03          879.48E+03         880.208E+03  
              870.E-03           880.452E+03        881.18E+03   
              872.5E-03          881.422E+03        882.151E+03  
              875.E-03           882.391E+03        883.12E+03   
              877.5E-03          883.358E+03        884.088E+03  
              880.E-03           884.323E+03        885.054E+03  
              882.5E-03          885.287E+03        886.019E+03  
              885.E-03           886.249E+03        886.982E+03  
              887.5E-03          887.21E+03         887.943E+03  
              890.E-03           888.169E+03        888.903E+03  
              892.5E-03          889.127E+03        889.861E+03  
              895.E-03           890.083E+03        890.818E+03  
              897.5E-03          891.038E+03        891.773E+03  
              900.E-03           891.991E+03        892.727E+03  
              902.5E-03          892.942E+03        893.679E+03  
              905.E-03           893.892E+03        894.63E+03   
              907.5E-03          894.841E+03        895.579E+03  
              910.E-03           895.788E+03        896.527E+03  
              912.5E-03          896.733E+03        897.473E+03  
              915.E-03           897.677E+03        898.418E+03  
              917.5E-03          898.62E+03         899.361E+03  
              920.E-03           899.561E+03        900.302E+03  
              922.5E-03          900.5E+03          901.243E+03  
              925.E-03           901.438E+03        902.182E+03  
              927.5E-03          902.375E+03        903.119E+03  
              930.E-03           903.31E+03         904.055E+03  
              932.5E-03          904.244E+03        904.989E+03  
              935.E-03           905.176E+03        905.922E+03  
              937.5E-03          906.107E+03        906.854E+03  
              940.E-03           907.036E+03        907.784E+03  
              942.5E-03          907.964E+03        908.712E+03  
              945.E-03           908.891E+03        909.64E+03   
              947.5E-03          909.816E+03        910.566E+03  
              950.E-03           910.74E+03         911.49E+03   
              952.5E-03          911.662E+03        912.413E+03  
              955.E-03           912.583E+03        913.335E+03  
              957.5E-03          913.503E+03        914.255E+03  
              960.E-03           914.421E+03        915.174E+03  
              962.5E-03          915.338E+03        916.091E+03  
              965.E-03           916.253E+03        917.008E+03  
              967.5E-03          917.167E+03        917.922E+03  
              970.E-03           918.08E+03         918.836E+03  
              972.5E-03          918.991E+03        919.748E+03  
              975.E-03           919.901E+03        920.659E+03  
              977.5E-03          920.81E+03         921.568E+03  
              980.E-03           921.717E+03        922.476E+03  
              982.5E-03          922.623E+03        923.383E+03  
              985.E-03           923.528E+03        924.288E+03  
              987.5E-03          924.431E+03        925.192E+03  
              990.E-03           925.333E+03        926.095E+03  
              992.5E-03          926.234E+03        926.996E+03  
              995.E-03           927.133E+03        927.896E+03  
              997.5E-03          928.031E+03        928.795E+03  
                1.               928.928E+03        929.692E+03  




