
                  X               ep1-out            ep2-out            ep3-out             ep1-in             ep2-in             ep3-in     

                0.                 0.                 0.                 0.                 0.                 0.                 0.         
                2.5E-03            0.                 0.                 0.                 0.                 0.                 0.         
                5.E-03           902.286E-06         -1.47139E-03      569.109E-06        992.435E-06         -1.59321E-03      600.77E-06   
                7.5E-03            1.89168E-03       -3.13158E-03        1.23989E-03        2.02005E-03       -3.29599E-03        1.27595E-03
               10.E-03             2.87627E-03       -4.79679E-03        1.92052E-03        3.03748E-03       -4.9983E-03         1.96082E-03
               12.5E-03            3.85969E-03       -6.46542E-03        2.60573E-03        4.04952E-03       -6.69951E-03        2.64998E-03
               15.E-03             4.84336E-03       -8.13668E-03        3.29331E-03        5.05842E-03       -8.39962E-03        3.3412E-03 
               17.5E-03            5.82781E-03       -9.81011E-03        3.98229E-03        6.06527E-03      -10.0988E-03         4.03351E-03
               20.E-03             6.81317E-03      -11.4854E-03         4.67221E-03        7.07066E-03      -11.7971E-03         4.72649E-03
               22.5E-03            7.79943E-03      -13.1623E-03         5.36285E-03        8.07495E-03      -13.4949E-03         5.41994E-03
               25.E-03             8.78654E-03      -14.8406E-03         6.05407E-03        9.07837E-03      -15.1921E-03         6.11375E-03
               27.5E-03            9.77442E-03      -16.5202E-03         6.7458E-03        10.0811E-03       -16.889E-03          6.80788E-03
               30.E-03            10.763E-03        -18.201E-03          7.43798E-03       11.0832E-03       -18.5855E-03         7.50227E-03
               32.5E-03           11.7522E-03       -19.8828E-03         8.13057E-03       12.0849E-03       -20.2818E-03         8.19691E-03
               35.E-03            12.7421E-03       -21.5656E-03         8.82353E-03       13.0861E-03       -21.9779E-03         8.89178E-03
               37.5E-03           13.7324E-03       -23.2492E-03         9.51683E-03       14.087E-03        -23.6739E-03         9.58685E-03
               40.E-03            14.7233E-03       -24.9337E-03        10.2104E-03        15.0877E-03       -25.3698E-03        10.2821E-03 
               42.5E-03           15.7145E-03       -26.6189E-03        10.9043E-03        16.0881E-03       -27.0656E-03        10.9776E-03 
               45.E-03            16.7063E-03       -28.3048E-03        11.5985E-03        17.0883E-03       -28.7614E-03        11.6732E-03 
               47.5E-03           17.6984E-03       -29.9913E-03        12.2929E-03        18.0883E-03       -30.4572E-03        12.369E-03  
               50.E-03            18.6908E-03       -31.6784E-03        12.9876E-03        19.0882E-03       -32.1531E-03        13.0649E-03 
               52.5E-03           19.6836E-03       -33.3661E-03        13.6825E-03        20.0879E-03       -33.8489E-03        13.761E-03  
               55.E-03            20.6767E-03       -35.0543E-03        14.3776E-03        21.0876E-03       -35.5448E-03        14.4572E-03 
               57.5E-03           21.6701E-03       -36.7429E-03        15.0728E-03        22.0872E-03       -37.2407E-03        15.1535E-03 
               60.E-03            22.6637E-03       -38.432E-03         15.7683E-03        23.0867E-03       -38.9367E-03        15.85E-03   
               62.5E-03           23.6577E-03       -40.1216E-03        16.4639E-03        24.0861E-03       -40.6327E-03        16.5466E-03 
               65.E-03            24.6518E-03       -41.8116E-03        17.1597E-03        25.0856E-03       -42.3288E-03        17.2433E-03 
               67.5E-03           25.6462E-03       -43.5019E-03        17.8557E-03        26.085E-03        -44.025E-03         17.9401E-03 
               70.E-03            26.6408E-03       -45.1926E-03        18.5518E-03        27.0843E-03       -45.7213E-03        18.637E-03  
               72.5E-03           27.6356E-03       -46.8836E-03        19.248E-03         28.0837E-03       -47.4177E-03        19.334E-03  
               75.E-03            28.6306E-03       -48.575E-03         19.9444E-03        29.083E-03        -49.1141E-03        20.0311E-03 
               77.5E-03           29.6258E-03       -50.2667E-03        20.6409E-03        30.0824E-03       -50.8107E-03        20.7283E-03 
               80.E-03            30.6211E-03       -51.9587E-03        21.3375E-03        31.0817E-03       -52.5073E-03        21.4256E-03 
               82.5E-03           31.6167E-03       -53.6509E-03        22.0343E-03        32.081E-03        -54.204E-03         22.123E-03  
               85.E-03            32.6123E-03       -55.3434E-03        22.7311E-03        33.0804E-03       -55.9008E-03        22.8204E-03 
               87.5E-03           33.6082E-03       -57.0362E-03        23.428E-03         34.0798E-03       -57.5977E-03        23.518E-03  
               90.E-03            34.6041E-03       -58.7292E-03        24.1251E-03        35.0792E-03       -59.2948E-03        24.2156E-03 
               92.5E-03           35.6002E-03       -60.4225E-03        24.8222E-03        36.0786E-03       -60.9918E-03        24.9133E-03 
               95.E-03            36.5965E-03       -62.116E-03         25.5195E-03        37.078E-03        -62.689E-03         25.6111E-03 
               97.5E-03           37.5928E-03       -63.8096E-03        26.2168E-03        38.0774E-03       -64.3863E-03        26.3089E-03 
              100.E-03            38.5893E-03       -65.5035E-03        26.9142E-03        39.0769E-03       -66.0837E-03        27.0068E-03 
              102.5E-03           39.4029E-03       -66.8865E-03        27.4836E-03        39.8929E-03       -67.4694E-03        27.5766E-03 
              105.E-03            40.312E-03        -67.8267E-03        27.5147E-03        40.8255E-03       -68.432E-03         27.6064E-03 
              107.5E-03           41.2971E-03       -68.6395E-03        27.3423E-03        41.887E-03        -69.3049E-03        27.4179E-03 
              110.E-03            42.3092E-03       -69.3583E-03        27.0491E-03        43.0821E-03       -70.1514E-03        27.0693E-03 
              112.5E-03           43.3545E-03       -70.0265E-03        26.672E-03         44.2746E-03       -70.9135E-03        26.6389E-03 
              115.E-03            44.4502E-03       -70.677E-03         26.2268E-03        45.4062E-03       -71.5856E-03        26.1795E-03 
              117.5E-03           45.5507E-03       -71.2971E-03        25.7464E-03        46.5231E-03       -72.2156E-03        25.6925E-03 
              120.E-03            46.6514E-03       -71.8949E-03        25.2435E-03        47.632E-03        -72.8186E-03        25.1866E-03 
              122.5E-03           47.7499E-03       -72.4765E-03        24.7265E-03        48.7375E-03       -73.4044E-03        24.6669E-03 
              125.E-03            48.8466E-03       -73.0467E-03        24.2001E-03        49.8407E-03       -73.9786E-03        24.1379E-03 
              127.5E-03           49.9418E-03       -73.6092E-03        23.6673E-03        50.9424E-03       -74.5448E-03        23.6024E-03 
              130.E-03            51.0359E-03       -74.1662E-03        23.1303E-03        52.0429E-03       -75.1055E-03        23.0626E-03 
              132.5E-03           52.1291E-03       -74.7194E-03        22.5903E-03        53.1426E-03       -75.6625E-03        22.5198E-03 
              135.E-03            53.2217E-03       -75.27E-03          22.0483E-03        54.2417E-03       -76.2168E-03        21.975E-03  
              137.5E-03           54.3139E-03       -75.8188E-03        21.505E-03         55.3405E-03       -76.7692E-03        21.4288E-03 
              140.E-03            55.4056E-03       -76.3663E-03        20.9607E-03        56.4389E-03       -77.3204E-03        20.8815E-03 
              142.5E-03           56.4971E-03       -76.9129E-03        20.4159E-03        57.5371E-03       -77.8707E-03        20.3336E-03 
              145.E-03            57.5883E-03       -77.4589E-03        19.8706E-03        58.6351E-03       -78.4204E-03        19.7853E-03 
              147.5E-03           58.6794E-03       -78.0044E-03        19.325E-03         59.733E-03        -78.9696E-03        19.2366E-03 
              150.E-03            59.7703E-03       -78.5496E-03        18.7793E-03        60.8308E-03       -79.5185E-03        18.6877E-03 
              152.5E-03           60.8611E-03       -79.0945E-03        18.2334E-03        61.9286E-03       -80.0672E-03        18.1387E-03 
              155.E-03            61.9518E-03       -79.6393E-03        17.6875E-03        63.0262E-03       -80.6157E-03        17.5895E-03 
              157.5E-03           63.0424E-03       -80.1839E-03        17.1415E-03        64.1239E-03       -81.1641E-03        17.0403E-03 
              160.E-03            64.1329E-03       -80.7284E-03        16.5956E-03        65.2215E-03       -81.7125E-03        16.491E-03  
              162.5E-03           65.2233E-03       -81.2729E-03        16.0496E-03        66.319E-03        -82.2607E-03        15.9417E-03 
              165.E-03            66.3138E-03       -81.8173E-03        15.5036E-03        67.4166E-03       -82.8089E-03        15.3923E-03 
              167.5E-03           67.4041E-03       -82.3617E-03        14.9576E-03        68.5141E-03       -83.3571E-03        14.843E-03  
              170.E-03            68.4944E-03       -82.906E-03         14.4116E-03        69.6117E-03       -83.9053E-03        14.2936E-03 
              172.5E-03           69.5847E-03       -83.4503E-03        13.8656E-03        70.7092E-03       -84.4534E-03        13.7442E-03 
              175.E-03            70.6749E-03       -83.9946E-03        13.3197E-03        71.8067E-03       -85.0015E-03        13.1948E-03 
              177.5E-03           71.7652E-03       -84.5389E-03        12.7737E-03        72.9043E-03       -85.5496E-03        12.6454E-03 
              180.E-03            72.8553E-03       -85.0831E-03        12.2278E-03        74.0018E-03       -86.0978E-03        12.0959E-03 
              182.5E-03           73.9455E-03       -85.6274E-03        11.6819E-03        75.0994E-03       -86.6459E-03        11.5465E-03 
              185.E-03            75.0634E-03       -86.2643E-03        11.2009E-03        76.2363E-03       -87.2938E-03        11.0575E-03 
              187.5E-03           76.2479E-03       -87.0713E-03        10.8234E-03        77.4349E-03       -88.1101E-03        10.6752E-03 
              190.E-03            77.4663E-03       -87.9947E-03        10.5284E-03        78.6493E-03       -89.0302E-03        10.3809E-03 
              192.5E-03           78.6898E-03       -88.9847E-03        10.2949E-03        79.8718E-03       -90.019E-03         10.1471E-03 
              195.E-03            79.9132E-03       -90.0155E-03        10.1023E-03        81.0935E-03       -91.0478E-03         9.95428E-03
              197.5E-03           81.1343E-03       -91.0703E-03         9.93605E-03       82.3132E-03       -92.1009E-03         9.78767E-03
              200.E-03            82.3531E-03       -92.1396E-03         9.78644E-03       83.5309E-03       -93.1686E-03         9.63764E-03
              202.5E-03           83.5703E-03       -93.2176E-03         9.64723E-03       84.7473E-03       -94.2452E-03         9.49795E-03
              205.E-03            84.7864E-03       -94.3008E-03         9.51447E-03       85.9627E-03       -95.3274E-03         9.36468E-03
              207.5E-03           86.0016E-03       -95.3873E-03         9.3857E-03        87.1776E-03       -96.4129E-03         9.23536E-03
              210.E-03            87.2164E-03       -96.4758E-03         9.25941E-03       88.3922E-03       -97.5007E-03         9.10848E-03
              212.5E-03           88.4308E-03       -97.5655E-03         9.13465E-03       89.6067E-03       -98.5898E-03         8.9831E-03 
              215.E-03            89.6451E-03       -98.656E-03          9.01085E-03       90.8213E-03       -99.6799E-03         8.85862E-03
              217.5E-03           90.8592E-03       -99.7469E-03         8.88763E-03       92.0359E-03      -100.771E-03          8.73471E-03
              220.E-03            92.0733E-03      -100.838E-03          8.76479E-03       93.2506E-03      -101.862E-03          8.61114E-03
              222.5E-03           93.2873E-03      -101.929E-03          8.64217E-03       94.4654E-03      -102.953E-03          8.48776E-03
              225.E-03            94.5012E-03      -103.021E-03          8.51971E-03       95.6804E-03      -104.045E-03          8.3645E-03 
              227.5E-03           95.7152E-03      -104.113E-03          8.39735E-03       96.8956E-03      -105.137E-03          8.24131E-03
              230.E-03            96.9291E-03      -105.204E-03          8.27504E-03       98.1109E-03      -106.229E-03          8.11815E-03
              232.5E-03           98.143E-03       -106.296E-03          8.15279E-03       99.3263E-03      -107.321E-03          7.99501E-03
              235.E-03            99.3569E-03      -107.387E-03          8.03056E-03      100.542E-03       -108.414E-03          7.87187E-03
              237.5E-03          100.571E-03       -108.479E-03          7.90836E-03      101.758E-03       -109.506E-03          7.74872E-03
              240.E-03           101.785E-03       -109.571E-03          7.78618E-03      102.974E-03       -110.599E-03          7.62557E-03
              242.5E-03          102.999E-03       -110.663E-03          7.66401E-03      104.19E-03        -111.692E-03          7.50241E-03
              245.E-03           104.212E-03       -111.754E-03          7.54186E-03      105.406E-03       -112.785E-03          7.37924E-03
              247.5E-03          105.426E-03       -112.846E-03          7.41971E-03      106.622E-03       -113.878E-03          7.25605E-03
              250.E-03           106.64E-03        -113.938E-03          7.29758E-03      107.838E-03       -114.971E-03          7.13286E-03
              252.5E-03          107.854E-03       -115.03E-03           7.17546E-03      109.055E-03       -116.065E-03          7.00965E-03
              255.E-03           109.068E-03       -116.121E-03          7.05335E-03      110.271E-03       -117.158E-03          6.88643E-03
              257.5E-03          110.282E-03       -117.213E-03          6.93125E-03      111.488E-03       -118.251E-03          6.7632E-03 
              260.E-03           111.496E-03       -118.305E-03          6.80916E-03      112.705E-03       -119.345E-03          6.63996E-03
              262.5E-03          112.71E-03        -119.397E-03          6.68708E-03      113.922E-03       -120.439E-03          6.5167E-03 
              265.E-03           113.924E-03       -120.489E-03          6.56501E-03      115.139E-03       -121.533E-03          6.39344E-03
              267.5E-03          115.137E-03       -121.58E-03           6.44294E-03      116.356E-03       -122.626E-03          6.27016E-03
              270.E-03           116.351E-03       -122.672E-03          6.32089E-03      117.574E-03       -123.72E-03           6.14688E-03
              272.5E-03          117.565E-03       -123.764E-03          6.19884E-03      118.791E-03       -124.815E-03          6.02358E-03
              275.E-03           118.779E-03       -124.856E-03          6.0768E-03       120.008E-03       -125.909E-03          5.90027E-03
              277.5E-03          119.993E-03       -125.948E-03          5.95477E-03      121.226E-03       -127.003E-03          5.77696E-03
              280.E-03           121.207E-03       -127.04E-03           5.83274E-03      122.444E-03       -128.097E-03          5.65363E-03
              282.5E-03          122.421E-03       -128.131E-03          5.71073E-03      123.661E-03       -129.192E-03          5.5303E-03 
              285.E-03           123.635E-03       -129.223E-03          5.58872E-03      124.879E-03       -130.286E-03          5.40696E-03
              287.5E-03          124.849E-03       -130.315E-03          5.46672E-03      126.097E-03       -131.381E-03          5.28361E-03
              290.E-03           126.062E-03       -131.407E-03          5.34473E-03      127.315E-03       -132.475E-03          5.16025E-03
              292.5E-03          127.276E-03       -132.499E-03          5.22274E-03      128.533E-03       -133.57E-03           5.03688E-03
              295.E-03           128.49E-03        -133.591E-03          5.10076E-03      129.752E-03       -134.665E-03          4.91351E-03
              297.5E-03          129.704E-03       -134.683E-03          4.97879E-03      130.97E-03        -135.76E-03           4.79012E-03
              300.E-03           130.918E-03       -135.775E-03          4.85683E-03      132.188E-03       -136.855E-03          4.66673E-03
              302.5E-03          132.132E-03       -136.867E-03          4.73487E-03      133.407E-03       -137.95E-03           4.54333E-03
              305.E-03           133.346E-03       -137.959E-03          4.61292E-03      134.625E-03       -139.045E-03          4.41992E-03
              307.5E-03          134.56E-03        -139.051E-03          4.49098E-03      135.844E-03       -140.14E-03           4.29651E-03
              310.E-03           135.774E-03       -140.143E-03          4.36904E-03      137.062E-03       -141.235E-03          4.17308E-03
              312.5E-03          136.988E-03       -141.235E-03          4.24711E-03      138.281E-03       -142.331E-03          4.04965E-03
              315.E-03           138.201E-03       -142.327E-03          4.12519E-03      139.5E-03         -143.426E-03          3.92622E-03
              317.5E-03          139.415E-03       -143.419E-03          4.00327E-03      140.719E-03       -144.521E-03          3.80277E-03
              320.E-03           140.629E-03       -144.511E-03          3.88136E-03      141.938E-03       -145.617E-03          3.67932E-03
              322.5E-03          141.843E-03       -145.603E-03          3.75946E-03      143.157E-03       -146.712E-03          3.55586E-03
              325.E-03           143.057E-03       -146.695E-03          3.63756E-03      144.376E-03       -147.808E-03          3.4324E-03 
              327.5E-03          144.271E-03       -147.787E-03          3.51567E-03      145.595E-03       -148.904E-03          3.30892E-03
              330.E-03           145.485E-03       -148.879E-03          3.39379E-03      146.814E-03       -149.999E-03          3.18545E-03
              332.5E-03          146.699E-03       -149.971E-03          3.27191E-03      148.033E-03       -151.095E-03          3.06196E-03
              335.E-03           147.913E-03       -151.063E-03          3.15003E-03      149.253E-03       -152.191E-03          2.93847E-03
              337.5E-03          149.127E-03       -152.155E-03          3.02817E-03      150.472E-03       -153.287E-03          2.81497E-03
              340.E-03           150.341E-03       -153.247E-03          2.90631E-03      151.692E-03       -154.383E-03          2.69146E-03
              342.5E-03          151.554E-03       -154.339E-03          2.78445E-03      152.911E-03       -155.479E-03          2.56795E-03
              345.E-03           152.768E-03       -155.431E-03          2.6626E-03       154.131E-03       -156.575E-03          2.44443E-03
              347.5E-03          153.982E-03       -156.523E-03          2.54076E-03      155.35E-03        -157.671E-03          2.3209E-03 
              350.E-03           155.196E-03       -157.615E-03          2.41892E-03      156.57E-03        -158.767E-03          2.19737E-03
              352.5E-03          156.41E-03        -158.707E-03          2.29709E-03      157.79E-03        -159.864E-03          2.07383E-03
              355.E-03           157.624E-03       -159.799E-03          2.17527E-03      159.01E-03        -160.96E-03           1.95029E-03
              357.5E-03          158.838E-03       -160.891E-03          2.05345E-03      160.23E-03        -162.056E-03          1.82674E-03
              360.E-03           160.052E-03       -161.983E-03          1.93164E-03      161.449E-03       -163.153E-03          1.70318E-03
              362.5E-03          161.266E-03       -163.076E-03          1.80983E-03      162.669E-03       -164.249E-03          1.57961E-03
              365.E-03           162.48E-03        -164.168E-03          1.68802E-03      163.89E-03        -165.346E-03          1.45604E-03
              367.5E-03          163.694E-03       -165.26E-03           1.56623E-03      165.11E-03        -166.442E-03          1.33247E-03
              370.E-03           164.908E-03       -166.352E-03          1.44444E-03      166.33E-03        -167.539E-03          1.20889E-03
              372.5E-03          166.121E-03       -167.444E-03          1.32265E-03      167.55E-03        -168.635E-03          1.0853E-03 
              375.E-03           167.335E-03       -168.536E-03          1.20087E-03      168.77E-03        -169.732E-03        961.701E-06  
              377.5E-03          168.549E-03       -169.628E-03          1.07909E-03      169.991E-03       -170.829E-03        838.1E-06    
              380.E-03           169.763E-03       -170.721E-03        957.323E-06        171.211E-03       -171.926E-03        714.492E-06  
              382.5E-03          170.977E-03       -171.813E-03        835.558E-06        172.432E-03       -173.022E-03        590.879E-06  
              385.E-03           172.191E-03       -172.905E-03        713.799E-06        173.652E-03       -174.119E-03        467.259E-06  
              387.5E-03          173.405E-03       -173.997E-03        592.045E-06        174.873E-03       -175.216E-03        343.633E-06  
              390.E-03           174.619E-03       -175.089E-03        470.296E-06        176.093E-03       -176.313E-03        220.001E-06  
              392.5E-03          175.833E-03       -176.181E-03        348.553E-06        177.314E-03       -177.41E-03          96.3634E-06 
              395.E-03           177.047E-03       -177.273E-03        226.815E-06        178.535E-03       -178.507E-03        -27.2807E-06 
              397.5E-03          178.261E-03       -178.366E-03        105.082E-06        179.755E-03       -179.605E-03       -150.931E-06  
              400.E-03           179.474E-03       -179.458E-03        -16.6462E-06       180.976E-03       -180.702E-03       -274.587E-06  
              402.5E-03          180.688E-03       -180.55E-03        -138.369E-06        182.197E-03       -181.799E-03       -398.249E-06  
              405.E-03           181.902E-03       -181.642E-03       -260.087E-06        183.418E-03       -182.896E-03       -521.917E-06  
              407.5E-03          183.116E-03       -182.734E-03       -381.799E-06        184.639E-03       -183.993E-03       -645.592E-06  
              410.E-03           184.33E-03        -183.827E-03       -503.507E-06        185.86E-03        -185.091E-03       -769.272E-06  
              412.5E-03          185.544E-03       -184.919E-03       -625.209E-06        187.081E-03       -186.188E-03       -892.958E-06  
              415.E-03           186.758E-03       -186.011E-03       -746.907E-06        188.302E-03       -187.286E-03         -1.01665E-03
              417.5E-03          187.972E-03       -187.103E-03       -868.599E-06        189.523E-03       -188.383E-03         -1.14035E-03
              420.E-03           189.186E-03       -188.195E-03       -990.287E-06        190.745E-03       -189.481E-03         -1.26405E-03
              422.5E-03          190.4E-03         -189.288E-03         -1.11197E-03      191.966E-03       -190.578E-03         -1.38776E-03
              425.E-03           191.613E-03       -190.38E-03          -1.23365E-03      193.187E-03       -191.676E-03         -1.51148E-03
              427.5E-03          192.827E-03       -191.472E-03         -1.35532E-03      194.409E-03       -192.773E-03         -1.6352E-03 
              430.E-03           194.041E-03       -192.564E-03         -1.47699E-03      195.63E-03        -193.871E-03         -1.75893E-03
              432.5E-03          195.255E-03       -193.656E-03         -1.59865E-03      196.851E-03       -194.969E-03         -1.88266E-03
              435.E-03           196.469E-03       -194.749E-03         -1.72031E-03      198.073E-03       -196.066E-03         -2.0064E-03 
              437.5E-03          197.683E-03       -195.841E-03         -1.84196E-03      199.294E-03       -197.164E-03         -2.13015E-03
              440.E-03           198.897E-03       -196.933E-03         -1.96361E-03      200.516E-03       -198.262E-03         -2.2539E-03 
              442.5E-03          200.111E-03       -198.025E-03         -2.08526E-03      201.738E-03       -199.36E-03          -2.37766E-03
              445.E-03           201.325E-03       -199.118E-03         -2.20689E-03      202.959E-03       -200.458E-03         -2.50142E-03
              447.5E-03          202.538E-03       -200.21E-03          -2.32853E-03      204.181E-03       -201.556E-03         -2.62519E-03
              450.E-03           203.752E-03       -201.302E-03         -2.45016E-03      205.403E-03       -202.654E-03         -2.74897E-03
              452.5E-03          204.966E-03       -202.394E-03         -2.57178E-03      206.625E-03       -203.752E-03         -2.87275E-03
              455.E-03           206.18E-03        -203.487E-03         -2.6934E-03       207.847E-03       -204.85E-03          -2.99654E-03
              457.5E-03          207.394E-03       -204.579E-03         -2.81502E-03      209.068E-03       -205.948E-03         -3.12033E-03
              460.E-03           208.608E-03       -205.671E-03         -2.93663E-03      210.29E-03        -207.046E-03         -3.24413E-03
              462.5E-03          209.822E-03       -206.763E-03         -3.05824E-03      211.512E-03       -208.144E-03         -3.36794E-03
              465.E-03           211.035E-03       -207.856E-03         -3.17984E-03      212.734E-03       -209.243E-03         -3.49175E-03
              467.5E-03          212.249E-03       -208.948E-03         -3.30144E-03      213.956E-03       -210.341E-03         -3.61557E-03
              470.E-03           213.463E-03       -210.04E-03          -3.42303E-03      215.179E-03       -211.439E-03         -3.73939E-03
              472.5E-03          214.677E-03       -211.132E-03         -3.54462E-03      216.401E-03       -212.538E-03         -3.86322E-03
              475.E-03           215.891E-03       -212.225E-03         -3.6662E-03       217.623E-03       -213.636E-03         -3.98705E-03
              477.5E-03          217.105E-03       -213.317E-03         -3.78778E-03      218.845E-03       -214.734E-03         -4.1109E-03 
              480.E-03           218.318E-03       -214.409E-03         -3.90936E-03      220.067E-03       -215.833E-03         -4.23474E-03
              482.5E-03          219.532E-03       -215.501E-03         -4.03093E-03      221.29E-03        -216.931E-03         -4.35859E-03
              485.E-03           220.746E-03       -216.594E-03         -4.15249E-03      222.512E-03       -218.03E-03          -4.48245E-03
              487.5E-03          221.96E-03        -217.686E-03         -4.27405E-03      223.735E-03       -219.128E-03         -4.60632E-03
              490.E-03           223.174E-03       -218.778E-03         -4.39561E-03      224.957E-03       -220.227E-03         -4.73019E-03
              492.5E-03          224.388E-03       -219.87E-03          -4.51716E-03      226.18E-03        -221.325E-03         -4.85406E-03
              495.E-03           225.601E-03       -220.963E-03         -4.63871E-03      227.402E-03       -222.424E-03         -4.97795E-03
              497.5E-03          226.815E-03       -222.055E-03         -4.76026E-03      228.625E-03       -223.523E-03         -5.10183E-03
              500.E-03           228.029E-03       -223.147E-03         -4.8818E-03       229.847E-03       -224.622E-03         -5.22573E-03
              502.5E-03          229.243E-03       -224.239E-03         -5.00333E-03      231.07E-03        -225.72E-03          -5.34963E-03
              505.E-03           230.457E-03       -225.332E-03         -5.12486E-03      232.293E-03       -226.819E-03         -5.47353E-03
              507.5E-03          231.67E-03        -226.424E-03         -5.24639E-03      233.515E-03       -227.918E-03         -5.59744E-03
              510.E-03           232.884E-03       -227.516E-03         -5.36791E-03      234.738E-03       -229.017E-03         -5.72136E-03
              512.5E-03          234.098E-03       -228.609E-03         -5.48943E-03      235.961E-03       -230.116E-03         -5.84528E-03
              515.E-03           235.312E-03       -229.701E-03         -5.61094E-03      237.184E-03       -231.215E-03         -5.96921E-03
              517.5E-03          236.526E-03       -230.793E-03         -5.73245E-03      238.407E-03       -232.314E-03         -6.09315E-03
              520.E-03           237.739E-03       -231.885E-03         -5.85396E-03      239.63E-03        -233.413E-03         -6.21709E-03
              522.5E-03          238.953E-03       -232.978E-03         -5.97546E-03      240.853E-03       -234.512E-03         -6.34103E-03
              525.E-03           240.167E-03       -234.07E-03          -6.09696E-03      242.076E-03       -235.611E-03         -6.46498E-03
              527.5E-03          241.381E-03       -235.162E-03         -6.21845E-03      243.299E-03       -236.71E-03          -6.58894E-03
              530.E-03           242.594E-03       -236.254E-03         -6.33994E-03      244.522E-03       -237.809E-03         -6.7129E-03 
              532.5E-03          243.808E-03       -237.347E-03         -6.46142E-03      245.745E-03       -238.908E-03         -6.83687E-03
              535.E-03           245.022E-03       -238.439E-03         -6.5829E-03       246.968E-03       -240.007E-03         -6.96085E-03
              537.5E-03          246.236E-03       -239.531E-03         -6.70438E-03      248.191E-03       -241.106E-03         -7.08483E-03
              540.E-03           247.449E-03       -240.624E-03         -6.82585E-03      249.414E-03       -242.206E-03         -7.20881E-03
              542.5E-03          248.663E-03       -241.716E-03         -6.94732E-03      250.638E-03       -243.305E-03         -7.33281E-03
              545.E-03           249.877E-03       -242.808E-03         -7.06878E-03      251.861E-03       -244.404E-03         -7.4568E-03 
              547.5E-03          251.091E-03       -243.9E-03           -7.19025E-03      253.084E-03       -245.503E-03         -7.58081E-03
              550.E-03           252.304E-03       -244.993E-03         -7.3117E-03       254.308E-03       -246.603E-03         -7.70482E-03
              552.5E-03          253.518E-03       -246.085E-03         -7.43315E-03      255.531E-03       -247.702E-03         -7.82883E-03
              555.E-03           254.732E-03       -247.177E-03         -7.5546E-03       256.755E-03       -248.802E-03         -7.95285E-03
              557.5E-03          255.946E-03       -248.27E-03          -7.67605E-03      257.978E-03       -249.901E-03         -8.07688E-03
              560.E-03           257.159E-03       -249.362E-03         -7.79749E-03      259.202E-03       -251.001E-03         -8.20091E-03
              562.5E-03          258.373E-03       -250.454E-03         -7.91892E-03      260.425E-03       -252.1E-03           -8.32495E-03
              565.E-03           259.587E-03       -251.546E-03         -8.04036E-03      261.649E-03       -253.2E-03           -8.44899E-03
              567.5E-03          260.8E-03         -252.639E-03         -8.16179E-03      262.872E-03       -254.299E-03         -8.57304E-03
              570.E-03           262.014E-03       -253.731E-03         -8.28321E-03      264.096E-03       -255.399E-03         -8.69709E-03
              572.5E-03          263.228E-03       -254.823E-03         -8.40463E-03      265.32E-03        -256.499E-03         -8.82115E-03
              575.E-03           264.441E-03       -255.915E-03         -8.52605E-03      266.543E-03       -257.598E-03         -8.94522E-03
              577.5E-03          265.655E-03       -257.008E-03         -8.64746E-03      267.767E-03       -258.698E-03         -9.06929E-03
              580.E-03           266.869E-03       -258.1E-03           -8.76887E-03      268.991E-03       -259.798E-03         -9.19336E-03
              582.5E-03          268.083E-03       -259.192E-03         -8.89028E-03      270.215E-03       -260.897E-03         -9.31744E-03
              585.E-03           269.296E-03       -260.285E-03         -9.01168E-03      271.439E-03       -261.997E-03         -9.44153E-03
              587.5E-03          270.51E-03        -261.377E-03         -9.13308E-03      272.663E-03       -263.097E-03         -9.56562E-03
              590.E-03           271.724E-03       -262.469E-03         -9.25447E-03      273.887E-03       -264.197E-03         -9.68972E-03
              592.5E-03          272.937E-03       -263.561E-03         -9.37586E-03      275.11E-03        -265.297E-03         -9.81383E-03
              595.E-03           274.151E-03       -264.654E-03         -9.49725E-03      276.335E-03       -266.397E-03         -9.93793E-03
              597.5E-03          275.365E-03       -265.746E-03         -9.61863E-03      277.559E-03       -267.496E-03        -10.062E-03  
              600.E-03           276.578E-03       -266.838E-03         -9.74001E-03      278.783E-03       -268.596E-03        -10.1862E-03 
              602.5E-03          277.792E-03       -267.93E-03          -9.86139E-03      280.007E-03       -269.696E-03        -10.3103E-03 
              605.E-03           279.005E-03       -269.023E-03         -9.98276E-03      281.231E-03       -270.796E-03        -10.4344E-03 
              607.5E-03          280.219E-03       -270.115E-03        -10.1041E-03       282.455E-03       -271.896E-03        -10.5586E-03 
              610.E-03           281.433E-03       -271.207E-03        -10.2255E-03       283.679E-03       -272.996E-03        -10.6827E-03 
              612.5E-03          282.646E-03       -272.299E-03        -10.3469E-03       284.903E-03       -274.097E-03        -10.8068E-03 
              615.E-03           283.86E-03        -273.392E-03        -10.4682E-03       286.128E-03       -275.197E-03        -10.931E-03  
              617.5E-03          285.074E-03       -274.484E-03        -10.5896E-03       287.352E-03       -276.297E-03        -11.0552E-03 
              620.E-03           286.287E-03       -275.576E-03        -10.7109E-03       288.576E-03       -277.397E-03        -11.1793E-03 
              622.5E-03          287.501E-03       -276.669E-03        -10.8323E-03       289.801E-03       -278.497E-03        -11.3035E-03 
              625.E-03           288.714E-03       -277.761E-03        -10.9536E-03       291.025E-03       -279.597E-03        -11.4277E-03 
              627.5E-03          289.928E-03       -278.853E-03        -11.075E-03        292.249E-03       -280.698E-03        -11.5518E-03 
              630.E-03           291.142E-03       -279.945E-03        -11.1963E-03       293.474E-03       -281.798E-03        -11.676E-03  
              632.5E-03          292.355E-03       -281.038E-03        -11.3176E-03       294.698E-03       -282.898E-03        -11.8002E-03 
              635.E-03           293.569E-03       -282.13E-03         -11.439E-03        295.923E-03       -283.998E-03        -11.9244E-03 
              637.5E-03          294.782E-03       -283.222E-03        -11.5603E-03       297.147E-03       -285.099E-03        -12.0486E-03 
              640.E-03           295.996E-03       -284.314E-03        -11.6816E-03       298.372E-03       -286.199E-03        -12.1728E-03 
              642.5E-03          297.21E-03        -285.407E-03        -11.8029E-03       299.597E-03       -287.3E-03          -12.297E-03  
              645.E-03           298.423E-03       -286.499E-03        -11.9242E-03       300.821E-03       -288.4E-03          -12.4212E-03 
              647.5E-03          299.637E-03       -287.591E-03        -12.0456E-03       302.046E-03       -289.5E-03          -12.5454E-03 
              650.E-03           300.85E-03        -288.683E-03        -12.1669E-03       303.271E-03       -290.601E-03        -12.6697E-03 
              652.5E-03          302.064E-03       -289.776E-03        -12.2882E-03       304.495E-03       -291.701E-03        -12.7939E-03 
              655.E-03           303.277E-03       -290.868E-03        -12.4095E-03       305.72E-03        -292.802E-03        -12.9181E-03 
              657.5E-03          304.491E-03       -291.96E-03         -12.5308E-03       306.945E-03       -293.902E-03        -13.0424E-03 
              660.E-03           305.705E-03       -293.052E-03        -12.6521E-03       308.17E-03        -295.003E-03        -13.1666E-03 
              662.5E-03          306.918E-03       -294.145E-03        -12.7734E-03       309.394E-03       -296.104E-03        -13.2909E-03 
              665.E-03           308.132E-03       -295.237E-03        -12.8947E-03       310.619E-03       -297.204E-03        -13.4151E-03 
              667.5E-03          309.345E-03       -296.329E-03        -13.0159E-03       311.844E-03       -298.305E-03        -13.5394E-03 
              670.E-03           310.559E-03       -297.422E-03        -13.1372E-03       313.069E-03       -299.406E-03        -13.6636E-03 
              672.5E-03          311.772E-03       -298.514E-03        -13.2585E-03       314.294E-03       -300.506E-03        -13.7879E-03 
              675.E-03           312.986E-03       -299.606E-03        -13.3798E-03       315.519E-03       -301.607E-03        -13.9122E-03 
              677.5E-03          314.199E-03       -300.698E-03        -13.5011E-03       316.744E-03       -302.708E-03        -14.0365E-03 
              680.E-03           315.413E-03       -301.79E-03         -13.6223E-03       317.969E-03       -303.808E-03        -14.1607E-03 
              682.5E-03          316.626E-03       -302.883E-03        -13.7436E-03       319.194E-03       -304.909E-03        -14.285E-03  
              685.E-03           317.84E-03        -303.975E-03        -13.8649E-03       320.419E-03       -306.01E-03         -14.4093E-03 
              687.5E-03          319.053E-03       -305.067E-03        -13.9861E-03       321.644E-03       -307.111E-03        -14.5336E-03 
              690.E-03           320.267E-03       -306.159E-03        -14.1074E-03       322.87E-03        -308.212E-03        -14.6579E-03 
              692.5E-03          321.48E-03        -307.252E-03        -14.2286E-03       324.095E-03       -309.313E-03        -14.7822E-03 
              695.E-03           322.694E-03       -308.344E-03        -14.3499E-03       325.32E-03        -310.413E-03        -14.9065E-03 
              697.5E-03          323.907E-03       -309.436E-03        -14.4711E-03       326.545E-03       -311.514E-03        -15.0309E-03 
              700.E-03           325.121E-03       -310.528E-03        -14.5924E-03       327.77E-03        -312.615E-03        -15.1552E-03 
              702.5E-03          326.334E-03       -311.621E-03        -14.7136E-03       328.996E-03       -313.716E-03        -15.2795E-03 
              705.E-03           327.548E-03       -312.713E-03        -14.8349E-03       330.221E-03       -314.817E-03        -15.4038E-03 
              707.5E-03          328.761E-03       -313.805E-03        -14.9561E-03       331.446E-03       -315.918E-03        -15.5282E-03 
              710.E-03           329.975E-03       -314.897E-03        -15.0773E-03       332.672E-03       -317.019E-03        -15.6525E-03 
              712.5E-03          331.188E-03       -315.99E-03         -15.1986E-03       333.897E-03       -318.12E-03         -15.7768E-03 
              715.E-03           332.402E-03       -317.082E-03        -15.3198E-03       335.122E-03       -319.221E-03        -15.9012E-03 
              717.5E-03          333.615E-03       -318.174E-03        -15.441E-03        336.348E-03       -320.322E-03        -16.0255E-03 
              720.E-03           334.829E-03       -319.266E-03        -15.5623E-03       337.573E-03       -321.423E-03        -16.1499E-03 
              722.5E-03          336.042E-03       -320.359E-03        -15.6835E-03       338.799E-03       -322.525E-03        -16.2743E-03 
              725.E-03           337.256E-03       -321.451E-03        -15.8047E-03       340.024E-03       -323.626E-03        -16.3986E-03 
              727.5E-03          338.469E-03       -322.543E-03        -15.9259E-03       341.25E-03        -324.727E-03        -16.523E-03  
              730.E-03           339.682E-03       -323.635E-03        -16.0471E-03       342.475E-03       -325.828E-03        -16.6474E-03 
              732.5E-03          340.896E-03       -324.728E-03        -16.1683E-03       343.701E-03       -326.929E-03        -16.7717E-03 
              735.E-03           342.109E-03       -325.82E-03         -16.2895E-03       344.927E-03       -328.03E-03         -16.8961E-03 
              737.5E-03          343.323E-03       -326.912E-03        -16.4108E-03       346.152E-03       -329.132E-03        -17.0205E-03 
              740.E-03           344.536E-03       -328.004E-03        -16.532E-03        347.378E-03       -330.233E-03        -17.1449E-03 
              742.5E-03          345.75E-03        -329.096E-03        -16.6532E-03       348.604E-03       -331.334E-03        -17.2693E-03 
              745.E-03           346.963E-03       -330.189E-03        -16.7744E-03       349.829E-03       -332.436E-03        -17.3937E-03 
              747.5E-03          348.176E-03       -331.281E-03        -16.8955E-03       351.055E-03       -333.537E-03        -17.5181E-03 
              750.E-03           349.39E-03        -332.373E-03        -17.0167E-03       352.281E-03       -334.638E-03        -17.6425E-03 
              752.5E-03          350.603E-03       -333.465E-03        -17.1379E-03       353.507E-03       -335.74E-03         -17.7669E-03 
              755.E-03           351.817E-03       -334.558E-03        -17.2591E-03       354.732E-03       -336.841E-03        -17.8913E-03 
              757.5E-03          353.03E-03        -335.65E-03         -17.3803E-03       355.958E-03       -337.942E-03        -18.0157E-03 
              760.E-03           354.244E-03       -336.742E-03        -17.5015E-03       357.184E-03       -339.044E-03        -18.1401E-03 
              762.5E-03          355.457E-03       -337.834E-03        -17.6227E-03       358.41E-03        -340.145E-03        -18.2646E-03 
              765.E-03           356.67E-03        -338.927E-03        -17.7438E-03       359.636E-03       -341.247E-03        -18.389E-03  
              767.5E-03          357.884E-03       -340.019E-03        -17.865E-03        360.862E-03       -342.348E-03        -18.5134E-03 
              770.E-03           359.097E-03       -341.111E-03        -17.9862E-03       362.088E-03       -343.45E-03         -18.6379E-03 
              772.5E-03          360.311E-03       -342.203E-03        -18.1074E-03       363.313E-03       -344.551E-03        -18.7623E-03 
              775.E-03           361.524E-03       -343.295E-03        -18.2285E-03       364.539E-03       -345.653E-03        -18.8867E-03 
              777.5E-03          362.737E-03       -344.388E-03        -18.3497E-03       365.765E-03       -346.754E-03        -19.0112E-03 
              780.E-03           363.951E-03       -345.48E-03         -18.4708E-03       366.991E-03       -347.856E-03        -19.1356E-03 
              782.5E-03          365.164E-03       -346.572E-03        -18.592E-03        368.217E-03       -348.957E-03        -19.2601E-03 
              785.E-03           366.377E-03       -347.664E-03        -18.7132E-03       369.444E-03       -350.059E-03        -19.3845E-03 
              787.5E-03          367.591E-03       -348.757E-03        -18.8343E-03       370.67E-03        -351.161E-03        -19.509E-03  
              790.E-03           368.804E-03       -349.849E-03        -18.9555E-03       371.896E-03       -352.262E-03        -19.6335E-03 
              792.5E-03          370.018E-03       -350.941E-03        -19.0766E-03       373.122E-03       -353.364E-03        -19.7579E-03 
              795.E-03           371.231E-03       -352.033E-03        -19.1978E-03       374.348E-03       -354.466E-03        -19.8824E-03 
              797.5E-03          372.444E-03       -353.125E-03        -19.3189E-03       375.574E-03       -355.567E-03        -20.0069E-03 
              800.E-03           373.658E-03       -354.218E-03        -19.4401E-03       376.8E-03         -356.669E-03        -20.1314E-03 
              802.5E-03          374.871E-03       -355.31E-03         -19.5612E-03       378.027E-03       -357.771E-03        -20.2558E-03 
              805.E-03           376.084E-03       -356.402E-03        -19.6824E-03       379.253E-03       -358.872E-03        -20.3803E-03 
              807.5E-03          377.298E-03       -357.494E-03        -19.8035E-03       380.479E-03       -359.974E-03        -20.5048E-03 
              810.E-03           378.511E-03       -358.586E-03        -19.9246E-03       381.705E-03       -361.076E-03        -20.6293E-03 
              812.5E-03          379.724E-03       -359.679E-03        -20.0458E-03       382.932E-03       -362.178E-03        -20.7538E-03 
              815.E-03           380.938E-03       -360.771E-03        -20.1669E-03       384.158E-03       -363.28E-03         -20.8783E-03 
              817.5E-03          382.151E-03       -361.863E-03        -20.288E-03        385.384E-03       -364.381E-03        -21.0028E-03 
              820.E-03           383.364E-03       -362.955E-03        -20.4091E-03       386.611E-03       -365.483E-03        -21.1273E-03 
              822.5E-03          384.578E-03       -364.048E-03        -20.5303E-03       387.837E-03       -366.585E-03        -21.2518E-03 
              825.E-03           385.791E-03       -365.14E-03         -20.6514E-03       389.063E-03       -367.687E-03        -21.3763E-03 
              827.5E-03          387.004E-03       -366.232E-03        -20.7725E-03       390.29E-03        -368.789E-03        -21.5008E-03 
              830.E-03           388.218E-03       -367.324E-03        -20.8936E-03       391.516E-03       -369.891E-03        -21.6253E-03 
              832.5E-03          389.431E-03       -368.416E-03        -21.0148E-03       392.742E-03       -370.993E-03        -21.7498E-03 
              835.E-03           390.644E-03       -369.509E-03        -21.1359E-03       393.969E-03       -372.095E-03        -21.8744E-03 
              837.5E-03          391.858E-03       -370.601E-03        -21.257E-03        395.195E-03       -373.197E-03        -21.9989E-03 
              840.E-03           393.071E-03       -371.693E-03        -21.3781E-03       396.422E-03       -374.298E-03        -22.1234E-03 
              842.5E-03          394.284E-03       -372.785E-03        -21.4992E-03       397.648E-03       -375.4E-03          -22.2479E-03 
              845.E-03           395.498E-03       -373.877E-03        -21.6203E-03       398.875E-03       -376.502E-03        -22.3725E-03 
              847.5E-03          396.711E-03       -374.97E-03         -21.7414E-03       400.101E-03       -377.604E-03        -22.497E-03  
              850.E-03           397.924E-03       -376.062E-03        -21.8625E-03       401.328E-03       -378.706E-03        -22.6215E-03 
              852.5E-03          399.138E-03       -377.154E-03        -21.9836E-03       402.555E-03       -379.809E-03        -22.7461E-03 
              855.E-03           400.351E-03       -378.246E-03        -22.1047E-03       403.781E-03       -380.911E-03        -22.8706E-03 
              857.5E-03          401.564E-03       -379.339E-03        -22.2258E-03       405.008E-03       -382.013E-03        -22.9952E-03 
              860.E-03           402.778E-03       -380.431E-03        -22.3469E-03       406.234E-03       -383.115E-03        -23.1197E-03 
              862.5E-03          403.991E-03       -381.523E-03        -22.468E-03        407.461E-03       -384.217E-03        -23.2442E-03 
              865.E-03           405.204E-03       -382.615E-03        -22.5891E-03       408.688E-03       -385.319E-03        -23.3688E-03 
              867.5E-03          406.418E-03       -383.707E-03        -22.7102E-03       409.914E-03       -386.421E-03        -23.4933E-03 
              870.E-03           407.631E-03       -384.8E-03          -22.8313E-03       411.141E-03       -387.523E-03        -23.6179E-03 
              872.5E-03          408.844E-03       -385.892E-03        -22.9524E-03       412.368E-03       -388.625E-03        -23.7425E-03 
              875.E-03           410.057E-03       -386.984E-03        -23.0735E-03       413.594E-03       -389.727E-03        -23.867E-03  
              877.5E-03          411.271E-03       -388.076E-03        -23.1946E-03       414.821E-03       -390.83E-03         -23.9916E-03 
              880.E-03           412.484E-03       -389.168E-03        -23.3157E-03       416.048E-03       -391.932E-03        -24.1161E-03 
              882.5E-03          413.697E-03       -390.261E-03        -23.4367E-03       417.275E-03       -393.034E-03        -24.2407E-03 
              885.E-03           414.911E-03       -391.353E-03        -23.5578E-03       418.502E-03       -394.136E-03        -24.3653E-03 
              887.5E-03          416.124E-03       -392.445E-03        -23.6789E-03       419.728E-03       -395.238E-03        -24.4898E-03 
              890.E-03           417.337E-03       -393.537E-03        -23.8E-03          420.955E-03       -396.341E-03        -24.6144E-03 
              892.5E-03          418.55E-03        -394.629E-03        -23.9211E-03       422.182E-03       -397.443E-03        -24.739E-03  
              895.E-03           419.764E-03       -395.722E-03        -24.0421E-03       423.409E-03       -398.545E-03        -24.8636E-03 
              897.5E-03          420.977E-03       -396.814E-03        -24.1632E-03       424.636E-03       -399.648E-03        -24.9881E-03 
              900.E-03           422.19E-03        -397.906E-03        -24.2843E-03       425.863E-03       -400.75E-03         -25.1127E-03 
              902.5E-03          423.404E-03       -398.998E-03        -24.4054E-03       427.089E-03       -401.852E-03        -25.2373E-03 
              905.E-03           424.617E-03       -400.09E-03         -24.5264E-03       428.316E-03       -402.954E-03        -25.3619E-03 
              907.5E-03          425.83E-03        -401.183E-03        -24.6475E-03       429.543E-03       -404.057E-03        -25.4865E-03 
              910.E-03           427.043E-03       -402.275E-03        -24.7686E-03       430.77E-03        -405.159E-03        -25.6111E-03 
              912.5E-03          428.257E-03       -403.367E-03        -24.8896E-03       431.997E-03       -406.261E-03        -25.7357E-03 
              915.E-03           429.47E-03        -404.459E-03        -25.0107E-03       433.224E-03       -407.364E-03        -25.8602E-03 
              917.5E-03          430.683E-03       -405.552E-03        -25.1318E-03       434.451E-03       -408.466E-03        -25.9848E-03 
              920.E-03           431.897E-03       -406.644E-03        -25.2528E-03       435.678E-03       -409.569E-03        -26.1094E-03 
              922.5E-03          433.11E-03        -407.736E-03        -25.3739E-03       436.905E-03       -410.671E-03        -26.234E-03  
              925.E-03           434.323E-03       -408.828E-03        -25.4949E-03       438.132E-03       -411.773E-03        -26.3586E-03 
              927.5E-03          435.536E-03       -409.92E-03         -25.616E-03        439.359E-03       -412.876E-03        -26.4832E-03 
              930.E-03           436.75E-03        -411.013E-03        -25.7371E-03       440.586E-03       -413.978E-03        -26.6078E-03 
              932.5E-03          437.963E-03       -412.105E-03        -25.8581E-03       441.813E-03       -415.081E-03        -26.7324E-03 
              935.E-03           439.176E-03       -413.197E-03        -25.9792E-03       443.04E-03        -416.183E-03        -26.857E-03  
              937.5E-03          440.389E-03       -414.289E-03        -26.1002E-03       444.267E-03       -417.286E-03        -26.9816E-03 
              940.E-03           441.603E-03       -415.381E-03        -26.2213E-03       445.494E-03       -418.388E-03        -27.1062E-03 
              942.5E-03          442.816E-03       -416.474E-03        -26.3423E-03       446.721E-03       -419.491E-03        -27.2308E-03 
              945.E-03           444.029E-03       -417.566E-03        -26.4634E-03       447.949E-03       -420.593E-03        -27.3554E-03 
              947.5E-03          445.242E-03       -418.658E-03        -26.5844E-03       449.176E-03       -421.696E-03        -27.48E-03   
              950.E-03           446.456E-03       -419.75E-03         -26.7055E-03       450.403E-03       -422.798E-03        -27.6046E-03 
              952.5E-03          447.669E-03       -420.842E-03        -26.8265E-03       451.63E-03        -423.901E-03        -27.7293E-03 
              955.E-03           448.882E-03       -421.935E-03        -26.9476E-03       452.857E-03       -425.003E-03        -27.8539E-03 
              957.5E-03          450.096E-03       -423.027E-03        -27.0686E-03       454.084E-03       -426.106E-03        -27.9785E-03 
              960.E-03           451.309E-03       -424.119E-03        -27.1897E-03       455.311E-03       -427.208E-03        -28.1031E-03 
              962.5E-03          452.522E-03       -425.211E-03        -27.3107E-03       456.539E-03       -428.311E-03        -28.2277E-03 
              965.E-03           453.735E-03       -426.304E-03        -27.4318E-03       457.766E-03       -429.414E-03        -28.3523E-03 
              967.5E-03          454.949E-03       -427.396E-03        -27.5528E-03       458.993E-03       -430.516E-03        -28.4769E-03 
              970.E-03           456.162E-03       -428.488E-03        -27.6738E-03       460.22E-03        -431.619E-03        -28.6015E-03 
              972.5E-03          457.375E-03       -429.58E-03         -27.7949E-03       461.448E-03       -432.721E-03        -28.7262E-03 
              975.E-03           458.588E-03       -430.672E-03        -27.9159E-03       462.675E-03       -433.824E-03        -28.8508E-03 
              977.5E-03          459.802E-03       -431.765E-03        -28.037E-03        463.902E-03       -434.927E-03        -28.9754E-03 
              980.E-03           461.015E-03       -432.857E-03        -28.158E-03        465.129E-03       -436.029E-03        -29.1E-03    
              982.5E-03          462.228E-03       -433.949E-03        -28.2791E-03       466.357E-03       -437.132E-03        -29.2246E-03 
              985.E-03           463.441E-03       -435.041E-03        -28.4001E-03       467.584E-03       -438.235E-03        -29.3493E-03 
              987.5E-03          464.655E-03       -436.134E-03        -28.5211E-03       468.811E-03       -439.337E-03        -29.4739E-03 
              990.E-03           465.868E-03       -437.226E-03        -28.6422E-03       470.039E-03       -440.44E-03         -29.5985E-03 
              992.5E-03          467.081E-03       -438.318E-03        -28.7632E-03       471.266E-03       -441.543E-03        -29.7231E-03 
              995.E-03           468.294E-03       -439.41E-03         -28.8842E-03       472.493E-03       -442.645E-03        -29.8477E-03 
              997.5E-03          469.508E-03       -440.503E-03        -29.0053E-03       473.72E-03        -443.748E-03        -29.9724E-03 
                1.               470.721E-03       -441.595E-03        -29.1263E-03       474.948E-03       -444.851E-03        -30.097E-03  




