
                  X                 Dinn               Dout      

                0.                 0.                 0.         
                2.5E-03            0.                 0.         
                5.E-03             1.40758E-03        1.27618E-03
                7.5E-03            2.84087E-03        2.66866E-03
               10.E-03             4.25552E-03        4.05228E-03
               12.5E-03            5.66026E-03        5.43353E-03
               15.E-03             7.05905E-03        6.81495E-03
               17.5E-03            8.4538E-03         8.19745E-03
               20.E-03             9.84558E-03        9.58128E-03
               22.5E-03           11.235E-03         10.9665E-03 
               25.E-03            12.6226E-03        12.3529E-03 
               27.5E-03           14.0087E-03        13.7405E-03 
               30.E-03            15.3935E-03        15.1292E-03 
               32.5E-03           16.7771E-03        16.5188E-03 
               35.E-03            18.1599E-03        17.9092E-03 
               37.5E-03           19.5419E-03        19.3005E-03 
               40.E-03            20.9232E-03        20.6924E-03 
               42.5E-03           22.304E-03         22.085E-03  
               45.E-03            23.6843E-03        23.4783E-03 
               47.5E-03           25.0643E-03        24.872E-03  
               50.E-03            26.4438E-03        26.2663E-03 
               52.5E-03           27.8231E-03        27.661E-03  
               55.E-03            29.2022E-03        29.0562E-03 
               57.5E-03           30.5811E-03        30.4518E-03 
               60.E-03            31.9598E-03        31.8478E-03 
               62.5E-03           33.3384E-03        33.2442E-03 
               65.E-03            34.7169E-03        34.6409E-03 
               67.5E-03           36.0953E-03        36.0379E-03 
               70.E-03            37.4737E-03        37.4352E-03 
               72.5E-03           38.852E-03         38.8327E-03 
               75.E-03            40.2303E-03        40.2306E-03 
               77.5E-03           41.6086E-03        41.6287E-03 
               80.E-03            42.987E-03         43.027E-03  
               82.5E-03           44.3653E-03        44.4256E-03 
               85.E-03            45.7437E-03        45.8244E-03 
               87.5E-03           47.1222E-03        47.2234E-03 
               90.E-03            48.5007E-03        48.6225E-03 
               92.5E-03           49.8792E-03        50.0219E-03 
               95.E-03            51.2579E-03        51.4215E-03 
               97.5E-03           52.6366E-03        52.8212E-03 
              100.E-03            54.0154E-03        54.221E-03  
              102.5E-03           55.142E-03         55.3648E-03 
              105.E-03            56.5581E-03        56.6723E-03 
              107.5E-03           58.0351E-03        57.8009E-03 
              110.E-03            59.1474E-03        58.9376E-03 
              112.5E-03           60.1689E-03        59.9367E-03 
              115.E-03            61.0915E-03        60.8562E-03 
              117.5E-03           61.9601E-03        61.7202E-03 
              120.E-03            62.7932E-03        62.5499E-03 
              122.5E-03           63.6043E-03        63.3579E-03 
              125.E-03            64.4017E-03        64.1525E-03 
              127.5E-03           65.1905E-03        64.9387E-03 
              130.E-03            65.9739E-03        65.7198E-03 
              132.5E-03           66.754E-03         66.4977E-03 
              135.E-03            67.532E-03         67.2737E-03 
              137.5E-03           68.3087E-03        68.0484E-03 
              140.E-03            69.0846E-03        68.8224E-03 
              142.5E-03           69.86E-03          69.5961E-03 
              145.E-03            70.6351E-03        70.3694E-03 
              147.5E-03           71.41E-03          71.1427E-03 
              150.E-03            72.1848E-03        71.916E-03  
              152.5E-03           72.9595E-03        72.6892E-03 
              155.E-03            73.7342E-03        73.4626E-03 
              157.5E-03           74.5089E-03        74.2359E-03 
              160.E-03            75.2836E-03        75.0092E-03 
              162.5E-03           76.0583E-03        75.7826E-03 
              165.E-03            76.8331E-03        76.5559E-03 
              167.5E-03           77.6078E-03        77.3293E-03 
              170.E-03            78.3826E-03        78.1027E-03 
              172.5E-03           79.1574E-03        78.876E-03  
              175.E-03            79.9323E-03        79.6495E-03 
              177.5E-03           80.7071E-03        80.4229E-03 
              180.E-03            81.482E-03         81.1963E-03 
              182.5E-03           82.257E-03         81.9697E-03 
              185.E-03            83.2197E-03        82.9232E-03 
              187.5E-03           84.6929E-03        84.3061E-03 
              190.E-03            86.4483E-03        85.9344E-03 
              192.5E-03           88.2223E-03        87.7195E-03 
              195.E-03            90.0327E-03        89.5273E-03 
              197.5E-03           91.8457E-03        91.3434E-03 
              200.E-03            93.6587E-03        93.1592E-03 
              202.5E-03           95.4705E-03        94.9735E-03 
              205.E-03            97.2813E-03        96.7865E-03 
              207.5E-03           99.0917E-03        98.5986E-03 
              210.E-03           100.902E-03        100.41E-03   
              212.5E-03          102.712E-03        102.221E-03  
              215.E-03           104.522E-03        104.032E-03  
              217.5E-03          106.333E-03        105.843E-03  
              220.E-03           108.144E-03        107.653E-03  
              222.5E-03          109.955E-03        109.464E-03  
              225.E-03           111.766E-03        111.274E-03  
              227.5E-03          113.578E-03        113.085E-03  
              230.E-03           115.39E-03         114.895E-03  
              232.5E-03          117.202E-03        116.705E-03  
              235.E-03           119.015E-03        118.515E-03  
              237.5E-03          120.828E-03        120.325E-03  
              240.E-03           122.641E-03        122.136E-03  
              242.5E-03          124.454E-03        123.946E-03  
              245.E-03           126.268E-03        125.756E-03  
              247.5E-03          128.082E-03        127.566E-03  
              250.E-03           129.896E-03        129.376E-03  
              252.5E-03          131.71E-03         131.186E-03  
              255.E-03           133.525E-03        132.995E-03  
              257.5E-03          135.34E-03         134.805E-03  
              260.E-03           137.155E-03        136.615E-03  
              262.5E-03          138.97E-03         138.425E-03  
              265.E-03           140.786E-03        140.235E-03  
              267.5E-03          142.601E-03        142.044E-03  
              270.E-03           144.417E-03        143.854E-03  
              272.5E-03          146.234E-03        145.664E-03  
              275.E-03           148.05E-03         147.473E-03  
              277.5E-03          149.867E-03        149.283E-03  
              280.E-03           151.684E-03        151.092E-03  
              282.5E-03          153.501E-03        152.902E-03  
              285.E-03           155.318E-03        154.711E-03  
              287.5E-03          157.135E-03        156.521E-03  
              290.E-03           158.953E-03        158.33E-03   
              292.5E-03          160.771E-03        160.14E-03   
              295.E-03           162.589E-03        161.949E-03  
              297.5E-03          164.407E-03        163.758E-03  
              300.E-03           166.226E-03        165.568E-03  
              302.5E-03          168.045E-03        167.377E-03  
              305.E-03           169.863E-03        169.186E-03  
              307.5E-03          171.683E-03        170.995E-03  
              310.E-03           173.502E-03        172.804E-03  
              312.5E-03          175.321E-03        174.613E-03  
              315.E-03           177.141E-03        176.422E-03  
              317.5E-03          178.961E-03        178.231E-03  
              320.E-03           180.781E-03        180.04E-03   
              322.5E-03          182.601E-03        181.849E-03  
              325.E-03           184.422E-03        183.658E-03  
              327.5E-03          186.242E-03        185.467E-03  
              330.E-03           188.063E-03        187.275E-03  
              332.5E-03          189.884E-03        189.084E-03  
              335.E-03           191.705E-03        190.893E-03  
              337.5E-03          193.527E-03        192.701E-03  
              340.E-03           195.348E-03        194.51E-03   
              342.5E-03          197.17E-03         196.318E-03  
              345.E-03           198.992E-03        198.127E-03  
              347.5E-03          200.814E-03        199.935E-03  
              350.E-03           202.637E-03        201.744E-03  
              352.5E-03          204.459E-03        203.552E-03  
              355.E-03           206.282E-03        205.36E-03   
              357.5E-03          208.105E-03        207.168E-03  
              360.E-03           209.928E-03        208.976E-03  
              362.5E-03          211.752E-03        210.784E-03  
              365.E-03           213.575E-03        212.592E-03  
              367.5E-03          215.399E-03        214.4E-03    
              370.E-03           217.223E-03        216.208E-03  
              372.5E-03          219.047E-03        218.016E-03  
              375.E-03           220.872E-03        219.824E-03  
              377.5E-03          222.696E-03        221.631E-03  
              380.E-03           224.521E-03        223.439E-03  
              382.5E-03          226.346E-03        225.246E-03  
              385.E-03           228.172E-03        227.054E-03  
              387.5E-03          229.997E-03        228.861E-03  
              390.E-03           231.823E-03        230.669E-03  
              392.5E-03          233.649E-03        232.476E-03  
              395.E-03           235.475E-03        234.283E-03  
              397.5E-03          237.301E-03        236.09E-03   
              400.E-03           239.128E-03        237.897E-03  
              402.5E-03          240.954E-03        239.704E-03  
              405.E-03           242.781E-03        241.511E-03  
              407.5E-03          244.609E-03        243.318E-03  
              410.E-03           246.436E-03        245.124E-03  
              412.5E-03          248.264E-03        246.931E-03  
              415.E-03           250.092E-03        248.737E-03  
              417.5E-03          251.92E-03         250.544E-03  
              420.E-03           253.748E-03        252.35E-03   
              422.5E-03          255.577E-03        254.156E-03  
              425.E-03           257.406E-03        255.962E-03  
              427.5E-03          259.235E-03        257.769E-03  
              430.E-03           261.064E-03        259.574E-03  
              432.5E-03          262.894E-03        261.38E-03   
              435.E-03           264.723E-03        263.186E-03  
              437.5E-03          266.553E-03        264.992E-03  
              440.E-03           268.384E-03        266.797E-03  
              442.5E-03          270.214E-03        268.603E-03  
              445.E-03           272.045E-03        270.408E-03  
              447.5E-03          273.876E-03        272.213E-03  
              450.E-03           275.708E-03        274.018E-03  
              452.5E-03          277.539E-03        275.824E-03  
              455.E-03           279.371E-03        277.628E-03  
              457.5E-03          281.203E-03        279.433E-03  
              460.E-03           283.036E-03        281.238E-03  
              462.5E-03          284.868E-03        283.042E-03  
              465.E-03           286.701E-03        284.847E-03  
              467.5E-03          288.534E-03        286.651E-03  
              470.E-03           290.368E-03        288.455E-03  
              472.5E-03          292.202E-03        290.259E-03  
              475.E-03           294.036E-03        292.063E-03  
              477.5E-03          295.87E-03         293.867E-03  
              480.E-03           297.705E-03        295.671E-03  
              482.5E-03          299.54E-03         297.475E-03  
              485.E-03           301.375E-03        299.278E-03  
              487.5E-03          303.21E-03         301.081E-03  
              490.E-03           305.046E-03        302.884E-03  
              492.5E-03          306.882E-03        304.687E-03  
              495.E-03           308.719E-03        306.49E-03   
              497.5E-03          310.556E-03        308.293E-03  
              500.E-03           312.393E-03        310.096E-03  
              502.5E-03          314.23E-03         311.898E-03  
              505.E-03           316.068E-03        313.7E-03    
              507.5E-03          317.906E-03        315.503E-03  
              510.E-03           319.744E-03        317.304E-03  
              512.5E-03          321.583E-03        319.106E-03  
              515.E-03           323.422E-03        320.908E-03  
              517.5E-03          325.261E-03        322.709E-03  
              520.E-03           327.101E-03        324.511E-03  
              522.5E-03          328.941E-03        326.312E-03  
              525.E-03           330.782E-03        328.113E-03  
              527.5E-03          332.622E-03        329.914E-03  
              530.E-03           334.463E-03        331.715E-03  
              532.5E-03          336.305E-03        333.515E-03  
              535.E-03           338.147E-03        335.315E-03  
              537.5E-03          339.989E-03        337.116E-03  
              540.E-03           341.832E-03        338.916E-03  
              542.5E-03          343.675E-03        340.715E-03  
              545.E-03           345.518E-03        342.515E-03  
              547.5E-03          347.362E-03        344.314E-03  
              550.E-03           349.206E-03        346.114E-03  
              552.5E-03          351.05E-03         347.913E-03  
              555.E-03           352.895E-03        349.711E-03  
              557.5E-03          354.741E-03        351.51E-03   
              560.E-03           356.586E-03        353.309E-03  
              562.5E-03          358.432E-03        355.107E-03  
              565.E-03           360.279E-03        356.905E-03  
              567.5E-03          362.126E-03        358.703E-03  
              570.E-03           363.973E-03        360.5E-03    
              572.5E-03          365.821E-03        362.298E-03  
              575.E-03           367.669E-03        364.095E-03  
              577.5E-03          369.518E-03        365.892E-03  
              580.E-03           371.367E-03        367.688E-03  
              582.5E-03          373.217E-03        369.485E-03  
              585.E-03           375.067E-03        371.281E-03  
              587.5E-03          376.918E-03        373.077E-03  
              590.E-03           378.768E-03        374.873E-03  
              592.5E-03          380.62E-03         376.669E-03  
              595.E-03           382.472E-03        378.464E-03  
              597.5E-03          384.324E-03        380.259E-03  
              600.E-03           386.177E-03        382.054E-03  
              602.5E-03          388.031E-03        383.849E-03  
              605.E-03           389.884E-03        385.643E-03  
              607.5E-03          391.739E-03        387.437E-03  
              610.E-03           393.594E-03        389.231E-03  
              612.5E-03          395.449E-03        391.024E-03  
              615.E-03           397.305E-03        392.818E-03  
              617.5E-03          399.162E-03        394.611E-03  
              620.E-03           401.019E-03        396.404E-03  
              622.5E-03          402.876E-03        398.196E-03  
              625.E-03           404.734E-03        399.988E-03  
              627.5E-03          406.593E-03        401.78E-03   
              630.E-03           408.452E-03        403.572E-03  
              632.5E-03          410.312E-03        405.363E-03  
              635.E-03           412.172E-03        407.154E-03  
              637.5E-03          414.033E-03        408.945E-03  
              640.E-03           415.895E-03        410.736E-03  
              642.5E-03          417.757E-03        412.526E-03  
              645.E-03           419.619E-03        414.316E-03  
              647.5E-03          421.483E-03        416.105E-03  
              650.E-03           423.347E-03        417.895E-03  
              652.5E-03          425.211E-03        419.683E-03  
              655.E-03           427.076E-03        421.472E-03  
              657.5E-03          428.942E-03        423.26E-03   
              660.E-03           430.808E-03        425.048E-03  
              662.5E-03          432.676E-03        426.836E-03  
              665.E-03           434.543E-03        428.623E-03  
              667.5E-03          436.412E-03        430.41E-03   
              670.E-03           438.281E-03        432.197E-03  
              672.5E-03          440.15E-03         433.983E-03  
              675.E-03           442.021E-03        435.769E-03  
              677.5E-03          443.892E-03        437.555E-03  
              680.E-03           445.764E-03        439.34E-03   
              682.5E-03          447.636E-03        441.125E-03  
              685.E-03           449.51E-03         442.909E-03  
              687.5E-03          451.384E-03        444.693E-03  
              690.E-03           453.258E-03        446.477E-03  
              692.5E-03          455.134E-03        448.26E-03   
              695.E-03           457.01E-03         450.043E-03  
              697.5E-03          458.887E-03        451.826E-03  
              700.E-03           460.765E-03        453.608E-03  
              702.5E-03          462.643E-03        455.39E-03   
              705.E-03           464.522E-03        457.171E-03  
              707.5E-03          466.403E-03        458.952E-03  
              710.E-03           468.283E-03        460.733E-03  
              712.5E-03          470.165E-03        462.513E-03  
              715.E-03           472.048E-03        464.293E-03  
              717.5E-03          473.931E-03        466.072E-03  
              720.E-03           475.815E-03        467.851E-03  
              722.5E-03          477.701E-03        469.629E-03  
              725.E-03           479.586E-03        471.407E-03  
              727.5E-03          481.473E-03        473.185E-03  
              730.E-03           483.361E-03        474.962E-03  
              732.5E-03          485.25E-03         476.739E-03  
              735.E-03           487.139E-03        478.515E-03  
              737.5E-03          489.03E-03         480.29E-03   
              740.E-03           490.921E-03        482.066E-03  
              742.5E-03          492.813E-03        483.84E-03   
              745.E-03           494.707E-03        485.615E-03  
              747.5E-03          496.601E-03        487.389E-03  
              750.E-03           498.496E-03        489.162E-03  
              752.5E-03          500.392E-03        490.935E-03  
              755.E-03           502.289E-03        492.707E-03  
              757.5E-03          504.187E-03        494.479E-03  
              760.E-03           506.087E-03        496.25E-03   
              762.5E-03          507.987E-03        498.021E-03  
              765.E-03           509.888E-03        499.791E-03  
              767.5E-03          511.791E-03        501.561E-03  
              770.E-03           513.694E-03        503.33E-03   
              772.5E-03          515.598E-03        505.099E-03  
              775.E-03           517.504E-03        506.867E-03  
              777.5E-03          519.411E-03        508.635E-03  
              780.E-03           521.318E-03        510.402E-03  
              782.5E-03          523.227E-03        512.168E-03  
              785.E-03           525.138E-03        513.934E-03  
              787.5E-03          527.049E-03        515.7E-03    
              790.E-03           528.961E-03        517.464E-03  
              792.5E-03          530.875E-03        519.229E-03  
              795.E-03           532.79E-03         520.992E-03  
              797.5E-03          534.706E-03        522.755E-03  
              800.E-03           536.623E-03        524.518E-03  
              802.5E-03          538.541E-03        526.279E-03  
              805.E-03           540.461E-03        528.041E-03  
              807.5E-03          542.382E-03        529.801E-03  
              810.E-03           544.305E-03        531.561E-03  
              812.5E-03          546.228E-03        533.32E-03   
              815.E-03           548.153E-03        535.079E-03  
              817.5E-03          550.08E-03         536.837E-03  
              820.E-03           552.007E-03        538.594E-03  
              822.5E-03          553.936E-03        540.351E-03  
              825.E-03           555.867E-03        542.107E-03  
              827.5E-03          557.799E-03        543.863E-03  
              830.E-03           559.732E-03        545.617E-03  
              832.5E-03          561.667E-03        547.371E-03  
              835.E-03           563.603E-03        549.125E-03  
              837.5E-03          565.54E-03         550.877E-03  
              840.E-03           567.479E-03        552.629E-03  
              842.5E-03          569.42E-03         554.38E-03   
              845.E-03           571.362E-03        556.131E-03  
              847.5E-03          573.306E-03        557.88E-03   
              850.E-03           575.251E-03        559.63E-03   
              852.5E-03          577.198E-03        561.378E-03  
              855.E-03           579.146E-03        563.125E-03  
              857.5E-03          581.096E-03        564.872E-03  
              860.E-03           583.048E-03        566.618E-03  
              862.5E-03          585.002E-03        568.363E-03  
              865.E-03           586.957E-03        570.108E-03  
              867.5E-03          588.913E-03        571.852E-03  
              870.E-03           590.872E-03        573.594E-03  
              872.5E-03          592.832E-03        575.336E-03  
              875.E-03           594.794E-03        577.078E-03  
              877.5E-03          596.758E-03        578.818E-03  
              880.E-03           598.724E-03        580.558E-03  
              882.5E-03          600.691E-03        582.297E-03  
              885.E-03           602.66E-03         584.035E-03  
              887.5E-03          604.632E-03        585.772E-03  
              890.E-03           606.605E-03        587.508E-03  
              892.5E-03          608.58E-03         589.244E-03  
              895.E-03           610.557E-03        590.978E-03  
              897.5E-03          612.536E-03        592.712E-03  
              900.E-03           614.517E-03        594.445E-03  
              902.5E-03          616.5E-03          596.176E-03  
              905.E-03           618.485E-03        597.907E-03  
              907.5E-03          620.472E-03        599.638E-03  
              910.E-03           622.461E-03        601.367E-03  
              912.5E-03          624.453E-03        603.095E-03  
              915.E-03           626.446E-03        604.822E-03  
              917.5E-03          628.442E-03        606.549E-03  
              920.E-03           630.44E-03         608.274E-03  
              922.5E-03          632.44E-03         609.998E-03  
              925.E-03           634.443E-03        611.722E-03  
              927.5E-03          636.447E-03        613.444E-03  
              930.E-03           638.454E-03        615.166E-03  
              932.5E-03          640.464E-03        616.886E-03  
              935.E-03           642.476E-03        618.606E-03  
              937.5E-03          644.49E-03         620.324E-03  
              940.E-03           646.507E-03        622.042E-03  
              942.5E-03          648.526E-03        623.758E-03  
              945.E-03           650.548E-03        625.474E-03  
              947.5E-03          652.572E-03        627.188E-03  
              950.E-03           654.599E-03        628.901E-03  
              952.5E-03          656.629E-03        630.613E-03  
              955.E-03           658.661E-03        632.325E-03  
              957.5E-03          660.696E-03        634.035E-03  
              960.E-03           662.733E-03        635.744E-03  
              962.5E-03          664.774E-03        637.451E-03  
              965.E-03           666.817E-03        639.158E-03  
              967.5E-03          668.863E-03        640.864E-03  
              970.E-03           670.912E-03        642.568E-03  
              972.5E-03          672.964E-03        644.271E-03  
              975.E-03           675.018E-03        645.974E-03  
              977.5E-03          677.076E-03        647.674E-03  
              980.E-03           679.137E-03        649.374E-03  
              982.5E-03          681.201E-03        651.073E-03  
              985.E-03           683.268E-03        652.77E-03   
              987.5E-03          685.338E-03        654.466E-03  
              990.E-03           687.412E-03        656.161E-03  
              992.5E-03          689.489E-03        657.855E-03  
              995.E-03           691.569E-03        659.548E-03  
              997.5E-03          693.652E-03        661.239E-03  
                1.               695.739E-03        662.929E-03  




