
                  X                 Dinn               Dout      

                0.                 0.                 0.         
                2.5E-03            0.                 0.         
                5.E-03             1.42747E-03        1.27165E-03
                7.5E-03            2.86678E-03        2.6621E-03 
               10.E-03             4.28509E-03        4.04411E-03
               12.5E-03            5.69196E-03        5.42406E-03
               15.E-03             7.09173E-03        6.8044E-03 
               17.5E-03            8.48658E-03        8.186E-03  
               20.E-03             9.87778E-03        9.56907E-03
               22.5E-03           11.2661E-03        10.9536E-03 
               25.E-03            12.6521E-03        12.3395E-03 
               27.5E-03           14.0362E-03        13.7266E-03 
               30.E-03            15.4188E-03        15.1148E-03 
               32.5E-03           16.8E-03           16.504E-03  
               35.E-03            18.18E-03          17.8942E-03 
               37.5E-03           19.5592E-03        19.2851E-03 
               40.E-03            20.9376E-03        20.6768E-03 
               42.5E-03           22.3152E-03        22.0692E-03 
               45.E-03            23.6924E-03        23.4622E-03 
               47.5E-03           25.069E-03         24.8557E-03 
               50.E-03            26.4453E-03        26.2498E-03 
               52.5E-03           27.8212E-03        27.6444E-03 
               55.E-03            29.1969E-03        29.0394E-03 
               57.5E-03           30.5723E-03        30.4349E-03 
               60.E-03            31.9476E-03        31.8307E-03 
               62.5E-03           33.3227E-03        33.2269E-03 
               65.E-03            34.6977E-03        34.6235E-03 
               67.5E-03           36.0727E-03        36.0203E-03 
               70.E-03            37.4476E-03        37.4175E-03 
               72.5E-03           38.8224E-03        38.8149E-03 
               75.E-03            40.1973E-03        40.2127E-03 
               77.5E-03           41.5722E-03        41.6107E-03 
               80.E-03            42.9471E-03        43.0089E-03 
               82.5E-03           44.322E-03         44.4073E-03 
               85.E-03            45.697E-03         45.806E-03  
               87.5E-03           47.072E-03         47.2048E-03 
               90.E-03            48.4472E-03        48.6039E-03 
               92.5E-03           49.8224E-03        50.0031E-03 
               95.E-03            51.1977E-03        51.4026E-03 
               97.5E-03           52.5731E-03        52.8021E-03 
              100.E-03            53.9487E-03        54.2019E-03 
              102.5E-03           55.0727E-03        55.3456E-03 
              105.E-03            56.6713E-03        56.5569E-03 
              107.5E-03           57.962E-03         57.7886E-03 
              110.E-03            59.0855E-03        58.9136E-03 
              112.5E-03           60.0914E-03        59.9165E-03 
              115.E-03            61.0114E-03        60.8354E-03 
              117.5E-03           61.8767E-03        61.6996E-03 
              120.E-03            62.7072E-03        62.5292E-03 
              122.5E-03           63.516E-03         63.3373E-03 
              125.E-03            64.3112E-03        64.132E-03  
              127.5E-03           65.098E-03         64.9183E-03 
              130.E-03            65.8795E-03        65.6995E-03 
              132.5E-03           66.6578E-03        66.4775E-03 
              135.E-03            67.434E-03         67.2536E-03 
              137.5E-03           68.209E-03         68.0284E-03 
              140.E-03            68.9832E-03        68.8026E-03 
              142.5E-03           69.757E-03         69.5763E-03 
              145.E-03            70.5304E-03        70.3498E-03 
              147.5E-03           71.3037E-03        71.1233E-03 
              150.E-03            72.0769E-03        71.8967E-03 
              152.5E-03           72.8501E-03        72.6701E-03 
              155.E-03            73.6232E-03        73.4436E-03 
              157.5E-03           74.3963E-03        74.2171E-03 
              160.E-03            75.1694E-03        74.9906E-03 
              162.5E-03           75.9426E-03        75.7641E-03 
              165.E-03            76.7157E-03        76.5376E-03 
              167.5E-03           77.4889E-03        77.3112E-03 
              170.E-03            78.2622E-03        78.0848E-03 
              172.5E-03           79.0354E-03        78.8584E-03 
              175.E-03            79.8087E-03        79.632E-03  
              177.5E-03           80.582E-03         80.4057E-03 
              180.E-03            81.3553E-03        81.1793E-03 
              182.5E-03           82.1287E-03        81.953E-03  
              185.E-03            82.9578E-03        82.7808E-03 
              187.5E-03           83.9056E-03        83.7264E-03 
              190.E-03            84.9371E-03        84.7552E-03 
              192.5E-03           86.0265E-03        85.8416E-03 
              195.E-03            87.1549E-03        86.9665E-03 
              197.5E-03           88.3091E-03        88.1171E-03 
              200.E-03            89.4804E-03        89.2846E-03 
              202.5E-03           90.663E-03         90.4633E-03 
              205.E-03            91.8532E-03        91.6493E-03 
              207.5E-03           93.0483E-03        92.8402E-03 
              210.E-03            94.2468E-03        94.0344E-03 
              212.5E-03           95.4475E-03        95.2307E-03 
              215.E-03            96.6497E-03        96.4285E-03 
              217.5E-03           97.853E-03         97.6272E-03 
              220.E-03            99.0569E-03        98.8266E-03 
              222.5E-03          100.261E-03        100.026E-03  
              225.E-03           101.466E-03        101.226E-03  
              227.5E-03          102.671E-03        102.427E-03  
              230.E-03           103.877E-03        103.627E-03  
              232.5E-03          105.082E-03        104.828E-03  
              235.E-03           106.288E-03        106.028E-03  
              237.5E-03          107.494E-03        107.229E-03  
              240.E-03           108.699E-03        108.43E-03   
              242.5E-03          109.905E-03        109.63E-03   
              245.E-03           111.111E-03        110.831E-03  
              247.5E-03          112.317E-03        112.032E-03  
              250.E-03           113.524E-03        113.233E-03  
              252.5E-03          114.73E-03         114.433E-03  
              255.E-03           115.936E-03        115.634E-03  
              257.5E-03          117.143E-03        116.835E-03  
              260.E-03           118.349E-03        118.036E-03  
              262.5E-03          119.556E-03        119.237E-03  
              265.E-03           120.763E-03        120.438E-03  
              267.5E-03          121.969E-03        121.638E-03  
              270.E-03           123.176E-03        122.839E-03  
              272.5E-03          124.383E-03        124.04E-03   
              275.E-03           125.59E-03         125.241E-03  
              277.5E-03          126.797E-03        126.442E-03  
              280.E-03           128.004E-03        127.643E-03  
              282.5E-03          129.211E-03        128.844E-03  
              285.E-03           130.419E-03        130.045E-03  
              287.5E-03          131.626E-03        131.246E-03  
              290.E-03           132.833E-03        132.447E-03  
              292.5E-03          134.041E-03        133.648E-03  
              295.E-03           135.248E-03        134.849E-03  
              297.5E-03          136.456E-03        136.05E-03   
              300.E-03           137.664E-03        137.251E-03  
              302.5E-03          138.871E-03        138.452E-03  
              305.E-03           140.079E-03        139.653E-03  
              307.5E-03          141.287E-03        140.854E-03  
              310.E-03           142.495E-03        142.055E-03  
              312.5E-03          143.703E-03        143.256E-03  
              315.E-03           144.911E-03        144.457E-03  
              317.5E-03          146.119E-03        145.658E-03  
              320.E-03           147.328E-03        146.859E-03  
              322.5E-03          148.536E-03        148.06E-03   
              325.E-03           149.744E-03        149.261E-03  
              327.5E-03          150.953E-03        150.462E-03  
              330.E-03           152.161E-03        151.663E-03  
              332.5E-03          153.37E-03         152.864E-03  
              335.E-03           154.579E-03        154.065E-03  
              337.5E-03          155.787E-03        155.266E-03  
              340.E-03           156.996E-03        156.467E-03  
              342.5E-03          158.205E-03        157.668E-03  
              345.E-03           159.414E-03        158.869E-03  
              347.5E-03          160.623E-03        160.07E-03   
              350.E-03           161.832E-03        161.271E-03  
              352.5E-03          163.041E-03        162.472E-03  
              355.E-03           164.25E-03         163.673E-03  
              357.5E-03          165.46E-03         164.874E-03  
              360.E-03           166.669E-03        166.075E-03  
              362.5E-03          167.878E-03        167.276E-03  
              365.E-03           169.088E-03        168.477E-03  
              367.5E-03          170.297E-03        169.678E-03  
              370.E-03           171.507E-03        170.879E-03  
              372.5E-03          172.717E-03        172.08E-03   
              375.E-03           173.926E-03        173.281E-03  
              377.5E-03          175.136E-03        174.482E-03  
              380.E-03           176.346E-03        175.683E-03  
              382.5E-03          177.556E-03        176.884E-03  
              385.E-03           178.766E-03        178.085E-03  
              387.5E-03          179.976E-03        179.286E-03  
              390.E-03           181.186E-03        180.487E-03  
              392.5E-03          182.396E-03        181.688E-03  
              395.E-03           183.607E-03        182.889E-03  
              397.5E-03          184.817E-03        184.09E-03   
              400.E-03           186.028E-03        185.291E-03  
              402.5E-03          187.238E-03        186.492E-03  
              405.E-03           188.449E-03        187.693E-03  
              407.5E-03          189.659E-03        188.894E-03  
              410.E-03           190.87E-03         190.095E-03  
              412.5E-03          192.081E-03        191.295E-03  
              415.E-03           193.292E-03        192.496E-03  
              417.5E-03          194.503E-03        193.697E-03  
              420.E-03           195.714E-03        194.898E-03  
              422.5E-03          196.925E-03        196.099E-03  
              425.E-03           198.136E-03        197.3E-03    
              427.5E-03          199.347E-03        198.501E-03  
              430.E-03           200.558E-03        199.701E-03  
              432.5E-03          201.77E-03         200.902E-03  
              435.E-03           202.981E-03        202.103E-03  
              437.5E-03          204.193E-03        203.304E-03  
              440.E-03           205.404E-03        204.504E-03  
              442.5E-03          206.616E-03        205.705E-03  
              445.E-03           207.828E-03        206.906E-03  
              447.5E-03          209.039E-03        208.107E-03  
              450.E-03           210.251E-03        209.307E-03  
              452.5E-03          211.463E-03        210.508E-03  
              455.E-03           212.675E-03        211.709E-03  
              457.5E-03          213.887E-03        212.909E-03  
              460.E-03           215.099E-03        214.11E-03   
              462.5E-03          216.312E-03        215.311E-03  
              465.E-03           217.524E-03        216.511E-03  
              467.5E-03          218.736E-03        217.712E-03  
              470.E-03           219.949E-03        218.912E-03  
              472.5E-03          221.161E-03        220.113E-03  
              475.E-03           222.374E-03        221.313E-03  
              477.5E-03          223.587E-03        222.514E-03  
              480.E-03           224.799E-03        223.714E-03  
              482.5E-03          226.012E-03        224.915E-03  
              485.E-03           227.225E-03        226.115E-03  
              487.5E-03          228.438E-03        227.316E-03  
              490.E-03           229.651E-03        228.516E-03  
              492.5E-03          230.865E-03        229.717E-03  
              495.E-03           232.078E-03        230.917E-03  
              497.5E-03          233.291E-03        232.117E-03  
              500.E-03           234.505E-03        233.318E-03  
              502.5E-03          235.718E-03        234.518E-03  
              505.E-03           236.932E-03        235.718E-03  
              507.5E-03          238.145E-03        236.918E-03  
              510.E-03           239.359E-03        238.119E-03  
              512.5E-03          240.573E-03        239.319E-03  
              515.E-03           241.787E-03        240.519E-03  
              517.5E-03          243.001E-03        241.719E-03  
              520.E-03           244.215E-03        242.919E-03  
              522.5E-03          245.429E-03        244.119E-03  
              525.E-03           246.643E-03        245.32E-03   
              527.5E-03          247.858E-03        246.52E-03   
              530.E-03           249.072E-03        247.72E-03   
              532.5E-03          250.287E-03        248.92E-03   
              535.E-03           251.501E-03        250.12E-03   
              537.5E-03          252.716E-03        251.32E-03   
              540.E-03           253.931E-03        252.519E-03  
              542.5E-03          255.146E-03        253.719E-03  
              545.E-03           256.361E-03        254.919E-03  
              547.5E-03          257.576E-03        256.119E-03  
              550.E-03           258.791E-03        257.319E-03  
              552.5E-03          260.006E-03        258.519E-03  
              555.E-03           261.221E-03        259.718E-03  
              557.5E-03          262.437E-03        260.918E-03  
              560.E-03           263.652E-03        262.118E-03  
              562.5E-03          264.868E-03        263.317E-03  
              565.E-03           266.084E-03        264.517E-03  
              567.5E-03          267.3E-03          265.716E-03  
              570.E-03           268.515E-03        266.916E-03  
              572.5E-03          269.732E-03        268.115E-03  
              575.E-03           270.948E-03        269.315E-03  
              577.5E-03          272.164E-03        270.514E-03  
              580.E-03           273.38E-03         271.714E-03  
              582.5E-03          274.597E-03        272.913E-03  
              585.E-03           275.813E-03        274.112E-03  
              587.5E-03          277.03E-03         275.312E-03  
              590.E-03           278.246E-03        276.511E-03  
              592.5E-03          279.463E-03        277.71E-03   
              595.E-03           280.68E-03         278.909E-03  
              597.5E-03          281.897E-03        280.108E-03  
              600.E-03           283.114E-03        281.308E-03  
              602.5E-03          284.332E-03        282.507E-03  
              605.E-03           285.549E-03        283.706E-03  
              607.5E-03          286.766E-03        284.905E-03  
              610.E-03           287.984E-03        286.103E-03  
              612.5E-03          289.202E-03        287.302E-03  
              615.E-03           290.419E-03        288.501E-03  
              617.5E-03          291.637E-03        289.7E-03    
              620.E-03           292.855E-03        290.899E-03  
              622.5E-03          294.073E-03        292.097E-03  
              625.E-03           295.292E-03        293.296E-03  
              627.5E-03          296.51E-03         294.495E-03  
              630.E-03           297.729E-03        295.693E-03  
              632.5E-03          298.947E-03        296.892E-03  
              635.E-03           300.166E-03        298.09E-03   
              637.5E-03          301.385E-03        299.289E-03  
              640.E-03           302.604E-03        300.487E-03  
              642.5E-03          303.823E-03        301.685E-03  
              645.E-03           305.042E-03        302.884E-03  
              647.5E-03          306.261E-03        304.082E-03  
              650.E-03           307.481E-03        305.28E-03   
              652.5E-03          308.7E-03          306.478E-03  
              655.E-03           309.92E-03         307.676E-03  
              657.5E-03          311.14E-03         308.874E-03  
              660.E-03           312.36E-03         310.072E-03  
              662.5E-03          313.58E-03         311.27E-03   
              665.E-03           314.8E-03          312.468E-03  
              667.5E-03          316.02E-03         313.666E-03  
              670.E-03           317.241E-03        314.863E-03  
              672.5E-03          318.462E-03        316.061E-03  
              675.E-03           319.682E-03        317.259E-03  
              677.5E-03          320.903E-03        318.456E-03  
              680.E-03           322.124E-03        319.654E-03  
              682.5E-03          323.345E-03        320.851E-03  
              685.E-03           324.567E-03        322.048E-03  
              687.5E-03          325.788E-03        323.246E-03  
              690.E-03           327.01E-03         324.443E-03  
              692.5E-03          328.232E-03        325.64E-03   
              695.E-03           329.453E-03        326.837E-03  
              697.5E-03          330.675E-03        328.034E-03  
              700.E-03           331.898E-03        329.231E-03  
              702.5E-03          333.12E-03         330.428E-03  
              705.E-03           334.342E-03        331.625E-03  
              707.5E-03          335.565E-03        332.822E-03  
              710.E-03           336.788E-03        334.019E-03  
              712.5E-03          338.011E-03        335.215E-03  
              715.E-03           339.234E-03        336.412E-03  
              717.5E-03          340.457E-03        337.608E-03  
              720.E-03           341.681E-03        338.805E-03  
              722.5E-03          342.904E-03        340.001E-03  
              725.E-03           344.128E-03        341.198E-03  
              727.5E-03          345.352E-03        342.394E-03  
              730.E-03           346.576E-03        343.59E-03   
              732.5E-03          347.8E-03          344.786E-03  
              735.E-03           349.025E-03        345.982E-03  
              737.5E-03          350.249E-03        347.178E-03  
              740.E-03           351.474E-03        348.374E-03  
              742.5E-03          352.699E-03        349.57E-03   
              745.E-03           353.924E-03        350.765E-03  
              747.5E-03          355.149E-03        351.961E-03  
              750.E-03           356.375E-03        353.156E-03  
              752.5E-03          357.6E-03          354.352E-03  
              755.E-03           358.826E-03        355.547E-03  
              757.5E-03          360.052E-03        356.742E-03  
              760.E-03           361.278E-03        357.938E-03  
              762.5E-03          362.505E-03        359.133E-03  
              765.E-03           363.731E-03        360.328E-03  
              767.5E-03          364.958E-03        361.523E-03  
              770.E-03           366.185E-03        362.717E-03  
              772.5E-03          367.412E-03        363.912E-03  
              775.E-03           368.64E-03         365.107E-03  
              777.5E-03          369.867E-03        366.301E-03  
              780.E-03           371.095E-03        367.496E-03  
              782.5E-03          372.323E-03        368.69E-03   
              785.E-03           373.551E-03        369.885E-03  
              787.5E-03          374.779E-03        371.079E-03  
              790.E-03           376.008E-03        372.273E-03  
              792.5E-03          377.237E-03        373.467E-03  
              795.E-03           378.466E-03        374.661E-03  
              797.5E-03          379.695E-03        375.854E-03  
              800.E-03           380.924E-03        377.048E-03  
              802.5E-03          382.154E-03        378.242E-03  
              805.E-03           383.384E-03        379.435E-03  
              807.5E-03          384.614E-03        380.629E-03  
              810.E-03           385.844E-03        381.822E-03  
              812.5E-03          387.075E-03        383.015E-03  
              815.E-03           388.306E-03        384.208E-03  
              817.5E-03          389.537E-03        385.401E-03  
              820.E-03           390.768E-03        386.594E-03  
              822.5E-03          391.999E-03        387.786E-03  
              825.E-03           393.231E-03        388.979E-03  
              827.5E-03          394.463E-03        390.171E-03  
              830.E-03           395.695E-03        391.364E-03  
              832.5E-03          396.928E-03        392.556E-03  
              835.E-03           398.16E-03         393.748E-03  
              837.5E-03          399.393E-03        394.94E-03   
              840.E-03           400.627E-03        396.132E-03  
              842.5E-03          401.86E-03         397.324E-03  
              845.E-03           403.094E-03        398.515E-03  
              847.5E-03          404.328E-03        399.707E-03  
              850.E-03           405.562E-03        400.898E-03  
              852.5E-03          406.797E-03        402.089E-03  
              855.E-03           408.032E-03        403.28E-03   
              857.5E-03          409.267E-03        404.471E-03  
              860.E-03           410.502E-03        405.662E-03  
              862.5E-03          411.738E-03        406.853E-03  
              865.E-03           412.974E-03        408.043E-03  
              867.5E-03          414.21E-03         409.234E-03  
              870.E-03           415.446E-03        410.424E-03  
              872.5E-03          416.683E-03        411.614E-03  
              875.E-03           417.92E-03         412.804E-03  
              877.5E-03          419.158E-03        413.994E-03  
              880.E-03           420.396E-03        415.184E-03  
              882.5E-03          421.634E-03        416.373E-03  
              885.E-03           422.872E-03        417.563E-03  
              887.5E-03          424.111E-03        418.752E-03  
              890.E-03           425.35E-03         419.941E-03  
              892.5E-03          426.589E-03        421.13E-03   
              895.E-03           427.828E-03        422.319E-03  
              897.5E-03          429.068E-03        423.507E-03  
              900.E-03           430.309E-03        424.696E-03  
              902.5E-03          431.549E-03        425.884E-03  
              905.E-03           432.79E-03         427.072E-03  
              907.5E-03          434.032E-03        428.26E-03   
              910.E-03           435.273E-03        429.448E-03  
              912.5E-03          436.515E-03        430.635E-03  
              915.E-03           437.758E-03        431.823E-03  
              917.5E-03          439.E-03           433.01E-03   
              920.E-03           440.243E-03        434.197E-03  
              922.5E-03          441.487E-03        435.384E-03  
              925.E-03           442.731E-03        436.571E-03  
              927.5E-03          443.975E-03        437.757E-03  
              930.E-03           445.22E-03         438.944E-03  
              932.5E-03          446.464E-03        440.13E-03   
              935.E-03           447.71E-03         441.316E-03  
              937.5E-03          448.956E-03        442.502E-03  
              940.E-03           450.202E-03        443.687E-03  
              942.5E-03          451.448E-03        444.873E-03  
              945.E-03           452.695E-03        446.058E-03  
              947.5E-03          453.943E-03        447.243E-03  
              950.E-03           455.19E-03         448.427E-03  
              952.5E-03          456.439E-03        449.612E-03  
              955.E-03           457.687E-03        450.796E-03  
              957.5E-03          458.936E-03        451.981E-03  
              960.E-03           460.186E-03        453.165E-03  
              962.5E-03          461.436E-03        454.348E-03  
              965.E-03           462.686E-03        455.532E-03  
              967.5E-03          463.937E-03        456.715E-03  
              970.E-03           465.188E-03        457.898E-03  
              972.5E-03          466.44E-03         459.081E-03  
              975.E-03           467.693E-03        460.264E-03  
              977.5E-03          468.945E-03        461.446E-03  
              980.E-03           470.198E-03        462.628E-03  
              982.5E-03          471.452E-03        463.81E-03   
              985.E-03           472.706E-03        464.992E-03  
              987.5E-03          473.961E-03        466.173E-03  
              990.E-03           475.216E-03        467.354E-03  
              992.5E-03          476.472E-03        468.535E-03  
              995.E-03           477.728E-03        469.716E-03  
              997.5E-03          478.985E-03        470.896E-03  
                1.               480.242E-03        472.076E-03  




