
                  X                 Dinn               Dout      

                0.                 0.                 0.         
                2.5E-03            1.14237E-03        1.01823E-03
                5.E-03             3.73996E-03        3.5445E-03 
                7.5E-03            6.2883E-03         6.05366E-03
               10.E-03             8.82222E-03        8.56525E-03
               12.5E-03           11.3476E-03        11.0809E-03 
               15.E-03            13.8674E-03        13.6004E-03 
               17.5E-03           16.3832E-03        16.1233E-03 
               20.E-03            18.896E-03         18.6491E-03 
               22.5E-03           21.4065E-03        21.1773E-03 
               25.E-03            23.9155E-03        23.7076E-03 
               27.5E-03           26.4232E-03        26.2396E-03 
               30.E-03            28.93E-03          28.7732E-03 
               32.5E-03           31.4362E-03        31.3082E-03 
               35.E-03            33.9419E-03        33.8444E-03 
               37.5E-03           36.4473E-03        36.3817E-03 
               40.E-03            38.9525E-03        38.92E-03   
               42.5E-03           41.4577E-03        41.4591E-03 
               45.E-03            43.9629E-03        43.999E-03  
               47.5E-03           46.4682E-03        46.5397E-03 
               50.E-03            48.9736E-03        49.081E-03  
               52.5E-03           51.4792E-03        51.6229E-03 
               55.E-03            53.985E-03         54.1653E-03 
               57.5E-03           56.4922E-03        56.6511E-03 
               60.E-03            58.9617E-03        58.7088E-03 
               62.5E-03           60.8618E-03        60.6042E-03 
               65.E-03            62.5146E-03        62.2471E-03 
               67.5E-03           64.0383E-03        63.764E-03  
               70.E-03            65.5004E-03        65.2202E-03 
               72.5E-03           66.9333E-03        66.6481E-03 
               75.E-03            68.3525E-03        68.0628E-03 
               77.5E-03           69.7654E-03        69.4716E-03 
               80.E-03            71.1752E-03        70.8776E-03 
               82.5E-03           72.5836E-03        72.2824E-03 
               85.E-03            73.9914E-03        73.6869E-03 
               87.5E-03           75.399E-03         75.0914E-03 
               90.E-03            76.8064E-03        76.4959E-03 
               92.5E-03           78.2139E-03        77.9005E-03 
               95.E-03            79.6213E-03        79.3052E-03 
               97.5E-03           81.0289E-03        80.7099E-03 
              100.E-03            82.4365E-03        82.1146E-03 
              102.5E-03           84.6574E-03        84.2659E-03 
              105.E-03            87.8861E-03        87.4738E-03 
              107.5E-03           91.0182E-03        90.6273E-03 
              110.E-03            93.9922E-03        93.6255E-03 
              112.5E-03           96.8897E-03        96.5494E-03 
              115.E-03            99.7569E-03        99.4434E-03 
              117.5E-03          102.613E-03        102.326E-03  
              120.E-03           105.465E-03        105.204E-03  
              122.5E-03          108.316E-03        108.081E-03  
              125.E-03           111.167E-03        110.957E-03  
              127.5E-03          114.019E-03        113.833E-03  
              130.E-03           116.871E-03        116.709E-03  
              132.5E-03          119.724E-03        119.585E-03  
              135.E-03           122.578E-03        122.461E-03  
              137.5E-03          125.432E-03        125.337E-03  
              140.E-03           128.287E-03        128.213E-03  
              142.5E-03          131.142E-03        131.089E-03  
              145.E-03           133.998E-03        133.965E-03  
              147.5E-03          136.854E-03        136.842E-03  
              150.E-03           139.711E-03        139.718E-03  
              152.5E-03          142.569E-03        142.594E-03  
              155.E-03           145.427E-03        145.471E-03  
              157.5E-03          148.285E-03        148.347E-03  
              160.E-03           151.144E-03        151.224E-03  
              162.5E-03          154.004E-03        154.1E-03    
              165.E-03           156.864E-03        156.977E-03  
              167.5E-03          159.725E-03        159.853E-03  
              170.E-03           162.586E-03        162.73E-03   
              172.5E-03          165.447E-03        165.607E-03  
              175.E-03           168.309E-03        168.483E-03  
              177.5E-03          171.172E-03        171.36E-03   
              180.E-03           174.035E-03        174.237E-03  
              182.5E-03          176.898E-03        177.114E-03  
              185.E-03           179.762E-03        179.99E-03   
              187.5E-03          182.626E-03        182.867E-03  
              190.E-03           185.49E-03         185.744E-03  
              192.5E-03          188.355E-03        188.621E-03  
              195.E-03           191.221E-03        191.497E-03  
              197.5E-03          194.087E-03        194.374E-03  
              200.E-03           196.953E-03        197.251E-03  
              202.5E-03          199.82E-03         200.128E-03  
              205.E-03           202.687E-03        203.005E-03  
              207.5E-03          205.554E-03        205.882E-03  
              210.E-03           208.422E-03        208.759E-03  
              212.5E-03          211.29E-03         211.635E-03  
              215.E-03           214.159E-03        214.512E-03  
              217.5E-03          217.028E-03        217.389E-03  
              220.E-03           219.897E-03        220.266E-03  
              222.5E-03          222.767E-03        223.143E-03  
              225.E-03           225.637E-03        226.02E-03   
              227.5E-03          228.508E-03        228.896E-03  
              230.E-03           231.378E-03        231.773E-03  
              232.5E-03          234.25E-03         234.65E-03   
              235.E-03           237.121E-03        237.527E-03  
              237.5E-03          239.993E-03        240.404E-03  
              240.E-03           242.866E-03        243.28E-03   
              242.5E-03          245.738E-03        246.157E-03  
              245.E-03           248.611E-03        249.034E-03  
              247.5E-03          251.485E-03        251.91E-03   
              250.E-03           254.358E-03        254.787E-03  
              252.5E-03          257.232E-03        257.664E-03  
              255.E-03           260.107E-03        260.54E-03   
              257.5E-03          262.982E-03        263.417E-03  
              260.E-03           265.857E-03        266.293E-03  
              262.5E-03          268.732E-03        269.17E-03   
              265.E-03           271.608E-03        272.046E-03  
              267.5E-03          274.484E-03        274.923E-03  
              270.E-03           277.361E-03        277.799E-03  
              272.5E-03          280.237E-03        280.676E-03  
              275.E-03           283.115E-03        283.552E-03  
              277.5E-03          285.992E-03        286.428E-03  
              280.E-03           288.87E-03         289.305E-03  
              282.5E-03          291.748E-03        292.181E-03  
              285.E-03           294.627E-03        295.057E-03  
              287.5E-03          297.505E-03        297.933E-03  
              290.E-03           300.385E-03        300.809E-03  
              292.5E-03          303.264E-03        303.685E-03  
              295.E-03           306.144E-03        306.561E-03  
              297.5E-03          309.024E-03        309.437E-03  
              300.E-03           311.905E-03        312.313E-03  
              302.5E-03          314.786E-03        315.189E-03  
              305.E-03           317.667E-03        318.065E-03  
              307.5E-03          320.549E-03        320.94E-03   
              310.E-03           323.431E-03        323.816E-03  
              312.5E-03          326.313E-03        326.692E-03  
              315.E-03           329.195E-03        329.567E-03  
              317.5E-03          332.078E-03        332.443E-03  
              320.E-03           334.962E-03        335.318E-03  
              322.5E-03          337.845E-03        338.193E-03  
              325.E-03           340.729E-03        341.069E-03  
              327.5E-03          343.614E-03        343.944E-03  
              330.E-03           346.498E-03        346.819E-03  
              332.5E-03          349.383E-03        349.694E-03  
              335.E-03           352.269E-03        352.569E-03  
              337.5E-03          355.155E-03        355.444E-03  
              340.E-03           358.041E-03        358.319E-03  
              342.5E-03          360.927E-03        361.194E-03  
              345.E-03           363.814E-03        364.068E-03  
              347.5E-03          366.701E-03        366.943E-03  
              350.E-03           369.589E-03        369.817E-03  
              352.5E-03          372.476E-03        372.692E-03  
              355.E-03           375.365E-03        375.566E-03  
              357.5E-03          378.253E-03        378.44E-03   
              360.E-03           381.142E-03        381.315E-03  
              362.5E-03          384.031E-03        384.189E-03  
              365.E-03           386.921E-03        387.063E-03  
              367.5E-03          389.811E-03        389.937E-03  
              370.E-03           392.702E-03        392.81E-03   
              372.5E-03          395.592E-03        395.684E-03  
              375.E-03           398.484E-03        398.558E-03  
              377.5E-03          401.375E-03        401.431E-03  
              380.E-03           404.267E-03        404.305E-03  
              382.5E-03          407.16E-03         407.178E-03  
              385.E-03           410.052E-03        410.051E-03  
              387.5E-03          412.945E-03        412.924E-03  
              390.E-03           415.839E-03        415.797E-03  
              392.5E-03          418.733E-03        418.67E-03   
              395.E-03           421.627E-03        421.543E-03  
              397.5E-03          424.522E-03        424.415E-03  
              400.E-03           427.417E-03        427.288E-03  
              402.5E-03          430.312E-03        430.16E-03   
              405.E-03           433.208E-03        433.032E-03  
              407.5E-03          436.104E-03        435.905E-03  
              410.E-03           439.001E-03        438.777E-03  
              412.5E-03          441.898E-03        441.649E-03  
              415.E-03           444.796E-03        444.52E-03   
              417.5E-03          447.694E-03        447.392E-03  
              420.E-03           450.592E-03        450.263E-03  
              422.5E-03          453.491E-03        453.135E-03  
              425.E-03           456.391E-03        456.006E-03  
              427.5E-03          459.29E-03         458.877E-03  
              430.E-03           462.19E-03         461.748E-03  
              432.5E-03          465.091E-03        464.619E-03  
              435.E-03           467.992E-03        467.49E-03   
              437.5E-03          470.894E-03        470.36E-03   
              440.E-03           473.796E-03        473.23E-03   
              442.5E-03          476.698E-03        476.101E-03  
              445.E-03           479.601E-03        478.971E-03  
              447.5E-03          482.504E-03        481.841E-03  
              450.E-03           485.408E-03        484.71E-03   
              452.5E-03          488.312E-03        487.58E-03   
              455.E-03           491.217E-03        490.449E-03  
              457.5E-03          494.122E-03        493.319E-03  
              460.E-03           497.028E-03        496.188E-03  
              462.5E-03          499.935E-03        499.057E-03  
              465.E-03           502.841E-03        501.925E-03  
              467.5E-03          505.749E-03        504.794E-03  
              470.E-03           508.656E-03        507.662E-03  
              472.5E-03          511.565E-03        510.53E-03   
              475.E-03           514.474E-03        513.398E-03  
              477.5E-03          517.383E-03        516.266E-03  
              480.E-03           520.293E-03        519.134E-03  
              482.5E-03          523.203E-03        522.001E-03  
              485.E-03           526.114E-03        524.869E-03  
              487.5E-03          529.026E-03        527.736E-03  
              490.E-03           531.938E-03        530.603E-03  
              492.5E-03          534.85E-03         533.469E-03  
              495.E-03           537.763E-03        536.336E-03  
              497.5E-03          540.677E-03        539.202E-03  
              500.E-03           543.591E-03        542.068E-03  
              502.5E-03          546.506E-03        544.934E-03  
              505.E-03           549.422E-03        547.799E-03  
              507.5E-03          552.338E-03        550.665E-03  
              510.E-03           555.255E-03        553.53E-03   
              512.5E-03          558.172E-03        556.395E-03  
              515.E-03           561.09E-03         559.259E-03  
              517.5E-03          564.008E-03        562.124E-03  
              520.E-03           566.927E-03        564.988E-03  
              522.5E-03          569.847E-03        567.852E-03  
              525.E-03           572.768E-03        570.716E-03  
              527.5E-03          575.689E-03        573.579E-03  
              530.E-03           578.61E-03         576.443E-03  
              532.5E-03          581.533E-03        579.306E-03  
              535.E-03           584.456E-03        582.168E-03  
              537.5E-03          587.379E-03        585.031E-03  
              540.E-03           590.304E-03        587.893E-03  
              542.5E-03          593.229E-03        590.755E-03  
              545.E-03           596.155E-03        593.617E-03  
              547.5E-03          599.081E-03        596.478E-03  
              550.E-03           602.008E-03        599.339E-03  
              552.5E-03          604.936E-03        602.2E-03    
              555.E-03           607.865E-03        605.061E-03  
              557.5E-03          610.794E-03        607.921E-03  
              560.E-03           613.724E-03        610.781E-03  
              562.5E-03          616.655E-03        613.641E-03  
              565.E-03           619.587E-03        616.5E-03    
              567.5E-03          622.519E-03        619.359E-03  
              570.E-03           625.453E-03        622.218E-03  
              572.5E-03          628.386E-03        625.077E-03  
              575.E-03           631.321E-03        627.935E-03  
              577.5E-03          634.257E-03        630.793E-03  
              580.E-03           637.193E-03        633.65E-03   
              582.5E-03          640.13E-03         636.507E-03  
              585.E-03           643.069E-03        639.364E-03  
              587.5E-03          646.008E-03        642.221E-03  
              590.E-03           648.947E-03        645.077E-03  
              592.5E-03          651.888E-03        647.933E-03  
              595.E-03           654.83E-03         650.788E-03  
              597.5E-03          657.772E-03        653.643E-03  
              600.E-03           660.715E-03        656.498E-03  
              602.5E-03          663.659E-03        659.352E-03  
              605.E-03           666.605E-03        662.207E-03  
              607.5E-03          669.551E-03        665.06E-03   
              610.E-03           672.498E-03        667.914E-03  
              612.5E-03          675.446E-03        670.766E-03  
              615.E-03           678.395E-03        673.619E-03  
              617.5E-03          681.345E-03        676.471E-03  
              620.E-03           684.295E-03        679.323E-03  
              622.5E-03          687.247E-03        682.174E-03  
              625.E-03           690.2E-03          685.025E-03  
              627.5E-03          693.154E-03        687.876E-03  
              630.E-03           696.109E-03        690.726E-03  
              632.5E-03          699.065E-03        693.575E-03  
              635.E-03           702.023E-03        696.425E-03  
              637.5E-03          704.981E-03        699.273E-03  
              640.E-03           707.94E-03         702.122E-03  
              642.5E-03          710.901E-03        704.97E-03   
              645.E-03           713.862E-03        707.817E-03  
              647.5E-03          716.825E-03        710.664E-03  
              650.E-03           719.789E-03        713.511E-03  
              652.5E-03          722.754E-03        716.357E-03  
              655.E-03           725.72E-03         719.202E-03  
              657.5E-03          728.687E-03        722.047E-03  
              660.E-03           731.656E-03        724.892E-03  
              662.5E-03          734.626E-03        727.736E-03  
              665.E-03           737.597E-03        730.58E-03   
              667.5E-03          740.569E-03        733.423E-03  
              670.E-03           743.543E-03        736.265E-03  
              672.5E-03          746.518E-03        739.107E-03  
              675.E-03           749.494E-03        741.949E-03  
              677.5E-03          752.471E-03        744.79E-03   
              680.E-03           755.45E-03         747.631E-03  
              682.5E-03          758.43E-03         750.471E-03  
              685.E-03           761.412E-03        753.31E-03   
              687.5E-03          764.395E-03        756.149E-03  
              690.E-03           767.38E-03         758.987E-03  
              692.5E-03          770.365E-03        761.825E-03  
              695.E-03           773.353E-03        764.662E-03  
              697.5E-03          776.342E-03        767.498E-03  
              700.E-03           779.332E-03        770.334E-03  
              702.5E-03          782.324E-03        773.169E-03  
              705.E-03           785.317E-03        776.004E-03  
              707.5E-03          788.312E-03        778.838E-03  
              710.E-03           791.309E-03        781.672E-03  
              712.5E-03          794.307E-03        784.504E-03  
              715.E-03           797.306E-03        787.337E-03  
              717.5E-03          800.308E-03        790.168E-03  
              720.E-03           803.311E-03        792.999E-03  
              722.5E-03          806.316E-03        795.829E-03  
              725.E-03           809.322E-03        798.659E-03  
              727.5E-03          812.33E-03         801.487E-03  
              730.E-03           815.34E-03         804.316E-03  
              732.5E-03          818.352E-03        807.143E-03  
              735.E-03           821.366E-03        809.97E-03   
              737.5E-03          824.381E-03        812.796E-03  
              740.E-03           827.398E-03        815.621E-03  
              742.5E-03          830.417E-03        818.445E-03  
              745.E-03           833.438E-03        821.269E-03  
              747.5E-03          836.461E-03        824.092E-03  
              750.E-03           839.486E-03        826.914E-03  
              752.5E-03          842.513E-03        829.736E-03  
              755.E-03           845.542E-03        832.557E-03  
              757.5E-03          848.573E-03        835.377E-03  
              760.E-03           851.606E-03        838.196E-03  
              762.5E-03          854.642E-03        841.014E-03  
              765.E-03           857.679E-03        843.831E-03  
              767.5E-03          860.719E-03        846.648E-03  
              770.E-03           863.76E-03         849.464E-03  
              772.5E-03          866.804E-03        852.279E-03  
              775.E-03           869.851E-03        855.093E-03  
              777.5E-03          872.899E-03        857.906E-03  
              780.E-03           875.95E-03         860.718E-03  
              782.5E-03          879.003E-03        863.529E-03  
              785.E-03           882.059E-03        866.34E-03   
              787.5E-03          885.117E-03        869.149E-03  
              790.E-03           888.178E-03        871.958E-03  
              792.5E-03          891.241E-03        874.765E-03  
              795.E-03           894.307E-03        877.572E-03  
              797.5E-03          897.375E-03        880.378E-03  
              800.E-03           900.446E-03        883.182E-03  
              802.5E-03          903.52E-03         885.986E-03  
              805.E-03           906.596E-03        888.789E-03  
              807.5E-03          909.675E-03        891.591E-03  
              810.E-03           912.757E-03        894.391E-03  
              812.5E-03          915.841E-03        897.191E-03  
              815.E-03           918.929E-03        899.989E-03  
              817.5E-03          922.019E-03        902.787E-03  
              820.E-03           925.113E-03        905.583E-03  
              822.5E-03          928.209E-03        908.378E-03  
              825.E-03           931.309E-03        911.173E-03  
              827.5E-03          934.411E-03        913.966E-03  
              830.E-03           937.517E-03        916.758E-03  
              832.5E-03          940.626E-03        919.548E-03  
              835.E-03           943.739E-03        922.338E-03  
              837.5E-03          946.854E-03        925.126E-03  
              840.E-03           949.973E-03        927.913E-03  
              842.5E-03          953.095E-03        930.699E-03  
              845.E-03           956.221E-03        933.484E-03  
              847.5E-03          959.35E-03         936.268E-03  
              850.E-03           962.483E-03        939.05E-03   
              852.5E-03          965.62E-03         941.831E-03  
              855.E-03           968.76E-03         944.61E-03   
              857.5E-03          971.904E-03        947.389E-03  
              860.E-03           975.052E-03        950.166E-03  
              862.5E-03          978.203E-03        952.941E-03  
              865.E-03           981.359E-03        955.716E-03  
              867.5E-03          984.519E-03        958.488E-03  
              870.E-03           987.682E-03        961.26E-03   
              872.5E-03          990.85E-03         964.03E-03   
              875.E-03           994.022E-03        966.799E-03  
              877.5E-03          997.198E-03        969.566E-03  
              880.E-03             1.00038          972.332E-03  
              882.5E-03            1.00356          975.096E-03  
              885.E-03             1.00675          977.859E-03  
              887.5E-03            1.00995          980.62E-03   
              890.E-03             1.01315          983.38E-03   
              892.5E-03            1.01635          986.138E-03  
              895.E-03             1.01956          988.894E-03  
              897.5E-03            1.02277          991.649E-03  
              900.E-03             1.02599          994.403E-03  
              902.5E-03            1.02921          997.154E-03  
              905.E-03             1.03244          999.904E-03  
              907.5E-03            1.03568            1.00265    
              910.E-03             1.03891            1.0054     
              912.5E-03            1.04216            1.00814    
              915.E-03             1.04541            1.01089    
              917.5E-03            1.04866            1.01363    
              920.E-03             1.05193            1.01637    
              922.5E-03            1.05519            1.01911    
              925.E-03             1.05847            1.02184    
              927.5E-03            1.06175            1.02458    
              930.E-03             1.06503            1.02731    
              932.5E-03            1.06832            1.03004    
              935.E-03             1.07162            1.03277    
              937.5E-03            1.07492            1.03549    
              940.E-03             1.07824            1.03822    
              942.5E-03            1.08155            1.04094    
              945.E-03             1.08488            1.04366    
              947.5E-03            1.08821            1.04638    
              950.E-03             1.09155            1.0491     
              952.5E-03            1.0949             1.05181    
              955.E-03             1.09825            1.05452    
              957.5E-03            1.10161            1.05723    
              960.E-03             1.10498            1.05994    
              962.5E-03            1.10836            1.06264    
              965.E-03             1.11174            1.06535    
              967.5E-03            1.11514            1.06805    
              970.E-03             1.11854            1.07075    
              972.5E-03            1.12195            1.07344    
              975.E-03             1.12537            1.07614    
              977.5E-03            1.1288             1.07883    
              980.E-03             1.13223            1.08152    
              982.5E-03            1.13568            1.0842     
              985.E-03             1.13914            1.08689    
              987.5E-03            1.1426             1.08957    
              990.E-03             1.14608            1.09225    
              992.5E-03            1.14956            1.09492    
              995.E-03             1.15306            1.0976     
              997.5E-03            1.15657            1.10027    
                1.                 1.16008            1.10294    




