
                  X                 Dinn               Dout      

                0.                 0.                 0.         
                2.5E-03            0.                 0.         
                5.E-03             1.39746E-03        1.2785E-03 
                7.5E-03            2.82726E-03        2.6721E-03 
               10.E-03             4.23957E-03        4.05662E-03
               12.5E-03            5.64278E-03        5.43862E-03
               15.E-03             7.04062E-03        6.82067E-03
               17.5E-03            8.43488E-03        8.20371E-03
               20.E-03             9.82655E-03        9.58801E-03
               22.5E-03           11.2162E-03        10.9736E-03 
               25.E-03            12.6042E-03        12.3604E-03 
               27.5E-03           13.9909E-03        13.7483E-03 
               30.E-03            15.3764E-03        15.1373E-03 
               32.5E-03           16.7611E-03        16.5271E-03 
               35.E-03            18.1449E-03        17.9178E-03 
               37.5E-03           19.528E-03         19.3093E-03 
               40.E-03            20.9106E-03        20.7014E-03 
               42.5E-03           22.2927E-03        22.0942E-03 
               45.E-03            23.6744E-03        23.4876E-03 
               47.5E-03           25.0557E-03        24.8815E-03 
               50.E-03            26.4367E-03        26.2759E-03 
               52.5E-03           27.8175E-03        27.6708E-03 
               55.E-03            29.1981E-03        29.0661E-03 
               57.5E-03           30.5785E-03        30.4618E-03 
               60.E-03            31.9588E-03        31.8579E-03 
               62.5E-03           33.3389E-03        33.2544E-03 
               65.E-03            34.719E-03         34.6512E-03 
               67.5E-03           36.099E-03         36.0483E-03 
               70.E-03            37.479E-03         37.4457E-03 
               72.5E-03           38.8589E-03        38.8433E-03 
               75.E-03            40.2389E-03        40.2413E-03 
               77.5E-03           41.6188E-03        41.6395E-03 
               80.E-03            42.9987E-03        43.0379E-03 
               82.5E-03           44.3787E-03        44.4365E-03 
               85.E-03            45.7587E-03        45.8354E-03 
               87.5E-03           47.1387E-03        47.2345E-03 
               90.E-03            48.5188E-03        48.6337E-03 
               92.5E-03           49.8989E-03        50.0332E-03 
               95.E-03            51.2792E-03        51.4328E-03 
               97.5E-03           52.6594E-03        52.8326E-03 
              100.E-03            54.0398E-03        54.2326E-03 
              102.5E-03           55.1677E-03        55.3764E-03 
              105.E-03            56.5493E-03        56.6993E-03 
              107.5E-03           57.9874E-03        57.8524E-03 
              110.E-03            59.2028E-03        58.9337E-03 
              112.5E-03           60.2217E-03        59.9384E-03 
              115.E-03            61.1522E-03        60.8564E-03 
              117.5E-03           62.0232E-03        61.7213E-03 
              120.E-03            62.8587E-03        62.5513E-03 
              122.5E-03           63.6718E-03        63.3597E-03 
              125.E-03            64.4709E-03        64.1546E-03 
              127.5E-03           65.2614E-03        64.9412E-03 
              130.E-03            66.0464E-03        65.7225E-03 
              132.5E-03           66.828E-03         66.5005E-03 
              135.E-03            67.6074E-03        67.2766E-03 
              137.5E-03           68.3856E-03        68.0515E-03 
              140.E-03            69.1629E-03        68.8256E-03 
              142.5E-03           69.9397E-03        69.5993E-03 
              145.E-03            70.7161E-03        70.3727E-03 
              147.5E-03           71.4924E-03        71.146E-03  
              150.E-03            72.2686E-03        71.9192E-03 
              152.5E-03           73.0446E-03        72.6925E-03 
              155.E-03            73.8207E-03        73.4657E-03 
              157.5E-03           74.5967E-03        74.239E-03  
              160.E-03            75.3727E-03        75.0122E-03 
              162.5E-03           76.1488E-03        75.7855E-03 
              165.E-03            76.9248E-03        76.5587E-03 
              167.5E-03           77.7009E-03        77.332E-03  
              170.E-03            78.477E-03         78.1052E-03 
              172.5E-03           79.2531E-03        78.8784E-03 
              175.E-03            80.0292E-03        79.6517E-03 
              177.5E-03           80.8054E-03        80.4249E-03 
              180.E-03            81.5816E-03        81.1981E-03 
              182.5E-03           82.3579E-03        81.9713E-03 
              185.E-03            83.1916E-03        82.7983E-03 
              187.5E-03           84.1476E-03        83.7417E-03 
              190.E-03            85.19E-03          84.7669E-03 
              192.5E-03           86.2929E-03        85.8479E-03 
              195.E-03            87.4358E-03        86.9666E-03 
              197.5E-03           88.6043E-03        88.1107E-03 
              200.E-03            89.7891E-03        89.2722E-03 
              202.5E-03           90.984E-03         90.4455E-03 
              205.E-03            92.1852E-03        91.627E-03  
              207.5E-03           93.3904E-03        92.814E-03  
              210.E-03            94.5981E-03        94.0048E-03 
              212.5E-03           95.8073E-03        95.1982E-03 
              215.E-03            97.0174E-03        96.3932E-03 
              217.5E-03           98.2281E-03        97.5895E-03 
              220.E-03            99.4392E-03        98.7866E-03 
              222.5E-03          100.651E-03         99.9842E-03 
              225.E-03           101.862E-03        101.182E-03  
              227.5E-03          103.074E-03        102.38E-03   
              230.E-03           104.285E-03        103.579E-03  
              232.5E-03          105.497E-03        104.777E-03  
              235.E-03           106.709E-03        105.976E-03  
              237.5E-03          107.921E-03        107.174E-03  
              240.E-03           109.133E-03        108.372E-03  
              242.5E-03          110.345E-03        109.571E-03  
              245.E-03           111.557E-03        110.769E-03  
              247.5E-03          112.769E-03        111.968E-03  
              250.E-03           113.982E-03        113.166E-03  
              252.5E-03          115.195E-03        114.364E-03  
              255.E-03           116.407E-03        115.563E-03  
              257.5E-03          117.62E-03         116.761E-03  
              260.E-03           118.833E-03        117.959E-03  
              262.5E-03          120.047E-03        119.157E-03  
              265.E-03           121.26E-03         120.355E-03  
              267.5E-03          122.474E-03        121.553E-03  
              270.E-03           123.687E-03        122.751E-03  
              272.5E-03          124.901E-03        123.949E-03  
              275.E-03           126.115E-03        125.147E-03  
              277.5E-03          127.33E-03         126.344E-03  
              280.E-03           128.544E-03        127.542E-03  
              282.5E-03          129.759E-03        128.74E-03   
              285.E-03           130.974E-03        129.937E-03  
              287.5E-03          132.189E-03        131.135E-03  
              290.E-03           133.404E-03        132.332E-03  
              292.5E-03          134.62E-03         133.529E-03  
              295.E-03           135.835E-03        134.726E-03  
              297.5E-03          137.051E-03        135.924E-03  
              300.E-03           138.267E-03        137.121E-03  
              302.5E-03          139.484E-03        138.317E-03  
              305.E-03           140.7E-03          139.514E-03  
              307.5E-03          141.917E-03        140.711E-03  
              310.E-03           143.134E-03        141.908E-03  
              312.5E-03          144.352E-03        143.104E-03  
              315.E-03           145.569E-03        144.3E-03    
              317.5E-03          146.787E-03        145.497E-03  
              320.E-03           148.005E-03        146.693E-03  
              322.5E-03          149.224E-03        147.889E-03  
              325.E-03           150.442E-03        149.085E-03  
              327.5E-03          151.661E-03        150.281E-03  
              330.E-03           152.88E-03         151.476E-03  
              332.5E-03          154.1E-03          152.672E-03  
              335.E-03           155.32E-03         153.867E-03  
              337.5E-03          156.54E-03         155.062E-03  
              340.E-03           157.76E-03         156.257E-03  
              342.5E-03          158.981E-03        157.452E-03  
              345.E-03           160.202E-03        158.647E-03  
              347.5E-03          161.423E-03        159.842E-03  
              350.E-03           162.645E-03        161.036E-03  
              352.5E-03          163.867E-03        162.23E-03   
              355.E-03           165.089E-03        163.424E-03  
              357.5E-03          166.312E-03        164.618E-03  
              360.E-03           167.535E-03        165.812E-03  
              362.5E-03          168.758E-03        167.006E-03  
              365.E-03           169.982E-03        168.199E-03  
              367.5E-03          171.206E-03        169.392E-03  
              370.E-03           172.431E-03        170.585E-03  
              372.5E-03          173.656E-03        171.778E-03  
              375.E-03           174.881E-03        172.97E-03   
              377.5E-03          176.107E-03        174.163E-03  
              380.E-03           177.333E-03        175.355E-03  
              382.5E-03          178.559E-03        176.546E-03  
              385.E-03           179.786E-03        177.738E-03  
              387.5E-03          181.013E-03        178.929E-03  
              390.E-03           182.241E-03        180.12E-03   
              392.5E-03          183.469E-03        181.311E-03  
              395.E-03           184.698E-03        182.502E-03  
              397.5E-03          185.927E-03        183.692E-03  
              400.E-03           187.157E-03        184.882E-03  
              402.5E-03          188.387E-03        186.072E-03  
              405.E-03           189.617E-03        187.261E-03  
              407.5E-03          190.848E-03        188.45E-03   
              410.E-03           192.08E-03         189.639E-03  
              412.5E-03          193.312E-03        190.828E-03  
              415.E-03           194.545E-03        192.016E-03  
              417.5E-03          195.778E-03        193.204E-03  
              420.E-03           197.011E-03        194.392E-03  
              422.5E-03          198.246E-03        195.579E-03  
              425.E-03           199.48E-03         196.766E-03  
              427.5E-03          200.716E-03        197.953E-03  
              430.E-03           201.952E-03        199.139E-03  
              432.5E-03          203.188E-03        200.325E-03  
              435.E-03           204.425E-03        201.51E-03   
              437.5E-03          205.663E-03        202.695E-03  
              440.E-03           206.901E-03        203.88E-03   
              442.5E-03          208.14E-03         205.065E-03  
              445.E-03           209.379E-03        206.249E-03  
              447.5E-03          210.619E-03        207.432E-03  
              450.E-03           211.86E-03         208.616E-03  
              452.5E-03          213.102E-03        209.798E-03  
              455.E-03           214.344E-03        210.981E-03  
              457.5E-03          215.586E-03        212.163E-03  
              460.E-03           216.83E-03         213.344E-03  
              462.5E-03          218.074E-03        214.526E-03  
              465.E-03           219.319E-03        215.706E-03  
              467.5E-03          220.564E-03        216.887E-03  
              470.E-03           221.81E-03         218.066E-03  
              472.5E-03          223.057E-03        219.246E-03  
              475.E-03           224.305E-03        220.425E-03  
              477.5E-03          225.553E-03        221.603E-03  
              480.E-03           226.803E-03        222.781E-03  
              482.5E-03          228.052E-03        223.959E-03  
              485.E-03           229.303E-03        225.136E-03  
              487.5E-03          230.555E-03        226.312E-03  
              490.E-03           231.807E-03        227.488E-03  
              492.5E-03          233.06E-03         228.664E-03  
              495.E-03           234.314E-03        229.839E-03  
              497.5E-03          235.568E-03        231.014E-03  
              500.E-03           236.824E-03        232.188E-03  
              502.5E-03          238.08E-03         233.361E-03  
              505.E-03           239.337E-03        234.534E-03  
              507.5E-03          240.595E-03        235.707E-03  
              510.E-03           241.854E-03        236.879E-03  
              512.5E-03          243.114E-03        238.05E-03   
              515.E-03           244.374E-03        239.221E-03  
              517.5E-03          245.635E-03        240.392E-03  
              520.E-03           246.898E-03        241.562E-03  
              522.5E-03          248.161E-03        242.731E-03  
              525.E-03           249.425E-03        243.9E-03    
              527.5E-03          250.69E-03         245.068E-03  
              530.E-03           251.956E-03        246.236E-03  
              532.5E-03          253.222E-03        247.403E-03  
              535.E-03           254.49E-03         248.57E-03   
              537.5E-03          255.759E-03        249.736E-03  
              540.E-03           257.028E-03        250.901E-03  
              542.5E-03          258.299E-03        252.066E-03  
              545.E-03           259.57E-03         253.231E-03  
              547.5E-03          260.842E-03        254.394E-03  
              550.E-03           262.116E-03        255.558E-03  
              552.5E-03          263.39E-03         256.72E-03   
              555.E-03           264.665E-03        257.882E-03  
              557.5E-03          265.941E-03        259.044E-03  
              560.E-03           267.219E-03        260.205E-03  
              562.5E-03          268.497E-03        261.365E-03  
              565.E-03           269.776E-03        262.525E-03  
              567.5E-03          271.056E-03        263.684E-03  
              570.E-03           272.337E-03        264.843E-03  
              572.5E-03          273.619E-03        266.001E-03  
              575.E-03           274.902E-03        267.159E-03  
              577.5E-03          276.186E-03        268.316E-03  
              580.E-03           277.471E-03        269.472E-03  
              582.5E-03          278.758E-03        270.628E-03  
              585.E-03           280.045E-03        271.784E-03  
              587.5E-03          281.333E-03        272.938E-03  
              590.E-03           282.622E-03        274.092E-03  
              592.5E-03          283.912E-03        275.246E-03  
              595.E-03           285.204E-03        276.399E-03  
              597.5E-03          286.496E-03        277.552E-03  
              600.E-03           287.789E-03        278.703E-03  
              602.5E-03          289.083E-03        279.855E-03  
              605.E-03           290.379E-03        281.006E-03  
              607.5E-03          291.675E-03        282.156E-03  
              610.E-03           292.973E-03        283.305E-03  
              612.5E-03          294.271E-03        284.455E-03  
              615.E-03           295.571E-03        285.603E-03  
              617.5E-03          296.871E-03        286.751E-03  
              620.E-03           298.173E-03        287.899E-03  
              622.5E-03          299.475E-03        289.046E-03  
              625.E-03           300.779E-03        290.192E-03  
              627.5E-03          302.084E-03        291.338E-03  
              630.E-03           303.39E-03         292.483E-03  
              632.5E-03          304.697E-03        293.628E-03  
              635.E-03           306.004E-03        294.772E-03  
              637.5E-03          307.313E-03        295.916E-03  
              640.E-03           308.623E-03        297.059E-03  
              642.5E-03          309.934E-03        298.202E-03  
              645.E-03           311.247E-03        299.344E-03  
              647.5E-03          312.56E-03         300.486E-03  
              650.E-03           313.874E-03        301.627E-03  
              652.5E-03          315.189E-03        302.768E-03  
              655.E-03           316.505E-03        303.908E-03  
              657.5E-03          317.823E-03        305.048E-03  
              660.E-03           319.141E-03        306.187E-03  
              662.5E-03          320.46E-03         307.326E-03  
              665.E-03           321.781E-03        308.464E-03  
              667.5E-03          323.102E-03        309.601E-03  
              670.E-03           324.425E-03        310.739E-03  
              672.5E-03          325.748E-03        311.875E-03  
              675.E-03           327.073E-03        313.012E-03  
              677.5E-03          328.398E-03        314.148E-03  
              680.E-03           329.725E-03        315.283E-03  
              682.5E-03          331.053E-03        316.418E-03  
              685.E-03           332.381E-03        317.552E-03  
              687.5E-03          333.711E-03        318.686E-03  
              690.E-03           335.042E-03        319.82E-03   
              692.5E-03          336.373E-03        320.953E-03  
              695.E-03           337.706E-03        322.086E-03  
              697.5E-03          339.04E-03         323.218E-03  
              700.E-03           340.375E-03        324.35E-03   
              702.5E-03          341.71E-03         325.481E-03  
              705.E-03           343.047E-03        326.612E-03  
              707.5E-03          344.385E-03        327.743E-03  
              710.E-03           345.723E-03        328.873E-03  
              712.5E-03          347.063E-03        330.003E-03  
              715.E-03           348.404E-03        331.132E-03  
              717.5E-03          349.745E-03        332.261E-03  
              720.E-03           351.088E-03        333.39E-03   
              722.5E-03          352.431E-03        334.518E-03  
              725.E-03           353.776E-03        335.646E-03  
              727.5E-03          355.121E-03        336.774E-03  
              730.E-03           356.467E-03        337.901E-03  
              732.5E-03          357.815E-03        339.027E-03  
              735.E-03           359.163E-03        340.154E-03  
              737.5E-03          360.512E-03        341.28E-03   
              740.E-03           361.862E-03        342.405E-03  
              742.5E-03          363.213E-03        343.531E-03  
              745.E-03           364.565E-03        344.656E-03  
              747.5E-03          365.918E-03        345.78E-03   
              750.E-03           367.272E-03        346.905E-03  
              752.5E-03          368.627E-03        348.029E-03  
              755.E-03           369.982E-03        349.152E-03  
              757.5E-03          371.339E-03        350.276E-03  
              760.E-03           372.696E-03        351.399E-03  
              762.5E-03          374.054E-03        352.522E-03  
              765.E-03           375.413E-03        353.644E-03  
              767.5E-03          376.773E-03        354.766E-03  
              770.E-03           378.134E-03        355.888E-03  
              772.5E-03          379.496E-03        357.01E-03   
              775.E-03           380.858E-03        358.131E-03  
              777.5E-03          382.221E-03        359.252E-03  
              780.E-03           383.586E-03        360.373E-03  
              782.5E-03          384.951E-03        361.493E-03  
              785.E-03           386.316E-03        362.613E-03  
              787.5E-03          387.683E-03        363.733E-03  
              790.E-03           389.05E-03         364.853E-03  
              792.5E-03          390.418E-03        365.973E-03  
              795.E-03           391.787E-03        367.092E-03  
              797.5E-03          393.157E-03        368.211E-03  
              800.E-03           394.528E-03        369.329E-03  
              802.5E-03          395.899E-03        370.448E-03  
              805.E-03           397.271E-03        371.566E-03  
              807.5E-03          398.644E-03        372.684E-03  
              810.E-03           400.018E-03        373.802E-03  
              812.5E-03          401.392E-03        374.92E-03   
              815.E-03           402.767E-03        376.037E-03  
              817.5E-03          404.143E-03        377.155E-03  
              820.E-03           405.519E-03        378.272E-03  
              822.5E-03          406.896E-03        379.388E-03  
              825.E-03           408.274E-03        380.505E-03  
              827.5E-03          409.653E-03        381.622E-03  
              830.E-03           411.032E-03        382.738E-03  
              832.5E-03          412.412E-03        383.854E-03  
              835.E-03           413.793E-03        384.97E-03   
              837.5E-03          415.174E-03        386.086E-03  
              840.E-03           416.556E-03        387.201E-03  
              842.5E-03          417.938E-03        388.317E-03  
              845.E-03           419.322E-03        389.432E-03  
              847.5E-03          420.705E-03        390.547E-03  
              850.E-03           422.09E-03         391.662E-03  
              852.5E-03          423.475E-03        392.777E-03  
              855.E-03           424.861E-03        393.892E-03  
              857.5E-03          426.247E-03        395.006E-03  
              860.E-03           427.634E-03        396.121E-03  
              862.5E-03          429.021E-03        397.235E-03  
              865.E-03           430.409E-03        398.349E-03  
              867.5E-03          431.798E-03        399.463E-03  
              870.E-03           433.187E-03        400.577E-03  
              872.5E-03          434.577E-03        401.691E-03  
              875.E-03           435.967E-03        402.805E-03  
              877.5E-03          437.358E-03        403.919E-03  
              880.E-03           438.749E-03        405.032E-03  
              882.5E-03          440.141E-03        406.146E-03  
              885.E-03           441.533E-03        407.259E-03  
              887.5E-03          442.926E-03        408.373E-03  
              890.E-03           444.319E-03        409.486E-03  
              892.5E-03          445.713E-03        410.599E-03  
              895.E-03           447.107E-03        411.712E-03  
              897.5E-03          448.502E-03        412.825E-03  
              900.E-03           449.897E-03        413.938E-03  
              902.5E-03          451.293E-03        415.051E-03  
              905.E-03           452.689E-03        416.164E-03  
              907.5E-03          454.086E-03        417.276E-03  
              910.E-03           455.483E-03        418.389E-03  
              912.5E-03          456.88E-03         419.502E-03  
              915.E-03           458.278E-03        420.614E-03  
              917.5E-03          459.676E-03        421.727E-03  
              920.E-03           461.075E-03        422.839E-03  
              922.5E-03          462.474E-03        423.952E-03  
              925.E-03           463.873E-03        425.064E-03  
              927.5E-03          465.273E-03        426.177E-03  
              930.E-03           466.673E-03        427.289E-03  
              932.5E-03          468.073E-03        428.402E-03  
              935.E-03           469.474E-03        429.514E-03  
              937.5E-03          470.875E-03        430.626E-03  
              940.E-03           472.277E-03        431.739E-03  
              942.5E-03          473.679E-03        432.851E-03  
              945.E-03           475.081E-03        433.963E-03  
              947.5E-03          476.483E-03        435.076E-03  
              950.E-03           477.886E-03        436.188E-03  
              952.5E-03          479.289E-03        437.3E-03    
              955.E-03           480.692E-03        438.412E-03  
              957.5E-03          482.096E-03        439.525E-03  
              960.E-03           483.5E-03          440.637E-03  
              962.5E-03          484.904E-03        441.749E-03  
              965.E-03           486.308E-03        442.862E-03  
              967.5E-03          487.713E-03        443.974E-03  
              970.E-03           489.117E-03        445.086E-03  
              972.5E-03          490.522E-03        446.199E-03  
              975.E-03           491.928E-03        447.311E-03  
              977.5E-03          493.333E-03        448.424E-03  
              980.E-03           494.739E-03        449.536E-03  
              982.5E-03          496.145E-03        450.649E-03  
              985.E-03           497.551E-03        451.761E-03  
              987.5E-03          498.957E-03        452.874E-03  
              990.E-03           500.364E-03        453.987E-03  
              992.5E-03          501.77E-03         455.099E-03  
              995.E-03           503.177E-03        456.212E-03  
              997.5E-03          504.584E-03        457.325E-03  
                1.               505.991E-03        458.438E-03  




