
                  X              SENER-out           SENER-in    

                0.                 0.                 0.         
                2.5E-03          135.288E+03        135.288E+03  
                5.E-03           262.303E+03        257.996E+03  
                7.5E-03          270.738E+03        266.931E+03  
               10.E-03           278.629E+03        275.234E+03  
               12.5E-03          286.128E+03        283.078E+03  
               15.E-03           293.316E+03        290.562E+03  
               17.5E-03          300.24E+03         297.744E+03  
               20.E-03           306.932E+03        304.66E+03   
               22.5E-03          313.414E+03        311.34E+03   
               25.E-03           319.704E+03        317.806E+03  
               27.5E-03          325.818E+03        324.076E+03  
               30.E-03           331.768E+03        330.166E+03  
               32.5E-03          337.566E+03        336.089E+03  
               35.E-03           343.222E+03        341.858E+03  
               37.5E-03          348.744E+03        347.483E+03  
               40.E-03           354.14E+03         352.974E+03  
               42.5E-03          359.419E+03        358.338E+03  
               45.E-03           364.586E+03        363.583E+03  
               47.5E-03          369.648E+03        368.716E+03  
               50.E-03           374.61E+03         373.744E+03  
               52.5E-03          379.476E+03        378.672E+03  
               55.E-03           384.253E+03        383.505E+03  
               57.5E-03          388.944E+03        388.248E+03  
               60.E-03           393.552E+03        392.906E+03  
               62.5E-03          398.083E+03        397.482E+03  
               65.E-03           402.538E+03        401.98E+03   
               67.5E-03          406.922E+03        406.403E+03  
               70.E-03           411.237E+03        410.756E+03  
               72.5E-03          415.486E+03        415.04E+03   
               75.E-03           419.672E+03        419.259E+03  
               77.5E-03          423.797E+03        423.415E+03  
               80.E-03           427.864E+03        427.511E+03  
               82.5E-03          431.874E+03        431.549E+03  
               85.E-03           435.83E+03         435.531E+03  
               87.5E-03          439.733E+03        439.459E+03  
               90.E-03           443.586E+03        443.336E+03  
               92.5E-03          447.389E+03        447.162E+03  
               95.E-03           451.146E+03        450.939E+03  
               97.5E-03          454.856E+03        454.67E+03   
              100.E-03           458.522E+03        458.356E+03  
              102.5E-03          462.146E+03        461.998E+03  
              105.E-03           465.727E+03        465.597E+03  
              107.5E-03          469.268E+03        469.155E+03  
              110.E-03           472.77E+03         472.673E+03  
              112.5E-03          476.234E+03        476.153E+03  
              115.E-03           479.661E+03        479.594E+03  
              117.5E-03          483.052E+03        483.E+03     
              120.E-03           486.408E+03        486.369E+03  
              122.5E-03          489.73E+03         489.704E+03  
              125.E-03           493.019E+03        493.006E+03  
              127.5E-03          496.275E+03        496.275E+03  
              130.E-03           499.5E+03          499.512E+03  
              132.5E-03          502.694E+03        502.717E+03  
              135.E-03           505.859E+03        505.893E+03  
              137.5E-03          508.994E+03        509.039E+03  
              140.E-03           512.101E+03        512.156E+03  
              142.5E-03          515.18E+03         515.245E+03  
              145.E-03           518.232E+03        518.307E+03  
              147.5E-03          521.258E+03        521.342E+03  
              150.E-03           524.257E+03        524.35E+03   
              152.5E-03          527.231E+03        527.333E+03  
              155.E-03           530.181E+03        530.291E+03  
              157.5E-03          533.106E+03        533.225E+03  
              160.E-03           536.008E+03        536.134E+03  
              162.5E-03          538.886E+03        539.021E+03  
              165.E-03           541.742E+03        541.884E+03  
              167.5E-03          544.575E+03        544.725E+03  
              170.E-03           547.387E+03        547.544E+03  
              172.5E-03          550.177E+03        550.341E+03  
              175.E-03           552.947E+03        553.117E+03  
              177.5E-03          555.696E+03        555.873E+03  
              180.E-03           558.424E+03        558.608E+03  
              182.5E-03          561.133E+03        561.324E+03  
              185.E-03           563.823E+03        564.02E+03   
              187.5E-03          566.494E+03        566.696E+03  
              190.E-03           569.146E+03        569.355E+03  
              192.5E-03          571.78E+03         571.994E+03  
              195.E-03           574.396E+03        574.616E+03  
              197.5E-03          576.994E+03        577.22E+03   
              200.E-03           579.575E+03        579.806E+03  
              202.5E-03          582.139E+03        582.375E+03  
              205.E-03           584.686E+03        584.928E+03  
              207.5E-03          587.217E+03        587.464E+03  
              210.E-03           589.732E+03        589.983E+03  
              212.5E-03          592.23E+03         592.487E+03  
              215.E-03           594.714E+03        594.975E+03  
              217.5E-03          597.181E+03        597.447E+03  
              220.E-03           599.634E+03        599.905E+03  
              222.5E-03          602.072E+03        602.347E+03  
              225.E-03           604.495E+03        604.775E+03  
              227.5E-03          606.904E+03        607.188E+03  
              230.E-03           609.298E+03        609.587E+03  
              232.5E-03          611.679E+03        611.972E+03  
              235.E-03           614.046E+03        614.343E+03  
              237.5E-03          616.399E+03        616.7E+03    
              240.E-03           618.739E+03        619.044E+03  
              242.5E-03          621.066E+03        621.375E+03  
              245.E-03           623.38E+03         623.693E+03  
              247.5E-03          625.681E+03        625.998E+03  
              250.E-03           627.97E+03         628.291E+03  
              252.5E-03          630.246E+03        630.571E+03  
              255.E-03           632.51E+03         632.839E+03  
              257.5E-03          634.762E+03        635.095E+03  
              260.E-03           637.002E+03        637.338E+03  
              262.5E-03          639.231E+03        639.57E+03   
              265.E-03           641.448E+03        641.791E+03  
              267.5E-03          643.653E+03        644.E+03     
              270.E-03           645.848E+03        646.198E+03  
              272.5E-03          648.031E+03        648.385E+03  
              275.E-03           650.203E+03        650.56E+03   
              277.5E-03          652.365E+03        652.725E+03  
              280.E-03           654.516E+03        654.88E+03   
              282.5E-03          656.656E+03        657.023E+03  
              285.E-03           658.786E+03        659.157E+03  
              287.5E-03          660.906E+03        661.28E+03   
              290.E-03           663.016E+03        663.393E+03  
              292.5E-03          665.116E+03        665.495E+03  
              295.E-03           667.206E+03        667.589E+03  
              297.5E-03          669.286E+03        669.672E+03  
              300.E-03           671.356E+03        671.745E+03  
              302.5E-03          673.417E+03        673.809E+03  
              305.E-03           675.469E+03        675.864E+03  
              307.5E-03          677.512E+03        677.91E+03   
              310.E-03           679.545E+03        679.946E+03  
              312.5E-03          681.569E+03        681.973E+03  
              315.E-03           683.584E+03        683.991E+03  
              317.5E-03          685.591E+03        686.E+03     
              320.E-03           687.589E+03        688.001E+03  
              322.5E-03          689.578E+03        689.993E+03  
              325.E-03           691.558E+03        691.976E+03  
              327.5E-03          693.53E+03         693.951E+03  
              330.E-03           695.494E+03        695.918E+03  
              332.5E-03          697.45E+03         697.876E+03  
              335.E-03           699.397E+03        699.826E+03  
              337.5E-03          701.336E+03        701.768E+03  
              340.E-03           703.268E+03        703.702E+03  
              342.5E-03          705.191E+03        705.628E+03  
              345.E-03           707.107E+03        707.547E+03  
              347.5E-03          709.014E+03        709.457E+03  
              350.E-03           710.915E+03        711.36E+03   
              352.5E-03          712.807E+03        713.255E+03  
              355.E-03           714.693E+03        715.143E+03  
              357.5E-03          716.57E+03         717.024E+03  
              360.E-03           718.441E+03        718.897E+03  
              362.5E-03          720.304E+03        720.763E+03  
              365.E-03           722.16E+03         722.621E+03  
              367.5E-03          724.009E+03        724.473E+03  
              370.E-03           725.851E+03        726.317E+03  
              372.5E-03          727.686E+03        728.155E+03  
              375.E-03           729.514E+03        729.985E+03  
              377.5E-03          731.335E+03        731.809E+03  
              380.E-03           733.15E+03         733.626E+03  
              382.5E-03          734.958E+03        735.436E+03  
              385.E-03           718.296E+03        718.65E+03   
              387.5E-03          697.492E+03        697.648E+03  
              390.E-03           680.674E+03        680.581E+03  
              392.5E-03          668.586E+03        668.26E+03   
              395.E-03           660.308E+03        659.828E+03  
              397.5E-03          654.808E+03        654.4E+03    
              400.E-03           651.177E+03        651.284E+03  
              402.5E-03          648.719E+03        649.874E+03  
              405.E-03           647.025E+03        649.548E+03  
              407.5E-03          645.933E+03        649.811E+03  
              410.E-03           645.38E+03         650.386E+03  
              412.5E-03          645.271E+03        651.149E+03  
              415.E-03           645.494E+03        652.047E+03  
              417.5E-03          645.951E+03        653.047E+03  
              420.E-03           646.569E+03        654.129E+03  
              422.5E-03          647.294E+03        655.275E+03  
              425.E-03           648.087E+03        656.473E+03  
              427.5E-03          648.923E+03        657.711E+03  
              430.E-03           649.783E+03        658.984E+03  
              432.5E-03          650.653E+03        660.287E+03  
              435.E-03           651.525E+03        661.616E+03  
              437.5E-03          652.389E+03        662.972E+03  
              440.E-03           653.24E+03         664.353E+03  
              442.5E-03          654.072E+03        665.762E+03  
              445.E-03           654.88E+03         667.2E+03    
              447.5E-03          655.66E+03         668.672E+03  
              450.E-03           656.405E+03        670.182E+03  
              452.5E-03          657.111E+03        671.735E+03  
              455.E-03           657.772E+03        673.339E+03  
              457.5E-03          658.38E+03         675.002E+03  
              460.E-03           658.929E+03        676.733E+03  
              462.5E-03          659.41E+03         678.545E+03  
              465.E-03           659.818E+03        680.45E+03   
              467.5E-03          660.146E+03        682.462E+03  
              470.E-03           660.391E+03        684.595E+03  
              472.5E-03          660.556E+03        686.859E+03  
              475.E-03           660.652E+03        689.264E+03  
              477.5E-03          660.696E+03        691.81E+03   
              480.E-03           660.711E+03        694.497E+03  
              482.5E-03          660.723E+03        697.316E+03  
              485.E-03           659.813E+03        700.231E+03  
              487.5E-03          659.975E+03        703.185E+03  
              490.E-03           660.194E+03        706.293E+03  
              492.5E-03          660.197E+03        709.427E+03  
              495.E-03           660.115E+03        712.731E+03  
              497.5E-03          660.296E+03        716.1E+03    
              500.E-03           660.427E+03        719.563E+03  
              502.5E-03          660.731E+03        723.125E+03  
              505.E-03           661.08E+03         726.783E+03  
              507.5E-03          661.495E+03        730.542E+03  
              510.E-03           662.039E+03        734.395E+03  
              512.5E-03          662.583E+03        738.301E+03  
              515.E-03           663.178E+03        742.347E+03  
              517.5E-03          663.812E+03        746.533E+03  
              520.E-03           664.466E+03        750.776E+03  
              522.5E-03          665.17E+03         755.117E+03  
              525.E-03           665.899E+03        759.556E+03  
              527.5E-03          666.656E+03        764.093E+03  
              530.E-03           667.446E+03        768.729E+03  
              532.5E-03          668.263E+03        773.462E+03  
              535.E-03           669.111E+03        778.295E+03  
              537.5E-03          669.992E+03        783.227E+03  
              540.E-03           670.9E+03          788.259E+03  
              542.5E-03          671.85E+03         793.388E+03  
              545.E-03           672.851E+03        798.565E+03  
              547.5E-03          673.847E+03        803.949E+03  
              550.E-03           674.9E+03          809.381E+03  
              552.5E-03          675.993E+03        814.917E+03  
              555.E-03           677.126E+03        820.554E+03  
              557.5E-03          678.301E+03        826.295E+03  
              560.E-03           679.521E+03        832.139E+03  
              562.5E-03          680.787E+03        838.088E+03  
              565.E-03           682.101E+03        844.141E+03  
              567.5E-03          683.492E+03        850.233E+03  
              570.E-03           684.882E+03        856.564E+03  
              572.5E-03          686.352E+03        862.936E+03  
              575.E-03           687.879E+03        869.418E+03  
              577.5E-03          689.463E+03        876.008E+03  
              580.E-03           691.11E+03         882.709E+03  
              582.5E-03          692.819E+03        889.52E+03   
              585.E-03           694.594E+03        896.443E+03  
              587.5E-03          696.454E+03        903.479E+03  
              590.E-03           698.751E+03        910.628E+03  
              592.5E-03          701.661E+03        917.884E+03  
              595.E-03           703.09E+03         925.239E+03  
              597.5E-03          704.002E+03        932.697E+03  
              600.E-03           704.907E+03        940.266E+03  
              602.5E-03          705.815E+03        947.948E+03  
              605.E-03           706.731E+03        955.743E+03  
              607.5E-03          707.651E+03        963.651E+03  
              610.E-03           708.571E+03        971.676E+03  
              612.5E-03          709.491E+03        979.817E+03  
              615.E-03           710.408E+03        988.076E+03  
              617.5E-03          711.321E+03        996.454E+03  
              620.E-03           712.229E+03          1.00495E+06
              622.5E-03          713.13E+03           1.01357E+06
              625.E-03           714.024E+03          1.02231E+06
              627.5E-03          714.909E+03          1.03117E+06
              630.E-03           715.786E+03          1.04016E+06
              632.5E-03          716.654E+03          1.04927E+06
              635.E-03           717.511E+03          1.05851E+06
              637.5E-03          718.358E+03          1.06787E+06
              640.E-03           719.192E+03          1.07736E+06
              642.5E-03          720.015E+03          1.08698E+06
              645.E-03           720.825E+03          1.09672E+06
              647.5E-03          721.621E+03          1.10659E+06
              650.E-03           722.403E+03          1.11659E+06
              652.5E-03          723.17E+03           1.12672E+06
              655.E-03           723.922E+03          1.13697E+06
              657.5E-03          724.658E+03          1.14736E+06
              660.E-03           725.377E+03          1.15787E+06
              662.5E-03          726.078E+03          1.1685E+06 
              665.E-03           726.761E+03          1.17927E+06
              667.5E-03          727.424E+03          1.19016E+06
              670.E-03           728.067E+03          1.20118E+06
              672.5E-03          728.69E+03           1.21233E+06
              675.E-03           729.292E+03          1.2236E+06 
              677.5E-03          729.871E+03          1.23499E+06
              680.E-03           730.427E+03          1.2465E+06 
              682.5E-03          730.959E+03          1.25813E+06
              685.E-03           731.466E+03          1.26988E+06
              687.5E-03          731.947E+03          1.28174E+06
              690.E-03           732.402E+03          1.29371E+06
              692.5E-03          732.83E+03           1.30579E+06
              695.E-03           733.229E+03          1.31796E+06
              697.5E-03          733.6E+03            1.33022E+06
              700.E-03           733.939E+03          1.34229E+06
              702.5E-03          734.25E+03           1.35474E+06
              705.E-03           734.527E+03          1.3676E+06 
              707.5E-03          734.769E+03          1.38024E+06
              710.E-03           734.979E+03          1.39294E+06
              712.5E-03          735.158E+03          1.40564E+06
              715.E-03           735.304E+03          1.41834E+06
              717.5E-03          735.418E+03          1.43068E+06
              720.E-03           735.496E+03          1.44328E+06
              722.5E-03          735.535E+03          1.45568E+06
              725.E-03           735.528E+03          1.4681E+06 
              727.5E-03          735.488E+03          1.48012E+06
              730.E-03           735.413E+03          1.49207E+06
              732.5E-03          735.304E+03          1.50396E+06
              735.E-03           735.161E+03          1.51579E+06
              737.5E-03          734.983E+03          1.52754E+06
              740.E-03           734.771E+03          1.5392E+06 
              742.5E-03          734.524E+03          1.55075E+06
              745.E-03           734.242E+03          1.56217E+06
              747.5E-03          733.926E+03          1.57343E+06
              750.E-03           733.575E+03          1.58451E+06
              752.5E-03          733.199E+03          1.59507E+06
              755.E-03           732.78E+03           1.60563E+06
              757.5E-03          732.322E+03          1.61569E+06
              760.E-03           731.819E+03          1.62468E+06
              762.5E-03          731.26E+03           1.63298E+06
              765.E-03           730.678E+03          1.64071E+06
              767.5E-03          730.063E+03          1.64822E+06
              770.E-03           729.42E+03           1.65561E+06
              772.5E-03          728.752E+03          1.6629E+06 
              775.E-03           728.06E+03           1.67011E+06
              777.5E-03          727.344E+03          1.67722E+06
              780.E-03           726.607E+03          1.68427E+06
              782.5E-03          725.847E+03          1.69122E+06
              785.E-03           725.068E+03          1.69809E+06
              787.5E-03          724.271E+03          1.70483E+06
              790.E-03           723.455E+03          1.71145E+06
              792.5E-03          722.622E+03          1.71796E+06
              795.E-03           721.774E+03          1.72436E+06
              797.5E-03          720.911E+03          1.73063E+06
              800.E-03           720.033E+03          1.73676E+06
              802.5E-03          719.141E+03          1.74271E+06
              805.E-03           718.234E+03          1.74848E+06
              807.5E-03          717.313E+03          1.75401E+06
              810.E-03           716.376E+03          1.75926E+06
              812.5E-03          715.425E+03          1.76415E+06
              815.E-03           714.457E+03          1.76856E+06
              817.5E-03          713.471E+03          1.77235E+06
              820.E-03           712.46E+03           1.77362E+06
              822.5E-03          711.385E+03          1.77243E+06
              825.E-03           710.271E+03          1.7703E+06 
              827.5E-03          709.165E+03          1.76784E+06
              830.E-03           708.056E+03          1.76525E+06
              832.5E-03          706.955E+03          1.76306E+06
              835.E-03           705.86E+03           1.76071E+06
              837.5E-03          704.776E+03          1.75848E+06
              840.E-03           703.705E+03          1.75634E+06
              842.5E-03          702.642E+03          1.75417E+06
              845.E-03           701.593E+03          1.75215E+06
              847.5E-03          700.557E+03          1.75028E+06
              850.E-03           699.534E+03          1.74856E+06
              852.5E-03          698.525E+03          1.74699E+06
              855.E-03           697.529E+03          1.74557E+06
              857.5E-03          696.548E+03          1.74428E+06
              860.E-03           695.579E+03          1.74313E+06
              862.5E-03          694.624E+03          1.74211E+06
              865.E-03           693.682E+03          1.74121E+06
              867.5E-03          692.753E+03          1.74043E+06
              870.E-03           691.836E+03          1.73976E+06
              872.5E-03          690.932E+03          1.7392E+06 
              875.E-03           690.041E+03          1.73874E+06
              877.5E-03          689.162E+03          1.73837E+06
              880.E-03           688.295E+03          1.7381E+06 
              882.5E-03          687.44E+03           1.73792E+06
              885.E-03           686.597E+03          1.73782E+06
              887.5E-03          685.766E+03          1.73781E+06
              890.E-03           684.946E+03          1.73788E+06
              892.5E-03          684.137E+03          1.73802E+06
              895.E-03           683.339E+03          1.73819E+06
              897.5E-03          682.547E+03          1.7384E+06 
              900.E-03           681.766E+03          1.73872E+06
              902.5E-03          680.998E+03          1.73913E+06
              905.E-03           680.242E+03          1.73963E+06
              907.5E-03          679.496E+03          1.7402E+06 
              910.E-03           678.76E+03           1.74083E+06
              912.5E-03          678.036E+03          1.74152E+06
              915.E-03           677.321E+03          1.74226E+06
              917.5E-03          676.616E+03          1.74305E+06
              920.E-03           675.921E+03          1.7439E+06 
              922.5E-03          675.235E+03          1.74478E+06
              925.E-03           674.559E+03          1.74572E+06
              927.5E-03          673.892E+03          1.7467E+06 
              930.E-03           673.235E+03          1.74772E+06
              932.5E-03          672.586E+03          1.74878E+06
              935.E-03           671.947E+03          1.74988E+06
              937.5E-03          671.316E+03          1.75102E+06
              940.E-03           670.694E+03          1.7522E+06 
              942.5E-03          670.08E+03           1.75341E+06
              945.E-03           669.475E+03          1.75466E+06
              947.5E-03          668.878E+03          1.75594E+06
              950.E-03           668.289E+03          1.75726E+06
              952.5E-03          667.708E+03          1.75861E+06
              955.E-03           667.135E+03          1.75998E+06
              957.5E-03          666.57E+03           1.76139E+06
              960.E-03           666.012E+03          1.76283E+06
              962.5E-03          665.462E+03          1.7643E+06 
              965.E-03           664.92E+03           1.76579E+06
              967.5E-03          664.385E+03          1.76731E+06
              970.E-03           663.857E+03          1.76886E+06
              972.5E-03          663.336E+03          1.77043E+06
              975.E-03           662.823E+03          1.77203E+06
              977.5E-03          662.316E+03          1.77365E+06
              980.E-03           661.816E+03          1.7753E+06 
              982.5E-03          661.323E+03          1.77696E+06
              985.E-03           660.836E+03          1.77865E+06
              987.5E-03          660.356E+03          1.78036E+06
              990.E-03           659.882E+03          1.78209E+06
              992.5E-03          659.415E+03          1.78384E+06
              995.E-03           658.954E+03          1.78561E+06
              997.5E-03          658.499E+03          1.7874E+06 
                1.               658.05E+03           1.78921E+06




