
                  X               ep1-out            ep2-out            ep3-out             ep1-in             ep2-in             ep3-in     

                0.                 0.                 0.                 0.                 0.                 0.                 0.         
                2.5E-03          570.363E-06       -551.006E-06        -19.3563E-06       591.022E-06       -566.699E-06        -24.3228E-06 
                5.E-03             2.17182E-03       -2.08679E-03      -85.0314E-06         2.20283E-03       -2.10138E-03     -101.457E-06  
                7.5E-03            3.77846E-03       -3.62047E-03     -157.987E-06          3.81883E-03       -3.63401E-03     -184.818E-06  
               10.E-03             5.3878E-03        -5.15412E-03     -233.678E-06          5.43682E-03       -5.16673E-03     -270.091E-06  
               12.5E-03            6.99906E-03       -6.68819E-03     -310.867E-06          7.0561E-03        -6.69997E-03     -356.122E-06  
               15.E-03             8.61177E-03       -8.22286E-03     -388.912E-06          8.67627E-03       -8.23391E-03     -442.356E-06  
               17.5E-03           10.2256E-03        -9.75817E-03     -467.473E-06         10.2971E-03        -9.76859E-03     -528.533E-06  
               20.E-03            11.8405E-03       -11.2941E-03      -546.367E-06         11.9185E-03       -11.304E-03       -614.536E-06  
               22.5E-03           13.4562E-03       -12.8307E-03      -625.492E-06         13.5403E-03       -12.84E-03        -700.322E-06  
               25.E-03            15.0726E-03       -14.3678E-03      -704.787E-06         15.1626E-03       -14.3767E-03      -785.881E-06  
               27.5E-03           16.6897E-03       -15.9054E-03      -784.217E-06         16.7851E-03       -15.9139E-03      -871.219E-06  
               30.E-03            18.3073E-03       -17.4436E-03      -863.759E-06         18.408E-03        -17.4517E-03      -956.35E-06   
               32.5E-03           19.9255E-03       -18.9821E-03      -943.396E-06         20.0312E-03       -18.9899E-03        -1.04129E-03
               35.E-03            21.5442E-03       -20.5211E-03        -1.02312E-03       21.6546E-03       -20.5285E-03        -1.12605E-03
               37.5E-03           23.1633E-03       -22.0604E-03        -1.10292E-03       23.2782E-03       -22.0676E-03        -1.21065E-03
               40.E-03            24.7829E-03       -23.6001E-03        -1.18278E-03       24.9021E-03       -23.607E-03         -1.2951E-03 
               42.5E-03           26.4028E-03       -25.1401E-03        -1.26271E-03       26.5262E-03       -25.1467E-03        -1.37942E-03
               45.E-03            28.0231E-03       -26.6804E-03        -1.34269E-03       28.1504E-03       -26.6868E-03        -1.46361E-03
               47.5E-03           29.6437E-03       -28.221E-03         -1.42273E-03       29.7749E-03       -28.2272E-03        -1.54768E-03
               50.E-03            31.2646E-03       -29.7618E-03        -1.50282E-03       31.3995E-03       -29.7678E-03        -1.63165E-03
               52.5E-03           32.8859E-03       -31.3029E-03        -1.58295E-03       33.0243E-03       -31.3088E-03        -1.71551E-03
               55.E-03            34.5074E-03       -32.8442E-03        -1.66313E-03       34.6492E-03       -32.8499E-03        -1.79929E-03
               57.5E-03           36.1291E-03       -34.3858E-03        -1.74335E-03       36.2743E-03       -34.3913E-03        -1.88298E-03
               60.E-03            37.7511E-03       -35.9275E-03        -1.8236E-03        37.8995E-03       -35.9329E-03        -1.96659E-03
               62.5E-03           39.3733E-03       -37.4695E-03        -1.90389E-03       39.5248E-03       -37.4747E-03        -2.05012E-03
               65.E-03            40.9958E-03       -39.0116E-03        -1.98422E-03       41.1502E-03       -39.0166E-03        -2.13358E-03
               67.5E-03           42.6184E-03       -40.5539E-03        -2.06457E-03       42.7758E-03       -40.5588E-03        -2.21698E-03
               70.E-03            44.2413E-03       -42.0963E-03        -2.14496E-03       44.4015E-03       -42.1012E-03        -2.30032E-03
               72.5E-03           45.8643E-03       -43.6389E-03        -2.22537E-03       46.0273E-03       -43.6437E-03        -2.3836E-03 
               75.E-03            47.4875E-03       -45.1817E-03        -2.30581E-03       47.6531E-03       -45.1863E-03        -2.46682E-03
               77.5E-03           49.1109E-03       -46.7246E-03        -2.38627E-03       49.2791E-03       -46.7291E-03        -2.54999E-03
               80.E-03            50.7344E-03       -48.2677E-03        -2.46676E-03       50.9052E-03       -48.2721E-03        -2.63311E-03
               82.5E-03           52.3581E-03       -49.8108E-03        -2.54727E-03       52.5313E-03       -49.8151E-03        -2.71619E-03
               85.E-03            53.9819E-03       -51.3541E-03        -2.62781E-03       54.1576E-03       -51.3583E-03        -2.79922E-03
               87.5E-03           55.6059E-03       -52.8975E-03        -2.70836E-03       55.7839E-03       -52.9017E-03        -2.88221E-03
               90.E-03            57.23E-03         -54.4411E-03        -2.78894E-03       57.4103E-03       -54.4451E-03        -2.96516E-03
               92.5E-03           58.8543E-03       -55.9847E-03        -2.86953E-03       59.0368E-03       -55.9887E-03        -3.04807E-03
               95.E-03            60.4786E-03       -57.5285E-03        -2.95014E-03       60.6633E-03       -57.5324E-03        -3.13095E-03
               97.5E-03           62.1031E-03       -59.0723E-03        -3.03077E-03       62.2899E-03       -59.0761E-03        -3.21379E-03
              100.E-03            63.7277E-03       -60.6163E-03        -3.11142E-03       63.9166E-03       -60.62E-03          -3.2966E-03 
              102.5E-03           65.3524E-03       -62.1603E-03        -3.19208E-03       65.5434E-03       -62.164E-03         -3.37937E-03
              105.E-03            66.9772E-03       -63.7044E-03        -3.27276E-03       67.1702E-03       -63.7081E-03        -3.46212E-03
              107.5E-03           68.6021E-03       -65.2487E-03        -3.35345E-03       68.7971E-03       -65.2522E-03        -3.54484E-03
              110.E-03            70.2271E-03       -66.793E-03         -3.43416E-03       70.424E-03        -66.7965E-03        -3.62753E-03
              112.5E-03           71.8522E-03       -68.3373E-03        -3.51488E-03       72.051E-03        -68.3408E-03        -3.7102E-03 
              115.E-03            73.4774E-03       -69.8818E-03        -3.59561E-03       73.678E-03        -69.8852E-03        -3.79284E-03
              117.5E-03           75.1027E-03       -71.4264E-03        -3.67636E-03       75.3052E-03       -71.4297E-03        -3.87546E-03
              120.E-03            76.7281E-03       -72.971E-03         -3.75712E-03       76.9323E-03       -72.9743E-03        -3.95805E-03
              122.5E-03           78.3535E-03       -74.5157E-03        -3.83789E-03       78.5595E-03       -74.5189E-03        -4.04062E-03
              125.E-03            79.9791E-03       -76.0604E-03        -3.91867E-03       80.1868E-03       -76.0636E-03        -4.12317E-03
              127.5E-03           81.6047E-03       -77.6052E-03        -3.99947E-03       81.8141E-03       -77.6084E-03        -4.2057E-03 
              130.E-03            83.2304E-03       -79.1501E-03        -4.08027E-03       83.4414E-03       -79.1532E-03        -4.28821E-03
              132.5E-03           84.8562E-03       -80.6951E-03        -4.16109E-03       85.0688E-03       -80.6981E-03        -4.3707E-03 
              135.E-03            86.482E-03        -82.2401E-03        -4.24191E-03       86.6963E-03       -82.2431E-03        -4.45318E-03
              137.5E-03           88.1079E-03       -83.7852E-03        -4.32275E-03       88.3238E-03       -83.7881E-03        -4.53563E-03
              140.E-03            89.7339E-03       -85.3303E-03        -4.40359E-03       89.9513E-03       -85.3332E-03        -4.61807E-03
              142.5E-03           91.3599E-03       -86.8755E-03        -4.48444E-03       91.5789E-03       -86.8784E-03        -4.70049E-03
              145.E-03            92.986E-03        -88.4207E-03        -4.56531E-03       93.2065E-03       -88.4236E-03        -4.78289E-03
              147.5E-03           94.6122E-03       -89.966E-03         -4.64618E-03       94.8341E-03       -89.9688E-03        -4.86528E-03
              150.E-03            96.2384E-03       -91.5114E-03        -4.72706E-03       96.4618E-03       -91.5141E-03        -4.94766E-03
              152.5E-03           97.8647E-03       -93.0567E-03        -4.80794E-03       98.0895E-03       -93.0595E-03        -5.03002E-03
              155.E-03            99.491E-03        -94.6022E-03        -4.88884E-03       99.7173E-03       -94.6049E-03        -5.11237E-03
              157.5E-03          101.117E-03        -96.1477E-03        -4.96974E-03      101.345E-03        -96.1504E-03        -5.1947E-03 
              160.E-03           102.744E-03        -97.6932E-03        -5.05065E-03      102.973E-03        -97.6959E-03        -5.27702E-03
              162.5E-03          104.37E-03         -99.2388E-03        -5.13157E-03      104.601E-03        -99.2414E-03        -5.35933E-03
              165.E-03           105.997E-03       -100.784E-03         -5.21249E-03      106.229E-03       -100.787E-03         -5.44162E-03
              167.5E-03          107.624E-03       -102.33E-03          -5.29343E-03      107.857E-03       -102.333E-03         -5.52391E-03
              170.E-03           109.25E-03        -103.876E-03         -5.37436E-03      109.485E-03       -103.878E-03         -5.60618E-03
              172.5E-03          110.877E-03       -105.422E-03         -5.45531E-03      111.113E-03       -105.424E-03         -5.68844E-03
              175.E-03           112.504E-03       -106.967E-03         -5.53626E-03      112.741E-03       -106.97E-03          -5.77069E-03
              177.5E-03          114.13E-03        -108.513E-03         -5.61722E-03      114.369E-03       -108.516E-03         -5.85293E-03
              180.E-03           115.757E-03       -110.059E-03         -5.69818E-03      115.997E-03       -110.062E-03         -5.93516E-03
              182.5E-03          117.384E-03       -111.605E-03         -5.77915E-03      117.625E-03       -111.607E-03         -6.01738E-03
              185.E-03           119.011E-03       -113.151E-03         -5.86013E-03      119.253E-03       -113.153E-03         -6.0996E-03 
              187.5E-03          120.638E-03       -114.697E-03         -5.94111E-03      120.881E-03       -114.699E-03         -6.1818E-03 
              190.E-03           122.265E-03       -116.243E-03         -6.02209E-03      122.509E-03       -116.245E-03         -6.26399E-03
              192.5E-03          123.892E-03       -117.789E-03         -6.10308E-03      124.138E-03       -117.791E-03         -6.34617E-03
              195.E-03           125.519E-03       -119.335E-03         -6.18408E-03      125.766E-03       -119.337E-03         -6.42835E-03
              197.5E-03          127.146E-03       -120.881E-03         -6.26508E-03      127.394E-03       -120.884E-03         -6.51052E-03
              200.E-03           128.773E-03       -122.427E-03         -6.34609E-03      129.022E-03       -122.43E-03          -6.59268E-03
              202.5E-03          130.401E-03       -123.974E-03         -6.4271E-03       130.651E-03       -123.976E-03         -6.67483E-03
              205.E-03           132.028E-03       -125.52E-03          -6.50812E-03      132.279E-03       -125.522E-03         -6.75697E-03
              207.5E-03          133.655E-03       -127.066E-03         -6.58914E-03      133.907E-03       -127.068E-03         -6.83911E-03
              210.E-03           135.283E-03       -128.612E-03         -6.67017E-03      135.536E-03       -128.615E-03         -6.92124E-03
              212.5E-03          136.91E-03        -130.159E-03         -6.7512E-03       137.164E-03       -130.161E-03         -7.00336E-03
              215.E-03           138.537E-03       -131.705E-03         -6.83223E-03      138.793E-03       -131.707E-03         -7.08547E-03
              217.5E-03          140.165E-03       -133.251E-03         -6.91327E-03      140.421E-03       -133.253E-03         -7.16758E-03
              220.E-03           141.792E-03       -134.798E-03         -6.99431E-03      142.05E-03        -134.8E-03           -7.24969E-03
              222.5E-03          143.239E-03       -136.172E-03         -7.06637E-03      143.497E-03       -136.174E-03         -7.32268E-03
              225.E-03           145.152E-03       -136.901E-03         -8.25128E-03      145.429E-03       -136.906E-03         -8.5233E-03 
              227.5E-03          147.314E-03       -137.121E-03        -10.1929E-03       147.97E-03        -137.141E-03        -10.829E-03  
              230.E-03           149.254E-03       -137.001E-03        -12.2532E-03       151.122E-03       -136.983E-03        -14.1397E-03 
              232.5E-03          151.525E-03       -136.69E-03         -14.8358E-03       153.338E-03       -136.686E-03        -16.6525E-03 
              235.E-03           153.739E-03       -136.307E-03        -17.4324E-03       155.585E-03       -136.304E-03        -19.2808E-03 
              237.5E-03          155.94E-03        -135.892E-03        -20.0478E-03       157.817E-03       -135.889E-03        -21.9279E-03 
              240.E-03           158.134E-03       -135.463E-03        -22.6707E-03       160.043E-03       -135.461E-03        -24.5826E-03 
              242.5E-03          160.325E-03       -135.029E-03        -25.2965E-03       162.267E-03       -135.026E-03        -27.2411E-03 
              245.E-03           162.515E-03       -134.592E-03        -27.9234E-03       164.491E-03       -134.589E-03        -29.9016E-03 
              247.5E-03          164.704E-03       -134.154E-03        -30.5504E-03       166.715E-03       -134.151E-03        -32.5635E-03 
              250.E-03           166.893E-03       -133.715E-03        -33.1774E-03       168.939E-03       -133.712E-03        -35.2266E-03 
              252.5E-03          169.081E-03       -133.277E-03        -35.804E-03        171.164E-03       -133.274E-03        -37.8906E-03 
              255.E-03           171.268E-03       -132.838E-03        -38.4304E-03       173.39E-03        -132.835E-03        -40.5557E-03 
              257.5E-03          173.455E-03       -132.399E-03        -41.0563E-03       175.617E-03       -132.396E-03        -43.2218E-03 
              260.E-03           175.642E-03       -131.96E-03         -43.6818E-03       177.845E-03       -131.956E-03        -45.8889E-03 
              262.5E-03          177.828E-03       -131.521E-03        -46.3068E-03       180.074E-03       -131.517E-03        -48.557E-03  
              265.E-03           180.014E-03       -131.082E-03        -48.9314E-03       182.304E-03       -131.078E-03        -51.2262E-03 
              267.5E-03          182.199E-03       -130.643E-03        -51.5554E-03       184.536E-03       -130.639E-03        -53.8966E-03 
              270.E-03           184.383E-03       -130.204E-03        -54.1789E-03       186.768E-03       -130.2E-03          -56.5681E-03 
              272.5E-03          186.567E-03       -129.765E-03        -56.8018E-03       189.001E-03       -129.761E-03        -59.2408E-03 
              275.E-03           188.75E-03        -129.326E-03        -59.4241E-03       191.236E-03       -129.321E-03        -61.9147E-03 
              277.5E-03          190.933E-03       -128.887E-03        -62.0458E-03       193.472E-03       -128.882E-03        -64.59E-03   
              280.E-03           193.115E-03       -128.448E-03        -64.6668E-03       195.709E-03       -128.443E-03        -67.2666E-03 
              282.5E-03          195.296E-03       -128.009E-03        -67.2872E-03       197.948E-03       -128.003E-03        -69.9446E-03 
              285.E-03           197.477E-03       -127.57E-03         -69.9068E-03       200.188E-03       -127.564E-03        -72.624E-03  
              287.5E-03          199.657E-03       -127.131E-03        -72.5256E-03       202.43E-03        -127.125E-03        -75.305E-03  
              290.E-03           201.835E-03       -126.692E-03        -75.1436E-03       204.673E-03       -126.685E-03        -77.9875E-03 
              292.5E-03          204.014E-03       -126.253E-03        -77.7608E-03       206.918E-03       -126.246E-03        -80.6717E-03 
              295.E-03           206.191E-03       -125.814E-03        -80.3771E-03       209.164E-03       -125.806E-03        -83.3575E-03 
              297.5E-03          208.367E-03       -125.374E-03        -82.9924E-03       211.412E-03       -125.367E-03        -86.0452E-03 
              300.E-03           210.542E-03       -124.935E-03        -85.6067E-03       213.662E-03       -124.927E-03        -88.7347E-03 
              302.5E-03          212.716E-03       -124.496E-03        -88.22E-03         215.914E-03       -124.488E-03        -91.4261E-03 
              305.E-03           214.889E-03       -124.057E-03        -90.8322E-03       218.168E-03       -124.048E-03        -94.1195E-03 
              307.5E-03          217.061E-03       -123.618E-03        -93.4433E-03       220.424E-03       -123.609E-03        -96.8151E-03 
              310.E-03           219.232E-03       -123.179E-03        -96.0531E-03       222.682E-03       -123.169E-03        -99.5128E-03 
              312.5E-03          221.401E-03       -122.739E-03        -98.6617E-03       224.942E-03       -122.729E-03       -102.213E-03  
              315.E-03           223.569E-03       -122.3E-03         -101.269E-03        227.205E-03       -122.29E-03        -104.915E-03  
              317.5E-03          225.736E-03       -121.861E-03       -103.875E-03        229.47E-03        -121.85E-03        -107.62E-03   
              320.E-03           227.901E-03       -121.422E-03       -106.479E-03        231.738E-03       -121.41E-03        -110.328E-03  
              322.5E-03          230.064E-03       -120.983E-03       -109.082E-03        234.009E-03       -120.971E-03       -113.038E-03  
              325.E-03           232.226E-03       -120.543E-03       -111.683E-03        236.282E-03       -120.531E-03       -115.752E-03  
              327.5E-03          234.386E-03       -120.104E-03       -114.282E-03        238.559E-03       -120.091E-03       -118.468E-03  
              330.E-03           236.545E-03       -119.665E-03       -116.88E-03         240.839E-03       -121.188E-03       -119.651E-03  
              332.5E-03          238.701E-03       -119.476E-03       -119.226E-03        243.122E-03       -123.911E-03       -119.211E-03  
              335.E-03           240.746E-03       -122.331E-03       -118.415E-03        245.181E-03       -126.771E-03       -118.41E-03   
              337.5E-03          242.653E-03       -125.412E-03       -117.241E-03        247.103E-03       -129.863E-03       -117.24E-03   
              340.E-03           244.472E-03       -128.544E-03       -115.928E-03        248.937E-03       -133.01E-03        -115.927E-03  
              342.5E-03          246.248E-03       -131.688E-03       -114.56E-03         250.729E-03       -136.169E-03       -114.56E-03   
              345.E-03           248.008E-03       -134.836E-03       -113.172E-03        252.504E-03       -139.332E-03       -113.172E-03  
              347.5E-03          249.76E-03        -137.984E-03       -111.775E-03        254.272E-03       -142.497E-03       -111.775E-03  
              350.E-03           251.508E-03       -141.133E-03       -110.375E-03        256.037E-03       -145.662E-03       -110.375E-03  
              352.5E-03          253.256E-03       -144.282E-03       -108.974E-03        257.801E-03       -148.828E-03       -108.973E-03  
              355.E-03           255.003E-03       -147.431E-03       -107.571E-03        259.565E-03       -151.995E-03       -107.571E-03  
              357.5E-03          256.749E-03       -150.58E-03        -106.169E-03        261.33E-03        -155.161E-03       -106.168E-03  
              360.E-03           258.496E-03       -153.729E-03       -104.767E-03        263.094E-03       -158.329E-03       -104.766E-03  
              362.5E-03          260.242E-03       -156.878E-03       -103.364E-03        264.859E-03       -161.496E-03       -103.363E-03  
              365.E-03           261.988E-03       -160.026E-03       -101.962E-03        266.625E-03       -164.664E-03       -101.961E-03  
              367.5E-03          263.734E-03       -163.175E-03       -100.559E-03        268.39E-03        -167.832E-03       -100.558E-03  
              370.E-03           265.48E-03        -166.324E-03        -99.1569E-03       270.156E-03       -171.001E-03        -99.1553E-03 
              372.5E-03          267.226E-03       -169.472E-03        -97.7543E-03       271.922E-03       -174.17E-03         -97.7525E-03 
              375.E-03           268.972E-03       -172.62E-03         -96.3517E-03       273.689E-03       -177.339E-03        -96.3498E-03 
              377.5E-03          270.718E-03       -175.768E-03        -94.9491E-03       275.456E-03       -180.509E-03        -94.947E-03  
              380.E-03           272.463E-03       -178.917E-03        -93.5465E-03       277.223E-03       -183.679E-03        -93.5443E-03 
              382.5E-03          274.208E-03       -182.065E-03        -92.1439E-03       278.991E-03       -186.849E-03        -92.1415E-03 
              385.E-03           275.954E-03       -185.213E-03        -90.7412E-03       280.758E-03       -190.02E-03         -90.7386E-03 
              387.5E-03          277.699E-03       -188.36E-03         -89.3386E-03       282.527E-03       -193.191E-03        -89.3358E-03 
              390.E-03           279.444E-03       -191.508E-03        -87.9359E-03       284.295E-03       -196.362E-03        -87.9329E-03 
              392.5E-03          281.189E-03       -194.656E-03        -86.5331E-03       286.064E-03       -199.534E-03        -86.5301E-03 
              395.E-03           282.934E-03       -197.803E-03        -85.1304E-03       287.833E-03       -202.706E-03        -85.1272E-03 
              397.5E-03          284.678E-03       -200.951E-03        -83.7277E-03       289.603E-03       -205.878E-03        -83.7242E-03 
              400.E-03           286.423E-03       -204.098E-03        -82.3249E-03       291.373E-03       -209.051E-03        -82.3213E-03 
              402.5E-03          288.167E-03       -207.245E-03        -80.9221E-03       293.143E-03       -212.224E-03        -80.9184E-03 
              405.E-03           289.912E-03       -210.393E-03        -79.5193E-03       294.913E-03       -215.398E-03        -79.5154E-03 
              407.5E-03          291.656E-03       -213.54E-03         -78.1165E-03       296.684E-03       -218.572E-03        -78.1124E-03 
              410.E-03           293.4E-03         -216.687E-03        -76.7136E-03       298.455E-03       -221.746E-03        -76.7094E-03 
              412.5E-03          295.144E-03       -219.833E-03        -75.3108E-03       300.227E-03       -224.92E-03         -75.3064E-03 
              415.E-03           296.888E-03       -222.98E-03         -73.9079E-03       301.998E-03       -228.095E-03        -73.9033E-03 
              417.5E-03          298.632E-03       -226.127E-03        -72.505E-03        303.771E-03       -231.27E-03         -72.5003E-03 
              420.E-03           300.375E-03       -229.273E-03        -71.1021E-03       305.543E-03       -234.446E-03        -71.0972E-03 
              422.5E-03          302.119E-03       -232.42E-03         -69.6992E-03       307.316E-03       -237.622E-03        -69.6941E-03 
              425.E-03           303.862E-03       -235.566E-03        -68.2963E-03       309.089E-03       -240.798E-03        -68.291E-03  
              427.5E-03          305.605E-03       -238.712E-03        -66.8933E-03       310.862E-03       -243.974E-03        -66.8879E-03 
              430.E-03           307.349E-03       -241.858E-03        -65.4903E-03       312.636E-03       -247.151E-03        -65.4848E-03 
              432.5E-03          309.091E-03       -245.004E-03        -64.0874E-03       314.41E-03        -250.329E-03        -64.0816E-03 
              435.E-03           310.834E-03       -248.15E-03         -62.6844E-03       316.185E-03       -253.506E-03        -62.6784E-03 
              437.5E-03          312.577E-03       -251.296E-03        -61.2814E-03       317.959E-03       -256.684E-03        -61.2753E-03 
              440.E-03           314.32E-03        -254.441E-03        -59.8783E-03       319.735E-03       -259.862E-03        -59.8721E-03 
              442.5E-03          316.062E-03       -257.587E-03        -58.4753E-03       321.51E-03        -263.041E-03        -58.4689E-03 
              445.E-03           317.804E-03       -260.732E-03        -57.0722E-03       323.286E-03       -266.22E-03         -57.0656E-03 
              447.5E-03          319.547E-03       -263.877E-03        -55.6692E-03       325.062E-03       -269.399E-03        -55.6624E-03 
              450.E-03           321.289E-03       -267.022E-03        -54.2661E-03       326.838E-03       -272.579E-03        -54.2591E-03 
              452.5E-03          323.03E-03        -270.167E-03        -52.863E-03        328.615E-03       -275.759E-03        -52.8559E-03 
              455.E-03           324.772E-03       -273.312E-03        -51.4599E-03       330.392E-03       -278.94E-03         -51.4526E-03 
              457.5E-03          326.514E-03       -276.457E-03        -50.0568E-03       332.17E-03        -282.12E-03         -50.0493E-03 
              460.E-03           328.255E-03       -279.602E-03        -48.6537E-03       333.948E-03       -285.302E-03        -48.646E-03  
              462.5E-03          329.997E-03       -282.746E-03        -47.2505E-03       335.726E-03       -288.483E-03        -47.2427E-03 
              465.E-03           331.738E-03       -285.89E-03         -45.8474E-03       337.504E-03       -291.665E-03        -45.8393E-03 
              467.5E-03          333.479E-03       -289.035E-03        -44.4442E-03       339.283E-03       -294.847E-03        -44.436E-03  
              470.E-03           335.22E-03        -292.179E-03        -43.041E-03        341.062E-03       -298.03E-03         -43.0326E-03 
              472.5E-03          336.96E-03        -295.323E-03        -41.6378E-03       342.842E-03       -301.213E-03        -41.6292E-03 
              475.E-03           338.701E-03       -298.466E-03        -40.2346E-03       344.622E-03       -304.396E-03        -40.2259E-03 
              477.5E-03          340.441E-03       -301.61E-03         -38.8314E-03       346.402E-03       -307.58E-03         -38.8225E-03 
              480.E-03           342.182E-03       -304.753E-03        -37.4282E-03       348.183E-03       -310.764E-03        -37.419E-03  
              482.5E-03          343.922E-03       -307.897E-03        -36.0249E-03       349.964E-03       -313.948E-03        -36.0156E-03 
              485.E-03           345.662E-03       -311.04E-03         -34.6217E-03       351.745E-03       -317.133E-03        -34.6122E-03 
              487.5E-03          347.401E-03       -314.183E-03        -33.2184E-03       353.527E-03       -320.318E-03        -33.2087E-03 
              490.E-03           349.141E-03       -317.326E-03        -31.8151E-03       355.309E-03       -323.504E-03        -31.8053E-03 
              492.5E-03          350.881E-03       -320.469E-03        -30.4119E-03       357.091E-03       -326.69E-03         -30.4018E-03 
              495.E-03           352.62E-03        -323.611E-03        -29.0086E-03       358.874E-03       -329.876E-03        -28.9983E-03 
              497.5E-03          354.359E-03       -326.754E-03        -27.6053E-03       360.658E-03       -333.063E-03        -27.5948E-03 
              500.E-03           356.098E-03       -329.896E-03        -26.202E-03        362.441E-03       -336.25E-03         -26.1913E-03 
              502.5E-03          357.837E-03       -333.038E-03        -24.7986E-03       364.225E-03       -339.437E-03        -24.7878E-03 
              505.E-03           359.575E-03       -336.18E-03         -23.3953E-03       366.01E-03        -342.625E-03        -23.3842E-03 
              507.5E-03          361.314E-03       -339.322E-03        -21.992E-03        367.794E-03       -345.814E-03        -21.9807E-03 
              510.E-03           363.052E-03       -342.464E-03        -20.5886E-03       369.58E-03        -349.002E-03        -20.5771E-03 
              512.5E-03          364.79E-03        -345.605E-03        -19.1852E-03       371.365E-03       -352.192E-03        -19.1736E-03 
              515.E-03           366.528E-03       -348.746E-03        -17.7819E-03       373.151E-03       -355.381E-03        -17.77E-03   
              517.5E-03          368.266E-03       -351.887E-03        -16.3785E-03       374.938E-03       -358.571E-03        -16.3664E-03 
              520.E-03           370.004E-03       -355.028E-03        -14.9751E-03       376.724E-03       -361.762E-03        -14.9628E-03 
              522.5E-03          371.741E-03       -358.169E-03        -13.5717E-03       378.511E-03       -364.952E-03        -13.5592E-03 
              525.E-03           373.478E-03       -361.31E-03         -12.1683E-03       380.299E-03       -368.144E-03        -12.1555E-03 
              527.5E-03          375.215E-03       -364.45E-03         -10.7649E-03       382.087E-03       -371.335E-03        -10.7519E-03 
              530.E-03           376.952E-03       -367.591E-03         -9.36144E-03      383.876E-03       -374.527E-03         -9.34826E-03
              532.5E-03          378.689E-03       -370.731E-03         -7.958E-03        385.664E-03       -377.72E-03          -7.9446E-03 
              535.E-03           380.425E-03       -373.87E-03          -6.55456E-03      387.454E-03       -380.913E-03         -6.54093E-03
              537.5E-03          382.161E-03       -377.01E-03          -5.15111E-03      389.243E-03       -384.106E-03         -5.13725E-03
              540.E-03           383.897E-03       -380.15E-03          -3.74764E-03      391.034E-03       -387.3E-03           -3.73356E-03
              542.5E-03          385.633E-03       -383.289E-03         -2.34417E-03      392.824E-03       -390.494E-03         -2.32986E-03
              545.E-03           387.369E-03       -386.428E-03       -940.696E-06        394.615E-03       -393.689E-03       -926.155E-06  
              547.5E-03          389.104E-03       -389.567E-03        462.791E-06        396.407E-03       -396.884E-03        477.565E-06  
              550.E-03           390.839E-03       -392.706E-03          1.86629E-03      398.199E-03       -400.08E-03           1.8813E-03 
              552.5E-03          392.574E-03       -395.844E-03          3.26979E-03      399.991E-03       -403.276E-03          3.28504E-03
              555.E-03           394.309E-03       -398.983E-03          4.6733E-03       401.784E-03       -406.473E-03          4.68879E-03
              557.5E-03          396.044E-03       -402.121E-03          6.07682E-03      403.577E-03       -409.67E-03           6.09255E-03
              560.E-03           397.778E-03       -405.259E-03          7.48034E-03      405.371E-03       -412.867E-03          7.49632E-03
              562.5E-03          399.512E-03       -408.396E-03          8.88387E-03      407.165E-03       -416.065E-03          8.9001E-03 
              565.E-03           401.246E-03       -411.534E-03         10.2874E-03       408.96E-03        -419.264E-03         10.3039E-03 
              567.5E-03          402.98E-03        -414.671E-03         11.691E-03        410.755E-03       -422.463E-03         11.7077E-03 
              570.E-03           404.714E-03       -417.808E-03         13.0945E-03       412.551E-03       -425.662E-03         13.1115E-03 
              572.5E-03          406.447E-03       -420.945E-03         14.4981E-03       414.347E-03       -428.862E-03         14.5153E-03 
              575.E-03           408.18E-03        -424.082E-03         15.9016E-03       416.143E-03       -432.063E-03         15.9192E-03 
              577.5E-03          409.913E-03       -427.218E-03         17.3052E-03       417.94E-03        -435.263E-03         17.323E-03  
              580.E-03           411.645E-03       -430.354E-03         18.7088E-03       419.738E-03       -438.465E-03         18.7268E-03 
              582.5E-03          413.378E-03       -433.49E-03          20.1124E-03       421.536E-03       -441.667E-03         20.1307E-03 
              585.E-03           415.11E-03        -436.626E-03         21.516E-03        423.335E-03       -444.87E-03          21.5346E-03 
              587.5E-03          416.842E-03       -439.761E-03         22.9196E-03       425.134E-03       -448.073E-03         22.9384E-03 
              590.E-03           418.573E-03       -442.896E-03         24.3232E-03       426.934E-03       -451.276E-03         24.3423E-03 
              592.5E-03          420.305E-03       -446.031E-03         25.7268E-03       428.734E-03       -454.48E-03          25.7462E-03 
              595.E-03           422.036E-03       -449.166E-03         27.1304E-03       430.535E-03       -457.685E-03         27.1501E-03 
              597.5E-03          423.767E-03       -452.301E-03         28.5341E-03       432.336E-03       -460.89E-03          28.5541E-03 
              600.E-03           425.497E-03       -455.435E-03         29.9377E-03       434.138E-03       -464.096E-03         29.958E-03  
              602.5E-03          427.227E-03       -458.569E-03         31.3414E-03       435.94E-03        -467.302E-03         31.3619E-03 
              605.E-03           428.958E-03       -461.703E-03         32.745E-03        437.743E-03       -470.509E-03         32.7659E-03 
              607.5E-03          430.687E-03       -464.836E-03         34.1487E-03       439.547E-03       -473.717E-03         34.1698E-03 
              610.E-03           432.417E-03       -467.969E-03         35.5523E-03       441.351E-03       -476.925E-03         35.5738E-03 
              612.5E-03          434.146E-03       -471.102E-03         36.956E-03        443.156E-03       -480.133E-03         36.9777E-03 
              615.E-03           435.875E-03       -474.235E-03         38.3597E-03       444.961E-03       -483.343E-03         38.3817E-03 
              617.5E-03          437.604E-03       -477.367E-03         39.7633E-03       446.767E-03       -486.552E-03         39.7857E-03 
              620.E-03           439.332E-03       -480.499E-03         41.167E-03        448.573E-03       -489.763E-03         41.1897E-03 
              622.5E-03          441.061E-03       -483.631E-03         42.5707E-03       450.38E-03        -492.974E-03         42.5937E-03 
              625.E-03           442.788E-03       -486.763E-03         43.9744E-03       452.188E-03       -496.185E-03         43.9977E-03 
              627.5E-03          444.516E-03       -489.894E-03         45.3781E-03       453.996E-03       -499.398E-03         45.4018E-03 
              630.E-03           446.243E-03       -493.025E-03         46.7818E-03       455.805E-03       -502.611E-03         46.8058E-03 
              632.5E-03          447.97E-03        -496.156E-03         48.1855E-03       457.614E-03       -505.824E-03         48.2098E-03 
              635.E-03           449.697E-03       -499.286E-03         49.5892E-03       459.424E-03       -509.038E-03         49.6139E-03 
              637.5E-03          451.423E-03       -502.416E-03         50.9929E-03       461.235E-03       -512.253E-03         51.0179E-03 
              640.E-03           453.15E-03        -505.546E-03         52.3967E-03       463.046E-03       -515.468E-03         52.422E-03  
              642.5E-03          454.875E-03       -508.676E-03         53.8004E-03       464.858E-03       -518.685E-03         53.8261E-03 
              645.E-03           456.601E-03       -511.805E-03         55.2041E-03       466.671E-03       -521.901E-03         55.2302E-03 
              647.5E-03          458.326E-03       -514.934E-03         56.6079E-03       468.484E-03       -525.119E-03         56.6343E-03 
              650.E-03           460.051E-03       -518.063E-03         58.0116E-03       470.298E-03       -528.337E-03         58.0384E-03 
              652.5E-03          461.775E-03       -521.191E-03         59.4154E-03       472.113E-03       -531.556E-03         59.4425E-03 
              655.E-03           463.5E-03         -524.319E-03         60.8191E-03       473.929E-03       -534.775E-03         60.8466E-03 
              657.5E-03          465.223E-03       -527.446E-03         62.2229E-03       475.745E-03       -537.995E-03         62.2507E-03 
              660.E-03           466.947E-03       -530.574E-03         63.6266E-03       477.561E-03       -541.216E-03         63.6549E-03 
              662.5E-03          468.67E-03        -533.701E-03         65.0304E-03       479.379E-03       -544.438E-03         65.059E-03  
              665.E-03           470.393E-03       -536.827E-03         66.4342E-03       481.197E-03       -547.66E-03          66.4632E-03 
              667.5E-03          472.116E-03       -539.954E-03         67.838E-03        483.016E-03       -550.884E-03         67.8674E-03 
              670.E-03           473.838E-03       -543.079E-03         69.2417E-03       484.836E-03       -554.107E-03         69.2715E-03 
              672.5E-03          475.56E-03        -546.205E-03         70.6455E-03       486.656E-03       -557.332E-03         70.6757E-03 
              675.E-03           477.281E-03       -549.33E-03          72.0493E-03       488.477E-03       -560.557E-03         72.0799E-03 
              677.5E-03          479.002E-03       -552.455E-03         73.4531E-03       490.299E-03       -563.784E-03         73.4841E-03 
              680.E-03           480.723E-03       -555.58E-03          74.8569E-03       492.122E-03       -567.01E-03          74.8883E-03 
              682.5E-03          482.443E-03       -558.704E-03         76.2607E-03       493.946E-03       -570.238E-03         76.2925E-03 
              685.E-03           484.163E-03       -561.828E-03         77.6645E-03       495.77E-03        -573.467E-03         77.6968E-03 
              687.5E-03          485.883E-03       -564.951E-03         79.0683E-03       497.595E-03       -576.696E-03         79.101E-03  
              690.E-03           487.602E-03       -568.074E-03         80.4721E-03       499.421E-03       -579.926E-03         80.5052E-03 
              692.5E-03          489.321E-03       -571.197E-03         81.876E-03        501.248E-03       -583.157E-03         81.9095E-03 
              695.E-03           491.039E-03       -574.319E-03         83.2798E-03       503.075E-03       -586.389E-03         83.3138E-03 
              697.5E-03          492.758E-03       -577.441E-03         84.6836E-03       504.904E-03       -589.622E-03         84.718E-03  
              700.E-03           494.475E-03       -580.563E-03         86.0874E-03       506.733E-03       -592.855E-03         86.1223E-03 
              702.5E-03          496.192E-03       -583.684E-03         87.4912E-03       508.563E-03       -596.089E-03         87.5266E-03 
              705.E-03           497.909E-03       -586.804E-03         88.8951E-03       510.394E-03       -599.325E-03         88.9309E-03 
              707.5E-03          499.626E-03       -589.925E-03         90.2989E-03       512.225E-03       -602.561E-03         90.3352E-03 
              710.E-03           501.342E-03       -593.045E-03         91.7028E-03       514.058E-03       -605.798E-03         91.7395E-03 
              712.5E-03          503.057E-03       -596.164E-03         93.1066E-03       515.892E-03       -609.036E-03         93.1439E-03 
              715.E-03           504.773E-03       -599.283E-03         94.5105E-03       517.726E-03       -612.274E-03         94.5482E-03 
              717.5E-03          506.487E-03       -602.402E-03         95.9143E-03       519.562E-03       -615.514E-03         95.9525E-03 
              720.E-03           508.202E-03       -605.52E-03          97.3182E-03       521.398E-03       -618.755E-03         97.3569E-03 
              722.5E-03          509.916E-03       -608.638E-03         98.722E-03        523.235E-03       -621.996E-03         98.7612E-03 
              725.E-03           511.629E-03       -611.755E-03        100.126E-03        525.073E-03       -625.239E-03        100.166E-03  
              727.5E-03          513.342E-03       -614.872E-03        101.53E-03         526.913E-03       -628.483E-03        101.57E-03   
              730.E-03           515.055E-03       -617.988E-03        102.934E-03        528.753E-03       -631.727E-03        102.974E-03  
              732.5E-03          516.767E-03       -621.104E-03        104.337E-03        530.594E-03       -634.973E-03        104.379E-03  
              735.E-03           518.478E-03       -624.22E-03         105.741E-03        532.436E-03       -638.219E-03        105.783E-03  
              737.5E-03          520.19E-03        -627.335E-03        107.145E-03        534.279E-03       -641.467E-03        107.188E-03  
              740.E-03           521.9E-03         -630.449E-03        108.549E-03        536.123E-03       -644.715E-03        108.592E-03  
              742.5E-03          523.61E-03        -633.563E-03        109.953E-03        537.968E-03       -647.965E-03        109.996E-03  
              745.E-03           525.32E-03        -636.677E-03        111.357E-03        539.815E-03       -651.216E-03        111.401E-03  
              747.5E-03          527.029E-03       -639.79E-03         112.761E-03        541.662E-03       -654.467E-03        112.805E-03  
              750.E-03           528.738E-03       -642.903E-03        114.165E-03        543.51E-03        -657.72E-03         114.21E-03   
              752.5E-03          530.446E-03       -646.015E-03        115.568E-03        545.36E-03        -660.974E-03        115.614E-03  
              755.E-03           532.154E-03       -649.126E-03        116.972E-03        547.21E-03        -664.229E-03        117.019E-03  
              757.5E-03          533.861E-03       -652.237E-03        118.376E-03        549.062E-03       -667.485E-03        118.423E-03  
              760.E-03           535.568E-03       -655.348E-03        119.78E-03         550.915E-03       -670.742E-03        119.828E-03  
              762.5E-03          537.274E-03       -658.458E-03        121.184E-03        552.769E-03       -674.001E-03        121.232E-03  
              765.E-03           538.98E-03        -661.568E-03        122.588E-03        554.624E-03       -677.26E-03         122.637E-03  
              767.5E-03          540.685E-03       -664.677E-03        123.992E-03        556.48E-03        -680.521E-03        124.041E-03  
              770.E-03           542.389E-03       -667.785E-03        125.396E-03        558.337E-03       -683.783E-03        125.446E-03  
              772.5E-03          544.093E-03       -670.893E-03        126.8E-03          560.196E-03       -687.046E-03        126.85E-03   
              775.E-03           545.797E-03       -674.E-03           128.204E-03        562.056E-03       -690.311E-03        128.255E-03  
              777.5E-03          547.499E-03       -677.107E-03        129.607E-03        563.917E-03       -693.576E-03        129.66E-03   
              780.E-03           549.202E-03       -680.213E-03        131.011E-03        565.779E-03       -696.843E-03        131.064E-03  
              782.5E-03          550.903E-03       -683.319E-03        132.415E-03        567.643E-03       -700.111E-03        132.469E-03  
              785.E-03           552.605E-03       -686.424E-03        133.819E-03        569.508E-03       -703.381E-03        133.873E-03  
              787.5E-03          554.305E-03       -689.528E-03        135.223E-03        571.374E-03       -706.652E-03        135.278E-03  
              790.E-03           556.005E-03       -692.632E-03        136.627E-03        573.241E-03       -709.924E-03        136.682E-03  
              792.5E-03          557.704E-03       -695.735E-03        138.031E-03        575.11E-03        -713.197E-03        138.087E-03  
              795.E-03           559.403E-03       -698.838E-03        139.435E-03        576.98E-03        -716.472E-03        139.492E-03  
              797.5E-03          561.101E-03       -701.94E-03         140.839E-03        578.851E-03       -719.748E-03        140.896E-03  
              800.E-03           562.799E-03       -705.041E-03        142.243E-03        580.724E-03       -723.025E-03        142.301E-03  
              802.5E-03          564.496E-03       -708.142E-03        143.647E-03        582.598E-03       -726.304E-03        143.706E-03  
              805.E-03           566.192E-03       -711.242E-03        145.05E-03         584.474E-03       -729.584E-03        145.11E-03   
              807.5E-03          567.888E-03       -714.342E-03        146.454E-03        586.351E-03       -732.866E-03        146.515E-03  
              810.E-03           569.582E-03       -717.441E-03        147.858E-03        588.23E-03        -736.149E-03        147.92E-03   
              812.5E-03          571.277E-03       -720.539E-03        149.262E-03        590.11E-03        -739.434E-03        149.324E-03  
              815.E-03           572.97E-03        -723.636E-03        150.666E-03        591.991E-03       -742.72E-03         150.729E-03  
              817.5E-03          574.663E-03       -726.733E-03        152.07E-03         593.874E-03       -746.008E-03        152.134E-03  
              820.E-03           576.355E-03       -729.829E-03        153.474E-03        595.758E-03       -749.297E-03        153.539E-03  
              822.5E-03          578.047E-03       -732.925E-03        154.878E-03        597.644E-03       -752.588E-03        154.943E-03  
              825.E-03           579.738E-03       -736.02E-03         156.282E-03        599.532E-03       -755.88E-03         156.348E-03  
              827.5E-03          581.428E-03       -739.114E-03        157.686E-03        601.421E-03       -759.174E-03        157.753E-03  
              830.E-03           583.117E-03       -742.207E-03        159.09E-03         603.312E-03       -762.47E-03         159.158E-03  
              832.5E-03          584.806E-03       -745.3E-03          160.494E-03        605.204E-03       -765.767E-03        160.563E-03  
              835.E-03           586.494E-03       -748.392E-03        161.898E-03        607.098E-03       -769.066E-03        161.967E-03  
              837.5E-03          588.181E-03       -751.483E-03        163.301E-03        608.994E-03       -772.366E-03        163.372E-03  
              840.E-03           589.868E-03       -754.573E-03        164.705E-03        610.892E-03       -775.669E-03        164.777E-03  
              842.5E-03          591.554E-03       -757.663E-03        166.109E-03        612.791E-03       -778.973E-03        166.182E-03  
              845.E-03           593.239E-03       -760.752E-03        167.513E-03        614.692E-03       -782.278E-03        167.587E-03  
              847.5E-03          594.923E-03       -763.84E-03         168.917E-03        616.594E-03       -785.586E-03        168.992E-03  
              850.E-03           596.606E-03       -766.927E-03        170.321E-03        618.499E-03       -788.895E-03        170.396E-03  
              852.5E-03          598.289E-03       -770.014E-03        171.725E-03        620.405E-03       -792.206E-03        171.801E-03  
              855.E-03           599.971E-03       -773.1E-03          173.129E-03        622.313E-03       -795.519E-03        173.206E-03  
              857.5E-03          601.652E-03       -776.185E-03        174.533E-03        624.223E-03       -798.834E-03        174.611E-03  
              860.E-03           603.332E-03       -779.269E-03        175.937E-03        626.135E-03       -802.151E-03        176.016E-03  
              862.5E-03          605.011E-03       -782.352E-03        177.341E-03        628.048E-03       -805.469E-03        177.421E-03  
              865.E-03           606.69E-03        -785.435E-03        178.745E-03        629.964E-03       -808.79E-03         178.826E-03  
              867.5E-03          608.368E-03       -788.516E-03        180.149E-03        631.882E-03       -812.112E-03        180.231E-03  
              870.E-03           610.044E-03       -791.597E-03        181.552E-03        633.801E-03       -815.437E-03        181.636E-03  
              872.5E-03          611.72E-03        -794.677E-03        182.956E-03        635.723E-03       -818.764E-03        183.041E-03  
              875.E-03           613.395E-03       -797.756E-03        184.36E-03         637.646E-03       -822.092E-03        184.446E-03  
              877.5E-03          615.07E-03        -800.834E-03        185.764E-03        639.572E-03       -825.423E-03        185.851E-03  
              880.E-03           616.743E-03       -803.911E-03        187.168E-03        641.5E-03         -828.756E-03        187.256E-03  
              882.5E-03          618.415E-03       -806.987E-03        188.572E-03        643.43E-03        -832.091E-03        188.661E-03  
              885.E-03           620.087E-03       -810.063E-03        189.976E-03        645.362E-03       -835.428E-03        190.066E-03  
              887.5E-03          621.757E-03       -813.137E-03        191.38E-03         647.297E-03       -838.767E-03        191.471E-03  
              890.E-03           623.427E-03       -816.211E-03        192.784E-03        649.233E-03       -842.109E-03        192.876E-03  
              892.5E-03          625.095E-03       -819.283E-03        194.188E-03        651.172E-03       -845.453E-03        194.281E-03  
              895.E-03           626.763E-03       -822.355E-03        195.592E-03        653.113E-03       -848.799E-03        195.686E-03  
              897.5E-03          628.43E-03        -825.425E-03        196.995E-03        655.056E-03       -852.148E-03        197.091E-03  
              900.E-03           630.096E-03       -828.495E-03        198.399E-03        657.002E-03       -855.499E-03        198.497E-03  
              902.5E-03          631.76E-03        -831.563E-03        199.803E-03        658.95E-03        -858.852E-03        199.902E-03  
              905.E-03           633.424E-03       -834.631E-03        201.207E-03        660.901E-03       -862.208E-03        201.307E-03  
              907.5E-03          635.087E-03       -837.698E-03        202.611E-03        662.854E-03       -865.566E-03        202.712E-03  
              910.E-03           636.748E-03       -840.763E-03        204.015E-03        664.81E-03        -868.927E-03        204.117E-03  
              912.5E-03          638.409E-03       -843.828E-03        205.419E-03        666.768E-03       -872.29E-03         205.522E-03  
              915.E-03           640.068E-03       -846.891E-03        206.823E-03        668.728E-03       -875.656E-03        206.928E-03  
              917.5E-03          641.727E-03       -849.953E-03        208.227E-03        670.692E-03       -879.025E-03        208.333E-03  
              920.E-03           643.384E-03       -853.015E-03        209.63E-03         672.657E-03       -882.396E-03        209.738E-03  
              922.5E-03          645.041E-03       -856.075E-03        211.034E-03        674.626E-03       -885.77E-03         211.143E-03  
              925.E-03           646.696E-03       -859.134E-03        212.438E-03        676.597E-03       -889.146E-03        212.549E-03  
              927.5E-03          648.35E-03        -862.192E-03        213.842E-03        678.571E-03       -892.526E-03        213.954E-03  
              930.E-03           650.003E-03       -865.249E-03        215.246E-03        680.548E-03       -895.908E-03        215.359E-03  
              932.5E-03          651.654E-03       -868.304E-03        216.65E-03         682.528E-03       -899.293E-03        216.765E-03  
              935.E-03           653.305E-03       -871.359E-03        218.054E-03        684.511E-03       -902.681E-03        218.17E-03   
              937.5E-03          654.954E-03       -874.412E-03        219.458E-03        686.496E-03       -906.072E-03        219.576E-03  
              940.E-03           656.603E-03       -877.464E-03        220.861E-03        688.485E-03       -909.466E-03        220.981E-03  
              942.5E-03          658.25E-03        -880.515E-03        222.265E-03        690.476E-03       -912.863E-03        222.386E-03  
              945.E-03           659.896E-03       -883.565E-03        223.669E-03        692.471E-03       -916.263E-03        223.792E-03  
              947.5E-03          661.54E-03        -886.613E-03        225.073E-03        694.469E-03       -919.666E-03        225.197E-03  
              950.E-03           663.183E-03       -889.66E-03         226.477E-03        696.47E-03        -923.072E-03        226.603E-03  
              952.5E-03          664.825E-03       -892.706E-03        227.881E-03        698.474E-03       -926.482E-03        228.008E-03  
              955.E-03           666.466E-03       -895.751E-03        229.284E-03        700.481E-03       -929.895E-03        229.414E-03  
              957.5E-03          668.106E-03       -898.794E-03        230.688E-03        702.492E-03       -933.311E-03        230.819E-03  
              960.E-03           669.744E-03       -901.836E-03        232.092E-03        704.506E-03       -936.731E-03        232.225E-03  
              962.5E-03          671.381E-03       -904.877E-03        233.496E-03        706.524E-03       -940.154E-03        233.63E-03   
              965.E-03           673.016E-03       -907.916E-03        234.9E-03          708.545E-03       -943.581E-03        235.036E-03  
              967.5E-03          674.65E-03        -910.954E-03        236.303E-03        710.569E-03       -947.011E-03        236.441E-03  
              970.E-03           676.283E-03       -913.99E-03         237.707E-03        712.597E-03       -950.444E-03        237.847E-03  
              972.5E-03          677.914E-03       -917.026E-03        239.111E-03        714.629E-03       -953.882E-03        239.253E-03  
              975.E-03           679.544E-03       -920.059E-03        240.515E-03        716.665E-03       -957.323E-03        240.658E-03  
              977.5E-03          681.173E-03       -923.092E-03        241.919E-03        718.704E-03       -960.768E-03        242.064E-03  
              980.E-03           682.8E-03         -926.123E-03        243.322E-03        720.747E-03       -964.217E-03        243.47E-03   
              982.5E-03          684.426E-03       -929.152E-03        244.726E-03        722.794E-03       -967.67E-03         244.876E-03  
              985.E-03           686.05E-03        -932.18E-03         246.13E-03         724.845E-03       -971.126E-03        246.281E-03  
              987.5E-03          687.673E-03       -935.206E-03        247.534E-03        726.9E-03         -974.587E-03        247.687E-03  
              990.E-03           689.294E-03       -938.231E-03        248.938E-03        728.959E-03       -978.052E-03        249.093E-03  
              992.5E-03          690.913E-03       -941.255E-03        250.341E-03        731.022E-03       -981.521E-03        250.499E-03  
              995.E-03           692.531E-03       -944.276E-03        251.745E-03        733.09E-03        -984.994E-03        251.905E-03  
              997.5E-03          694.148E-03       -947.297E-03        253.149E-03        735.162E-03       -988.472E-03        253.31E-03   
                1.               695.763E-03       -950.315E-03        254.552E-03        737.238E-03       -991.954E-03        254.716E-03  




