
                  X              SENER-out           SENER-in    

                0.                 0.                 0.         
                2.5E-03          261.614E+03        257.841E+03  
                5.E-03           281.088E+03        278.751E+03  
                7.5E-03          297.823E+03        296.226E+03  
               10.E-03           313.167E+03        312.068E+03  
               12.5E-03          327.451E+03        326.704E+03  
               15.E-03           340.868E+03        340.38E+03   
               17.5E-03          353.55E+03         353.256E+03  
               20.E-03           365.598E+03        365.453E+03  
               22.5E-03          377.088E+03        377.059E+03  
               25.E-03           388.085E+03        388.149E+03  
               27.5E-03          398.64E+03         398.779E+03  
               30.E-03           408.798E+03        408.998E+03  
               32.5E-03          418.596E+03        418.847E+03  
               35.E-03           428.067E+03        428.36E+03   
               37.5E-03          437.237E+03        437.566E+03  
               40.E-03           446.13E+03         446.49E+03   
               42.5E-03          454.768E+03        455.154E+03  
               45.E-03           463.17E+03         463.579E+03  
               47.5E-03          471.351E+03        471.78E+03   
               50.E-03           479.327E+03        479.774E+03  
               52.5E-03          487.11E+03         487.573E+03  
               55.E-03           494.712E+03        495.19E+03   
               57.5E-03          502.145E+03        502.636E+03  
               60.E-03           509.418E+03        509.92E+03   
               62.5E-03          516.539E+03        517.053E+03  
               65.E-03           523.517E+03        524.041E+03  
               67.5E-03          530.36E+03         530.893E+03  
               70.E-03           537.073E+03        537.615E+03  
               72.5E-03          543.664E+03        544.215E+03  
               75.E-03           550.138E+03        550.697E+03  
               77.5E-03          556.5E+03          557.067E+03  
               80.E-03           562.756E+03        563.33E+03   
               82.5E-03          568.909E+03        569.491E+03  
               85.E-03           574.966E+03        575.554E+03  
               87.5E-03          580.928E+03        581.523E+03  
               90.E-03           586.8E+03          587.402E+03  
               92.5E-03          592.587E+03        593.195E+03  
               95.E-03           598.29E+03         598.904E+03  
               97.5E-03          603.913E+03        604.533E+03  
              100.E-03           609.459E+03        610.086E+03  
              102.5E-03          614.93E+03         615.564E+03  
              105.E-03           620.33E+03         620.97E+03   
              107.5E-03          625.661E+03        626.307E+03  
              110.E-03           630.925E+03        631.576E+03  
              112.5E-03          636.124E+03        636.781E+03  
              115.E-03           641.26E+03         641.924E+03  
              117.5E-03          646.335E+03        647.006E+03  
              120.E-03           651.352E+03        652.028E+03  
              122.5E-03          656.312E+03        656.994E+03  
              125.E-03           661.216E+03        661.905E+03  
              127.5E-03          666.066E+03        666.761E+03  
              130.E-03           670.865E+03        671.566E+03  
              132.5E-03          675.612E+03        676.32E+03   
              135.E-03           680.31E+03         681.024E+03  
              137.5E-03          684.961E+03        685.681E+03  
              140.E-03           689.564E+03        690.291E+03  
              142.5E-03          694.122E+03        694.856E+03  
              145.E-03           698.635E+03        699.376E+03  
              147.5E-03          703.106E+03        703.853E+03  
              150.E-03           707.534E+03        708.288E+03  
              152.5E-03          711.921E+03        712.682E+03  
              155.E-03           716.268E+03        717.036E+03  
              157.5E-03          720.577E+03        721.351E+03  
              160.E-03           724.846E+03        725.628E+03  
              162.5E-03          729.079E+03        729.868E+03  
              165.E-03           733.275E+03        734.071E+03  
              167.5E-03          737.435E+03        738.239E+03  
              170.E-03           741.561E+03        742.372E+03  
              172.5E-03          745.653E+03        746.471E+03  
              175.E-03           749.711E+03        750.537E+03  
              177.5E-03          753.737E+03        754.57E+03   
              180.E-03           757.73E+03         758.571E+03  
              182.5E-03          761.693E+03        762.542E+03  
              185.E-03           765.624E+03        766.481E+03  
              187.5E-03          769.526E+03        770.391E+03  
              190.E-03           773.399E+03        774.272E+03  
              192.5E-03          777.242E+03        778.123E+03  
              195.E-03           781.057E+03        781.947E+03  
              197.5E-03          784.845E+03        785.743E+03  
              200.E-03           788.605E+03        789.512E+03  
              202.5E-03          792.339E+03        793.254E+03  
              205.E-03           796.047E+03        796.97E+03   
              207.5E-03          799.729E+03        800.661E+03  
              210.E-03           803.385E+03        804.326E+03  
              212.5E-03          807.017E+03        807.967E+03  
              215.E-03           810.625E+03        811.584E+03  
              217.5E-03          814.208E+03        815.177E+03  
              220.E-03           817.768E+03        818.746E+03  
              222.5E-03          821.305E+03        822.293E+03  
              225.E-03           824.82E+03         825.816E+03  
              227.5E-03          828.312E+03        829.318E+03  
              230.E-03           831.782E+03        832.798E+03  
              232.5E-03          835.23E+03         836.256E+03  
              235.E-03           838.658E+03        839.694E+03  
              237.5E-03          842.064E+03        843.11E+03   
              240.E-03           845.45E+03         846.506E+03  
              242.5E-03          848.815E+03        849.882E+03  
              245.E-03           852.161E+03        853.238E+03  
              247.5E-03          855.487E+03        856.575E+03  
              250.E-03           858.794E+03        859.893E+03  
              252.5E-03          862.082E+03        863.191E+03  
              255.E-03           865.351E+03        866.471E+03  
              257.5E-03          868.602E+03        869.733E+03  
              260.E-03           871.834E+03        872.977E+03  
              262.5E-03          875.049E+03        876.203E+03  
              265.E-03           884.329E+03        885.61E+03   
              267.5E-03          890.946E+03        892.3E+03    
              270.E-03           895.05E+03         896.427E+03  
              272.5E-03          898.653E+03        900.042E+03  
              275.E-03           902.037E+03        903.434E+03  
              277.5E-03          905.33E+03         906.733E+03  
              280.E-03           908.579E+03        909.986E+03  
              282.5E-03          911.799E+03        913.21E+03   
              285.E-03           914.998E+03        916.414E+03  
              287.5E-03          918.178E+03        919.599E+03  
              290.E-03           921.341E+03        922.767E+03  
              292.5E-03          924.488E+03        925.919E+03  
              295.E-03           927.619E+03        929.054E+03  
              297.5E-03          930.734E+03        932.174E+03  
              300.E-03           933.833E+03        935.279E+03  
              302.5E-03          936.917E+03        938.368E+03  
              305.E-03           939.986E+03        941.442E+03  
              307.5E-03          943.04E+03         944.502E+03  
              310.E-03           946.079E+03        947.547E+03  
              312.5E-03          949.104E+03        950.577E+03  
              315.E-03           952.114E+03        953.593E+03  
              317.5E-03          955.11E+03         956.595E+03  
              320.E-03           958.092E+03        959.583E+03  
              322.5E-03          961.06E+03         962.557E+03  
              325.E-03           964.014E+03        965.517E+03  
              327.5E-03          966.955E+03        968.464E+03  
              330.E-03           969.882E+03        971.398E+03  
              332.5E-03          972.796E+03        974.319E+03  
              335.E-03           975.697E+03        977.227E+03  
              337.5E-03          978.586E+03        980.122E+03  
              340.E-03           981.461E+03        983.004E+03  
              342.5E-03          984.324E+03        985.874E+03  
              345.E-03           987.174E+03        988.732E+03  
              347.5E-03          990.013E+03        991.577E+03  
              350.E-03           992.838E+03        994.41E+03   
              352.5E-03          995.652E+03        997.232E+03  
              355.E-03           998.454E+03          1.00004E+06
              357.5E-03            1.00124E+06        1.00284E+06
              360.E-03             1.00402E+06        1.00563E+06
              362.5E-03            1.00679E+06        1.0084E+06 
              365.E-03             1.00955E+06        1.01116E+06
              367.5E-03            1.01229E+06        1.01392E+06
              370.E-03             1.01502E+06        1.01666E+06
              372.5E-03            1.01775E+06        1.01939E+06
              375.E-03             1.02046E+06        1.02211E+06
              377.5E-03            1.02316E+06        1.02482E+06
              380.E-03             1.02585E+06        1.02752E+06
              382.5E-03            1.02853E+06        1.0302E+06 
              385.E-03             1.0312E+06         1.03288E+06
              387.5E-03            1.03385E+06        1.03555E+06
              390.E-03             1.0365E+06         1.03821E+06
              392.5E-03            1.03914E+06        1.04085E+06
              395.E-03             1.04177E+06        1.04349E+06
              397.5E-03            1.04439E+06        1.04612E+06
              400.E-03             1.047E+06          1.04874E+06
              402.5E-03            1.04959E+06        1.05134E+06
              405.E-03             1.05218E+06        1.05394E+06
              407.5E-03            1.05476E+06        1.05653E+06
              410.E-03             1.05733E+06        1.05911E+06
              412.5E-03            1.05989E+06        1.06168E+06
              415.E-03             1.06244E+06        1.06424E+06
              417.5E-03            1.06499E+06        1.0668E+06 
              420.E-03             1.06752E+06        1.06934E+06
              422.5E-03            1.07004E+06        1.07187E+06
              425.E-03             1.07256E+06        1.0744E+06 
              427.5E-03            1.07506E+06        1.07692E+06
              430.E-03             1.07756E+06        1.07943E+06
              432.5E-03            1.08005E+06        1.08193E+06
              435.E-03             1.08253E+06        1.08442E+06
              437.5E-03            1.085E+06          1.0869E+06 
              440.E-03             1.08747E+06        1.08937E+06
              442.5E-03            1.08992E+06        1.09184E+06
              445.E-03             1.09237E+06        1.0943E+06 
              447.5E-03            1.0948E+06         1.09675E+06
              450.E-03             1.09723E+06        1.09919E+06
              452.5E-03            1.09966E+06        1.10162E+06
              455.E-03             1.10207E+06        1.10405E+06
              457.5E-03            1.10448E+06        1.10647E+06
              460.E-03             1.10687E+06        1.10888E+06
              462.5E-03            1.10926E+06        1.11128E+06
              465.E-03             1.11165E+06        1.11368E+06
              467.5E-03            1.11402E+06        1.11606E+06
              470.E-03             1.11639E+06        1.11844E+06
              472.5E-03            1.11875E+06        1.12082E+06
              475.E-03             1.09733E+06        1.09792E+06
              477.5E-03          976.907E+03          1.01331E+06
              480.E-03           916.336E+03        947.844E+03  
              482.5E-03          885.345E+03        911.383E+03  
              485.E-03           869.944E+03        893.927E+03  
              487.5E-03          862.351E+03        885.421E+03  
              490.E-03           858.262E+03        880.871E+03  
              492.5E-03          856.252E+03        878.654E+03  
              495.E-03           855.482E+03        877.829E+03  
              497.5E-03          855.456E+03        877.84E+03   
              500.E-03           855.88E+03         878.357E+03  
              502.5E-03          856.575E+03        879.18E+03   
              505.E-03           857.432E+03        880.19E+03   
              507.5E-03          858.389E+03        881.313E+03  
              510.E-03           859.403E+03        882.504E+03  
              512.5E-03          860.453E+03        883.738E+03  
              515.E-03           861.522E+03        884.997E+03  
              517.5E-03          862.603E+03        886.272E+03  
              520.E-03           863.689E+03        887.555E+03  
              522.5E-03          864.778E+03        888.845E+03  
              525.E-03           865.867E+03        890.138E+03  
              527.5E-03          866.955E+03        891.433E+03  
              530.E-03           868.042E+03        892.73E+03   
              532.5E-03          869.126E+03        894.027E+03  
              535.E-03           870.209E+03        895.324E+03  
              537.5E-03          871.289E+03        896.622E+03  
              540.E-03           872.366E+03        897.921E+03  
              542.5E-03          873.441E+03        899.219E+03  
              545.E-03           874.513E+03        900.518E+03  
              547.5E-03          875.583E+03        901.817E+03  
              550.E-03           876.65E+03         903.117E+03  
              552.5E-03          877.714E+03        904.417E+03  
              555.E-03           878.776E+03        905.717E+03  
              557.5E-03          879.835E+03        907.018E+03  
              560.E-03           880.891E+03        908.319E+03  
              562.5E-03          881.945E+03        909.621E+03  
              565.E-03           882.996E+03        910.923E+03  
              567.5E-03          884.044E+03        912.226E+03  
              570.E-03           885.089E+03        913.53E+03   
              572.5E-03          886.132E+03        914.834E+03  
              575.E-03           887.173E+03        916.139E+03  
              577.5E-03          888.21E+03         917.445E+03  
              580.E-03           889.245E+03        918.753E+03  
              582.5E-03          890.277E+03        920.061E+03  
              585.E-03           891.307E+03        921.37E+03   
              587.5E-03          892.334E+03        922.68E+03   
              590.E-03           893.358E+03        923.991E+03  
              592.5E-03          894.379E+03        925.304E+03  
              595.E-03           895.398E+03        926.618E+03  
              597.5E-03          896.414E+03        927.933E+03  
              600.E-03           897.427E+03        929.25E+03   
              602.5E-03          898.438E+03        930.568E+03  
              605.E-03           899.446E+03        931.888E+03  
              607.5E-03          900.451E+03        933.21E+03   
              610.E-03           901.454E+03        934.533E+03  
              612.5E-03          902.454E+03        935.858E+03  
              615.E-03           903.451E+03        937.185E+03  
              617.5E-03          904.446E+03        938.514E+03  
              620.E-03           905.437E+03        939.844E+03  
              622.5E-03          906.426E+03        941.177E+03  
              625.E-03           907.412E+03        942.513E+03  
              627.5E-03          908.396E+03        943.85E+03   
              630.E-03           909.377E+03        945.19E+03   
              632.5E-03          910.355E+03        946.532E+03  
              635.E-03           911.33E+03         947.877E+03  
              637.5E-03          912.302E+03        949.224E+03  
              640.E-03           913.272E+03        950.574E+03  
              642.5E-03          914.239E+03        951.927E+03  
              645.E-03           915.203E+03        953.283E+03  
              647.5E-03          916.164E+03        954.641E+03  
              650.E-03           917.122E+03        956.003E+03  
              652.5E-03          918.077E+03        957.368E+03  
              655.E-03           919.03E+03         958.737E+03  
              657.5E-03          919.98E+03         960.109E+03  
              660.E-03           920.927E+03        961.484E+03  
              662.5E-03          921.871E+03        962.863E+03  
              665.E-03           922.812E+03        964.246E+03  
              667.5E-03          923.75E+03         965.633E+03  
              670.E-03           924.685E+03        967.023E+03  
              672.5E-03          925.617E+03        968.418E+03  
              675.E-03           926.546E+03        969.818E+03  
              677.5E-03          927.472E+03        971.221E+03  
              680.E-03           928.395E+03        972.629E+03  
              682.5E-03          929.316E+03        974.042E+03  
              685.E-03           930.233E+03        975.46E+03   
              687.5E-03          931.146E+03        976.883E+03  
              690.E-03           932.057E+03        978.31E+03   
              692.5E-03          932.965E+03        979.744E+03  
              695.E-03           933.87E+03         981.182E+03  
              697.5E-03          934.771E+03        982.627E+03  
              700.E-03           935.669E+03        984.077E+03  
              702.5E-03          936.564E+03        985.533E+03  
              705.E-03           937.456E+03        986.995E+03  
              707.5E-03          938.344E+03        988.464E+03  
              710.E-03           939.229E+03        989.939E+03  
              712.5E-03          940.111E+03        991.421E+03  
              715.E-03           940.989E+03        992.91E+03   
              717.5E-03          941.864E+03        994.407E+03  
              720.E-03           942.735E+03        995.91E+03   
              722.5E-03          943.603E+03        997.422E+03  
              725.E-03           944.468E+03        998.941E+03  
              727.5E-03          945.329E+03          1.00047E+06
              730.E-03           946.186E+03          1.002E+06  
              732.5E-03          947.039E+03          1.00355E+06
              735.E-03           947.889E+03          1.0051E+06 
              737.5E-03          948.735E+03          1.00666E+06
              740.E-03           949.577E+03          1.00824E+06
              742.5E-03          950.416E+03          1.00982E+06
              745.E-03           951.25E+03           1.01141E+06
              747.5E-03          952.081E+03          1.01301E+06
              750.E-03           952.907E+03          1.01463E+06
              752.5E-03          953.73E+03           1.01625E+06
              755.E-03           954.548E+03          1.01789E+06
              757.5E-03          955.362E+03          1.01954E+06
              760.E-03           956.172E+03          1.0212E+06 
              762.5E-03          956.977E+03          1.02287E+06
              765.E-03           957.778E+03          1.02456E+06
              767.5E-03          958.574E+03          1.02626E+06
              770.E-03           959.366E+03          1.02797E+06
              772.5E-03          960.153E+03          1.0297E+06 
              775.E-03           960.935E+03          1.03144E+06
              777.5E-03          961.713E+03          1.0332E+06 
              780.E-03           962.485E+03          1.03498E+06
              782.5E-03          963.253E+03          1.03677E+06
              785.E-03           964.015E+03          1.03858E+06
              787.5E-03          964.771E+03          1.04041E+06
              790.E-03           965.523E+03          1.04226E+06
              792.5E-03          966.269E+03          1.04412E+06
              795.E-03           967.009E+03          1.04601E+06
              797.5E-03          967.743E+03          1.04792E+06
              800.E-03           968.471E+03          1.04985E+06
              802.5E-03          969.193E+03          1.0518E+06 
              805.E-03           969.909E+03          1.05378E+06
              807.5E-03          970.618E+03          1.05578E+06
              810.E-03           971.321E+03          1.05781E+06
              812.5E-03          972.016E+03          1.05986E+06
              815.E-03           972.705E+03          1.06194E+06
              817.5E-03          973.386E+03          1.06405E+06
              820.E-03           974.059E+03          1.0662E+06 
              822.5E-03          974.725E+03          1.06837E+06
              825.E-03           975.383E+03          1.07058E+06
              827.5E-03          976.031E+03          1.07282E+06
              830.E-03           976.672E+03          1.0751E+06 
              832.5E-03          977.303E+03          1.07741E+06
              835.E-03           977.925E+03          1.07977E+06
              837.5E-03          978.536E+03          1.08217E+06
              840.E-03           979.138E+03          1.08461E+06
              842.5E-03          979.729E+03          1.0871E+06 
              845.E-03           980.308E+03          1.08965E+06
              847.5E-03          980.876E+03          1.09224E+06
              850.E-03           981.431E+03          1.09489E+06
              852.5E-03          981.973E+03          1.09759E+06
              855.E-03           982.502E+03          1.10036E+06
              857.5E-03          983.016E+03          1.10319E+06
              860.E-03           983.515E+03          1.10609E+06
              862.5E-03          983.997E+03          1.10907E+06
              865.E-03           984.462E+03          1.11212E+06
              867.5E-03          984.909E+03          1.11526E+06
              870.E-03           985.336E+03          1.11849E+06
              872.5E-03          985.743E+03          1.12181E+06
              875.E-03           986.126E+03          1.12524E+06
              877.5E-03          986.486E+03          1.12877E+06
              880.E-03           986.819E+03          1.13242E+06
              882.5E-03          987.124E+03          1.1362E+06 
              885.E-03           987.397E+03          1.14012E+06
              887.5E-03          987.637E+03          1.14418E+06
              890.E-03           987.84E+03           1.14841E+06
              892.5E-03          988.002E+03          1.15281E+06
              895.E-03           988.119E+03          1.15739E+06
              897.5E-03          988.186E+03          1.16219E+06
              900.E-03           988.198E+03          1.1672E+06 
              902.5E-03          988.146E+03          1.17246E+06
              905.E-03           988.025E+03          1.17798E+06
              907.5E-03          987.824E+03          1.18379E+06
              910.E-03           987.532E+03          1.18991E+06
              912.5E-03          987.138E+03          1.19636E+06
              915.E-03           986.627E+03          1.20318E+06
              917.5E-03          985.982E+03          1.21039E+06
              920.E-03           985.184E+03          1.21801E+06
              922.5E-03          984.212E+03          1.22606E+06
              925.E-03           983.044E+03          1.23456E+06
              927.5E-03          981.657E+03          1.2435E+06 
              930.E-03           980.029E+03          1.25289E+06
              932.5E-03          978.139E+03          1.26272E+06
              935.E-03           976.017E+03          1.27275E+06
              937.5E-03          973.585E+03          1.28339E+06
              940.E-03           970.865E+03          1.29439E+06
              942.5E-03          967.864E+03          1.30574E+06
              945.E-03           964.594E+03          1.31743E+06
              947.5E-03          961.072E+03          1.32945E+06
              950.E-03           957.318E+03          1.34179E+06
              952.5E-03          953.357E+03          1.35445E+06
              955.E-03           949.214E+03          1.36741E+06
              957.5E-03          944.918E+03          1.38066E+06
              960.E-03           940.494E+03          1.3942E+06 
              962.5E-03          935.969E+03          1.408E+06  
              965.E-03           931.369E+03          1.42204E+06
              967.5E-03          926.718E+03          1.43629E+06
              970.E-03           922.041E+03          1.45069E+06
              972.5E-03          917.361E+03          1.46517E+06
              975.E-03           912.7E+03            1.47964E+06
              977.5E-03          908.082E+03          1.49396E+06
              980.E-03           903.533E+03          1.50796E+06
              982.5E-03          899.08E+03           1.52144E+06
              985.E-03           894.754E+03          1.53417E+06
              987.5E-03          890.59E+03           1.54594E+06
              990.E-03           886.622E+03          1.5566E+06 
              992.5E-03          882.882E+03          1.56609E+06
              995.E-03           879.395E+03          1.57446E+06
              997.5E-03          876.18E+03           1.58184E+06
                1.               873.242E+03          1.5884E+06 




