
                  X                 Dinn               Dout      

                0.                 0.                 0.         
                2.5E-03          678.294E-06        614.232E-06  
                5.E-03             2.65469E-03        2.55509E-03
                7.5E-03            4.629E-03          4.49868E-03
               10.E-03             6.60244E-03        6.44437E-03
               12.5E-03            8.57522E-03        8.39188E-03
               15.E-03            10.5475E-03        10.341E-03  
               17.5E-03           12.5194E-03        12.2915E-03 
               20.E-03            14.491E-03         14.2432E-03 
               22.5E-03           16.4623E-03        16.1961E-03 
               25.E-03            18.4335E-03        18.15E-03   
               27.5E-03           20.4044E-03        20.1048E-03 
               30.E-03            22.3753E-03        22.0604E-03 
               32.5E-03           24.3461E-03        24.0167E-03 
               35.E-03            26.3168E-03        25.9737E-03 
               37.5E-03           28.2874E-03        27.9314E-03 
               40.E-03            30.258E-03         29.8896E-03 
               42.5E-03           32.2286E-03        31.8484E-03 
               45.E-03            34.1991E-03        33.8077E-03 
               47.5E-03           36.1697E-03        35.7674E-03 
               50.E-03            38.1402E-03        37.7275E-03 
               52.5E-03           40.1108E-03        39.6881E-03 
               55.E-03            42.0813E-03        41.649E-03  
               57.5E-03           44.0519E-03        43.6103E-03 
               60.E-03            46.0225E-03        45.5719E-03 
               62.5E-03           47.9931E-03        47.5339E-03 
               65.E-03            49.9637E-03        49.4961E-03 
               67.5E-03           51.9344E-03        51.4586E-03 
               70.E-03            53.9051E-03        53.4214E-03 
               72.5E-03           55.8758E-03        55.3844E-03 
               75.E-03            57.8466E-03        57.3477E-03 
               77.5E-03           59.8173E-03        59.3112E-03 
               80.E-03            61.7882E-03        61.2749E-03 
               82.5E-03           63.759E-03         63.2388E-03 
               85.E-03            65.7299E-03        65.2029E-03 
               87.5E-03           67.7009E-03        67.1672E-03 
               90.E-03            69.6718E-03        69.1317E-03 
               92.5E-03           71.6428E-03        71.0964E-03 
               95.E-03            73.6139E-03        73.0612E-03 
               97.5E-03           75.585E-03         75.0262E-03 
              100.E-03            77.5561E-03        76.9913E-03 
              102.5E-03           79.5273E-03        78.9566E-03 
              105.E-03            81.4985E-03        80.922E-03  
              107.5E-03           83.4697E-03        82.8876E-03 
              110.E-03            85.441E-03         84.8532E-03 
              112.5E-03           87.4124E-03        86.8191E-03 
              115.E-03            89.3837E-03        88.785E-03  
              117.5E-03           91.3551E-03        90.751E-03  
              120.E-03            93.3266E-03        92.7172E-03 
              122.5E-03           95.2981E-03        94.6835E-03 
              125.E-03            97.2696E-03        96.6499E-03 
              127.5E-03           99.2412E-03        98.6163E-03 
              130.E-03           101.213E-03        100.583E-03  
              132.5E-03          103.184E-03        102.55E-03   
              135.E-03           105.156E-03        104.516E-03  
              137.5E-03          107.128E-03        106.483E-03  
              140.E-03           109.1E-03          108.45E-03   
              142.5E-03          111.071E-03        110.417E-03  
              145.E-03           113.043E-03        112.384E-03  
              147.5E-03          115.015E-03        114.352E-03  
              150.E-03           116.987E-03        116.319E-03  
              152.5E-03          118.959E-03        118.286E-03  
              155.E-03           120.931E-03        120.254E-03  
              157.5E-03          122.903E-03        122.221E-03  
              160.E-03           124.875E-03        124.189E-03  
              162.5E-03          126.847E-03        126.156E-03  
              165.E-03           128.819E-03        128.124E-03  
              167.5E-03          130.792E-03        130.092E-03  
              170.E-03           132.764E-03        132.059E-03  
              172.5E-03          134.736E-03        134.027E-03  
              175.E-03           136.708E-03        135.995E-03  
              177.5E-03          138.681E-03        137.963E-03  
              180.E-03           140.653E-03        139.931E-03  
              182.5E-03          142.625E-03        141.899E-03  
              185.E-03           144.598E-03        143.867E-03  
              187.5E-03          146.57E-03         145.836E-03  
              190.E-03           148.543E-03        147.804E-03  
              192.5E-03          150.515E-03        149.772E-03  
              195.E-03           152.488E-03        151.741E-03  
              197.5E-03          154.461E-03        153.709E-03  
              200.E-03           156.433E-03        155.677E-03  
              202.5E-03          158.406E-03        157.646E-03  
              205.E-03           160.379E-03        159.614E-03  
              207.5E-03          162.352E-03        161.583E-03  
              210.E-03           164.324E-03        163.552E-03  
              212.5E-03          166.297E-03        165.52E-03   
              215.E-03           168.27E-03         167.489E-03  
              217.5E-03          170.243E-03        169.458E-03  
              220.E-03           172.216E-03        171.426E-03  
              222.5E-03          174.189E-03        173.395E-03  
              225.E-03           176.162E-03        175.364E-03  
              227.5E-03          178.135E-03        177.333E-03  
              230.E-03           180.108E-03        179.302E-03  
              232.5E-03          182.081E-03        181.271E-03  
              235.E-03           184.055E-03        183.24E-03   
              237.5E-03          186.028E-03        185.209E-03  
              240.E-03           188.001E-03        187.178E-03  
              242.5E-03          189.974E-03        189.147E-03  
              245.E-03           191.948E-03        191.116E-03  
              247.5E-03          193.921E-03        193.085E-03  
              250.E-03           195.894E-03        195.054E-03  
              252.5E-03          197.868E-03        197.023E-03  
              255.E-03           199.841E-03        198.992E-03  
              257.5E-03          201.815E-03        200.962E-03  
              260.E-03           203.789E-03        202.931E-03  
              262.5E-03          205.762E-03        204.9E-03    
              265.E-03           207.736E-03        206.869E-03  
              267.5E-03          209.71E-03         208.839E-03  
              270.E-03           211.683E-03        210.808E-03  
              272.5E-03          213.657E-03        212.777E-03  
              275.E-03           215.631E-03        214.747E-03  
              277.5E-03          217.605E-03        216.716E-03  
              280.E-03           219.579E-03        218.686E-03  
              282.5E-03          221.553E-03        220.655E-03  
              285.E-03           223.527E-03        222.625E-03  
              287.5E-03          225.501E-03        224.594E-03  
              290.E-03           227.475E-03        226.564E-03  
              292.5E-03          229.449E-03        228.533E-03  
              295.E-03           231.423E-03        230.503E-03  
              297.5E-03          233.397E-03        232.472E-03  
              300.E-03           235.371E-03        234.442E-03  
              302.5E-03          237.346E-03        236.411E-03  
              305.E-03           239.32E-03         238.381E-03  
              307.5E-03          241.294E-03        240.351E-03  
              310.E-03           243.269E-03        242.32E-03   
              312.5E-03          245.243E-03        244.29E-03   
              315.E-03           247.218E-03        246.26E-03   
              317.5E-03          249.192E-03        248.229E-03  
              320.E-03           251.167E-03        250.199E-03  
              322.5E-03          253.142E-03        252.169E-03  
              325.E-03           255.116E-03        254.138E-03  
              327.5E-03          257.091E-03        256.108E-03  
              330.E-03           259.066E-03        258.078E-03  
              332.5E-03          261.041E-03        260.048E-03  
              335.E-03           263.016E-03        262.017E-03  
              337.5E-03          264.991E-03        263.987E-03  
              340.E-03           266.966E-03        265.957E-03  
              342.5E-03          268.941E-03        267.927E-03  
              345.E-03           270.916E-03        269.896E-03  
              347.5E-03          272.891E-03        271.866E-03  
              350.E-03           274.866E-03        273.836E-03  
              352.5E-03          276.841E-03        275.806E-03  
              355.E-03           278.072E-03        276.827E-03  
              357.5E-03          280.441E-03        279.162E-03  
              360.E-03           283.524E-03        282.245E-03  
              362.5E-03          286.727E-03        285.449E-03  
              365.E-03           289.911E-03        288.637E-03  
              367.5E-03          293.072E-03        291.8E-03    
              370.E-03           296.218E-03        294.949E-03  
              372.5E-03          299.356E-03        298.091E-03  
              375.E-03           302.492E-03        301.229E-03  
              377.5E-03          305.626E-03        304.365E-03  
              380.E-03           308.759E-03        307.501E-03  
              382.5E-03          311.892E-03        310.636E-03  
              385.E-03           315.025E-03        313.772E-03  
              387.5E-03          318.158E-03        316.907E-03  
              390.E-03           321.291E-03        320.042E-03  
              392.5E-03          324.425E-03        323.177E-03  
              395.E-03           327.558E-03        326.312E-03  
              397.5E-03          330.692E-03        329.448E-03  
              400.E-03           333.826E-03        332.583E-03  
              402.5E-03          336.96E-03         335.718E-03  
              405.E-03           340.094E-03        338.853E-03  
              407.5E-03          343.228E-03        341.989E-03  
              410.E-03           346.362E-03        345.124E-03  
              412.5E-03          349.497E-03        348.259E-03  
              415.E-03           352.631E-03        351.395E-03  
              417.5E-03          355.766E-03        354.53E-03   
              420.E-03           358.901E-03        357.665E-03  
              422.5E-03          362.036E-03        360.801E-03  
              425.E-03           365.171E-03        363.936E-03  
              427.5E-03          368.306E-03        367.071E-03  
              430.E-03           371.441E-03        370.207E-03  
              432.5E-03          374.576E-03        373.342E-03  
              435.E-03           377.712E-03        376.478E-03  
              437.5E-03          380.848E-03        379.613E-03  
              440.E-03           383.983E-03        382.749E-03  
              442.5E-03          387.119E-03        385.884E-03  
              445.E-03           390.255E-03        389.02E-03   
              447.5E-03          393.391E-03        392.155E-03  
              450.E-03           396.527E-03        395.291E-03  
              452.5E-03          399.663E-03        398.426E-03  
              455.E-03           402.8E-03          401.562E-03  
              457.5E-03          405.936E-03        404.698E-03  
              460.E-03           409.073E-03        407.833E-03  
              462.5E-03          412.209E-03        410.969E-03  
              465.E-03           415.346E-03        414.104E-03  
              467.5E-03          418.483E-03        417.24E-03   
              470.E-03           421.62E-03         420.376E-03  
              472.5E-03          424.757E-03        423.511E-03  
              475.E-03           427.894E-03        426.647E-03  
              477.5E-03          431.031E-03        429.783E-03  
              480.E-03           434.168E-03        432.919E-03  
              482.5E-03          437.306E-03        436.054E-03  
              485.E-03           440.443E-03        439.19E-03   
              487.5E-03          443.581E-03        442.326E-03  
              490.E-03           446.718E-03        445.461E-03  
              492.5E-03          449.856E-03        448.597E-03  
              495.E-03           452.994E-03        451.733E-03  
              497.5E-03          456.132E-03        454.869E-03  
              500.E-03           459.27E-03         458.004E-03  
              502.5E-03          462.408E-03        461.14E-03   
              505.E-03           465.546E-03        464.276E-03  
              507.5E-03          468.684E-03        467.412E-03  
              510.E-03           471.822E-03        470.548E-03  
              512.5E-03          474.961E-03        473.683E-03  
              515.E-03           478.099E-03        476.819E-03  
              517.5E-03          481.237E-03        479.955E-03  
              520.E-03           484.376E-03        483.091E-03  
              522.5E-03          487.515E-03        486.227E-03  
              525.E-03           490.653E-03        489.363E-03  
              527.5E-03          493.792E-03        492.499E-03  
              530.E-03           496.193E-03        494.897E-03  
              532.5E-03          499.525E-03        498.233E-03  
              535.E-03           502.016E-03        500.731E-03  
              537.5E-03          504.396E-03        503.12E-03   
              540.E-03           506.728E-03        505.463E-03  
              542.5E-03          509.039E-03        507.785E-03  
              545.E-03           511.34E-03         510.099E-03  
              547.5E-03          513.638E-03        512.408E-03  
              550.E-03           515.935E-03        514.716E-03  
              552.5E-03          518.23E-03         517.024E-03  
              555.E-03           520.526E-03        519.331E-03  
              557.5E-03          522.821E-03        521.638E-03  
              560.E-03           525.117E-03        523.944E-03  
              562.5E-03          527.413E-03        526.251E-03  
              565.E-03           529.708E-03        528.558E-03  
              567.5E-03          532.004E-03        530.865E-03  
              570.E-03           534.3E-03          533.172E-03  
              572.5E-03          536.597E-03        535.478E-03  
              575.E-03           538.893E-03        537.785E-03  
              577.5E-03          541.19E-03         540.092E-03  
              580.E-03           543.486E-03        542.399E-03  
              582.5E-03          545.783E-03        544.706E-03  
              585.E-03           548.08E-03         547.013E-03  
              587.5E-03          550.377E-03        549.319E-03  
              590.E-03           552.675E-03        551.626E-03  
              592.5E-03          554.972E-03        553.933E-03  
              595.E-03           557.269E-03        556.24E-03   
              597.5E-03          559.567E-03        558.547E-03  
              600.E-03           561.865E-03        560.854E-03  
              602.5E-03          564.163E-03        563.16E-03   
              605.E-03           566.461E-03        565.467E-03  
              607.5E-03          568.759E-03        567.774E-03  
              610.E-03           571.057E-03        570.081E-03  
              612.5E-03          573.355E-03        572.388E-03  
              615.E-03           575.654E-03        574.695E-03  
              617.5E-03          577.953E-03        577.002E-03  
              620.E-03           580.251E-03        579.308E-03  
              622.5E-03          582.55E-03         581.615E-03  
              625.E-03           584.849E-03        583.922E-03  
              627.5E-03          587.148E-03        586.229E-03  
              630.E-03           589.447E-03        588.536E-03  
              632.5E-03          591.747E-03        590.843E-03  
              635.E-03           594.046E-03        593.15E-03   
              637.5E-03          596.346E-03        595.457E-03  
              640.E-03           598.645E-03        597.764E-03  
              642.5E-03          600.945E-03        600.07E-03   
              645.E-03           603.245E-03        602.377E-03  
              647.5E-03          605.545E-03        604.684E-03  
              650.E-03           607.845E-03        606.991E-03  
              652.5E-03          610.145E-03        609.298E-03  
              655.E-03           612.446E-03        611.605E-03  
              657.5E-03          614.746E-03        613.912E-03  
              660.E-03           617.047E-03        616.219E-03  
              662.5E-03          619.347E-03        618.526E-03  
              665.E-03           621.648E-03        620.832E-03  
              667.5E-03          623.949E-03        623.139E-03  
              670.E-03           626.25E-03         625.446E-03  
              672.5E-03          628.551E-03        627.753E-03  
              675.E-03           630.852E-03        630.06E-03   
              677.5E-03          633.153E-03        632.367E-03  
              680.E-03           635.455E-03        634.674E-03  
              682.5E-03          637.756E-03        636.981E-03  
              685.E-03           640.058E-03        639.287E-03  
              687.5E-03          642.359E-03        641.594E-03  
              690.E-03           644.661E-03        643.901E-03  
              692.5E-03          646.963E-03        646.208E-03  
              695.E-03           649.265E-03        648.515E-03  
              697.5E-03          651.567E-03        650.822E-03  
              700.E-03           653.869E-03        653.129E-03  
              702.5E-03          656.172E-03        655.436E-03  
              705.E-03           658.474E-03        657.742E-03  
              707.5E-03          660.776E-03        660.049E-03  
              710.E-03           663.079E-03        662.356E-03  
              712.5E-03          665.381E-03        664.663E-03  
              715.E-03           667.684E-03        666.97E-03   
              717.5E-03          669.987E-03        669.277E-03  
              720.E-03           672.29E-03         671.583E-03  
              722.5E-03          674.593E-03        673.89E-03   
              725.E-03           676.896E-03        676.197E-03  
              727.5E-03          679.199E-03        678.504E-03  
              730.E-03           681.503E-03        680.811E-03  
              732.5E-03          683.806E-03        683.118E-03  
              735.E-03           686.11E-03         685.424E-03  
              737.5E-03          688.413E-03        687.731E-03  
              740.E-03           690.717E-03        690.038E-03  
              742.5E-03          693.021E-03        692.345E-03  
              745.E-03           695.324E-03        694.652E-03  
              747.5E-03          697.628E-03        696.958E-03  
              750.E-03           699.932E-03        699.265E-03  
              752.5E-03          702.236E-03        701.572E-03  
              755.E-03           704.541E-03        703.879E-03  
              757.5E-03          706.845E-03        706.185E-03  
              760.E-03           709.149E-03        708.492E-03  
              762.5E-03          711.454E-03        710.799E-03  
              765.E-03           713.758E-03        713.106E-03  
              767.5E-03          716.063E-03        715.412E-03  
              770.E-03           718.368E-03        717.719E-03  
              772.5E-03          720.673E-03        720.026E-03  
              775.E-03           722.978E-03        722.333E-03  
              777.5E-03          725.283E-03        724.639E-03  
              780.E-03           727.588E-03        726.946E-03  
              782.5E-03          729.893E-03        729.253E-03  
              785.E-03           732.198E-03        731.559E-03  
              787.5E-03          734.504E-03        733.866E-03  
              790.E-03           736.809E-03        736.173E-03  
              792.5E-03          739.115E-03        738.479E-03  
              795.E-03           741.42E-03         740.786E-03  
              797.5E-03          743.726E-03        743.093E-03  
              800.E-03           746.032E-03        745.399E-03  
              802.5E-03          748.338E-03        747.706E-03  
              805.E-03           750.644E-03        750.013E-03  
              807.5E-03          752.95E-03         752.319E-03  
              810.E-03           755.256E-03        754.626E-03  
              812.5E-03          757.562E-03        756.932E-03  
              815.E-03           759.869E-03        759.239E-03  
              817.5E-03          762.175E-03        761.545E-03  
              820.E-03           764.482E-03        763.852E-03  
              822.5E-03          766.788E-03        766.159E-03  
              825.E-03           769.095E-03        768.465E-03  
              827.5E-03          771.402E-03        770.772E-03  
              830.E-03           773.709E-03        773.078E-03  
              832.5E-03          776.016E-03        775.385E-03  
              835.E-03           778.323E-03        777.691E-03  
              837.5E-03          780.63E-03         779.997E-03  
              840.E-03           782.937E-03        782.304E-03  
              842.5E-03          785.244E-03        784.61E-03   
              845.E-03           787.552E-03        786.917E-03  
              847.5E-03          789.859E-03        789.223E-03  
              850.E-03           792.167E-03        791.53E-03   
              852.5E-03          794.474E-03        793.836E-03  
              855.E-03           796.782E-03        796.143E-03  
              857.5E-03          799.09E-03         798.449E-03  
              860.E-03           801.398E-03        800.755E-03  
              862.5E-03          803.706E-03        803.062E-03  
              865.E-03           806.014E-03        805.368E-03  
              867.5E-03          808.322E-03        807.674E-03  
              870.E-03           810.631E-03        809.981E-03  
              872.5E-03          812.939E-03        812.287E-03  
              875.E-03           815.247E-03        814.593E-03  
              877.5E-03          817.556E-03        816.899E-03  
              880.E-03           819.865E-03        819.206E-03  
              882.5E-03          822.173E-03        821.512E-03  
              885.E-03           824.482E-03        823.818E-03  
              887.5E-03          826.791E-03        826.124E-03  
              890.E-03           829.1E-03          828.431E-03  
              892.5E-03          831.409E-03        830.737E-03  
              895.E-03           833.718E-03        833.043E-03  
              897.5E-03          836.028E-03        835.349E-03  
              900.E-03           838.337E-03        837.655E-03  
              902.5E-03          840.646E-03        839.961E-03  
              905.E-03           842.956E-03        842.267E-03  
              907.5E-03          845.266E-03        844.573E-03  
              910.E-03           847.575E-03        846.879E-03  
              912.5E-03          849.885E-03        849.186E-03  
              915.E-03           852.195E-03        851.492E-03  
              917.5E-03          854.505E-03        853.798E-03  
              920.E-03           856.815E-03        856.104E-03  
              922.5E-03          859.125E-03        858.41E-03   
              925.E-03           861.436E-03        860.716E-03  
              927.5E-03          863.746E-03        863.021E-03  
              930.E-03           866.057E-03        865.327E-03  
              932.5E-03          868.367E-03        867.633E-03  
              935.E-03           870.678E-03        869.939E-03  
              937.5E-03          872.989E-03        872.245E-03  
              940.E-03           875.299E-03        874.551E-03  
              942.5E-03          877.61E-03         876.857E-03  
              945.E-03           879.921E-03        879.162E-03  
              947.5E-03          882.232E-03        881.468E-03  
              950.E-03           884.544E-03        883.774E-03  
              952.5E-03          886.855E-03        886.08E-03   
              955.E-03           889.166E-03        888.385E-03  
              957.5E-03          891.478E-03        890.691E-03  
              960.E-03           893.79E-03         892.997E-03  
              962.5E-03          896.101E-03        895.302E-03  
              965.E-03           898.413E-03        897.608E-03  
              967.5E-03          900.725E-03        899.914E-03  
              970.E-03           903.037E-03        902.219E-03  
              972.5E-03          905.349E-03        904.525E-03  
              975.E-03           907.661E-03        906.83E-03   
              977.5E-03          909.973E-03        909.136E-03  
              980.E-03           912.286E-03        911.441E-03  
              982.5E-03          914.598E-03        913.747E-03  
              985.E-03           916.911E-03        916.052E-03  
              987.5E-03          919.224E-03        918.358E-03  
              990.E-03           921.536E-03        920.663E-03  
              992.5E-03          923.849E-03        922.969E-03  
              995.E-03           926.162E-03        925.274E-03  
              997.5E-03          928.475E-03        927.579E-03  
                1.               930.788E-03        929.885E-03  




