
                  X              SENER-out           SENER-in    

                0.                 0.                 0.         
                2.5E-03          162.497E+03        159.657E+03  
                5.E-03           168.957E+03        166.411E+03  
                7.5E-03          175.061E+03        172.75E+03   
               10.E-03           180.861E+03        178.746E+03  
               12.5E-03          186.395E+03        184.448E+03  
               15.E-03           191.695E+03        189.893E+03  
               17.5E-03          196.786E+03        195.11E+03   
               20.E-03           201.69E+03         200.125E+03  
               22.5E-03          206.423E+03        204.956E+03  
               25.E-03           211.E+03           209.622E+03  
               27.5E-03          215.436E+03        214.137E+03  
               30.E-03           219.74E+03         218.513E+03  
               32.5E-03          223.922E+03        222.76E+03   
               35.E-03           227.992E+03        226.89E+03   
               37.5E-03          231.957E+03        230.91E+03   
               40.E-03           235.824E+03        234.827E+03  
               42.5E-03          239.6E+03          238.648E+03  
               45.E-03           243.289E+03        242.38E+03   
               47.5E-03          246.896E+03        246.028E+03  
               50.E-03           250.428E+03        249.596E+03  
               52.5E-03          253.886E+03        253.089E+03  
               55.E-03           257.276E+03        256.512E+03  
               57.5E-03          260.601E+03        259.867E+03  
               60.E-03           263.864E+03        263.159E+03  
               62.5E-03          267.068E+03        266.39E+03   
               65.E-03           270.216E+03        269.563E+03  
               67.5E-03          273.311E+03        272.681E+03  
               70.E-03           276.354E+03        275.747E+03  
               72.5E-03          279.348E+03        278.763E+03  
               75.E-03           282.295E+03        281.73E+03   
               77.5E-03          285.196E+03        284.651E+03  
               80.E-03           288.055E+03        287.528E+03  
               82.5E-03          290.872E+03        290.363E+03  
               85.E-03           293.649E+03        293.157E+03  
               87.5E-03          296.387E+03        295.911E+03  
               90.E-03           299.088E+03        298.628E+03  
               92.5E-03          301.753E+03        301.307E+03  
               95.E-03           304.384E+03        303.952E+03  
               97.5E-03          306.981E+03        306.563E+03  
              100.E-03           309.546E+03        309.141E+03  
              102.5E-03          312.079E+03        311.687E+03  
              105.E-03           314.582E+03        314.202E+03  
              107.5E-03          317.056E+03        316.688E+03  
              110.E-03           319.502E+03        319.144E+03  
              112.5E-03          321.919E+03        321.573E+03  
              115.E-03           324.31E+03         323.974E+03  
              117.5E-03          326.675E+03        326.35E+03   
              120.E-03           329.015E+03        328.699E+03  
              122.5E-03          331.33E+03         331.024E+03  
              125.E-03           333.621E+03        333.324E+03  
              127.5E-03          335.889E+03        335.601E+03  
              130.E-03           338.135E+03        337.855E+03  
              132.5E-03          340.358E+03        340.087E+03  
              135.E-03           342.56E+03         342.297E+03  
              137.5E-03          344.741E+03        344.486E+03  
              140.E-03           346.901E+03        346.654E+03  
              142.5E-03          349.042E+03        348.802E+03  
              145.E-03           351.163E+03        350.931E+03  
              147.5E-03          353.265E+03        353.04E+03   
              150.E-03           355.349E+03        355.131E+03  
              152.5E-03          357.414E+03        357.203E+03  
              155.E-03           359.462E+03        359.258E+03  
              157.5E-03          361.493E+03        361.295E+03  
              160.E-03           363.507E+03        363.315E+03  
              162.5E-03          365.504E+03        365.318E+03  
              165.E-03           367.485E+03        367.306E+03  
              167.5E-03          369.45E+03         369.277E+03  
              170.E-03           371.4E+03          371.232E+03  
              172.5E-03          373.335E+03        373.173E+03  
              175.E-03           375.254E+03        375.098E+03  
              177.5E-03          377.159E+03        377.008E+03  
              180.E-03           379.05E+03         378.905E+03  
              182.5E-03          380.927E+03        380.787E+03  
              185.E-03           382.79E+03         382.655E+03  
              187.5E-03          384.64E+03         384.51E+03   
              190.E-03           386.476E+03        386.351E+03  
              192.5E-03          388.3E+03          388.18E+03   
              195.E-03           390.111E+03        389.995E+03  
              197.5E-03          391.909E+03        391.799E+03  
              200.E-03           393.695E+03        393.589E+03  
              202.5E-03          395.469E+03        395.368E+03  
              205.E-03           397.231E+03        397.135E+03  
              207.5E-03          398.982E+03        398.89E+03   
              210.E-03           400.721E+03        400.633E+03  
              212.5E-03          402.449E+03        402.366E+03  
              215.E-03           404.166E+03        404.087E+03  
              217.5E-03          405.872E+03        405.797E+03  
              220.E-03           407.568E+03        407.497E+03  
              222.5E-03          409.253E+03        409.186E+03  
              225.E-03           410.927E+03        410.865E+03  
              227.5E-03          412.592E+03        412.533E+03  
              230.E-03           414.246E+03        414.192E+03  
              232.5E-03          415.891E+03        415.841E+03  
              235.E-03           417.526E+03        417.48E+03   
              237.5E-03          419.152E+03        419.109E+03  
              240.E-03           420.768E+03        420.729E+03  
              242.5E-03          422.375E+03        422.34E+03   
              245.E-03           423.973E+03        423.941E+03  
              247.5E-03          425.561E+03        425.534E+03  
              250.E-03           427.141E+03        427.117E+03  
              252.5E-03          428.713E+03        428.693E+03  
              255.E-03           430.276E+03        430.259E+03  
              257.5E-03          431.83E+03         431.817E+03  
              260.E-03           433.376E+03        433.366E+03  
              262.5E-03          434.914E+03        434.908E+03  
              265.E-03           436.443E+03        436.441E+03  
              267.5E-03          437.965E+03        437.966E+03  
              270.E-03           439.479E+03        439.483E+03  
              272.5E-03          440.985E+03        440.993E+03  
              275.E-03           442.483E+03        442.495E+03  
              277.5E-03          443.974E+03        443.989E+03  
              280.E-03           445.458E+03        445.476E+03  
              282.5E-03          446.934E+03        446.955E+03  
              285.E-03           448.402E+03        448.427E+03  
              287.5E-03          449.864E+03        449.892E+03  
              290.E-03           451.319E+03        451.35E+03   
              292.5E-03          452.766E+03        452.801E+03  
              295.E-03           454.207E+03        454.245E+03  
              297.5E-03          455.641E+03        455.682E+03  
              300.E-03           457.068E+03        457.112E+03  
              302.5E-03          458.488E+03        458.536E+03  
              305.E-03           459.902E+03        459.953E+03  
              307.5E-03          461.31E+03         461.364E+03  
              310.E-03           462.711E+03        462.768E+03  
              312.5E-03          464.105E+03        464.166E+03  
              315.E-03           465.494E+03        465.558E+03  
              317.5E-03          466.876E+03        466.944E+03  
              320.E-03           468.252E+03        468.323E+03  
              322.5E-03          469.622E+03        469.696E+03  
              325.E-03           470.987E+03        471.064E+03  
              327.5E-03          472.345E+03        472.425E+03  
              330.E-03           473.697E+03        473.781E+03  
              332.5E-03          475.044E+03        475.131E+03  
              335.E-03           476.385E+03        476.475E+03  
              337.5E-03          477.72E+03         477.814E+03  
              340.E-03           479.05E+03         479.147E+03  
              342.5E-03          480.374E+03        480.474E+03  
              345.E-03           481.693E+03        481.797E+03  
              347.5E-03          483.007E+03        483.113E+03  
              350.E-03           484.315E+03        484.425E+03  
              352.5E-03          485.618E+03        485.731E+03  
              355.E-03           549.578E+03        550.606E+03  
              357.5E-03          653.258E+03        654.076E+03  
              360.E-03           710.462E+03        711.219E+03  
              362.5E-03          736.893E+03        737.619E+03  
              365.E-03           749.791E+03        750.504E+03  
              367.5E-03          757.106E+03        757.812E+03  
              370.E-03           762.008E+03        762.708E+03  
              372.5E-03          765.835E+03        766.531E+03  
              375.E-03           769.172E+03        769.863E+03  
              377.5E-03          772.276E+03        772.962E+03  
              380.E-03           775.266E+03        775.948E+03  
              382.5E-03          778.195E+03        778.872E+03  
              385.E-03           781.087E+03        781.76E+03   
              387.5E-03          783.955E+03        784.623E+03  
              390.E-03           786.802E+03        787.466E+03  
              392.5E-03          789.632E+03        790.292E+03  
              395.E-03           792.446E+03        793.103E+03  
              397.5E-03          795.245E+03        795.898E+03  
              400.E-03           798.029E+03        798.678E+03  
              402.5E-03          800.799E+03        801.444E+03  
              405.E-03           803.554E+03        804.196E+03  
              407.5E-03          806.295E+03        806.933E+03  
              410.E-03           809.022E+03        809.657E+03  
              412.5E-03          811.735E+03        812.368E+03  
              415.E-03           814.435E+03        815.065E+03  
              417.5E-03          817.122E+03        817.748E+03  
              420.E-03           819.795E+03        820.419E+03  
              422.5E-03          822.456E+03        823.077E+03  
              425.E-03           825.103E+03        825.722E+03  
              427.5E-03          827.738E+03        828.354E+03  
              430.E-03           830.361E+03        830.974E+03  
              432.5E-03          832.971E+03        833.582E+03  
              435.E-03           835.569E+03        836.178E+03  
              437.5E-03          838.155E+03        838.762E+03  
              440.E-03           840.729E+03        841.334E+03  
              442.5E-03          843.291E+03        843.894E+03  
              445.E-03           845.841E+03        846.443E+03  
              447.5E-03          848.38E+03         848.98E+03   
              450.E-03           850.908E+03        851.506E+03  
              452.5E-03          853.425E+03        854.021E+03  
              455.E-03           855.93E+03         856.525E+03  
              457.5E-03          858.425E+03        859.018E+03  
              460.E-03           860.909E+03        861.5E+03    
              462.5E-03          863.382E+03        863.972E+03  
              465.E-03           865.844E+03        866.433E+03  
              467.5E-03          868.296E+03        868.884E+03  
              470.E-03           870.738E+03        871.324E+03  
              472.5E-03          873.17E+03         873.755E+03  
              475.E-03           875.591E+03        876.175E+03  
              477.5E-03          878.003E+03        878.586E+03  
              480.E-03           880.404E+03        880.986E+03  
              482.5E-03          882.796E+03        883.377E+03  
              485.E-03           885.178E+03        885.758E+03  
              487.5E-03          887.551E+03        888.13E+03   
              490.E-03           889.914E+03        890.492E+03  
              492.5E-03          892.267E+03        892.845E+03  
              495.E-03           894.612E+03        895.189E+03  
              497.5E-03          896.947E+03        897.524E+03  
              500.E-03           899.273E+03        899.849E+03  
              502.5E-03          901.591E+03        902.166E+03  
              505.E-03           903.899E+03        904.474E+03  
              507.5E-03          906.198E+03        906.773E+03  
              510.E-03           908.489E+03        909.064E+03  
              512.5E-03          910.771E+03        911.346E+03  
              515.E-03           913.045E+03        913.619E+03  
              517.5E-03          915.31E+03         915.884E+03  
              520.E-03           917.567E+03        918.141E+03  
              522.5E-03          919.816E+03        920.389E+03  
              525.E-03           922.056E+03        922.629E+03  
              527.5E-03          924.288E+03        924.861E+03  
              530.E-03           925.911E+03        926.483E+03  
              532.5E-03          964.808E+03        965.453E+03  
              535.E-03           974.561E+03        975.22E+03   
              537.5E-03          979.36E+03         980.023E+03  
              540.E-03           982.68E+03         983.343E+03  
              542.5E-03          985.529E+03        986.193E+03  
              545.E-03           988.198E+03        988.86E+03   
              547.5E-03          990.788E+03        991.45E+03   
              550.E-03           993.339E+03        994.E+03     
              552.5E-03          995.868E+03        996.528E+03  
              555.E-03           998.382E+03        999.042E+03  
              557.5E-03            1.00088E+06        1.00154E+06
              560.E-03             1.00338E+06        1.00403E+06
              562.5E-03            1.00586E+06        1.00652E+06
              565.E-03             1.00833E+06        1.00899E+06
              567.5E-03            1.0108E+06         1.01145E+06
              570.E-03             1.01325E+06        1.01391E+06
              572.5E-03            1.0157E+06         1.01635E+06
              575.E-03             1.01813E+06        1.01879E+06
              577.5E-03            1.02056E+06        1.02122E+06
              580.E-03             1.02298E+06        1.02364E+06
              582.5E-03            1.02539E+06        1.02605E+06
              585.E-03             1.0278E+06         1.02845E+06
              587.5E-03            1.03019E+06        1.03084E+06
              590.E-03             1.03258E+06        1.03323E+06
              592.5E-03            1.03495E+06        1.03561E+06
              595.E-03             1.03732E+06        1.03798E+06
              597.5E-03            1.03969E+06        1.04034E+06
              600.E-03             1.04204E+06        1.04269E+06
              602.5E-03            1.04439E+06        1.04504E+06
              605.E-03             1.04672E+06        1.04738E+06
              607.5E-03            1.04905E+06        1.04971E+06
              610.E-03             1.05138E+06        1.05203E+06
              612.5E-03            1.05369E+06        1.05434E+06
              615.E-03             1.056E+06          1.05665E+06
              617.5E-03            1.0583E+06         1.05895E+06
              620.E-03             1.06059E+06        1.06124E+06
              622.5E-03            1.06287E+06        1.06353E+06
              625.E-03             1.06515E+06        1.06581E+06
              627.5E-03            1.06742E+06        1.06808E+06
              630.E-03             1.06968E+06        1.07034E+06
              632.5E-03            1.07194E+06        1.0726E+06 
              635.E-03             1.07419E+06        1.07484E+06
              637.5E-03            1.07643E+06        1.07709E+06
              640.E-03             1.07866E+06        1.07932E+06
              642.5E-03            1.08089E+06        1.08155E+06
              645.E-03             1.08311E+06        1.08377E+06
              647.5E-03            1.08533E+06        1.08599E+06
              650.E-03             1.08753E+06        1.08819E+06
              652.5E-03            1.08973E+06        1.0904E+06 
              655.E-03             1.09193E+06        1.09259E+06
              657.5E-03            1.09412E+06        1.09478E+06
              660.E-03             1.0963E+06         1.09696E+06
              662.5E-03            1.09847E+06        1.09914E+06
              665.E-03             1.10064E+06        1.1013E+06 
              667.5E-03            1.1028E+06         1.10347E+06
              670.E-03             1.10495E+06        1.10562E+06
              672.5E-03            1.1071E+06         1.10777E+06
              675.E-03             1.10925E+06        1.10992E+06
              677.5E-03            1.11138E+06        1.11205E+06
              680.E-03             1.11351E+06        1.11418E+06
              682.5E-03            1.11564E+06        1.11631E+06
              685.E-03             1.11776E+06        1.11843E+06
              687.5E-03            1.11987E+06        1.12054E+06
              690.E-03             1.12197E+06        1.12265E+06
              692.5E-03            1.12407E+06        1.12475E+06
              695.E-03             1.12617E+06        1.12685E+06
              697.5E-03            1.12826E+06        1.12894E+06
              700.E-03             1.13034E+06        1.13102E+06
              702.5E-03            1.13242E+06        1.1331E+06 
              705.E-03             1.13449E+06        1.13517E+06
              707.5E-03            1.13655E+06        1.13724E+06
              710.E-03             1.13861E+06        1.1393E+06 
              712.5E-03            1.14067E+06        1.14136E+06
              715.E-03             1.14272E+06        1.14341E+06
              717.5E-03            1.14476E+06        1.14545E+06
              720.E-03             1.1468E+06         1.14749E+06
              722.5E-03            1.14883E+06        1.14953E+06
              725.E-03             1.15086E+06        1.15155E+06
              727.5E-03            1.15288E+06        1.15358E+06
              730.E-03             1.1549E+06         1.1556E+06 
              732.5E-03            1.15691E+06        1.15761E+06
              735.E-03             1.15891E+06        1.15962E+06
              737.5E-03            1.16091E+06        1.16162E+06
              740.E-03             1.16291E+06        1.16362E+06
              742.5E-03            1.1649E+06         1.16561E+06
              745.E-03             1.16689E+06        1.1676E+06 
              747.5E-03            1.16887E+06        1.16958E+06
              750.E-03             1.17084E+06        1.17156E+06
              752.5E-03            1.17281E+06        1.17353E+06
              755.E-03             1.17478E+06        1.1755E+06 
              757.5E-03            1.17674E+06        1.17746E+06
              760.E-03             1.17869E+06        1.17942E+06
              762.5E-03            1.18065E+06        1.18137E+06
              765.E-03             1.18259E+06        1.18332E+06
              767.5E-03            1.18453E+06        1.18526E+06
              770.E-03             1.18647E+06        1.1872E+06 
              772.5E-03            1.1884E+06         1.18913E+06
              775.E-03             1.19033E+06        1.19106E+06
              777.5E-03            1.19225E+06        1.19299E+06
              780.E-03             1.19417E+06        1.19491E+06
              782.5E-03            1.19608E+06        1.19682E+06
              785.E-03             1.19799E+06        1.19873E+06
              787.5E-03            1.19989E+06        1.20064E+06
              790.E-03             1.20179E+06        1.20254E+06
              792.5E-03            1.20369E+06        1.20444E+06
              795.E-03             1.20558E+06        1.20633E+06
              797.5E-03            1.20746E+06        1.20822E+06
              800.E-03             1.20934E+06        1.2101E+06 
              802.5E-03            1.21122E+06        1.21198E+06
              805.E-03             1.21309E+06        1.21386E+06
              807.5E-03            1.21496E+06        1.21573E+06
              810.E-03             1.21683E+06        1.2176E+06 
              812.5E-03            1.21869E+06        1.21946E+06
              815.E-03             1.22054E+06        1.22132E+06
              817.5E-03            1.22239E+06        1.22317E+06
              820.E-03             1.22424E+06        1.22502E+06
              822.5E-03            1.22608E+06        1.22687E+06
              825.E-03             1.22792E+06        1.22871E+06
              827.5E-03            1.22976E+06        1.23055E+06
              830.E-03             1.23159E+06        1.23238E+06
              832.5E-03            1.23342E+06        1.23421E+06
              835.E-03             1.23524E+06        1.23603E+06
              837.5E-03            1.23706E+06        1.23786E+06
              840.E-03             1.23887E+06        1.23967E+06
              842.5E-03            1.24068E+06        1.24149E+06
              845.E-03             1.24249E+06        1.2433E+06 
              847.5E-03            1.24429E+06        1.2451E+06 
              850.E-03             1.24609E+06        1.2469E+06 
              852.5E-03            1.24788E+06        1.2487E+06 
              855.E-03             1.24968E+06        1.2505E+06 
              857.5E-03            1.25146E+06        1.25229E+06
              860.E-03             1.25325E+06        1.25407E+06
              862.5E-03            1.25502E+06        1.25585E+06
              865.E-03             1.2568E+06         1.25763E+06
              867.5E-03            1.25857E+06        1.25941E+06
              870.E-03             1.26034E+06        1.26118E+06
              872.5E-03            1.2621E+06         1.26295E+06
              875.E-03             1.26387E+06        1.26471E+06
              877.5E-03            1.26562E+06        1.26647E+06
              880.E-03             1.26738E+06        1.26823E+06
              882.5E-03            1.26913E+06        1.26998E+06
              885.E-03             1.27087E+06        1.27173E+06
              887.5E-03            1.27261E+06        1.27348E+06
              890.E-03             1.27435E+06        1.27522E+06
              892.5E-03            1.27609E+06        1.27696E+06
              895.E-03             1.27782E+06        1.2787E+06 
              897.5E-03            1.27955E+06        1.28043E+06
              900.E-03             1.28127E+06        1.28216E+06
              902.5E-03            1.283E+06          1.28388E+06
              905.E-03             1.28471E+06        1.2856E+06 
              907.5E-03            1.28643E+06        1.28732E+06
              910.E-03             1.28814E+06        1.28904E+06
              912.5E-03            1.28985E+06        1.29075E+06
              915.E-03             1.29155E+06        1.29246E+06
              917.5E-03            1.29325E+06        1.29416E+06
              920.E-03             1.29495E+06        1.29586E+06
              922.5E-03            1.29664E+06        1.29756E+06
              925.E-03             1.29833E+06        1.29926E+06
              927.5E-03            1.30002E+06        1.30095E+06
              930.E-03             1.30171E+06        1.30264E+06
              932.5E-03            1.30339E+06        1.30432E+06
              935.E-03             1.30506E+06        1.306E+06  
              937.5E-03            1.30674E+06        1.30768E+06
              940.E-03             1.30841E+06        1.30936E+06
              942.5E-03            1.31008E+06        1.31103E+06
              945.E-03             1.31174E+06        1.3127E+06 
              947.5E-03            1.3134E+06         1.31437E+06
              950.E-03             1.31506E+06        1.31603E+06
              952.5E-03            1.31672E+06        1.31769E+06
              955.E-03             1.31837E+06        1.31934E+06
              957.5E-03            1.32002E+06        1.321E+06  
              960.E-03             1.32166E+06        1.32265E+06
              962.5E-03            1.32331E+06        1.3243E+06 
              965.E-03             1.32495E+06        1.32594E+06
              967.5E-03            1.32658E+06        1.32758E+06
              970.E-03             1.32822E+06        1.32922E+06
              972.5E-03            1.32985E+06        1.33086E+06
              975.E-03             1.33148E+06        1.33249E+06
              977.5E-03            1.3331E+06         1.33412E+06
              980.E-03             1.33472E+06        1.33575E+06
              982.5E-03            1.33634E+06        1.33737E+06
              985.E-03             1.33796E+06        1.33899E+06
              987.5E-03            1.33957E+06        1.34061E+06
              990.E-03             1.34118E+06        1.34222E+06
              992.5E-03            1.34279E+06        1.34384E+06
              995.E-03             1.34439E+06        1.34545E+06
              997.5E-03            1.34599E+06        1.34705E+06
                1.                 1.34759E+06        1.34866E+06




