
                  X              SENER-out           SENER-in    

                0.                 0.                 0.         
                2.5E-03          166.259E+03        163.335E+03  
                5.E-03           175.986E+03        173.332E+03  
                7.5E-03          184.979E+03        182.54E+03   
               10.E-03           193.368E+03        191.106E+03  
               12.5E-03          201.251E+03        199.137E+03  
               15.E-03           208.702E+03        206.713E+03  
               17.5E-03          215.777E+03        213.898E+03  
               20.E-03           222.524E+03        220.741E+03  
               22.5E-03          228.98E+03         227.282E+03  
               25.E-03           235.177E+03        233.554E+03  
               27.5E-03          241.14E+03         239.585E+03  
               30.E-03           246.892E+03        245.398E+03  
               32.5E-03          252.45E+03         251.012E+03  
               35.E-03           257.833E+03        256.445E+03  
               37.5E-03          263.053E+03        261.712E+03  
               40.E-03           268.123E+03        266.825E+03  
               42.5E-03          273.055E+03        271.797E+03  
               45.E-03           277.857E+03        276.636E+03  
               47.5E-03          282.539E+03        281.352E+03  
               50.E-03           287.107E+03        285.953E+03  
               52.5E-03          291.57E+03         290.445E+03  
               55.E-03           295.934E+03        294.837E+03  
               57.5E-03          300.203E+03        299.133E+03  
               60.E-03           304.384E+03        303.339E+03  
               62.5E-03          308.481E+03        307.459E+03  
               65.E-03           312.498E+03        311.499E+03  
               67.5E-03          316.439E+03        315.461E+03  
               70.E-03           320.309E+03        319.351E+03  
               72.5E-03          324.11E+03         323.172E+03  
               75.E-03           327.846E+03        326.925E+03  
               77.5E-03          331.519E+03        330.616E+03  
               80.E-03           335.132E+03        334.246E+03  
               82.5E-03          338.689E+03        337.818E+03  
               85.E-03           342.19E+03         341.335E+03  
               87.5E-03          345.638E+03        344.798E+03  
               90.E-03           349.036E+03        348.21E+03   
               92.5E-03          352.385E+03        351.573E+03  
               95.E-03           355.688E+03        354.888E+03  
               97.5E-03          358.945E+03        358.157E+03  
              100.E-03           362.158E+03        361.383E+03  
              102.5E-03          365.33E+03         364.566E+03  
              105.E-03           368.461E+03        367.708E+03  
              107.5E-03          371.553E+03        370.811E+03  
              110.E-03           374.606E+03        373.875E+03  
              112.5E-03          377.623E+03        376.902E+03  
              115.E-03           380.604E+03        379.893E+03  
              117.5E-03          383.551E+03        382.849E+03  
              120.E-03           386.465E+03        385.771E+03  
              122.5E-03          389.345E+03        388.661E+03  
              125.E-03           392.195E+03        391.519E+03  
              127.5E-03          395.014E+03        394.346E+03  
              130.E-03           397.803E+03        397.143E+03  
              132.5E-03          400.563E+03        399.911E+03  
              135.E-03           403.295E+03        402.651E+03  
              137.5E-03          405.999E+03        405.363E+03  
              140.E-03           408.677E+03        408.048E+03  
              142.5E-03          411.329E+03        410.707E+03  
              145.E-03           413.955E+03        413.34E+03   
              147.5E-03          416.557E+03        415.949E+03  
              150.E-03           519.678E+03        519.68E+03   
              152.5E-03          640.563E+03        639.305E+03  
              155.E-03           671.854E+03        671.538E+03  
              157.5E-03          683.971E+03        683.638E+03  
              160.E-03           691.953E+03        691.695E+03  
              162.5E-03          698.8E+03          698.599E+03  
              165.E-03           705.261E+03        705.108E+03  
              167.5E-03          711.549E+03        711.44E+03   
              170.E-03           717.73E+03         717.662E+03  
              172.5E-03          723.824E+03        723.796E+03  
              175.E-03           729.841E+03        729.85E+03   
              177.5E-03          735.783E+03        735.828E+03  
              180.E-03           741.654E+03        741.734E+03  
              182.5E-03          747.457E+03        747.57E+03   
              185.E-03           753.193E+03        753.338E+03  
              187.5E-03          758.864E+03        759.04E+03   
              190.E-03           764.473E+03        764.679E+03  
              192.5E-03          770.021E+03        770.256E+03  
              195.E-03           775.51E+03         775.774E+03  
              197.5E-03          780.941E+03        781.233E+03  
              200.E-03           786.317E+03        786.635E+03  
              202.5E-03          791.638E+03        791.982E+03  
              205.E-03           796.906E+03        797.276E+03  
              207.5E-03          802.122E+03        802.518E+03  
              210.E-03           807.288E+03        807.709E+03  
              212.5E-03          812.405E+03        812.85E+03   
              215.E-03           817.475E+03        817.943E+03  
              217.5E-03          822.497E+03        822.99E+03   
              220.E-03           827.475E+03        827.99E+03   
              222.5E-03          831.803E+03        832.339E+03  
              225.E-03           652.246E+03        653.546E+03  
              227.5E-03          576.399E+03        577.093E+03  
              230.E-03           549.374E+03        549.899E+03  
              232.5E-03          540.207E+03        540.649E+03  
              235.E-03           537.523E+03        537.93E+03   
              237.5E-03          537.33E+03         537.719E+03  
              240.E-03           538.17E+03         538.55E+03   
              242.5E-03          539.476E+03        539.85E+03   
              245.E-03           541.003E+03        541.374E+03  
              247.5E-03          542.64E+03         543.008E+03  
              250.E-03           544.33E+03         544.697E+03  
              252.5E-03          546.046E+03        546.412E+03  
              255.E-03           547.772E+03        548.138E+03  
              257.5E-03          549.501E+03        549.865E+03  
              260.E-03           551.227E+03        551.591E+03  
              262.5E-03          552.948E+03        553.311E+03  
              265.E-03           554.662E+03        555.025E+03  
              267.5E-03          556.37E+03         556.733E+03  
              270.E-03           558.07E+03         558.433E+03  
              272.5E-03          559.763E+03        560.125E+03  
              275.E-03           561.449E+03        561.81E+03   
              277.5E-03          563.127E+03        563.488E+03  
              280.E-03           564.798E+03        565.159E+03  
              282.5E-03          566.461E+03        566.822E+03  
              285.E-03           568.118E+03        568.478E+03  
              287.5E-03          569.767E+03        570.126E+03  
              290.E-03           571.409E+03        571.768E+03  
              292.5E-03          573.043E+03        573.402E+03  
              295.E-03           574.671E+03        575.03E+03   
              297.5E-03          576.292E+03        576.651E+03  
              300.E-03           577.906E+03        578.265E+03  
              302.5E-03          579.514E+03        579.872E+03  
              305.E-03           581.115E+03        581.472E+03  
              307.5E-03          582.709E+03        583.066E+03  
              310.E-03           584.297E+03        584.654E+03  
              312.5E-03          585.878E+03        586.235E+03  
              315.E-03           587.453E+03        587.81E+03   
              317.5E-03          589.021E+03        589.378E+03  
              320.E-03           590.584E+03        590.94E+03   
              322.5E-03          592.14E+03         592.497E+03  
              325.E-03           593.69E+03         594.047E+03  
              327.5E-03          595.234E+03        595.591E+03  
              330.E-03           596.772E+03        597.128E+03  
              332.5E-03          598.304E+03        598.661E+03  
              335.E-03           599.831E+03        600.187E+03  
              337.5E-03          601.351E+03        601.707E+03  
              340.E-03           602.866E+03        603.222E+03  
              342.5E-03          604.375E+03        604.731E+03  
              345.E-03           605.879E+03        606.235E+03  
              347.5E-03          607.377E+03        607.732E+03  
              350.E-03           608.869E+03        609.225E+03  
              352.5E-03          610.356E+03        610.712E+03  
              355.E-03           611.837E+03        612.193E+03  
              357.5E-03          613.314E+03        613.669E+03  
              360.E-03           614.784E+03        615.14E+03   
              362.5E-03          616.25E+03         616.606E+03  
              365.E-03           617.71E+03         618.067E+03  
              367.5E-03          619.166E+03        619.522E+03  
              370.E-03           620.616E+03        620.972E+03  
              372.5E-03          622.061E+03        622.417E+03  
              375.E-03           623.501E+03        623.857E+03  
              377.5E-03          624.936E+03        625.293E+03  
              380.E-03           626.366E+03        626.723E+03  
              382.5E-03          627.792E+03        628.148E+03  
              385.E-03           629.212E+03        629.569E+03  
              387.5E-03          630.628E+03        630.985E+03  
              390.E-03           632.039E+03        632.396E+03  
              392.5E-03          633.445E+03        633.802E+03  
              395.E-03           634.846E+03        635.204E+03  
              397.5E-03          636.243E+03        636.601E+03  
              400.E-03           637.636E+03        637.994E+03  
              402.5E-03          639.023E+03        639.382E+03  
              405.E-03           640.407E+03        640.765E+03  
              407.5E-03          641.786E+03        642.144E+03  
              410.E-03           643.16E+03         643.519E+03  
              412.5E-03          644.53E+03         644.889E+03  
              415.E-03           645.896E+03        646.255E+03  
              417.5E-03          647.257E+03        647.617E+03  
              420.E-03           648.614E+03        648.974E+03  
              422.5E-03          649.967E+03        650.328E+03  
              425.E-03           651.316E+03        651.676E+03  
              427.5E-03          652.66E+03         653.021E+03  
              430.E-03           654.E+03           654.362E+03  
              432.5E-03          655.337E+03        655.698E+03  
              435.E-03           656.669E+03        657.031E+03  
              437.5E-03          657.997E+03        658.359E+03  
              440.E-03           659.321E+03        659.684E+03  
              442.5E-03          660.641E+03        661.004E+03  
              445.E-03           684.603E+03        685.161E+03  
              447.5E-03          945.036E+03        954.076E+03  
              450.E-03             1.03892E+06        1.04388E+06
              452.5E-03            1.06015E+06        1.06465E+06
              455.E-03             1.06779E+06        1.07214E+06
              457.5E-03            1.07249E+06        1.07678E+06
              460.E-03             1.07637E+06        1.08063E+06
              462.5E-03            1.08E+06           1.08423E+06
              465.E-03             1.08352E+06        1.08774E+06
              467.5E-03            1.08701E+06        1.09121E+06
              470.E-03             1.09046E+06        1.09465E+06
              472.5E-03            1.0939E+06         1.09807E+06
              475.E-03             1.09732E+06        1.10148E+06
              477.5E-03            1.10072E+06        1.10486E+06
              480.E-03             1.10411E+06        1.10824E+06
              482.5E-03            1.10748E+06        1.1116E+06 
              485.E-03             1.11083E+06        1.11494E+06
              487.5E-03            1.11417E+06        1.11827E+06
              490.E-03             1.11749E+06        1.12159E+06
              492.5E-03            1.1208E+06         1.12489E+06
              495.E-03             1.12409E+06        1.12817E+06
              497.5E-03            1.12737E+06        1.13145E+06
              500.E-03             1.13064E+06        1.13471E+06
              502.5E-03            1.13389E+06        1.13795E+06
              505.E-03             1.13712E+06        1.14118E+06
              507.5E-03            1.14034E+06        1.1444E+06 
              510.E-03             1.14355E+06        1.14761E+06
              512.5E-03            1.14675E+06        1.1508E+06 
              515.E-03             1.14993E+06        1.15398E+06
              517.5E-03            1.15309E+06        1.15714E+06
              520.E-03             1.15625E+06        1.1603E+06 
              522.5E-03            1.15939E+06        1.16344E+06
              525.E-03             1.16251E+06        1.16657E+06
              527.5E-03            1.16563E+06        1.16968E+06
              530.E-03             1.16873E+06        1.17279E+06
              532.5E-03            1.17182E+06        1.17588E+06
              535.E-03             1.1749E+06         1.17896E+06
              537.5E-03            1.17796E+06        1.18203E+06
              540.E-03             1.18101E+06        1.18509E+06
              542.5E-03            1.18405E+06        1.18813E+06
              545.E-03             1.18708E+06        1.19117E+06
              547.5E-03            1.1901E+06         1.19419E+06
              550.E-03             1.1931E+06         1.1972E+06 
              552.5E-03            1.19609E+06        1.2002E+06 
              555.E-03             1.19907E+06        1.20319E+06
              557.5E-03            1.20474E+06        1.20901E+06
              560.E-03             1.20888E+06        1.21322E+06
              562.5E-03            1.21209E+06        1.21646E+06
              565.E-03             1.21515E+06        1.21953E+06
              567.5E-03            1.21814E+06        1.22253E+06
              570.E-03             1.22111E+06        1.2255E+06 
              572.5E-03            1.22406E+06        1.22845E+06
              575.E-03             1.22699E+06        1.2314E+06 
              577.5E-03            1.22991E+06        1.23433E+06
              580.E-03             1.23283E+06        1.23724E+06
              582.5E-03            1.23573E+06        1.24015E+06
              585.E-03             1.23862E+06        1.24305E+06
              587.5E-03            1.2415E+06         1.24594E+06
              590.E-03             1.24437E+06        1.24882E+06
              592.5E-03            1.24723E+06        1.25169E+06
              595.E-03             1.25008E+06        1.25455E+06
              597.5E-03            1.25292E+06        1.2574E+06 
              600.E-03             1.25575E+06        1.26024E+06
              602.5E-03            1.25857E+06        1.26307E+06
              605.E-03             1.26138E+06        1.2659E+06 
              607.5E-03            1.26418E+06        1.26871E+06
              610.E-03             1.26698E+06        1.27151E+06
              612.5E-03            1.26976E+06        1.27431E+06
              615.E-03             1.27253E+06        1.2771E+06 
              617.5E-03            1.2753E+06         1.27987E+06
              620.E-03             1.27805E+06        1.28264E+06
              622.5E-03            1.2808E+06         1.2854E+06 
              625.E-03             1.28353E+06        1.28815E+06
              627.5E-03            1.28626E+06        1.2909E+06 
              630.E-03             1.28898E+06        1.29363E+06
              632.5E-03            1.29169E+06        1.29636E+06
              635.E-03             1.29439E+06        1.29907E+06
              637.5E-03            1.29708E+06        1.30178E+06
              640.E-03             1.29976E+06        1.30448E+06
              642.5E-03            1.30244E+06        1.30718E+06
              645.E-03             1.3051E+06         1.30986E+06
              647.5E-03            1.30776E+06        1.31254E+06
              650.E-03             1.31041E+06        1.31521E+06
              652.5E-03            1.31305E+06        1.31787E+06
              655.E-03             1.31568E+06        1.32052E+06
              657.5E-03            1.31831E+06        1.32317E+06
              660.E-03             1.32092E+06        1.3258E+06 
              662.5E-03            1.32353E+06        1.32843E+06
              665.E-03             1.32613E+06        1.33106E+06
              667.5E-03            1.32873E+06        1.33367E+06
              670.E-03             1.33131E+06        1.33628E+06
              672.5E-03            1.33389E+06        1.33888E+06
              675.E-03             1.33646E+06        1.34147E+06
              677.5E-03            1.33902E+06        1.34406E+06
              680.E-03             1.34157E+06        1.34664E+06
              682.5E-03            1.34412E+06        1.34921E+06
              685.E-03             1.34666E+06        1.35177E+06
              687.5E-03            1.34919E+06        1.35433E+06
              690.E-03             1.35171E+06        1.35688E+06
              692.5E-03            1.35423E+06        1.35943E+06
              695.E-03             1.35673E+06        1.36196E+06
              697.5E-03            1.35924E+06        1.36449E+06
              700.E-03             1.36173E+06        1.36702E+06
              702.5E-03            1.36422E+06        1.36953E+06
              705.E-03             1.3667E+06         1.37204E+06
              707.5E-03            1.36917E+06        1.37455E+06
              710.E-03             1.37163E+06        1.37704E+06
              712.5E-03            1.37409E+06        1.37953E+06
              715.E-03             1.37655E+06        1.38202E+06
              717.5E-03            1.37899E+06        1.38449E+06
              720.E-03             1.38143E+06        1.38696E+06
              722.5E-03            1.38386E+06        1.38943E+06
              725.E-03             1.38628E+06        1.39189E+06
              727.5E-03            1.3887E+06         1.39434E+06
              730.E-03             1.39111E+06        1.39679E+06
              732.5E-03            1.39352E+06        1.39923E+06
              735.E-03             1.39591E+06        1.40166E+06
              737.5E-03            1.3983E+06         1.40409E+06
              740.E-03             1.40069E+06        1.40651E+06
              742.5E-03            1.40307E+06        1.40893E+06
              745.E-03             1.40544E+06        1.41134E+06
              747.5E-03            1.4078E+06         1.41374E+06
              750.E-03             1.41016E+06        1.41614E+06
              752.5E-03            1.41251E+06        1.41853E+06
              755.E-03             1.41486E+06        1.42092E+06
              757.5E-03            1.4172E+06         1.4233E+06 
              760.E-03             1.41953E+06        1.42568E+06
              762.5E-03            1.42186E+06        1.42805E+06
              765.E-03             1.42418E+06        1.43041E+06
              767.5E-03            1.4265E+06         1.43277E+06
              770.E-03             1.4288E+06         1.43513E+06
              772.5E-03            1.43111E+06        1.43747E+06
              775.E-03             1.4334E+06         1.43982E+06
              777.5E-03            1.43569E+06        1.44215E+06
              780.E-03             1.43798E+06        1.44449E+06
              782.5E-03            1.44026E+06        1.44681E+06
              785.E-03             1.44253E+06        1.44914E+06
              787.5E-03            1.4448E+06         1.45145E+06
              790.E-03             1.44706E+06        1.45376E+06
              792.5E-03            1.44931E+06        1.45607E+06
              795.E-03             1.45156E+06        1.45837E+06
              797.5E-03            1.45381E+06        1.46067E+06
              800.E-03             1.45604E+06        1.46296E+06
              802.5E-03            1.45828E+06        1.46524E+06
              805.E-03             1.4605E+06         1.46753E+06
              807.5E-03            1.46272E+06        1.4698E+06 
              810.E-03             1.46494E+06        1.47207E+06
              812.5E-03            1.46715E+06        1.47434E+06
              815.E-03             1.46935E+06        1.4766E+06 
              817.5E-03            1.47155E+06        1.47886E+06
              820.E-03             1.47374E+06        1.48111E+06
              822.5E-03            1.47593E+06        1.48336E+06
              825.E-03             1.47811E+06        1.4856E+06 
              827.5E-03            1.48029E+06        1.48784E+06
              830.E-03             1.48246E+06        1.49007E+06
              832.5E-03            1.48462E+06        1.4923E+06 
              835.E-03             1.48678E+06        1.49453E+06
              837.5E-03            1.48894E+06        1.49675E+06
              840.E-03             1.49109E+06        1.49896E+06
              842.5E-03            1.49323E+06        1.50117E+06
              845.E-03             1.49537E+06        1.50338E+06
              847.5E-03            1.4975E+06         1.50558E+06
              850.E-03             1.49963E+06        1.50778E+06
              852.5E-03            1.50175E+06        1.50997E+06
              855.E-03             1.50387E+06        1.51216E+06
              857.5E-03            1.50598E+06        1.51435E+06
              860.E-03             1.50809E+06        1.51653E+06
              862.5E-03            1.51019E+06        1.5187E+06 
              865.E-03             1.51229E+06        1.52088E+06
              867.5E-03            1.51438E+06        1.52304E+06
              870.E-03             1.51647E+06        1.52521E+06
              872.5E-03            1.51855E+06        1.52737E+06
              875.E-03             1.52062E+06        1.52952E+06
              877.5E-03            1.52269E+06        1.53168E+06
              880.E-03             1.52476E+06        1.53382E+06
              882.5E-03            1.52682E+06        1.53597E+06
              885.E-03             1.52888E+06        1.53811E+06
              887.5E-03            1.53093E+06        1.54024E+06
              890.E-03             1.53297E+06        1.54238E+06
              892.5E-03            1.53501E+06        1.5445E+06 
              895.E-03             1.53705E+06        1.54663E+06
              897.5E-03            1.53908E+06        1.54875E+06
              900.E-03             1.54111E+06        1.55087E+06
              902.5E-03            1.54313E+06        1.55298E+06
              905.E-03             1.54514E+06        1.55509E+06
              907.5E-03            1.54715E+06        1.55719E+06
              910.E-03             1.54916E+06        1.5593E+06 
              912.5E-03            1.55116E+06        1.56139E+06
              915.E-03             1.55316E+06        1.56349E+06
              917.5E-03            1.55515E+06        1.56558E+06
              920.E-03             1.55713E+06        1.56767E+06
              922.5E-03            1.55911E+06        1.56975E+06
              925.E-03             1.56109E+06        1.57183E+06
              927.5E-03            1.56306E+06        1.57391E+06
              930.E-03             1.56503E+06        1.57598E+06
              932.5E-03            1.56699E+06        1.57805E+06
              935.E-03             1.56895E+06        1.58012E+06
              937.5E-03            1.5709E+06         1.58218E+06
              940.E-03             1.57285E+06        1.58424E+06
              942.5E-03            1.57479E+06        1.5863E+06 
              945.E-03             1.57673E+06        1.58835E+06
              947.5E-03            1.57866E+06        1.5904E+06 
              950.E-03             1.58059E+06        1.59245E+06
              952.5E-03            1.58251E+06        1.59449E+06
              955.E-03             1.58443E+06        1.59653E+06
              957.5E-03            1.58634E+06        1.59857E+06
              960.E-03             1.58825E+06        1.6006E+06 
              962.5E-03            1.59015E+06        1.60263E+06
              965.E-03             1.59205E+06        1.60466E+06
              967.5E-03            1.59394E+06        1.60668E+06
              970.E-03             1.59583E+06        1.6087E+06 
              972.5E-03            1.59772E+06        1.61072E+06
              975.E-03             1.5996E+06         1.61274E+06
              977.5E-03            1.60147E+06        1.61475E+06
              980.E-03             1.60334E+06        1.61676E+06
              982.5E-03            1.6052E+06         1.61876E+06
              985.E-03             1.60706E+06        1.62076E+06
              987.5E-03            1.60892E+06        1.62276E+06
              990.E-03             1.61077E+06        1.62476E+06
              992.5E-03            1.61261E+06        1.62676E+06
              995.E-03             1.61445E+06        1.62875E+06
              997.5E-03            1.61629E+06        1.63074E+06
                1.                 1.61812E+06        1.63272E+06




