
                  X              SENER-out           SENER-in    

                0.                 0.                 0.         
                2.5E-03          176.643E+03        176.304E+03  
                5.E-03           189.788E+03        190.244E+03  
                7.5E-03          199.716E+03        200.348E+03  
               10.E-03           208.161E+03        208.792E+03  
               12.5E-03          215.681E+03        216.264E+03  
               15.E-03           222.593E+03        223.125E+03  
               17.5E-03          229.077E+03        229.566E+03  
               20.E-03           235.236E+03        235.689E+03  
               22.5E-03          241.132E+03        241.557E+03  
               25.E-03           246.804E+03        247.208E+03  
               27.5E-03          252.281E+03        252.667E+03  
               30.E-03           257.583E+03        257.955E+03  
               32.5E-03          262.725E+03        263.086E+03  
               35.E-03           267.72E+03         268.073E+03  
               37.5E-03          272.581E+03        272.926E+03  
               40.E-03           277.315E+03        277.655E+03  
               42.5E-03          281.933E+03        282.268E+03  
               45.E-03           286.44E+03         286.772E+03  
               47.5E-03          290.845E+03        291.173E+03  
               50.E-03           295.152E+03        295.479E+03  
               52.5E-03          299.368E+03        299.693E+03  
               55.E-03           303.498E+03        303.821E+03  
               57.5E-03          307.545E+03        307.868E+03  
               60.E-03           360.637E+03        361.004E+03  
               62.5E-03          430.546E+03        431.147E+03  
               65.E-03           449.274E+03        449.9E+03    
               67.5E-03          459.054E+03        459.663E+03  
               70.E-03           467.31E+03         467.9E+03    
               72.5E-03          475.127E+03        475.7E+03    
               75.E-03           482.703E+03        483.26E+03   
               77.5E-03          490.089E+03        490.632E+03  
               80.E-03           497.308E+03        497.837E+03  
               82.5E-03          504.372E+03        504.889E+03  
               85.E-03           511.291E+03        511.797E+03  
               87.5E-03          518.073E+03        518.57E+03   
               90.E-03           524.726E+03        525.213E+03  
               92.5E-03          531.255E+03        531.733E+03  
               95.E-03           537.667E+03        538.137E+03  
               97.5E-03          543.967E+03        544.429E+03  
              100.E-03           550.16E+03         550.615E+03  
              102.5E-03          556.251E+03        556.699E+03  
              105.E-03           562.244E+03        562.686E+03  
              107.5E-03          568.144E+03        568.579E+03  
              110.E-03           573.953E+03        574.383E+03  
              112.5E-03          579.676E+03        580.101E+03  
              115.E-03           585.316E+03        585.736E+03  
              117.5E-03          590.876E+03        591.291E+03  
              120.E-03           596.359E+03        596.77E+03   
              122.5E-03          601.768E+03        602.175E+03  
              125.E-03           607.106E+03        607.508E+03  
              127.5E-03          612.374E+03        612.773E+03  
              130.E-03           617.575E+03        617.971E+03  
              132.5E-03          622.712E+03        623.104E+03  
              135.E-03           627.787E+03        628.176E+03  
              137.5E-03          632.801E+03        633.187E+03  
              140.E-03           637.756E+03        638.139E+03  
              142.5E-03          642.655E+03        643.035E+03  
              145.E-03           647.498E+03        647.876E+03  
              147.5E-03          652.288E+03        652.664E+03  
              150.E-03           657.026E+03        657.399E+03  
              152.5E-03          661.713E+03        662.085E+03  
              155.E-03           666.352E+03        666.721E+03  
              157.5E-03          670.943E+03        671.31E+03   
              160.E-03           675.487E+03        675.852E+03  
              162.5E-03          679.986E+03        680.35E+03   
              165.E-03           684.441E+03        684.803E+03  
              167.5E-03          688.853E+03        689.214E+03  
              170.E-03           693.223E+03        693.582E+03  
              172.5E-03          697.553E+03        697.911E+03  
              175.E-03           701.843E+03        702.199E+03  
              177.5E-03          706.094E+03        706.449E+03  
              180.E-03           710.307E+03        710.661E+03  
              182.5E-03          714.483E+03        714.835E+03  
              185.E-03           718.623E+03        718.974E+03  
              187.5E-03          722.727E+03        723.078E+03  
              190.E-03           726.797E+03        727.147E+03  
              192.5E-03          730.833E+03        731.182E+03  
              195.E-03           734.836E+03        735.184E+03  
              197.5E-03          738.807E+03        739.154E+03  
              200.E-03           742.746E+03        743.093E+03  
              202.5E-03          746.655E+03        747.E+03     
              205.E-03           750.532E+03        750.878E+03  
              207.5E-03          754.38E+03         754.725E+03  
              210.E-03           758.2E+03          758.544E+03  
              212.5E-03          761.99E+03         762.333E+03  
              215.E-03           765.752E+03        766.096E+03  
              217.5E-03          769.487E+03        769.83E+03   
              220.E-03           773.195E+03        773.538E+03  
              222.5E-03          776.877E+03        777.219E+03  
              225.E-03           780.533E+03        780.875E+03  
              227.5E-03          784.163E+03        784.505E+03  
              230.E-03           787.769E+03        788.11E+03   
              232.5E-03          791.35E+03         791.691E+03  
              235.E-03           794.906E+03        795.248E+03  
              237.5E-03          798.44E+03         798.781E+03  
              240.E-03           801.95E+03         802.291E+03  
              242.5E-03          805.437E+03        805.778E+03  
              245.E-03           808.901E+03        809.242E+03  
              247.5E-03          812.344E+03        812.685E+03  
              250.E-03           815.765E+03        816.106E+03  
              252.5E-03          819.164E+03        819.506E+03  
              255.E-03           822.543E+03        822.885E+03  
              257.5E-03          825.901E+03        826.243E+03  
              260.E-03           829.239E+03        829.581E+03  
              262.5E-03          832.557E+03        832.899E+03  
              265.E-03           835.855E+03        836.197E+03  
              267.5E-03          839.133E+03        839.476E+03  
              270.E-03           842.393E+03        842.736E+03  
              272.5E-03          845.634E+03        845.977E+03  
              275.E-03           848.856E+03        849.2E+03    
              277.5E-03          852.06E+03         852.404E+03  
              280.E-03           855.247E+03        855.591E+03  
              282.5E-03          858.415E+03        858.76E+03   
              285.E-03           861.566E+03        861.912E+03  
              287.5E-03          864.7E+03          865.046E+03  
              290.E-03           867.818E+03        868.164E+03  
              292.5E-03          870.918E+03        871.265E+03  
              295.E-03           874.002E+03        874.35E+03   
              297.5E-03          877.07E+03         877.418E+03  
              300.E-03           880.122E+03        880.471E+03  
              302.5E-03          883.158E+03        883.508E+03  
              305.E-03           886.178E+03        886.529E+03  
              307.5E-03          889.183E+03        889.535E+03  
              310.E-03           892.174E+03        892.526E+03  
              312.5E-03          895.149E+03        895.501E+03  
              315.E-03           898.109E+03        898.463E+03  
              317.5E-03          901.055E+03        901.409E+03  
              320.E-03           903.987E+03        904.342E+03  
              322.5E-03          906.904E+03        907.26E+03   
              325.E-03           909.807E+03        910.164E+03  
              327.5E-03          912.697E+03        913.055E+03  
              330.E-03           915.573E+03        915.932E+03  
              332.5E-03          918.435E+03        918.795E+03  
              335.E-03           921.284E+03        921.645E+03  
              337.5E-03          924.121E+03        924.482E+03  
              340.E-03           926.944E+03        927.307E+03  
              342.5E-03          929.754E+03        930.118E+03  
              345.E-03           932.552E+03        932.917E+03  
              347.5E-03          935.337E+03        935.703E+03  
              350.E-03           938.109E+03        938.477E+03  
              352.5E-03          940.87E+03         941.238E+03  
              355.E-03           943.618E+03        943.988E+03  
              357.5E-03          946.355E+03        946.726E+03  
              360.E-03           949.08E+03         949.452E+03  
              362.5E-03          951.792E+03        952.166E+03  
              365.E-03           954.494E+03        954.869E+03  
              367.5E-03          957.184E+03        957.56E+03   
              370.E-03           959.863E+03        960.24E+03   
              372.5E-03          962.531E+03        962.909E+03  
              375.E-03           965.187E+03        965.567E+03  
              377.5E-03          967.833E+03        968.214E+03  
              380.E-03           970.468E+03        970.851E+03  
              382.5E-03          973.092E+03        973.476E+03  
              385.E-03           975.706E+03        976.092E+03  
              387.5E-03          978.309E+03        978.696E+03  
              390.E-03           980.902E+03        981.291E+03  
              392.5E-03          983.485E+03        983.875E+03  
              395.E-03           986.057E+03        986.449E+03  
              397.5E-03          988.62E+03         989.013E+03  
              400.E-03           991.172E+03        991.567E+03  
              402.5E-03          993.715E+03        994.112E+03  
              405.E-03           996.248E+03        996.647E+03  
              407.5E-03          998.772E+03        999.172E+03  
              410.E-03             1.00129E+06        1.00169E+06
              412.5E-03            1.00379E+06        1.00419E+06
              415.E-03             1.00629E+06        1.00669E+06
              417.5E-03            1.00877E+06        1.00918E+06
              420.E-03             1.01125E+06        1.01166E+06
              422.5E-03            1.01372E+06        1.01413E+06
              425.E-03             1.01618E+06        1.01659E+06
              427.5E-03            1.01863E+06        1.01904E+06
              430.E-03             1.02107E+06        1.02148E+06
              432.5E-03            1.0235E+06         1.02392E+06
              435.E-03             1.02592E+06        1.02634E+06
              437.5E-03            1.02834E+06        1.02876E+06
              440.E-03             1.03074E+06        1.03117E+06
              442.5E-03            1.03314E+06        1.03357E+06
              445.E-03             1.03553E+06        1.03596E+06
              447.5E-03            1.03791E+06        1.03834E+06
              450.E-03             1.04029E+06        1.04072E+06
              452.5E-03            1.04265E+06        1.04309E+06
              455.E-03             1.04501E+06        1.04545E+06
              457.5E-03            1.04736E+06        1.0478E+06 
              460.E-03             1.0497E+06         1.05014E+06
              462.5E-03            1.05204E+06        1.05248E+06
              465.E-03             1.05436E+06        1.05481E+06
              467.5E-03            1.05668E+06        1.05713E+06
              470.E-03             1.05899E+06        1.05944E+06
              472.5E-03            1.0613E+06         1.06175E+06
              475.E-03             1.06359E+06        1.06404E+06
              477.5E-03            1.06588E+06        1.06633E+06
              480.E-03             1.06816E+06        1.06862E+06
              482.5E-03            1.07043E+06        1.07089E+06
              485.E-03             1.0727E+06         1.07316E+06
              487.5E-03            1.07496E+06        1.07542E+06
              490.E-03             1.07721E+06        1.07768E+06
              492.5E-03            1.07946E+06        1.07993E+06
              495.E-03             1.0817E+06         1.08217E+06
              497.5E-03            1.08393E+06        1.0844E+06 
              500.E-03             1.08615E+06        1.08663E+06
              502.5E-03            1.08837E+06        1.08885E+06
              505.E-03             1.09058E+06        1.09106E+06
              507.5E-03            1.09279E+06        1.09327E+06
              510.E-03             1.09498E+06        1.09547E+06
              512.5E-03            1.09717E+06        1.09766E+06
              515.E-03             1.09936E+06        1.09985E+06
              517.5E-03            1.10154E+06        1.10203E+06
              520.E-03             1.10371E+06        1.1042E+06 
              522.5E-03            1.10587E+06        1.10637E+06
              525.E-03             1.10803E+06        1.10853E+06
              527.5E-03            1.11018E+06        1.11069E+06
              530.E-03             1.11233E+06        1.11284E+06
              532.5E-03            1.11447E+06        1.11498E+06
              535.E-03             1.11661E+06        1.11712E+06
              537.5E-03            1.11873E+06        1.11925E+06
              540.E-03             1.12085E+06        1.12137E+06
              542.5E-03            1.12297E+06        1.12349E+06
              545.E-03             1.12508E+06        1.1256E+06 
              547.5E-03            1.12718E+06        1.12771E+06
              550.E-03             1.12928E+06        1.12981E+06
              552.5E-03            1.13137E+06        1.13191E+06
              555.E-03             1.13346E+06        1.13399E+06
              557.5E-03            1.13554E+06        1.13608E+06
              560.E-03             1.13762E+06        1.13816E+06
              562.5E-03            1.13969E+06        1.14023E+06
              565.E-03             1.14175E+06        1.1423E+06 
              567.5E-03            1.14381E+06        1.14436E+06
              570.E-03             1.14586E+06        1.14641E+06
              572.5E-03            1.14791E+06        1.14846E+06
              575.E-03             1.14995E+06        1.15051E+06
              577.5E-03            1.15198E+06        1.15255E+06
              580.E-03             1.15402E+06        1.15458E+06
              582.5E-03            1.15604E+06        1.15661E+06
              585.E-03             1.15806E+06        1.15863E+06
              587.5E-03            1.16008E+06        1.16065E+06
              590.E-03             1.16208E+06        1.16266E+06
              592.5E-03            1.16409E+06        1.16467E+06
              595.E-03             1.16609E+06        1.16667E+06
              597.5E-03            1.16808E+06        1.16867E+06
              600.E-03             1.17007E+06        1.17066E+06
              602.5E-03            1.17206E+06        1.17265E+06
              605.E-03             1.17403E+06        1.17463E+06
              607.5E-03            1.17601E+06        1.17661E+06
              610.E-03             1.17798E+06        1.17858E+06
              612.5E-03            1.17994E+06        1.18055E+06
              615.E-03             1.1819E+06         1.18251E+06
              617.5E-03            1.18385E+06        1.18447E+06
              620.E-03             1.1858E+06         1.18642E+06
              622.5E-03            1.18775E+06        1.18837E+06
              625.E-03             1.18969E+06        1.19031E+06
              627.5E-03            1.19162E+06        1.19225E+06
              630.E-03             1.19355E+06        1.19419E+06
              632.5E-03            1.19548E+06        1.19612E+06
              635.E-03             1.1974E+06         1.19804E+06
              637.5E-03            1.19932E+06        1.19996E+06
              640.E-03             1.20123E+06        1.20188E+06
              642.5E-03            1.20313E+06        1.20379E+06
              645.E-03             1.20504E+06        1.2057E+06 
              647.5E-03            1.20694E+06        1.2076E+06 
              650.E-03             1.20883E+06        1.2095E+06 
              652.5E-03            1.21072E+06        1.21139E+06
              655.E-03             1.2126E+06         1.21328E+06
              657.5E-03            1.21448E+06        1.21516E+06
              660.E-03             1.21636E+06        1.21704E+06
              662.5E-03            1.21823E+06        1.21892E+06
              665.E-03             1.2201E+06         1.22079E+06
              667.5E-03            1.22196E+06        1.22266E+06
              670.E-03             1.22382E+06        1.22452E+06
              672.5E-03            1.22567E+06        1.22638E+06
              675.E-03             1.22753E+06        1.22823E+06
              677.5E-03            1.22937E+06        1.23009E+06
              680.E-03             1.23121E+06        1.23193E+06
              682.5E-03            1.23305E+06        1.23377E+06
              685.E-03             1.23489E+06        1.23561E+06
              687.5E-03            1.23671E+06        1.23745E+06
              690.E-03             1.23854E+06        1.23928E+06
              692.5E-03            1.24036E+06        1.2411E+06 
              695.E-03             1.24218E+06        1.24293E+06
              697.5E-03            1.24399E+06        1.24474E+06
              700.E-03             1.2458E+06         1.24656E+06
              702.5E-03            1.24761E+06        1.24837E+06
              705.E-03             1.24941E+06        1.25018E+06
              707.5E-03            1.25121E+06        1.25198E+06
              710.E-03             1.253E+06          1.25378E+06
              712.5E-03            1.25479E+06        1.25557E+06
              715.E-03             1.25658E+06        1.25736E+06
              717.5E-03            1.25836E+06        1.25915E+06
              720.E-03             1.26014E+06        1.26094E+06
              722.5E-03            1.26191E+06        1.26272E+06
              725.E-03             1.26369E+06        1.26449E+06
              727.5E-03            1.26545E+06        1.26627E+06
              730.E-03             1.26722E+06        1.26803E+06
              732.5E-03            1.26898E+06        1.2698E+06 
              735.E-03             1.27073E+06        1.27156E+06
              737.5E-03            1.27249E+06        1.27332E+06
              740.E-03             1.27423E+06        1.27507E+06
              742.5E-03            1.27598E+06        1.27683E+06
              745.E-03             1.27772E+06        1.27857E+06
              747.5E-03            1.27946E+06        1.28032E+06
              750.E-03             1.28119E+06        1.28206E+06
              752.5E-03            1.28293E+06        1.2838E+06 
              755.E-03             1.28465E+06        1.28553E+06
              757.5E-03            1.28638E+06        1.28726E+06
              760.E-03             1.2881E+06         1.28899E+06
              762.5E-03            1.28982E+06        1.29071E+06
              765.E-03             1.29153E+06        1.29243E+06
              767.5E-03            1.29324E+06        1.29415E+06
              770.E-03             1.29495E+06        1.29586E+06
              772.5E-03            1.29665E+06        1.29757E+06
              775.E-03             1.29835E+06        1.29928E+06
              777.5E-03            1.30005E+06        1.30098E+06
              780.E-03             1.30174E+06        1.30268E+06
              782.5E-03            1.30343E+06        1.30438E+06
              785.E-03             1.30512E+06        1.30607E+06
              787.5E-03            1.3068E+06         1.30776E+06
              790.E-03             1.30848E+06        1.30945E+06
              792.5E-03            1.31016E+06        1.31113E+06
              795.E-03             1.31183E+06        1.31281E+06
              797.5E-03            1.3135E+06         1.31449E+06
              800.E-03             1.31517E+06        1.31616E+06
              802.5E-03            1.31684E+06        1.31783E+06
              805.E-03             1.3185E+06         1.3195E+06 
              807.5E-03            1.32015E+06        1.32117E+06
              810.E-03             1.32181E+06        1.32283E+06
              812.5E-03            1.32346E+06        1.32449E+06
              815.E-03             1.32511E+06        1.32614E+06
              817.5E-03            1.32676E+06        1.3278E+06 
              820.E-03             1.3284E+06         1.32945E+06
              822.5E-03            1.33004E+06        1.33109E+06
              825.E-03             1.33167E+06        1.33274E+06
              827.5E-03            1.33331E+06        1.33438E+06
              830.E-03             1.33494E+06        1.33601E+06
              832.5E-03            1.33656E+06        1.33765E+06
              835.E-03             1.33819E+06        1.33928E+06
              837.5E-03            1.33981E+06        1.34091E+06
              840.E-03             1.34143E+06        1.34254E+06
              842.5E-03            1.34304E+06        1.34416E+06
              845.E-03             1.34466E+06        1.34578E+06
              847.5E-03            1.34627E+06        1.3474E+06 
              850.E-03             1.34787E+06        1.34901E+06
              852.5E-03            1.34948E+06        1.35063E+06
              855.E-03             1.35108E+06        1.35223E+06
              857.5E-03            1.35267E+06        1.35384E+06
              860.E-03             1.35427E+06        1.35544E+06
              862.5E-03            1.35586E+06        1.35704E+06
              865.E-03             1.35745E+06        1.35864E+06
              867.5E-03            1.35904E+06        1.36024E+06
              870.E-03             1.36062E+06        1.36183E+06
              872.5E-03            1.3622E+06         1.36342E+06
              875.E-03             1.36378E+06        1.36501E+06
              877.5E-03            1.36536E+06        1.36659E+06
              880.E-03             1.36693E+06        1.36817E+06
              882.5E-03            1.3685E+06         1.36975E+06
              885.E-03             1.37007E+06        1.37133E+06
              887.5E-03            1.37163E+06        1.3729E+06 
              890.E-03             1.37319E+06        1.37447E+06
              892.5E-03            1.37475E+06        1.37604E+06
              895.E-03             1.37631E+06        1.37761E+06
              897.5E-03            1.37786E+06        1.37917E+06
              900.E-03             1.37941E+06        1.38073E+06
              902.5E-03            1.38096E+06        1.38229E+06
              905.E-03             1.38251E+06        1.38385E+06
              907.5E-03            1.38405E+06        1.3854E+06 
              910.E-03             1.38559E+06        1.38695E+06
              912.5E-03            1.38713E+06        1.3885E+06 
              915.E-03             1.38867E+06        1.39004E+06
              917.5E-03            1.3902E+06         1.39159E+06
              920.E-03             1.39173E+06        1.39313E+06
              922.5E-03            1.39326E+06        1.39466E+06
              925.E-03             1.39478E+06        1.3962E+06 
              927.5E-03            1.39631E+06        1.39773E+06
              930.E-03             1.39783E+06        1.39926E+06
              932.5E-03            1.39934E+06        1.40079E+06
              935.E-03             1.40086E+06        1.40232E+06
              937.5E-03            1.40237E+06        1.40384E+06
              940.E-03             1.40388E+06        1.40536E+06
              942.5E-03            1.40539E+06        1.40688E+06
              945.E-03             1.4069E+06         1.4084E+06 
              947.5E-03            1.4084E+06         1.40991E+06
              950.E-03             1.4099E+06         1.41142E+06
              952.5E-03            1.4114E+06         1.41293E+06
              955.E-03             1.41289E+06        1.41444E+06
              957.5E-03            1.41439E+06        1.41594E+06
              960.E-03             1.41588E+06        1.41744E+06
              962.5E-03            1.41737E+06        1.41894E+06
              965.E-03             1.41885E+06        1.42044E+06
              967.5E-03            1.42034E+06        1.42194E+06
              970.E-03             1.42182E+06        1.42343E+06
              972.5E-03            1.4233E+06         1.42492E+06
              975.E-03             1.42477E+06        1.42641E+06
              977.5E-03            1.42625E+06        1.4279E+06 
              980.E-03             1.42772E+06        1.42938E+06
              982.5E-03            1.42919E+06        1.43086E+06
              985.E-03             1.43066E+06        1.43234E+06
              987.5E-03            1.43212E+06        1.43382E+06
              990.E-03             1.43358E+06        1.43529E+06
              992.5E-03            1.43504E+06        1.43677E+06
              995.E-03             1.4365E+06         1.43824E+06
              997.5E-03            1.43796E+06        1.43971E+06
                1.                 1.43941E+06        1.44117E+06




