
                  X                 Dinn               Dout      

                0.                 0.                 0.         
                2.5E-03            0.                 0.         
                5.E-03             1.13953E-03      881.087E-06  
                7.5E-03            2.09861E-03        1.77656E-03
               10.E-03             3.02194E-03        2.65132E-03
               12.5E-03            3.92494E-03        3.51662E-03
               15.E-03             4.81592E-03        4.37803E-03
               17.5E-03            5.69944E-03        5.23814E-03
               20.E-03             6.57803E-03        6.0981E-03 
               22.5E-03            7.45319E-03        6.95837E-03
               25.E-03             8.32586E-03        7.8191E-03 
               27.5E-03            9.19669E-03        8.68032E-03
               30.E-03            10.0662E-03         9.542E-03  
               32.5E-03           10.9346E-03        10.4041E-03 
               35.E-03            11.8023E-03        11.2665E-03 
               37.5E-03           12.6694E-03        12.1293E-03 
               40.E-03            13.536E-03         12.9924E-03 
               42.5E-03           14.4024E-03        13.8557E-03 
               45.E-03            15.2686E-03        14.7192E-03 
               47.5E-03           16.1346E-03        15.583E-03  
               50.E-03            17.0005E-03        16.447E-03  
               52.5E-03           17.8663E-03        17.3111E-03 
               55.E-03            18.7321E-03        18.1755E-03 
               57.5E-03           19.5979E-03        19.0399E-03 
               60.E-03            20.4638E-03        19.9046E-03 
               62.5E-03           21.3296E-03        20.7693E-03 
               65.E-03            22.1955E-03        21.6342E-03 
               67.5E-03           23.0614E-03        22.4993E-03 
               70.E-03            23.9274E-03        23.3644E-03 
               72.5E-03           24.7934E-03        24.2296E-03 
               75.E-03            25.6595E-03        25.095E-03  
               77.5E-03           26.5257E-03        25.9605E-03 
               80.E-03            27.3919E-03        26.826E-03  
               82.5E-03           28.2582E-03        27.6917E-03 
               85.E-03            29.1246E-03        28.5574E-03 
               87.5E-03           29.9911E-03        29.4233E-03 
               90.E-03            30.8576E-03        30.2892E-03 
               92.5E-03           31.7242E-03        31.1552E-03 
               95.E-03            32.5909E-03        32.0212E-03 
               97.5E-03           33.4577E-03        32.8873E-03 
              100.E-03            34.3245E-03        33.7535E-03 
              102.5E-03           35.1914E-03        34.6198E-03 
              105.E-03            36.0584E-03        35.4861E-03 
              107.5E-03           36.9254E-03        36.3525E-03 
              110.E-03            37.7926E-03        37.219E-03  
              112.5E-03           38.6598E-03        38.0855E-03 
              115.E-03            39.527E-03         38.9521E-03 
              117.5E-03           40.3944E-03        39.8187E-03 
              120.E-03            41.2618E-03        40.6853E-03 
              122.5E-03           42.1292E-03        41.5521E-03 
              125.E-03            42.9968E-03        42.4188E-03 
              127.5E-03           43.8644E-03        43.2856E-03 
              130.E-03            44.732E-03         44.1525E-03 
              132.5E-03           45.5998E-03        45.0194E-03 
              135.E-03            46.4676E-03        45.8863E-03 
              137.5E-03           47.3354E-03        46.7533E-03 
              140.E-03            48.2033E-03        47.6203E-03 
              142.5E-03           49.0713E-03        48.4873E-03 
              145.E-03            49.9394E-03        49.3544E-03 
              147.5E-03           50.8074E-03        50.2215E-03 
              150.E-03            51.6756E-03        51.0887E-03 
              152.5E-03           52.5438E-03        51.9559E-03 
              155.E-03            53.4121E-03        52.8231E-03 
              157.5E-03           54.2804E-03        53.6904E-03 
              160.E-03            55.1488E-03        54.5576E-03 
              162.5E-03           56.0173E-03        55.4249E-03 
              165.E-03            56.8858E-03        56.2923E-03 
              167.5E-03           57.7543E-03        57.1596E-03 
              170.E-03            58.6229E-03        58.027E-03  
              172.5E-03           59.4916E-03        58.8944E-03 
              175.E-03            60.3603E-03        59.7619E-03 
              177.5E-03           61.229E-03         60.6293E-03 
              180.E-03            62.0979E-03        61.4968E-03 
              182.5E-03           62.9667E-03        62.3643E-03 
              185.E-03            63.8356E-03        63.2318E-03 
              187.5E-03           64.7046E-03        64.0994E-03 
              190.E-03            65.5736E-03        64.9669E-03 
              192.5E-03           66.4427E-03        65.8345E-03 
              195.E-03            67.3118E-03        66.7021E-03 
              197.5E-03           68.1809E-03        67.5698E-03 
              200.E-03            69.0502E-03        68.4374E-03 
              202.5E-03           69.9194E-03        69.3051E-03 
              205.E-03            70.7887E-03        70.1727E-03 
              207.5E-03           71.6581E-03        71.0404E-03 
              210.E-03            72.5274E-03        71.9081E-03 
              212.5E-03           73.3969E-03        72.7759E-03 
              215.E-03            74.2664E-03        73.6436E-03 
              217.5E-03           75.1359E-03        74.5114E-03 
              220.E-03            76.0055E-03        75.3791E-03 
              222.5E-03           76.8751E-03        76.2469E-03 
              225.E-03            77.7447E-03        77.1147E-03 
              227.5E-03           78.6144E-03        77.9825E-03 
              230.E-03            79.4842E-03        78.8503E-03 
              232.5E-03           80.354E-03         79.7182E-03 
              235.E-03            81.2238E-03        80.586E-03  
              237.5E-03           82.0937E-03        81.4539E-03 
              240.E-03            82.9636E-03        82.3218E-03 
              242.5E-03           83.8335E-03        83.1896E-03 
              245.E-03            84.7035E-03        84.0575E-03 
              247.5E-03           85.5735E-03        84.9254E-03 
              250.E-03            86.4436E-03        85.7934E-03 
              252.5E-03           87.3137E-03        86.6613E-03 
              255.E-03            88.1838E-03        87.5292E-03 
              257.5E-03           89.054E-03         88.3972E-03 
              260.E-03            89.9242E-03        89.2651E-03 
              262.5E-03           90.7945E-03        90.1331E-03 
              265.E-03            91.6648E-03        91.0011E-03 
              267.5E-03           92.5351E-03        91.869E-03  
              270.E-03            93.4055E-03        92.737E-03  
              272.5E-03           94.2759E-03        93.605E-03  
              275.E-03            95.5182E-03        94.8491E-03 
              277.5E-03           97.1385E-03        96.4766E-03 
              280.E-03            98.9566E-03        98.2991E-03 
              282.5E-03          100.86E-03         100.207E-03  
              285.E-03           102.8E-03          102.151E-03  
              287.5E-03          104.755E-03        104.111E-03  
              290.E-03           106.718E-03        106.079E-03  
              292.5E-03          108.684E-03        108.05E-03   
              295.E-03           110.653E-03        110.022E-03  
              297.5E-03          112.622E-03        111.996E-03  
              300.E-03           114.593E-03        113.97E-03   
              302.5E-03          116.563E-03        115.944E-03  
              305.E-03           118.534E-03        117.919E-03  
              307.5E-03          120.506E-03        119.894E-03  
              310.E-03           122.477E-03        121.869E-03  
              312.5E-03          124.449E-03        123.844E-03  
              315.E-03           126.421E-03        125.819E-03  
              317.5E-03          128.393E-03        127.794E-03  
              320.E-03           130.365E-03        129.769E-03  
              322.5E-03          132.337E-03        131.744E-03  
              325.E-03           134.31E-03         133.719E-03  
              327.5E-03          136.282E-03        135.695E-03  
              330.E-03           138.255E-03        137.67E-03   
              332.5E-03          140.228E-03        139.645E-03  
              335.E-03           142.201E-03        141.62E-03   
              337.5E-03          144.174E-03        143.596E-03  
              340.E-03           146.148E-03        145.571E-03  
              342.5E-03          148.121E-03        147.546E-03  
              345.E-03           150.095E-03        149.521E-03  
              347.5E-03          152.068E-03        151.497E-03  
              350.E-03           154.042E-03        153.472E-03  
              352.5E-03          156.016E-03        155.448E-03  
              355.E-03           157.99E-03         157.423E-03  
              357.5E-03          159.964E-03        159.399E-03  
              360.E-03           161.938E-03        161.374E-03  
              362.5E-03          163.912E-03        163.35E-03   
              365.E-03           165.887E-03        165.325E-03  
              367.5E-03          167.861E-03        167.301E-03  
              370.E-03           169.836E-03        169.276E-03  
              372.5E-03          171.81E-03         171.252E-03  
              375.E-03           173.785E-03        173.227E-03  
              377.5E-03          175.76E-03         175.203E-03  
              380.E-03           177.735E-03        177.179E-03  
              382.5E-03          179.71E-03         179.154E-03  
              385.E-03           181.685E-03        181.13E-03   
              387.5E-03          183.66E-03         183.106E-03  
              390.E-03           185.636E-03        185.081E-03  
              392.5E-03          187.611E-03        187.057E-03  
              395.E-03           189.587E-03        189.033E-03  
              397.5E-03          191.562E-03        191.009E-03  
              400.E-03           193.538E-03        192.985E-03  
              402.5E-03          195.513E-03        194.96E-03   
              405.E-03           197.489E-03        196.936E-03  
              407.5E-03          199.465E-03        198.912E-03  
              410.E-03           201.441E-03        200.888E-03  
              412.5E-03          203.417E-03        202.864E-03  
              415.E-03           205.393E-03        204.84E-03   
              417.5E-03          207.369E-03        206.816E-03  
              420.E-03           209.345E-03        208.792E-03  
              422.5E-03          211.322E-03        210.768E-03  
              425.E-03           213.298E-03        212.744E-03  
              427.5E-03          215.274E-03        214.72E-03   
              430.E-03           217.251E-03        216.696E-03  
              432.5E-03          219.227E-03        218.672E-03  
              435.E-03           221.204E-03        220.648E-03  
              437.5E-03          223.181E-03        222.624E-03  
              440.E-03           225.157E-03        224.6E-03    
              442.5E-03          227.134E-03        226.576E-03  
              445.E-03           229.111E-03        228.552E-03  
              447.5E-03          231.088E-03        230.528E-03  
              450.E-03           233.065E-03        232.504E-03  
              452.5E-03          235.042E-03        234.481E-03  
              455.E-03           236.659E-03        236.097E-03  
              457.5E-03          239.102E-03        238.544E-03  
              460.E-03           241.119E-03        240.567E-03  
              462.5E-03          243.081E-03        242.534E-03  
              465.E-03           245.004E-03        244.465E-03  
              467.5E-03          246.906E-03        246.374E-03  
              470.E-03           248.795E-03        248.271E-03  
              472.5E-03          250.677E-03        250.161E-03  
              475.E-03           252.556E-03        252.047E-03  
              477.5E-03          254.433E-03        253.931E-03  
              480.E-03           256.308E-03        255.814E-03  
              482.5E-03          258.183E-03        257.697E-03  
              485.E-03           260.058E-03        259.579E-03  
              487.5E-03          261.933E-03        261.461E-03  
              490.E-03           263.808E-03        263.343E-03  
              492.5E-03          265.683E-03        265.225E-03  
              495.E-03           267.557E-03        267.107E-03  
              497.5E-03          269.432E-03        268.989E-03  
              500.E-03           271.308E-03        270.871E-03  
              502.5E-03          273.183E-03        272.753E-03  
              505.E-03           275.058E-03        274.635E-03  
              507.5E-03          276.933E-03        276.517E-03  
              510.E-03           278.809E-03        278.399E-03  
              512.5E-03          280.684E-03        280.281E-03  
              515.E-03           282.56E-03         282.163E-03  
              517.5E-03          284.435E-03        284.045E-03  
              520.E-03           286.311E-03        285.927E-03  
              522.5E-03          288.187E-03        287.809E-03  
              525.E-03           290.063E-03        289.691E-03  
              527.5E-03          291.939E-03        291.573E-03  
              530.E-03           293.815E-03        293.455E-03  
              532.5E-03          295.691E-03        295.338E-03  
              535.E-03           297.567E-03        297.22E-03   
              537.5E-03          299.443E-03        299.102E-03  
              540.E-03           301.32E-03         300.984E-03  
              542.5E-03          303.196E-03        302.866E-03  
              545.E-03           305.072E-03        304.748E-03  
              547.5E-03          306.949E-03        306.63E-03   
              550.E-03           308.826E-03        308.513E-03  
              552.5E-03          310.702E-03        310.395E-03  
              555.E-03           312.579E-03        312.277E-03  
              557.5E-03          314.456E-03        314.159E-03  
              560.E-03           316.333E-03        316.041E-03  
              562.5E-03          318.21E-03         317.923E-03  
              565.E-03           320.087E-03        319.806E-03  
              567.5E-03          321.964E-03        321.688E-03  
              570.E-03           323.841E-03        323.57E-03   
              572.5E-03          325.719E-03        325.452E-03  
              575.E-03           327.596E-03        327.335E-03  
              577.5E-03          329.474E-03        329.217E-03  
              580.E-03           331.351E-03        331.099E-03  
              582.5E-03          333.229E-03        332.981E-03  
              585.E-03           335.106E-03        334.864E-03  
              587.5E-03          336.984E-03        336.746E-03  
              590.E-03           338.862E-03        338.628E-03  
              592.5E-03          340.739E-03        340.511E-03  
              595.E-03           342.617E-03        342.393E-03  
              597.5E-03          344.495E-03        344.275E-03  
              600.E-03           346.373E-03        346.157E-03  
              602.5E-03          348.251E-03        348.04E-03   
              605.E-03           350.129E-03        349.922E-03  
              607.5E-03          352.008E-03        351.804E-03  
              610.E-03           353.886E-03        353.687E-03  
              612.5E-03          355.764E-03        355.569E-03  
              615.E-03           357.643E-03        357.451E-03  
              617.5E-03          359.521E-03        359.334E-03  
              620.E-03           361.399E-03        361.216E-03  
              622.5E-03          363.278E-03        363.099E-03  
              625.E-03           365.157E-03        364.981E-03  
              627.5E-03          367.035E-03        366.863E-03  
              630.E-03           368.914E-03        368.746E-03  
              632.5E-03          370.793E-03        370.628E-03  
              635.E-03           372.672E-03        372.51E-03   
              637.5E-03          374.551E-03        374.393E-03  
              640.E-03           376.43E-03         376.275E-03  
              642.5E-03          378.309E-03        378.158E-03  
              645.E-03           380.188E-03        380.04E-03   
              647.5E-03          382.067E-03        381.922E-03  
              650.E-03           383.946E-03        383.805E-03  
              652.5E-03          385.825E-03        385.687E-03  
              655.E-03           387.704E-03        387.57E-03   
              657.5E-03          389.584E-03        389.452E-03  
              660.E-03           391.463E-03        391.335E-03  
              662.5E-03          393.343E-03        393.217E-03  
              665.E-03           395.222E-03        395.099E-03  
              667.5E-03          397.102E-03        396.982E-03  
              670.E-03           398.981E-03        398.864E-03  
              672.5E-03          400.861E-03        400.747E-03  
              675.E-03           402.741E-03        402.629E-03  
              677.5E-03          404.62E-03         404.512E-03  
              680.E-03           406.5E-03          406.394E-03  
              682.5E-03          408.38E-03         408.277E-03  
              685.E-03           410.26E-03         410.159E-03  
              687.5E-03          412.14E-03         412.041E-03  
              690.E-03           414.02E-03         413.924E-03  
              692.5E-03          415.9E-03          415.806E-03  
              695.E-03           417.78E-03         417.689E-03  
              697.5E-03          419.66E-03         419.571E-03  
              700.E-03           421.541E-03        421.454E-03  
              702.5E-03          423.421E-03        423.336E-03  
              705.E-03           425.301E-03        425.219E-03  
              707.5E-03          427.182E-03        427.101E-03  
              710.E-03           429.062E-03        428.984E-03  
              712.5E-03          430.943E-03        430.866E-03  
              715.E-03           432.823E-03        432.749E-03  
              717.5E-03          434.704E-03        434.631E-03  
              720.E-03           436.584E-03        436.514E-03  
              722.5E-03          438.465E-03        438.396E-03  
              725.E-03           440.346E-03        440.279E-03  
              727.5E-03          442.226E-03        442.161E-03  
              730.E-03           444.107E-03        444.044E-03  
              732.5E-03          445.988E-03        445.926E-03  
              735.E-03           447.869E-03        447.809E-03  
              737.5E-03          449.75E-03         449.691E-03  
              740.E-03           451.631E-03        451.574E-03  
              742.5E-03          453.512E-03        453.456E-03  
              745.E-03           455.393E-03        455.339E-03  
              747.5E-03          457.274E-03        457.221E-03  
              750.E-03           459.155E-03        459.104E-03  
              752.5E-03          461.037E-03        460.986E-03  
              755.E-03           462.918E-03        462.869E-03  
              757.5E-03          464.799E-03        464.751E-03  
              760.E-03           466.681E-03        466.634E-03  
              762.5E-03          468.562E-03        468.516E-03  
              765.E-03           470.443E-03        470.399E-03  
              767.5E-03          472.325E-03        472.281E-03  
              770.E-03           474.206E-03        474.164E-03  
              772.5E-03          476.088E-03        476.046E-03  
              775.E-03           477.97E-03         477.929E-03  
              777.5E-03          479.851E-03        479.811E-03  
              780.E-03           481.733E-03        481.694E-03  
              782.5E-03          483.615E-03        483.576E-03  
              785.E-03           485.496E-03        485.459E-03  
              787.5E-03          487.378E-03        487.341E-03  
              790.E-03           489.26E-03         489.224E-03  
              792.5E-03          491.142E-03        491.106E-03  
              795.E-03           493.024E-03        492.989E-03  
              797.5E-03          494.906E-03        494.871E-03  
              800.E-03           496.788E-03        496.754E-03  
              802.5E-03          498.67E-03         498.636E-03  
              805.E-03           500.552E-03        500.519E-03  
              807.5E-03          502.435E-03        502.401E-03  
              810.E-03           504.317E-03        504.284E-03  
              812.5E-03          506.199E-03        506.166E-03  
              815.E-03           508.081E-03        508.049E-03  
              817.5E-03          509.964E-03        509.931E-03  
              820.E-03           511.846E-03        511.814E-03  
              822.5E-03          513.729E-03        513.696E-03  
              825.E-03           515.611E-03        515.579E-03  
              827.5E-03          517.494E-03        517.461E-03  
              830.E-03           519.376E-03        519.344E-03  
              832.5E-03          521.259E-03        521.226E-03  
              835.E-03           523.141E-03        523.109E-03  
              837.5E-03          525.024E-03        524.991E-03  
              840.E-03           526.907E-03        526.874E-03  
              842.5E-03          528.79E-03         528.756E-03  
              845.E-03           530.672E-03        530.639E-03  
              847.5E-03          532.555E-03        532.521E-03  
              850.E-03           534.438E-03        534.404E-03  
              852.5E-03          536.321E-03        536.286E-03  
              855.E-03           538.204E-03        538.169E-03  
              857.5E-03          540.087E-03        540.051E-03  
              860.E-03           541.97E-03         541.934E-03  
              862.5E-03          543.853E-03        543.816E-03  
              865.E-03           545.736E-03        545.699E-03  
              867.5E-03          547.619E-03        547.581E-03  
              870.E-03           549.503E-03        549.464E-03  
              872.5E-03          551.386E-03        551.346E-03  
              875.E-03           553.269E-03        553.229E-03  
              877.5E-03          555.152E-03        555.111E-03  
              880.E-03           557.036E-03        556.993E-03  
              882.5E-03          558.919E-03        558.876E-03  
              885.E-03           560.803E-03        560.758E-03  
              887.5E-03          562.686E-03        562.641E-03  
              890.E-03           564.57E-03         564.523E-03  
              892.5E-03          566.453E-03        566.406E-03  
              895.E-03           568.337E-03        568.288E-03  
              897.5E-03          570.22E-03         570.171E-03  
              900.E-03           572.104E-03        572.053E-03  
              902.5E-03          573.988E-03        573.935E-03  
              905.E-03           575.872E-03        575.818E-03  
              907.5E-03          577.755E-03        577.7E-03    
              910.E-03           579.639E-03        579.583E-03  
              912.5E-03          581.523E-03        581.465E-03  
              915.E-03           583.407E-03        583.348E-03  
              917.5E-03          585.291E-03        585.23E-03   
              920.E-03           587.175E-03        587.112E-03  
              922.5E-03          589.059E-03        588.995E-03  
              925.E-03           590.943E-03        590.877E-03  
              927.5E-03          592.827E-03        592.76E-03   
              930.E-03           594.711E-03        594.642E-03  
              932.5E-03          596.595E-03        596.524E-03  
              935.E-03           598.48E-03         598.407E-03  
              937.5E-03          600.364E-03        600.289E-03  
              940.E-03           602.248E-03        602.172E-03  
              942.5E-03          604.132E-03        604.054E-03  
              945.E-03           606.017E-03        605.936E-03  
              947.5E-03          607.901E-03        607.819E-03  
              950.E-03           609.786E-03        609.701E-03  
              952.5E-03          611.67E-03         611.583E-03  
              955.E-03           613.555E-03        613.466E-03  
              957.5E-03          615.439E-03        615.348E-03  
              960.E-03           617.324E-03        617.23E-03   
              962.5E-03          619.208E-03        619.113E-03  
              965.E-03           621.093E-03        620.995E-03  
              967.5E-03          622.978E-03        622.878E-03  
              970.E-03           624.862E-03        624.76E-03   
              972.5E-03          626.747E-03        626.642E-03  
              975.E-03           628.632E-03        628.524E-03  
              977.5E-03          630.517E-03        630.407E-03  
              980.E-03           632.402E-03        632.289E-03  
              982.5E-03          634.287E-03        634.171E-03  
              985.E-03           636.172E-03        636.054E-03  
              987.5E-03          638.057E-03        637.936E-03  
              990.E-03           639.942E-03        639.818E-03  
              992.5E-03          641.827E-03        641.701E-03  
              995.E-03           643.712E-03        643.583E-03  
              997.5E-03          645.597E-03        645.465E-03  
                1.               647.482E-03        647.347E-03  




