
                  X              SENER-out           SENER-in    

                0.                 0.                 0.         
                2.5E-03          183.789E+03        183.789E+03  
                5.E-03           210.76E+03         210.822E+03  
                7.5E-03          222.871E+03        223.577E+03  
               10.E-03           232.363E+03        233.349E+03  
               12.5E-03          240.319E+03        241.379E+03  
               15.E-03           247.347E+03        248.39E+03   
               17.5E-03          253.784E+03        254.778E+03  
               20.E-03           259.82E+03         260.758E+03  
               22.5E-03          265.563E+03        266.447E+03  
               25.E-03           271.078E+03        271.913E+03  
               27.5E-03          276.403E+03        277.196E+03  
               30.E-03           281.566E+03        282.322E+03  
               32.5E-03          286.584E+03        287.307E+03  
               35.E-03           291.471E+03        292.165E+03  
               37.5E-03          296.236E+03        296.905E+03  
               40.E-03           300.889E+03        301.536E+03  
               42.5E-03          305.437E+03        306.064E+03  
               45.E-03           309.887E+03        310.496E+03  
               47.5E-03          314.243E+03        314.837E+03  
               50.E-03           318.511E+03        319.092E+03  
               52.5E-03          322.696E+03        323.265E+03  
               55.E-03           326.802E+03        327.36E+03   
               57.5E-03          330.833E+03        331.381E+03  
               60.E-03           334.792E+03        335.332E+03  
               62.5E-03          338.683E+03        339.215E+03  
               65.E-03           342.508E+03        343.033E+03  
               67.5E-03          346.271E+03        346.79E+03   
               70.E-03           349.975E+03        350.488E+03  
               72.5E-03          353.621E+03        354.13E+03   
               75.E-03           357.211E+03        357.717E+03  
               77.5E-03          360.749E+03        361.251E+03  
               80.E-03           364.236E+03        364.735E+03  
               82.5E-03          367.674E+03        368.171E+03  
               85.E-03           371.065E+03        371.56E+03   
               87.5E-03          374.411E+03        374.904E+03  
               90.E-03           377.712E+03        378.205E+03  
               92.5E-03          414.781E+03        415.402E+03  
               95.E-03           446.171E+03        446.869E+03  
               97.5E-03          459.37E+03         460.063E+03  
              100.E-03           467.006E+03        467.684E+03  
              102.5E-03          472.893E+03        473.56E+03   
              105.E-03           478.128E+03        478.787E+03  
              107.5E-03          483.067E+03        483.72E+03   
              110.E-03           487.843E+03        488.492E+03  
              112.5E-03          492.511E+03        493.156E+03  
              115.E-03           497.096E+03        497.737E+03  
              117.5E-03          501.611E+03        502.249E+03  
              120.E-03           506.063E+03        506.697E+03  
              122.5E-03          510.455E+03        511.086E+03  
              125.E-03           514.791E+03        515.419E+03  
              127.5E-03          519.073E+03        519.698E+03  
              130.E-03           523.303E+03        523.925E+03  
              132.5E-03          527.482E+03        528.102E+03  
              135.E-03           531.612E+03        532.23E+03   
              137.5E-03          535.695E+03        536.311E+03  
              140.E-03           539.733E+03        540.346E+03  
              142.5E-03          543.725E+03        544.337E+03  
              145.E-03           547.675E+03        548.284E+03  
              147.5E-03          551.582E+03        552.19E+03   
              150.E-03           555.449E+03        556.055E+03  
              152.5E-03          559.276E+03        559.88E+03   
              155.E-03           563.064E+03        563.667E+03  
              157.5E-03          566.815E+03        567.416E+03  
              160.E-03           570.529E+03        571.129E+03  
              162.5E-03          574.207E+03        574.806E+03  
              165.E-03           577.85E+03         578.448E+03  
              167.5E-03          581.46E+03         582.057E+03  
              170.E-03           585.036E+03        585.632E+03  
              172.5E-03          588.58E+03         589.176E+03  
              175.E-03           592.092E+03        592.687E+03  
              177.5E-03          595.574E+03        596.168E+03  
              180.E-03           599.026E+03        599.619E+03  
              182.5E-03          599.418E+03        600.015E+03  
              185.E-03           584.352E+03        584.908E+03  
              187.5E-03          573.025E+03        573.487E+03  
              190.E-03           566.834E+03        567.229E+03  
              192.5E-03          564.129E+03        564.594E+03  
              195.E-03           563.524E+03        564.183E+03  
              197.5E-03          564.168E+03        565.029E+03  
              200.E-03           565.554E+03        566.567E+03  
              202.5E-03          567.367E+03        568.487E+03  
              205.E-03           569.422E+03        570.617E+03  
              207.5E-03          571.609E+03        572.861E+03  
              210.E-03           573.867E+03        575.164E+03  
              212.5E-03          576.159E+03        577.494E+03  
              215.E-03           578.465E+03        579.835E+03  
              217.5E-03          580.772E+03        582.176E+03  
              220.E-03           583.074E+03        584.511E+03  
              222.5E-03          585.367E+03        586.837E+03  
              225.E-03           587.65E+03         589.153E+03  
              227.5E-03          589.92E+03         591.458E+03  
              230.E-03           592.178E+03        593.752E+03  
              232.5E-03          594.423E+03        596.034E+03  
              235.E-03           596.654E+03        598.305E+03  
              237.5E-03          598.873E+03        600.563E+03  
              240.E-03           601.079E+03        602.811E+03  
              242.5E-03          603.271E+03        605.048E+03  
              245.E-03           605.451E+03        607.273E+03  
              247.5E-03          607.619E+03        609.488E+03  
              250.E-03           609.773E+03        611.693E+03  
              252.5E-03          611.915E+03        613.887E+03  
              255.E-03           614.045E+03        616.072E+03  
              257.5E-03          616.162E+03        618.246E+03  
              260.E-03           618.267E+03        620.411E+03  
              262.5E-03          620.36E+03         622.568E+03  
              265.E-03           622.441E+03        624.715E+03  
              267.5E-03          624.509E+03        626.853E+03  
              270.E-03           626.565E+03        628.983E+03  
              272.5E-03          628.609E+03        631.105E+03  
              275.E-03           614.714E+03        617.246E+03  
              277.5E-03          604.79E+03         607.284E+03  
              280.E-03           599.111E+03        601.564E+03  
              282.5E-03          596.163E+03        598.596E+03  
              285.E-03           594.92E+03         597.345E+03  
              287.5E-03          594.747E+03        597.171E+03  
              290.E-03           595.245E+03        597.675E+03  
              292.5E-03          596.165E+03        598.604E+03  
              295.E-03           597.349E+03        599.8E+03    
              297.5E-03          598.697E+03        601.163E+03  
              300.E-03           600.148E+03        602.63E+03   
              302.5E-03          601.66E+03         604.16E+03   
              305.E-03           603.21E+03         605.728E+03  
              307.5E-03          604.78E+03         607.318E+03  
              310.E-03           606.362E+03        608.92E+03   
              312.5E-03          607.948E+03        610.527E+03  
              315.E-03           609.535E+03        612.135E+03  
              317.5E-03          611.12E+03         613.742E+03  
              320.E-03           612.701E+03        615.346E+03  
              322.5E-03          614.278E+03        616.946E+03  
              325.E-03           615.85E+03         618.542E+03  
              327.5E-03          617.416E+03        620.133E+03  
              330.E-03           618.976E+03        621.718E+03  
              332.5E-03          620.53E+03         623.299E+03  
              335.E-03           622.079E+03        624.874E+03  
              337.5E-03          623.621E+03        626.443E+03  
              340.E-03           625.158E+03        628.008E+03  
              342.5E-03          626.689E+03        629.567E+03  
              345.E-03           628.214E+03        631.121E+03  
              347.5E-03          629.733E+03        632.67E+03   
              350.E-03           631.246E+03        634.214E+03  
              352.5E-03          632.754E+03        635.752E+03  
              355.E-03           634.255E+03        637.286E+03  
              357.5E-03          635.752E+03        638.815E+03  
              360.E-03           637.242E+03        640.339E+03  
              362.5E-03          638.727E+03        641.857E+03  
              365.E-03           640.207E+03        643.372E+03  
              367.5E-03          641.681E+03        644.881E+03  
              370.E-03           643.149E+03        646.386E+03  
              372.5E-03          644.612E+03        647.886E+03  
              375.E-03           646.07E+03         649.382E+03  
              377.5E-03          647.523E+03        650.873E+03  
              380.E-03           648.97E+03         652.359E+03  
              382.5E-03          650.412E+03        653.842E+03  
              385.E-03           651.849E+03        655.32E+03   
              387.5E-03          653.281E+03        656.793E+03  
              390.E-03           654.707E+03        658.262E+03  
              392.5E-03          656.129E+03        659.727E+03  
              395.E-03           657.545E+03        661.188E+03  
              397.5E-03          658.957E+03        662.645E+03  
              400.E-03           660.363E+03        664.098E+03  
              402.5E-03          661.765E+03        665.547E+03  
              405.E-03           663.161E+03        666.992E+03  
              407.5E-03          664.553E+03        668.432E+03  
              410.E-03           665.94E+03         669.87E+03   
              412.5E-03          667.322E+03        671.303E+03  
              415.E-03           668.699E+03        672.732E+03  
              417.5E-03          670.071E+03        674.158E+03  
              420.E-03           671.439E+03        675.58E+03   
              422.5E-03          672.802E+03        676.999E+03  
              425.E-03           674.16E+03         678.414E+03  
              427.5E-03          675.514E+03        679.825E+03  
              430.E-03           676.863E+03        681.233E+03  
              432.5E-03          678.207E+03        682.638E+03  
              435.E-03           679.547E+03        684.039E+03  
              437.5E-03          680.882E+03        685.437E+03  
              440.E-03           682.212E+03        686.831E+03  
              442.5E-03          683.539E+03        688.222E+03  
              445.E-03           684.86E+03         689.611E+03  
              447.5E-03          686.177E+03        690.996E+03  
              450.E-03           687.49E+03         692.378E+03  
              452.5E-03          688.798E+03        693.756E+03  
              455.E-03           689.858E+03        694.875E+03  
              457.5E-03          771.635E+03        773.286E+03  
              460.E-03           801.419E+03        805.284E+03  
              462.5E-03          815.221E+03        819.481E+03  
              465.E-03           822.359E+03        826.768E+03  
              467.5E-03          826.761E+03        831.23E+03   
              470.E-03           829.959E+03        834.452E+03  
              472.5E-03          832.588E+03        837.09E+03   
              475.E-03           834.934E+03        839.438E+03  
              477.5E-03          837.132E+03        841.633E+03  
              480.E-03           839.249E+03        843.747E+03  
              482.5E-03          841.321E+03        845.814E+03  
              485.E-03           843.366E+03        847.854E+03  
              487.5E-03          845.392E+03        849.875E+03  
              490.E-03           847.406E+03        851.884E+03  
              492.5E-03          849.409E+03        853.883E+03  
              495.E-03           851.404E+03        855.873E+03  
              497.5E-03          853.391E+03        857.855E+03  
              500.E-03           855.37E+03         859.831E+03  
              502.5E-03          857.342E+03        861.799E+03  
              505.E-03           859.308E+03        863.761E+03  
              507.5E-03          861.266E+03        865.716E+03  
              510.E-03           863.218E+03        867.665E+03  
              512.5E-03          865.163E+03        869.607E+03  
              515.E-03           867.101E+03        871.543E+03  
              517.5E-03          869.033E+03        873.473E+03  
              520.E-03           870.958E+03        875.396E+03  
              522.5E-03          872.877E+03        877.314E+03  
              525.E-03           874.79E+03         879.225E+03  
              527.5E-03          876.696E+03        881.13E+03   
              530.E-03           878.596E+03        883.029E+03  
              532.5E-03          880.49E+03         884.922E+03  
              535.E-03           882.378E+03        886.809E+03  
              537.5E-03          884.259E+03        888.69E+03   
              540.E-03           886.135E+03        890.566E+03  
              542.5E-03          888.004E+03        892.435E+03  
              545.E-03           889.868E+03        894.299E+03  
              547.5E-03          891.726E+03        896.158E+03  
              550.E-03           893.578E+03        898.01E+03   
              552.5E-03          895.424E+03        899.857E+03  
              555.E-03           897.264E+03        901.699E+03  
              557.5E-03          899.099E+03        903.535E+03  
              560.E-03           900.928E+03        905.365E+03  
              562.5E-03          902.751E+03        907.191E+03  
              565.E-03           904.569E+03        909.01E+03   
              567.5E-03          906.381E+03        910.825E+03  
              570.E-03           908.188E+03        912.634E+03  
              572.5E-03          909.989E+03        914.438E+03  
              575.E-03           911.785E+03        916.237E+03  
              577.5E-03          913.576E+03        918.03E+03   
              580.E-03           915.361E+03        919.819E+03  
              582.5E-03          917.141E+03        921.602E+03  
              585.E-03           918.916E+03        923.381E+03  
              587.5E-03          920.686E+03        925.154E+03  
              590.E-03           922.45E+03         926.923E+03  
              592.5E-03          924.209E+03        928.686E+03  
              595.E-03           925.964E+03        930.445E+03  
              597.5E-03          927.713E+03        932.198E+03  
              600.E-03           929.457E+03        933.948E+03  
              602.5E-03          931.197E+03        935.692E+03  
              605.E-03           932.931E+03        937.431E+03  
              607.5E-03          934.661E+03        939.166E+03  
              610.E-03           936.385E+03        940.896E+03  
              612.5E-03          938.105E+03        942.621E+03  
              615.E-03           939.82E+03         944.342E+03  
              617.5E-03          941.531E+03        946.059E+03  
              620.E-03           943.236E+03        947.77E+03   
              622.5E-03          944.937E+03        949.478E+03  
              625.E-03           946.634E+03        951.18E+03   
              627.5E-03          948.326E+03        952.879E+03  
              630.E-03           950.013E+03        954.573E+03  
              632.5E-03          951.695E+03        956.262E+03  
              635.E-03           953.373E+03        957.947E+03  
              637.5E-03          946.695E+03        950.733E+03  
              640.E-03           925.137E+03        927.21E+03   
              642.5E-03          909.309E+03        908.399E+03  
              645.E-03           900.903E+03        894.345E+03  
              647.5E-03          902.199E+03        893.939E+03  
              650.E-03           901.378E+03        904.634E+03  
              652.5E-03          900.288E+03        917.747E+03  
              655.E-03           899.062E+03        931.706E+03  
              657.5E-03          897.697E+03        946.122E+03  
              660.E-03           896.19E+03         960.909E+03  
              662.5E-03          894.524E+03        976.162E+03  
              665.E-03           892.684E+03        991.946E+03  
              667.5E-03          890.661E+03          1.00819E+06
              670.E-03           888.453E+03          1.02481E+06
              672.5E-03          886.052E+03          1.04194E+06
              675.E-03           883.447E+03          1.05967E+06
              677.5E-03          880.623E+03          1.07805E+06
              680.E-03           877.566E+03          1.09714E+06
              682.5E-03          874.269E+03          1.11717E+06
              685.E-03           870.738E+03          1.13812E+06
              687.5E-03          866.963E+03          1.15995E+06
              690.E-03           862.929E+03          1.18264E+06
              692.5E-03          858.62E+03           1.20618E+06
              695.E-03           854.028E+03          1.23047E+06
              697.5E-03          849.175E+03          1.25519E+06
              700.E-03           843.736E+03          1.28139E+06
              702.5E-03          838.378E+03          1.30732E+06
              705.E-03           832.765E+03          1.33388E+06
              707.5E-03          827.249E+03          1.36009E+06
              710.E-03           821.121E+03          1.38757E+06
              712.5E-03          814.76E+03           1.41439E+06
              715.E-03           808.216E+03          1.43992E+06
              717.5E-03          801.53E+03           1.46498E+06
              720.E-03           794.725E+03          1.48985E+06
              722.5E-03          787.822E+03          1.51462E+06
              725.E-03           780.84E+03           1.53928E+06
              727.5E-03          773.796E+03          1.56384E+06
              730.E-03           766.708E+03          1.58826E+06
              732.5E-03          759.596E+03          1.61243E+06
              735.E-03           752.487E+03          1.63611E+06
              737.5E-03          745.417E+03          1.65871E+06
              740.E-03           738.482E+03          1.67723E+06
              742.5E-03          731.743E+03          1.69331E+06
              745.E-03           725.249E+03          1.70852E+06
              747.5E-03          719.015E+03          1.72328E+06
              750.E-03           713.057E+03          1.73765E+06
              752.5E-03          707.392E+03          1.75164E+06
              755.E-03           702.033E+03          1.76526E+06
              757.5E-03          696.992E+03          1.77848E+06
              760.E-03           692.278E+03          1.79132E+06
              762.5E-03          687.902E+03          1.80375E+06
              765.E-03           683.871E+03          1.81576E+06
              767.5E-03          680.193E+03          1.82736E+06
              770.E-03           676.877E+03          1.83851E+06
              772.5E-03          673.93E+03           1.8492E+06 
              775.E-03           671.363E+03          1.85935E+06
              777.5E-03          669.201E+03          1.86687E+06
              780.E-03           667.557E+03          1.86628E+06
              782.5E-03          666.48E+03           1.86315E+06
              785.E-03           665.945E+03          1.85961E+06
              787.5E-03          665.926E+03          1.85632E+06
              790.E-03           666.144E+03          1.85342E+06
              792.5E-03          667.105E+03          1.85101E+06
              795.E-03           668.514E+03          1.84907E+06
              797.5E-03          670.355E+03          1.84758E+06
              800.E-03           672.609E+03          1.8465E+06 
              802.5E-03          675.261E+03          1.8458E+06 
              805.E-03           678.296E+03          1.84547E+06
              807.5E-03          681.7E+03            1.84546E+06
              810.E-03           685.461E+03          1.84577E+06
              812.5E-03          689.567E+03          1.84637E+06
              815.E-03           694.006E+03          1.84724E+06
              817.5E-03          698.768E+03          1.84837E+06
              820.E-03           865.354E+03          1.86773E+06
              822.5E-03          864.082E+03          1.88091E+06
              825.E-03           862.646E+03          1.88661E+06
              827.5E-03          861.176E+03          1.88715E+06
              830.E-03           859.658E+03          1.88812E+06
              832.5E-03          858.21E+03           1.88959E+06
              835.E-03           856.791E+03          1.89143E+06
              837.5E-03          855.404E+03          1.8935E+06 
              840.E-03           854.047E+03          1.89574E+06
              842.5E-03          852.722E+03          1.89813E+06
              845.E-03           851.427E+03          1.90065E+06
              847.5E-03          850.163E+03          1.90327E+06
              850.E-03           848.929E+03          1.90601E+06
              852.5E-03          847.724E+03          1.90885E+06
              855.E-03           846.547E+03          1.91179E+06
              857.5E-03          845.398E+03          1.91482E+06
              860.E-03           844.277E+03          1.91795E+06
              862.5E-03          843.182E+03          1.92116E+06
              865.E-03           842.113E+03          1.92446E+06
              867.5E-03          841.07E+03           1.92784E+06
              870.E-03           840.052E+03          1.9313E+06 
              872.5E-03          839.059E+03          1.93483E+06
              875.E-03           838.089E+03          1.93844E+06
              877.5E-03          837.142E+03          1.94212E+06
              880.E-03           836.219E+03          1.94586E+06
              882.5E-03          835.317E+03          1.94967E+06
              885.E-03           834.437E+03          1.95354E+06
              887.5E-03          833.579E+03          1.95748E+06
              890.E-03           832.741E+03          1.96147E+06
              892.5E-03          831.923E+03          1.96551E+06
              895.E-03           831.126E+03          1.96962E+06
              897.5E-03          830.347E+03          1.97377E+06
              900.E-03           829.588E+03          1.97798E+06
              902.5E-03          828.847E+03          1.98223E+06
              905.E-03           828.124E+03          1.98653E+06
              907.5E-03          827.418E+03          1.99088E+06
              910.E-03           826.73E+03           1.99527E+06
              912.5E-03          826.058E+03          1.9997E+06 
              915.E-03           825.403E+03          2.00418E+06
              917.5E-03          824.764E+03          2.0087E+06 
              920.E-03           824.141E+03          2.01326E+06
              922.5E-03          823.533E+03          2.01785E+06
              925.E-03           822.94E+03           2.02249E+06
              927.5E-03          822.361E+03          2.02715E+06
              930.E-03           821.797E+03          2.03186E+06
              932.5E-03          821.247E+03          2.0366E+06 
              935.E-03           820.71E+03           2.04137E+06
              937.5E-03          820.187E+03          2.04618E+06
              940.E-03           819.676E+03          2.05101E+06
              942.5E-03          819.179E+03          2.05588E+06
              945.E-03           818.694E+03          2.06078E+06
              947.5E-03          818.221E+03          2.06571E+06
              950.E-03           817.76E+03           2.07067E+06
              952.5E-03          817.311E+03          2.07565E+06
              955.E-03           816.873E+03          2.08067E+06
              957.5E-03          816.446E+03          2.08571E+06
              960.E-03           816.03E+03           2.09078E+06
              962.5E-03          815.625E+03          2.09587E+06
              965.E-03           815.23E+03           2.10099E+06
              967.5E-03          814.845E+03          2.10614E+06
              970.E-03           814.47E+03           2.11131E+06
              972.5E-03          814.105E+03          2.1165E+06 
              975.E-03           813.75E+03           2.12172E+06
              977.5E-03          813.404E+03          2.12696E+06
              980.E-03           813.067E+03          2.13222E+06
              982.5E-03          812.739E+03          2.13751E+06
              985.E-03           812.419E+03          2.14281E+06
              987.5E-03          812.109E+03          2.14814E+06
              990.E-03           811.806E+03          2.15349E+06
              992.5E-03          811.512E+03          2.15886E+06
              995.E-03           811.226E+03          2.16426E+06
              997.5E-03          810.947E+03          2.16967E+06
                1.               810.676E+03          2.1751E+06 




