
                  X                 Dinn               Dout      

                0.                 0.                 0.         
                2.5E-03            0.                 0.         
                5.E-03             1.42315E-03        1.27263E-03
                7.5E-03            2.86125E-03        2.6635E-03 
               10.E-03             4.27886E-03        4.04584E-03
               12.5E-03            5.68537E-03        5.42605E-03
               15.E-03             7.08502E-03        6.80661E-03
               17.5E-03            8.47995E-03        8.18839E-03
               20.E-03             9.87136E-03        9.57161E-03
               22.5E-03           11.26E-03          10.9563E-03 
               25.E-03            12.6465E-03        12.3423E-03 
               27.5E-03           14.0311E-03        13.7295E-03 
               30.E-03            15.4142E-03        15.1178E-03 
               32.5E-03           16.796E-03         16.5071E-03 
               35.E-03            18.1767E-03        17.8972E-03 
               37.5E-03           19.5565E-03        19.2882E-03 
               40.E-03            20.9356E-03        20.68E-03   
               42.5E-03           22.314E-03         22.0724E-03 
               45.E-03            23.6919E-03        23.4654E-03 
               47.5E-03           25.0693E-03        24.859E-03  
               50.E-03            26.4463E-03        26.2531E-03 
               52.5E-03           27.823E-03         27.6477E-03 
               55.E-03            29.1995E-03        29.0428E-03 
               57.5E-03           30.5757E-03        30.4383E-03 
               60.E-03            31.9518E-03        31.8341E-03 
               62.5E-03           33.3277E-03        33.2304E-03 
               65.E-03            34.7035E-03        34.6269E-03 
               67.5E-03           36.0792E-03        36.0238E-03 
               70.E-03            37.4549E-03        37.421E-03  
               72.5E-03           38.8306E-03        38.8185E-03 
               75.E-03            40.2062E-03        40.2162E-03 
               77.5E-03           41.5819E-03        41.6142E-03 
               80.E-03            42.9575E-03        43.0125E-03 
               82.5E-03           44.3332E-03        44.4109E-03 
               85.E-03            45.709E-03         45.8096E-03 
               87.5E-03           47.0848E-03        47.2085E-03 
               90.E-03            48.4607E-03        48.6076E-03 
               92.5E-03           49.8367E-03        50.0069E-03 
               95.E-03            51.2127E-03        51.4063E-03 
               97.5E-03           52.5889E-03        52.8059E-03 
              100.E-03            53.9652E-03        54.2057E-03 
              102.5E-03           55.0897E-03        55.3494E-03 
              105.E-03            56.6424E-03        56.5869E-03 
              107.5E-03           57.9631E-03        57.8057E-03 
              110.E-03            59.0848E-03        58.9317E-03 
              112.5E-03           60.0927E-03        59.9341E-03 
              115.E-03            61.0133E-03        60.8529E-03 
              117.5E-03           61.8791E-03        61.7169E-03 
              120.E-03            62.7101E-03        62.5465E-03 
              122.5E-03           63.5193E-03        63.3545E-03 
              125.E-03            64.3149E-03        64.1491E-03 
              127.5E-03           65.102E-03         64.9354E-03 
              130.E-03            65.8838E-03        65.7165E-03 
              132.5E-03           66.6624E-03        66.4944E-03 
              135.E-03            67.4389E-03        67.2704E-03 
              137.5E-03           68.2142E-03        68.0452E-03 
              140.E-03            68.9887E-03        68.8193E-03 
              142.5E-03           69.7628E-03        69.5929E-03 
              145.E-03            70.5365E-03        70.3664E-03 
              147.5E-03           71.3101E-03        71.1397E-03 
              150.E-03            72.0835E-03        71.9131E-03 
              152.5E-03           72.8569E-03        72.6865E-03 
              155.E-03            73.6303E-03        73.4599E-03 
              157.5E-03           74.4037E-03        74.2334E-03 
              160.E-03            75.1771E-03        75.0068E-03 
              162.5E-03           75.9505E-03        75.7803E-03 
              165.E-03            76.7239E-03        76.5538E-03 
              167.5E-03           77.4974E-03        77.3273E-03 
              170.E-03            78.2709E-03        78.1008E-03 
              172.5E-03           79.0444E-03        78.8744E-03 
              175.E-03            79.8179E-03        79.648E-03  
              177.5E-03           80.5914E-03        80.4215E-03 
              180.E-03            81.365E-03         81.1951E-03 
              182.5E-03           82.1386E-03        81.9688E-03 
              185.E-03            83.0367E-03        82.8641E-03 
              187.5E-03           84.2274E-03        84.0483E-03 
              190.E-03            85.6161E-03        85.4255E-03 
              192.5E-03           87.1217E-03        86.9114E-03 
              195.E-03            88.694E-03         88.4548E-03 
              197.5E-03           90.3039E-03        90.0291E-03 
              200.E-03            91.9344E-03        91.6207E-03 
              202.5E-03           93.5752E-03        93.2232E-03 
              205.E-03            95.2209E-03        94.8327E-03 
              207.5E-03           96.8687E-03        96.447E-03  
              210.E-03            98.5171E-03        98.0647E-03 
              212.5E-03          100.165E-03         99.6847E-03 
              215.E-03           101.814E-03        101.306E-03  
              217.5E-03          103.461E-03        102.929E-03  
              220.E-03           105.109E-03        104.553E-03  
              222.5E-03          106.756E-03        106.177E-03  
              225.E-03           108.403E-03        107.802E-03  
              227.5E-03          110.049E-03        109.427E-03  
              230.E-03           111.696E-03        111.053E-03  
              232.5E-03          113.343E-03        112.678E-03  
              235.E-03           114.989E-03        114.304E-03  
              237.5E-03          116.636E-03        115.93E-03   
              240.E-03           118.283E-03        117.556E-03  
              242.5E-03          119.93E-03         119.181E-03  
              245.E-03           121.578E-03        120.807E-03  
              247.5E-03          123.225E-03        122.433E-03  
              250.E-03           124.873E-03        124.058E-03  
              252.5E-03          126.522E-03        125.684E-03  
              255.E-03           128.17E-03         127.309E-03  
              257.5E-03          129.82E-03         128.934E-03  
              260.E-03           131.469E-03        130.559E-03  
              262.5E-03          133.119E-03        132.184E-03  
              265.E-03           134.769E-03        133.808E-03  
              267.5E-03          136.42E-03         135.433E-03  
              270.E-03           138.071E-03        137.057E-03  
              272.5E-03          139.723E-03        138.681E-03  
              275.E-03           141.375E-03        140.305E-03  
              277.5E-03          143.028E-03        141.928E-03  
              280.E-03           144.681E-03        143.551E-03  
              282.5E-03          146.335E-03        145.174E-03  
              285.E-03           147.989E-03        146.796E-03  
              287.5E-03          149.644E-03        148.418E-03  
              290.E-03           151.299E-03        150.04E-03   
              292.5E-03          152.956E-03        151.662E-03  
              295.E-03           154.613E-03        153.283E-03  
              297.5E-03          156.27E-03         154.903E-03  
              300.E-03           157.928E-03        156.523E-03  
              302.5E-03          159.587E-03        158.143E-03  
              305.E-03           161.247E-03        159.762E-03  
              307.5E-03          162.907E-03        161.381E-03  
              310.E-03           164.569E-03        162.999E-03  
              312.5E-03          166.231E-03        164.617E-03  
              315.E-03           167.894E-03        166.234E-03  
              317.5E-03          169.558E-03        167.851E-03  
              320.E-03           171.223E-03        169.466E-03  
              322.5E-03          172.889E-03        171.081E-03  
              325.E-03           174.556E-03        172.696E-03  
              327.5E-03          176.224E-03        174.31E-03   
              330.E-03           177.893E-03        175.922E-03  
              332.5E-03          179.563E-03        177.534E-03  
              335.E-03           181.235E-03        179.146E-03  
              337.5E-03          182.908E-03        180.756E-03  
              340.E-03           184.582E-03        182.365E-03  
              342.5E-03          186.258E-03        183.973E-03  
              345.E-03           187.935E-03        185.58E-03   
              347.5E-03          189.614E-03        187.186E-03  
              350.E-03           191.295E-03        188.791E-03  
              352.5E-03          192.977E-03        190.395E-03  
              355.E-03           194.661E-03        191.997E-03  
              357.5E-03          196.347E-03        193.597E-03  
              360.E-03           198.035E-03        195.196E-03  
              362.5E-03          199.726E-03        196.794E-03  
              365.E-03           201.418E-03        198.389E-03  
              367.5E-03          203.113E-03        199.983E-03  
              370.E-03           204.811E-03        201.575E-03  
              372.5E-03          206.511E-03        203.165E-03  
              375.E-03           208.215E-03        204.752E-03  
              377.5E-03          209.921E-03        206.337E-03  
              380.E-03           211.631E-03        207.92E-03   
              382.5E-03          213.344E-03        209.5E-03    
              385.E-03           215.061E-03        211.077E-03  
              387.5E-03          216.782E-03        212.651E-03  
              390.E-03           218.507E-03        214.221E-03  
              392.5E-03          220.237E-03        215.789E-03  
              395.E-03           221.972E-03        217.352E-03  
              397.5E-03          223.712E-03        218.911E-03  
              400.E-03           225.457E-03        220.466E-03  
              402.5E-03          227.209E-03        222.016E-03  
              405.E-03           228.967E-03        223.561E-03  
              407.5E-03          230.733E-03        225.1E-03    
              410.E-03           232.506E-03        226.634E-03  
              412.5E-03          234.287E-03        228.161E-03  
              415.E-03           236.078E-03        229.681E-03  
              417.5E-03          237.878E-03        231.194E-03  
              420.E-03           239.689E-03        232.699E-03  
              422.5E-03          241.511E-03        234.195E-03  
              425.E-03           243.347E-03        235.682E-03  
              427.5E-03          245.196E-03        237.158E-03  
              430.E-03           247.061E-03        238.624E-03  
              432.5E-03          248.942E-03        240.077E-03  
              435.E-03           250.842E-03        241.517E-03  
              437.5E-03          252.763E-03        242.944E-03  
              440.E-03           254.706E-03        244.354E-03  
              442.5E-03          256.674E-03        245.748E-03  
              445.E-03           258.67E-03         247.124E-03  
              447.5E-03          260.698E-03        248.481E-03  
              450.E-03           262.76E-03         249.816E-03  
              452.5E-03          264.861E-03        251.128E-03  
              455.E-03           267.005E-03        252.414E-03  
              457.5E-03          269.198E-03        253.675E-03  
              460.E-03           271.446E-03        254.906E-03  
              462.5E-03          273.756E-03        256.106E-03  
              465.E-03           276.135E-03        257.274E-03  
              467.5E-03          278.591E-03        258.406E-03  
              470.E-03           281.136E-03        259.502E-03  
              472.5E-03          283.778E-03        260.56E-03   
              475.E-03           286.529E-03        261.577E-03  
              477.5E-03          289.401E-03        262.554E-03  
              480.E-03           292.407E-03        263.488E-03  
              482.5E-03          295.559E-03        264.381E-03  
              485.E-03           298.87E-03         265.231E-03  
              487.5E-03          302.351E-03        266.04E-03   
              490.E-03           306.013E-03        266.809E-03  
              492.5E-03          309.867E-03        267.537E-03  
              495.E-03           313.921E-03        268.227E-03  
              497.5E-03          318.182E-03        268.881E-03  
              500.E-03           322.657E-03        269.499E-03  
              502.5E-03          327.351E-03        270.083E-03  
              505.E-03           332.269E-03        270.636E-03  
              507.5E-03          337.414E-03        271.158E-03  
              510.E-03           342.789E-03        271.651E-03  
              512.5E-03          348.398E-03        272.117E-03  
              515.E-03           354.242E-03        272.558E-03  
              517.5E-03          360.325E-03        272.974E-03  
              520.E-03           366.648E-03        273.367E-03  
              522.5E-03          373.213E-03        273.739E-03  
              525.E-03           380.022E-03        274.09E-03   
              527.5E-03          387.076E-03        274.423E-03  
              530.E-03           394.378E-03        274.737E-03  
              532.5E-03          401.927E-03        275.035E-03  
              535.E-03           409.727E-03        275.317E-03  
              537.5E-03          417.777E-03        275.584E-03  
              540.E-03           426.078E-03        275.837E-03  
              542.5E-03          434.631E-03        276.077E-03  
              545.E-03           443.436E-03        276.305E-03  
              547.5E-03          452.492E-03        276.521E-03  
              550.E-03           461.799E-03        276.726E-03  
              552.5E-03          471.357E-03        276.92E-03   
              555.E-03           481.162E-03        277.104E-03  
              557.5E-03          491.212E-03        277.28E-03   
              560.E-03           501.505E-03        277.446E-03  
              562.5E-03          512.036E-03        277.603E-03  
              565.E-03           522.799E-03        277.753E-03  
              567.5E-03          533.789E-03        277.895E-03  
              570.E-03           544.996E-03        278.03E-03   
              572.5E-03          556.412E-03        278.157E-03  
              575.E-03           568.025E-03        278.279E-03  
              577.5E-03          579.82E-03         278.394E-03  
              580.E-03           591.782E-03        278.503E-03  
              582.5E-03          603.891E-03        278.606E-03  
              585.E-03           616.125E-03        278.704E-03  
              587.5E-03          628.454E-03        278.798E-03  
              590.E-03           640.848E-03        278.886E-03  
              592.5E-03          653.266E-03        278.969E-03  
              595.E-03           665.66E-03         279.048E-03  
              597.5E-03          677.972E-03        279.123E-03  
              600.E-03           690.126E-03        279.194E-03  
              602.5E-03          702.022E-03        279.262E-03  
              605.E-03           713.516E-03        279.325E-03  
              607.5E-03          724.359E-03        279.386E-03  
              610.E-03           734.378E-03        279.443E-03  
              612.5E-03          744.625E-03        279.497E-03  
              615.E-03           755.103E-03        279.548E-03  
              617.5E-03          765.814E-03        279.596E-03  
              620.E-03           776.759E-03        279.642E-03  
              622.5E-03          787.937E-03        279.686E-03  
              625.E-03           799.347E-03        279.727E-03  
              627.5E-03          810.92E-03         279.767E-03  
              630.E-03           822.74E-03         279.804E-03  
              632.5E-03          834.771E-03        279.839E-03  
              635.E-03           846.976E-03        279.873E-03  
              637.5E-03          859.32E-03         279.906E-03  
              640.E-03           871.752E-03        279.938E-03  
              642.5E-03          884.303E-03        279.97E-03   
              645.E-03           896.933E-03        280.002E-03  
              647.5E-03          909.705E-03        280.033E-03  
              650.E-03           922.567E-03        280.063E-03  
              652.5E-03          935.473E-03        280.093E-03  
              655.E-03           948.351E-03        280.123E-03  
              657.5E-03          961.219E-03        280.151E-03  
              660.E-03           974.047E-03        280.18E-03   
              662.5E-03          986.855E-03        280.21E-03   
              665.E-03           999.648E-03        280.239E-03  
              667.5E-03            1.01243          280.267E-03  
              670.E-03             1.02521          280.296E-03  
              672.5E-03            1.03799          280.325E-03  
              675.E-03             1.05074          280.355E-03  
              677.5E-03            1.0635           280.383E-03  
              680.E-03             1.07624          280.411E-03  
              682.5E-03            1.08892          280.441E-03  
              685.E-03             1.10151          280.47E-03   
              687.5E-03            1.114            280.498E-03  
              690.E-03             1.12637          280.528E-03  
              692.5E-03            1.13864          280.558E-03  
              695.E-03             1.15081          280.588E-03  
              697.5E-03            1.16288          280.619E-03  
              700.E-03             1.17487          280.65E-03   
              702.5E-03            1.18677          280.681E-03  
              705.E-03             1.19859          280.713E-03  
              707.5E-03            1.21033          280.745E-03  
              710.E-03             1.222            280.777E-03  
              712.5E-03            1.23359          280.809E-03  
              715.E-03             1.24511          280.842E-03  
              717.5E-03            1.25656          280.874E-03  
              720.E-03             1.26794          280.907E-03  
              722.5E-03            1.27926          280.941E-03  
              725.E-03             1.29051          280.974E-03  
              727.5E-03            1.3017           281.008E-03  
              730.E-03             1.31281          281.042E-03  
              732.5E-03            1.32381          281.076E-03  
              735.E-03             1.33468          281.11E-03   
              737.5E-03            1.34542          281.145E-03  
              740.E-03             1.35603          281.18E-03   
              742.5E-03            1.36652          281.216E-03  
              745.E-03             1.37688          281.252E-03  
              747.5E-03            1.38714          281.288E-03  
              750.E-03             1.39728          281.324E-03  
              752.5E-03            1.40731          281.361E-03  
              755.E-03             1.41722          281.398E-03  
              757.5E-03            1.42704          281.435E-03  
              760.E-03             1.43675          281.471E-03  
              762.5E-03            1.44636          281.508E-03  
              765.E-03             1.45588          281.545E-03  
              767.5E-03            1.4653           281.583E-03  
              770.E-03             1.47463          281.62E-03   
              772.5E-03            1.48387          281.657E-03  
              775.E-03             1.49302          281.693E-03  
              777.5E-03            1.50208          281.73E-03   
              780.E-03             1.51106          281.767E-03  
              782.5E-03            1.51996          281.804E-03  
              785.E-03             1.52878          281.84E-03   
              787.5E-03            1.53751          281.877E-03  
              790.E-03             1.54617          281.913E-03  
              792.5E-03            1.55476          281.949E-03  
              795.E-03             1.56327          281.985E-03  
              797.5E-03            1.57171          282.021E-03  
              800.E-03             1.58007          282.057E-03  
              802.5E-03            1.58837          282.092E-03  
              805.E-03             1.59659          282.127E-03  
              807.5E-03            1.60475          282.162E-03  
              810.E-03             1.61284          282.197E-03  
              812.5E-03            1.62087          282.232E-03  
              815.E-03             1.62883          282.266E-03  
              817.5E-03            1.63674          282.3E-03    
              820.E-03             1.64457          282.334E-03  
              822.5E-03            1.65235          282.368E-03  
              825.E-03             1.66008          282.401E-03  
              827.5E-03            1.66774          282.434E-03  
              830.E-03             1.67535          282.467E-03  
              832.5E-03            1.6829           282.5E-03    
              835.E-03             1.69039          282.532E-03  
              837.5E-03            1.69783          282.564E-03  
              840.E-03             1.70522          282.596E-03  
              842.5E-03            1.71255          282.628E-03  
              845.E-03             1.71984          282.659E-03  
              847.5E-03            1.72707          282.69E-03   
              850.E-03             1.73425          282.721E-03  
              852.5E-03            1.74138          282.752E-03  
              855.E-03             1.74846          282.782E-03  
              857.5E-03            1.7555           282.812E-03  
              860.E-03             1.76249          282.842E-03  
              862.5E-03            1.76943          282.871E-03  
              865.E-03             1.77633          282.901E-03  
              867.5E-03            1.78318          282.93E-03   
              870.E-03             1.78999          282.958E-03  
              872.5E-03            1.79676          282.987E-03  
              875.E-03             1.80348          283.015E-03  
              877.5E-03            1.81016          283.043E-03  
              880.E-03             1.8168           283.07E-03   
              882.5E-03            1.82341          283.097E-03  
              885.E-03             1.82997          283.124E-03  
              887.5E-03            1.83649          283.151E-03  
              890.E-03             1.84297          283.178E-03  
              892.5E-03            1.84942          283.204E-03  
              895.E-03             1.85583          283.23E-03   
              897.5E-03            1.8622           283.255E-03  
              900.E-03             1.86853          283.281E-03  
              902.5E-03            1.87483          283.306E-03  
              905.E-03             1.88109          283.331E-03  
              907.5E-03            1.88732          283.355E-03  
              910.E-03             1.89351          283.38E-03   
              912.5E-03            1.89966          283.404E-03  
              915.E-03             1.90579          283.427E-03  
              917.5E-03            1.91188          283.451E-03  
              920.E-03             1.91794          283.474E-03  
              922.5E-03            1.92396          283.497E-03  
              925.E-03             1.92995          283.519E-03  
              927.5E-03            1.93592          283.542E-03  
              930.E-03             1.94185          283.564E-03  
              932.5E-03            1.94774          283.586E-03  
              935.E-03             1.95361          283.607E-03  
              937.5E-03            1.95945          283.629E-03  
              940.E-03             1.96526          283.65E-03   
              942.5E-03            1.97104          283.67E-03   
              945.E-03             1.97679          283.691E-03  
              947.5E-03            1.98251          283.711E-03  
              950.E-03             1.9882           283.731E-03  
              952.5E-03            1.99387          283.751E-03  
              955.E-03             1.9995           283.77E-03   
              957.5E-03            2.00511          283.789E-03  
              960.E-03             2.0107           283.808E-03  
              962.5E-03            2.01625          283.827E-03  
              965.E-03             2.02178          283.845E-03  
              967.5E-03            2.02729          283.863E-03  
              970.E-03             2.03276          283.881E-03  
              972.5E-03            2.03822          283.898E-03  
              975.E-03             2.04364          283.916E-03  
              977.5E-03            2.04904          283.933E-03  
              980.E-03             2.05442          283.949E-03  
              982.5E-03            2.05977          283.966E-03  
              985.E-03             2.0651           283.982E-03  
              987.5E-03            2.07041          283.998E-03  
              990.E-03             2.07569          284.014E-03  
              992.5E-03            2.08095          284.029E-03  
              995.E-03             2.08618          284.044E-03  
              997.5E-03            2.09139          284.059E-03  
                1.                 2.09658          284.074E-03  




