
                  X              SENER-out           SENER-in    

                0.                 0.                 0.         
                2.5E-03          264.637E+03        260.489E+03  
                5.E-03           282.725E+03        279.436E+03  
                7.5E-03          298.958E+03        296.268E+03  
               10.E-03           313.954E+03        311.716E+03  
               12.5E-03          327.958E+03        326.07E+03   
               15.E-03           341.133E+03        339.524E+03  
               17.5E-03          353.6E+03          352.216E+03  
               20.E-03           365.452E+03        364.254E+03  
               22.5E-03          376.764E+03        375.721E+03  
               25.E-03           387.596E+03        386.685E+03  
               27.5E-03          397.999E+03        397.201E+03  
               30.E-03           408.016E+03        407.314E+03  
               32.5E-03          417.681E+03        417.065E+03  
               35.E-03           427.027E+03        426.485E+03  
               37.5E-03          436.079E+03        435.604E+03  
               40.E-03           444.861E+03        444.445E+03  
               42.5E-03          453.394E+03        453.03E+03   
               45.E-03           461.695E+03        461.379E+03  
               47.5E-03          469.78E+03         469.507E+03  
               50.E-03           477.664E+03        477.431E+03  
               52.5E-03          485.359E+03        485.162E+03  
               55.E-03           492.877E+03        492.713E+03  
               57.5E-03          480.865E+03        480.645E+03  
               60.E-03           426.891E+03        426.651E+03  
               62.5E-03          397.618E+03        398.293E+03  
               65.E-03           384.613E+03        385.522E+03  
               67.5E-03          379.493E+03        380.429E+03  
               70.E-03           378.298E+03        379.173E+03  
               72.5E-03          379.072E+03        379.923E+03  
               75.E-03           380.876E+03        381.712E+03  
               77.5E-03          383.219E+03        384.05E+03   
               80.E-03           385.841E+03        386.672E+03  
               82.5E-03          388.601E+03        389.436E+03  
               85.E-03           391.424E+03        392.264E+03  
               87.5E-03          394.268E+03        395.115E+03  
               90.E-03           397.11E+03         397.964E+03  
               92.5E-03          399.937E+03        400.799E+03  
               95.E-03           402.744E+03        403.614E+03  
               97.5E-03          405.527E+03        406.406E+03  
              100.E-03           408.285E+03        409.173E+03  
              102.5E-03          401.477E+03        402.324E+03  
              105.E-03           391.798E+03        392.587E+03  
              107.5E-03          387.806E+03        388.562E+03  
              110.E-03           386.637E+03        387.375E+03  
              112.5E-03          386.948E+03        387.677E+03  
              115.E-03           388.061E+03        388.786E+03  
              117.5E-03          389.622E+03        390.346E+03  
              120.E-03           391.433E+03        392.159E+03  
              122.5E-03          393.385E+03        394.113E+03  
              125.E-03           395.412E+03        396.144E+03  
              127.5E-03          397.478E+03        398.215E+03  
              130.E-03           399.56E+03         400.301E+03  
              132.5E-03          401.645E+03        402.392E+03  
              135.E-03           403.726E+03        404.478E+03  
              137.5E-03          405.798E+03        406.556E+03  
              140.E-03           407.858E+03        408.622E+03  
              142.5E-03          409.905E+03        410.676E+03  
              145.E-03           411.939E+03        412.716E+03  
              147.5E-03          413.959E+03        414.742E+03  
              150.E-03           415.964E+03        416.754E+03  
              152.5E-03          417.956E+03        418.753E+03  
              155.E-03           419.933E+03        420.738E+03  
              157.5E-03          421.897E+03        422.709E+03  
              160.E-03           423.847E+03        424.667E+03  
              162.5E-03          425.784E+03        426.611E+03  
              165.E-03           427.707E+03        428.543E+03  
              167.5E-03          429.618E+03        430.462E+03  
              170.E-03           431.516E+03        432.368E+03  
              172.5E-03          433.402E+03        434.263E+03  
              175.E-03           435.275E+03        436.145E+03  
              177.5E-03          437.137E+03        438.015E+03  
              180.E-03           438.986E+03        439.874E+03  
              182.5E-03          440.824E+03        441.721E+03  
              185.E-03           442.65E+03         443.557E+03  
              187.5E-03          444.465E+03        445.381E+03  
              190.E-03           446.269E+03        447.195E+03  
              192.5E-03          448.062E+03        448.998E+03  
              195.E-03           449.845E+03        450.791E+03  
              197.5E-03          451.616E+03        452.573E+03  
              200.E-03           453.378E+03        454.345E+03  
              202.5E-03          455.129E+03        456.107E+03  
              205.E-03           456.87E+03         457.859E+03  
              207.5E-03          458.601E+03        459.601E+03  
              210.E-03           460.322E+03        461.334E+03  
              212.5E-03          462.034E+03        463.057E+03  
              215.E-03           463.736E+03        464.771E+03  
              217.5E-03          465.429E+03        466.475E+03  
              220.E-03           467.113E+03        468.171E+03  
              222.5E-03          468.787E+03        469.858E+03  
              225.E-03           470.452E+03        471.536E+03  
              227.5E-03          472.109E+03        473.205E+03  
              230.E-03           473.757E+03        474.866E+03  
              232.5E-03          475.396E+03        476.518E+03  
              235.E-03           477.027E+03        478.162E+03  
              237.5E-03          478.649E+03        479.797E+03  
              240.E-03           480.264E+03        481.425E+03  
              242.5E-03          481.87E+03         483.045E+03  
              245.E-03           483.468E+03        484.657E+03  
              247.5E-03          485.058E+03        486.261E+03  
              250.E-03           486.64E+03         487.857E+03  
              252.5E-03          488.214E+03        489.446E+03  
              255.E-03           489.781E+03        491.027E+03  
              257.5E-03          491.341E+03        492.601E+03  
              260.E-03           492.893E+03        494.167E+03  
              262.5E-03          494.437E+03        495.726E+03  
              265.E-03           495.974E+03        497.279E+03  
              267.5E-03          497.505E+03        498.824E+03  
              270.E-03           499.028E+03        500.362E+03  
              272.5E-03          500.544E+03        501.893E+03  
              275.E-03           502.053E+03        503.417E+03  
              277.5E-03          503.556E+03        504.935E+03  
              280.E-03           505.051E+03        506.446E+03  
              282.5E-03          506.54E+03         507.95E+03   
              285.E-03           508.023E+03        509.447E+03  
              287.5E-03          509.499E+03        510.939E+03  
              290.E-03           510.969E+03        512.423E+03  
              292.5E-03          512.432E+03        513.901E+03  
              295.E-03           513.89E+03         515.373E+03  
              297.5E-03          515.341E+03        516.839E+03  
              300.E-03           516.786E+03        518.298E+03  
              302.5E-03          518.224E+03        519.751E+03  
              305.E-03           519.657E+03        521.198E+03  
              307.5E-03          521.085E+03        522.639E+03  
              310.E-03           522.506E+03        524.074E+03  
              312.5E-03          523.922E+03        525.503E+03  
              315.E-03           525.332E+03        526.926E+03  
              317.5E-03          526.736E+03        528.343E+03  
              320.E-03           528.135E+03        529.755E+03  
              322.5E-03          529.528E+03        531.16E+03   
              325.E-03           530.916E+03        532.56E+03   
              327.5E-03          532.299E+03        533.954E+03  
              330.E-03           533.676E+03        535.342E+03  
              332.5E-03          535.048E+03        536.725E+03  
              335.E-03           536.415E+03        538.102E+03  
              337.5E-03          537.777E+03        539.474E+03  
              340.E-03           539.133E+03        540.841E+03  
              342.5E-03          540.485E+03        542.202E+03  
              345.E-03           541.832E+03        543.558E+03  
              347.5E-03          543.173E+03        544.909E+03  
              350.E-03           544.51E+03         546.254E+03  
              352.5E-03          545.842E+03        547.595E+03  
              355.E-03           547.169E+03        548.93E+03   
              357.5E-03          548.491E+03        550.26E+03   
              360.E-03           549.809E+03        551.586E+03  
              362.5E-03          551.122E+03        552.906E+03  
              365.E-03           552.43E+03         554.222E+03  
              367.5E-03          553.734E+03        555.533E+03  
              370.E-03           555.033E+03        556.839E+03  
              372.5E-03          556.328E+03        558.141E+03  
              375.E-03           557.618E+03        559.438E+03  
              377.5E-03          558.904E+03        560.73E+03   
              380.E-03           560.185E+03        562.018E+03  
              382.5E-03          561.462E+03        563.301E+03  
              385.E-03           562.735E+03        564.579E+03  
              387.5E-03          564.004E+03        565.854E+03  
              390.E-03           565.268E+03        567.123E+03  
              392.5E-03          566.528E+03        568.389E+03  
              395.E-03           567.784E+03        569.65E+03   
              397.5E-03          569.036E+03        570.907E+03  
              400.E-03           570.284E+03        572.16E+03   
              402.5E-03          571.528E+03        573.408E+03  
              405.E-03           572.768E+03        574.653E+03  
              407.5E-03          574.003E+03        575.893E+03  
              410.E-03           575.235E+03        577.129E+03  
              412.5E-03          576.463E+03        578.361E+03  
              415.E-03           577.687E+03        579.589E+03  
              417.5E-03          578.907E+03        580.813E+03  
              420.E-03           580.124E+03        582.034E+03  
              422.5E-03          581.336E+03        583.25E+03   
              425.E-03           582.545E+03        584.463E+03  
              427.5E-03          583.75E+03         585.671E+03  
              430.E-03           584.952E+03        586.876E+03  
              432.5E-03          586.15E+03         588.077E+03  
              435.E-03           587.344E+03        589.274E+03  
              437.5E-03          588.534E+03        590.468E+03  
              440.E-03           589.721E+03        591.658E+03  
              442.5E-03          590.905E+03        592.844E+03  
              445.E-03           592.085E+03        594.027E+03  
              447.5E-03          593.261E+03        595.206E+03  
              450.E-03           594.434E+03        596.382E+03  
              452.5E-03          595.604E+03        597.554E+03  
              455.E-03           596.77E+03         598.722E+03  
              457.5E-03          597.933E+03        599.887E+03  
              460.E-03           599.092E+03        601.049E+03  
              462.5E-03          600.248E+03        602.207E+03  
              465.E-03           601.401E+03        603.362E+03  
              467.5E-03          602.551E+03        604.513E+03  
              470.E-03           603.697E+03        605.662E+03  
              472.5E-03          604.84E+03         606.806E+03  
              475.E-03           605.98E+03         607.948E+03  
              477.5E-03          607.116E+03        609.086E+03  
              480.E-03           608.25E+03         610.221E+03  
              482.5E-03          609.38E+03         611.353E+03  
              485.E-03           610.507E+03        612.482E+03  
              487.5E-03          611.632E+03        613.607E+03  
              490.E-03           612.753E+03        614.73E+03   
              492.5E-03          613.871E+03        615.849E+03  
              495.E-03           614.986E+03        616.965E+03  
              497.5E-03          616.098E+03        618.078E+03  
              500.E-03           617.207E+03        619.188E+03  
              502.5E-03          618.313E+03        620.296E+03  
              505.E-03           619.416E+03        621.4E+03    
              507.5E-03          620.516E+03        622.501E+03  
              510.E-03           621.613E+03        623.599E+03  
              512.5E-03          622.708E+03        624.694E+03  
              515.E-03           623.799E+03        625.786E+03  
              517.5E-03          624.888E+03        626.876E+03  
              520.E-03           625.974E+03        627.962E+03  
              522.5E-03          627.057E+03        629.046E+03  
              525.E-03           628.137E+03        630.127E+03  
              527.5E-03          629.215E+03        631.205E+03  
              530.E-03           630.29E+03         632.28E+03   
              532.5E-03          631.362E+03        633.353E+03  
              535.E-03           632.431E+03        634.422E+03  
              537.5E-03          633.498E+03        635.489E+03  
              540.E-03           634.562E+03        636.554E+03  
              542.5E-03          635.623E+03        637.615E+03  
              545.E-03           636.682E+03        638.674E+03  
              547.5E-03          637.738E+03        639.73E+03   
              550.E-03           638.791E+03        640.784E+03  
              552.5E-03          639.842E+03        641.835E+03  
              555.E-03           640.891E+03        642.883E+03  
              557.5E-03          641.936E+03        643.929E+03  
              560.E-03           642.98E+03         644.972E+03  
              562.5E-03          644.021E+03        646.013E+03  
              565.E-03           645.059E+03        647.051E+03  
              567.5E-03          646.094E+03        648.087E+03  
              570.E-03           647.128E+03        649.12E+03   
              572.5E-03          648.159E+03        650.151E+03  
              575.E-03           649.187E+03        651.179E+03  
              577.5E-03          650.213E+03        652.205E+03  
              580.E-03           651.237E+03        653.228E+03  
              582.5E-03          652.258E+03        654.249E+03  
              585.E-03           653.276E+03        655.267E+03  
              587.5E-03          654.293E+03        656.283E+03  
              590.E-03           655.307E+03        657.297E+03  
              592.5E-03          656.319E+03        658.308E+03  
              595.E-03           657.328E+03        659.317E+03  
              597.5E-03          658.335E+03        660.324E+03  
              600.E-03           659.34E+03         661.328E+03  
              602.5E-03          660.343E+03        662.33E+03   
              605.E-03           661.343E+03        663.33E+03   
              607.5E-03          662.341E+03        664.327E+03  
              610.E-03           663.337E+03        665.322E+03  
              612.5E-03          664.33E+03         666.315E+03  
              615.E-03           665.322E+03        667.306E+03  
              617.5E-03          666.311E+03        668.294E+03  
              620.E-03           667.298E+03        669.28E+03   
              622.5E-03          668.282E+03        670.264E+03  
              625.E-03           669.265E+03        671.246E+03  
              627.5E-03          670.246E+03        672.226E+03  
              630.E-03           671.224E+03        673.203E+03  
              632.5E-03          672.2E+03          674.179E+03  
              635.E-03           673.174E+03        675.152E+03  
              637.5E-03          674.146E+03        676.123E+03  
              640.E-03           675.116E+03        677.092E+03  
              642.5E-03          676.084E+03        678.059E+03  
              645.E-03           677.05E+03         679.024E+03  
              647.5E-03          678.013E+03        679.987E+03  
              650.E-03           678.975E+03        680.948E+03  
              652.5E-03          679.935E+03        681.906E+03  
              655.E-03           680.892E+03        682.863E+03  
              657.5E-03          681.848E+03        683.818E+03  
              660.E-03           682.802E+03        684.77E+03   
              662.5E-03          683.753E+03        685.721E+03  
              665.E-03           684.703E+03        686.669E+03  
              667.5E-03          685.651E+03        687.616E+03  
              670.E-03           686.596E+03        688.561E+03  
              672.5E-03          687.54E+03         689.504E+03  
              675.E-03           688.482E+03        690.444E+03  
              677.5E-03          689.422E+03        691.383E+03  
              680.E-03           690.36E+03         692.32E+03   
              682.5E-03          691.296E+03        693.255E+03  
              685.E-03           692.231E+03        694.188E+03  
              687.5E-03          693.163E+03        695.119E+03  
              690.E-03           694.093E+03        696.049E+03  
              692.5E-03          695.022E+03        696.976E+03  
              695.E-03           695.949E+03        697.902E+03  
              697.5E-03          696.874E+03        698.826E+03  
              700.E-03           697.797E+03        699.748E+03  
              702.5E-03          698.718E+03        700.668E+03  
              705.E-03           699.638E+03        701.586E+03  
              707.5E-03          700.555E+03        702.502E+03  
              710.E-03           701.471E+03        703.417E+03  
              712.5E-03          702.385E+03        704.33E+03   
              715.E-03           703.298E+03        705.241E+03  
              717.5E-03          704.208E+03        706.15E+03   
              720.E-03           705.117E+03        707.058E+03  
              722.5E-03          706.024E+03        707.964E+03  
              725.E-03           706.93E+03         708.867E+03  
              727.5E-03          707.833E+03        709.77E+03   
              730.E-03           708.735E+03        710.67E+03   
              732.5E-03          709.635E+03        711.569E+03  
              735.E-03           710.534E+03        712.466E+03  
              737.5E-03          711.431E+03        713.362E+03  
              740.E-03           712.326E+03        714.255E+03  
              742.5E-03          713.219E+03        715.148E+03  
              745.E-03           714.111E+03        716.038E+03  
              747.5E-03          715.001E+03        716.927E+03  
              750.E-03           715.89E+03         717.814E+03  
              752.5E-03          716.776E+03        718.699E+03  
              755.E-03           717.661E+03        719.583E+03  
              757.5E-03          718.545E+03        720.465E+03  
              760.E-03           719.427E+03        721.345E+03  
              762.5E-03          720.307E+03        722.224E+03  
              765.E-03           721.186E+03        723.102E+03  
              767.5E-03          722.063E+03        723.977E+03  
              770.E-03           722.938E+03        724.851E+03  
              772.5E-03          723.812E+03        725.724E+03  
              775.E-03           724.685E+03        726.595E+03  
              777.5E-03          725.556E+03        727.464E+03  
              780.E-03           726.425E+03        728.332E+03  
              782.5E-03          727.292E+03        729.198E+03  
              785.E-03           728.159E+03        730.063E+03  
              787.5E-03          729.023E+03        730.926E+03  
              790.E-03           729.886E+03        731.787E+03  
              792.5E-03          730.748E+03        732.647E+03  
              795.E-03           731.608E+03        733.506E+03  
              797.5E-03          732.466E+03        734.363E+03  
              800.E-03           733.323E+03        735.218E+03  
              802.5E-03          734.179E+03        736.072E+03  
              805.E-03           735.033E+03        736.925E+03  
              807.5E-03          735.885E+03        737.776E+03  
              810.E-03           736.737E+03        738.625E+03  
              812.5E-03          737.586E+03        739.473E+03  
              815.E-03           738.434E+03        740.32E+03   
              817.5E-03          739.281E+03        741.165E+03  
              820.E-03           740.126E+03        742.009E+03  
              822.5E-03          740.97E+03         742.851E+03  
              825.E-03           741.812E+03        743.692E+03  
              827.5E-03          742.653E+03        744.531E+03  
              830.E-03           743.493E+03        745.369E+03  
              832.5E-03          744.331E+03        746.206E+03  
              835.E-03           745.168E+03        747.041E+03  
              837.5E-03          746.003E+03        747.875E+03  
              840.E-03           746.837E+03        748.707E+03  
              842.5E-03          747.669E+03        749.538E+03  
              845.E-03           748.5E+03          750.368E+03  
              847.5E-03          749.33E+03         751.196E+03  
              850.E-03           750.159E+03        752.023E+03  
              852.5E-03          750.986E+03        752.848E+03  
              855.E-03           751.811E+03        753.672E+03  
              857.5E-03          752.636E+03        754.495E+03  
              860.E-03           753.458E+03        755.316E+03  
              862.5E-03          754.28E+03         756.136E+03  
              865.E-03           755.1E+03          756.955E+03  
              867.5E-03          755.919E+03        757.772E+03  
              870.E-03           756.737E+03        758.588E+03  
              872.5E-03          757.553E+03        759.403E+03  
              875.E-03           758.368E+03        760.216E+03  
              877.5E-03          759.182E+03        761.028E+03  
              880.E-03           759.994E+03        761.839E+03  
              882.5E-03          760.805E+03        762.649E+03  
              885.E-03           761.615E+03        763.457E+03  
              887.5E-03          762.424E+03        764.264E+03  
              890.E-03           763.231E+03        765.069E+03  
              892.5E-03          764.037E+03        765.874E+03  
              895.E-03           764.841E+03        766.677E+03  
              897.5E-03          765.645E+03        767.479E+03  
              900.E-03           766.447E+03        768.279E+03  
              902.5E-03          767.248E+03        769.078E+03  
              905.E-03           768.048E+03        769.876E+03  
              907.5E-03          768.846E+03        770.673E+03  
              910.E-03           769.643E+03        771.469E+03  
              912.5E-03          770.439E+03        772.263E+03  
              915.E-03           771.234E+03        773.056E+03  
              917.5E-03          772.027E+03        773.848E+03  
              920.E-03           772.82E+03         774.639E+03  
              922.5E-03          773.611E+03        775.428E+03  
              925.E-03           774.401E+03        776.216E+03  
              927.5E-03          775.189E+03        777.003E+03  
              930.E-03           775.977E+03        777.789E+03  
              932.5E-03          776.763E+03        778.574E+03  
              935.E-03           777.548E+03        779.357E+03  
              937.5E-03          778.332E+03        780.14E+03   
              940.E-03           779.115E+03        780.921E+03  
              942.5E-03          779.896E+03        781.701E+03  
              945.E-03           780.676E+03        782.479E+03  
              947.5E-03          781.456E+03        783.257E+03  
              950.E-03           782.234E+03        784.033E+03  
              952.5E-03          783.01E+03         784.808E+03  
              955.E-03           783.786E+03        785.583E+03  
              957.5E-03          784.561E+03        786.356E+03  
              960.E-03           785.334E+03        787.127E+03  
              962.5E-03          786.107E+03        787.898E+03  
              965.E-03           786.878E+03        788.667E+03  
              967.5E-03          787.648E+03        789.436E+03  
              970.E-03           788.417E+03        790.203E+03  
              972.5E-03          789.184E+03        790.969E+03  
              975.E-03           789.951E+03        791.734E+03  
              977.5E-03          790.717E+03        792.498E+03  
              980.E-03           791.481E+03        793.261E+03  
              982.5E-03          792.245E+03        794.023E+03  
              985.E-03           793.007E+03        794.784E+03  
              987.5E-03          793.768E+03        795.543E+03  
              990.E-03           794.528E+03        796.302E+03  
              992.5E-03          795.287E+03        797.059E+03  
              995.E-03           796.045E+03        797.815E+03  
              997.5E-03          796.802E+03        798.57E+03   
                1.               797.557E+03        799.325E+03  




