
                  X              SENER-out           SENER-in    

                0.                 0.                 0.         
                2.5E-03          262.43E+03         258.122E+03  
                5.E-03           278.854E+03        275.498E+03  
                7.5E-03          293.621E+03        290.902E+03  
               10.E-03           307.324E+03        305.083E+03  
               12.5E-03          320.172E+03        318.302E+03  
               15.E-03           332.303E+03        330.727E+03  
               17.5E-03          343.817E+03        342.478E+03  
               20.E-03           354.791E+03        353.648E+03  
               22.5E-03          365.287E+03        364.307E+03  
               25.E-03           375.358E+03        374.516E+03  
               27.5E-03          385.046E+03        384.321E+03  
               30.E-03           394.387E+03        393.763E+03  
               32.5E-03          403.413E+03        402.876E+03  
               35.E-03           412.15E+03         411.69E+03   
               37.5E-03          420.622E+03        420.229E+03  
               40.E-03           428.848E+03        428.516E+03  
               42.5E-03          436.847E+03        436.569E+03  
               45.E-03           444.635E+03        444.405E+03  
               47.5E-03          452.226E+03        452.039E+03  
               50.E-03           459.633E+03        459.486E+03  
               52.5E-03          466.867E+03        466.755E+03  
               55.E-03           473.938E+03        473.859E+03  
               57.5E-03          480.856E+03        480.807E+03  
               60.E-03           487.629E+03        487.608E+03  
               62.5E-03          494.265E+03        494.27E+03   
               65.E-03           472.986E+03        472.827E+03  
               67.5E-03          424.481E+03        425.639E+03  
               70.E-03           398.086E+03        398.665E+03  
               72.5E-03          385.319E+03        385.877E+03  
               75.E-03           379.749E+03        380.216E+03  
               77.5E-03          377.906E+03        378.339E+03  
               80.E-03           378.064E+03        378.476E+03  
               82.5E-03          379.318E+03        379.719E+03  
               85.E-03           381.179E+03        381.575E+03  
               87.5E-03          383.376E+03        383.77E+03   
               90.E-03           385.756E+03        386.151E+03  
               92.5E-03          388.231E+03        388.627E+03  
               95.E-03           390.75E+03         391.149E+03  
               97.5E-03          393.286E+03        393.687E+03  
              100.E-03           395.82E+03         396.225E+03  
              102.5E-03          398.345E+03        398.753E+03  
              105.E-03           400.853E+03        401.265E+03  
              107.5E-03          403.344E+03        403.759E+03  
              110.E-03           405.814E+03        406.233E+03  
              112.5E-03          408.264E+03        408.687E+03  
              115.E-03           446.569E+03        447.217E+03  
              117.5E-03          517.081E+03        517.991E+03  
              120.E-03           548.037E+03        549.299E+03  
              122.5E-03          562.438E+03        563.551E+03  
              125.E-03           570.799E+03        571.93E+03   
              127.5E-03          576.864E+03        577.992E+03  
              130.E-03           581.98E+03         583.1E+03    
              132.5E-03          586.674E+03        587.786E+03  
              135.E-03           591.162E+03        592.266E+03  
              137.5E-03          595.537E+03        596.633E+03  
              140.E-03           599.837E+03        600.926E+03  
              142.5E-03          604.079E+03        605.163E+03  
              145.E-03           608.273E+03        609.351E+03  
              147.5E-03          612.421E+03        613.495E+03  
              150.E-03           616.527E+03        617.596E+03  
              152.5E-03          620.592E+03        621.658E+03  
              155.E-03           624.617E+03        625.68E+03   
              157.5E-03          628.604E+03        629.665E+03  
              160.E-03           632.553E+03        633.612E+03  
              162.5E-03          636.466E+03        637.524E+03  
              165.E-03           640.343E+03        641.4E+03    
              167.5E-03          644.185E+03        645.242E+03  
              170.E-03           647.993E+03        649.05E+03   
              172.5E-03          651.767E+03        652.826E+03  
              175.E-03           655.51E+03         656.569E+03  
              177.5E-03          659.22E+03         660.281E+03  
              180.E-03           662.9E+03          663.962E+03  
              182.5E-03          666.549E+03        667.614E+03  
              185.E-03           670.168E+03        671.235E+03  
              187.5E-03          673.758E+03        674.829E+03  
              190.E-03           677.32E+03         678.394E+03  
              192.5E-03          680.855E+03        681.931E+03  
              195.E-03           684.361E+03        685.442E+03  
              197.5E-03          687.841E+03        688.926E+03  
              200.E-03           691.295E+03        692.384E+03  
              202.5E-03          694.724E+03        695.817E+03  
              205.E-03           698.127E+03        699.225E+03  
              207.5E-03          701.505E+03        702.608E+03  
              210.E-03           704.859E+03        705.968E+03  
              212.5E-03          708.19E+03         709.304E+03  
              215.E-03           711.497E+03        712.616E+03  
              217.5E-03          714.781E+03        715.907E+03  
              220.E-03           718.042E+03        719.174E+03  
              222.5E-03          721.282E+03        722.421E+03  
              225.E-03           724.5E+03          725.645E+03  
              227.5E-03          727.697E+03        728.849E+03  
              230.E-03           730.872E+03        732.031E+03  
              232.5E-03          734.028E+03        735.194E+03  
              235.E-03           737.163E+03        738.336E+03  
              237.5E-03          740.278E+03        741.459E+03  
              240.E-03           743.373E+03        744.562E+03  
              242.5E-03          746.45E+03         747.647E+03  
              245.E-03           749.507E+03        750.712E+03  
              247.5E-03          752.546E+03        753.759E+03  
              250.E-03           755.566E+03        756.789E+03  
              252.5E-03          758.569E+03        759.8E+03    
              255.E-03           761.553E+03        762.793E+03  
              257.5E-03          764.521E+03        765.77E+03   
              260.E-03           767.471E+03        768.729E+03  
              262.5E-03          770.404E+03        771.672E+03  
              265.E-03           773.32E+03         774.598E+03  
              267.5E-03          776.22E+03         777.508E+03  
              270.E-03           779.104E+03        780.402E+03  
              272.5E-03          781.972E+03        783.28E+03   
              275.E-03           784.824E+03        786.142E+03  
              277.5E-03          787.661E+03        788.99E+03   
              280.E-03           790.482E+03        791.822E+03  
              282.5E-03          793.289E+03        794.639E+03  
              285.E-03           796.08E+03         797.442E+03  
              287.5E-03          798.857E+03        800.23E+03   
              290.E-03           801.619E+03        803.004E+03  
              292.5E-03          804.368E+03        805.764E+03  
              295.E-03           807.102E+03        808.51E+03   
              297.5E-03          809.822E+03        811.242E+03  
              300.E-03           812.529E+03        813.961E+03  
              302.5E-03          815.222E+03        816.666E+03  
              305.E-03           817.901E+03        819.358E+03  
              307.5E-03          820.568E+03        822.038E+03  
              310.E-03           823.222E+03        824.704E+03  
              312.5E-03          825.863E+03        827.358E+03  
              315.E-03           828.491E+03        830.E+03     
              317.5E-03          831.106E+03        832.629E+03  
              320.E-03           833.71E+03         835.246E+03  
              322.5E-03          836.301E+03        837.851E+03  
              325.E-03           838.88E+03         840.444E+03  
              327.5E-03          841.447E+03        843.025E+03  
              330.E-03           844.003E+03        845.595E+03  
              332.5E-03          846.547E+03        848.154E+03  
              335.E-03           849.079E+03        850.701E+03  
              337.5E-03          851.6E+03          853.237E+03  
              340.E-03           854.11E+03         855.762E+03  
              342.5E-03          856.609E+03        858.276E+03  
              345.E-03           859.096E+03        860.779E+03  
              347.5E-03          861.573E+03        863.272E+03  
              350.E-03           864.04E+03         865.754E+03  
              352.5E-03          866.496E+03        868.226E+03  
              355.E-03           868.941E+03        870.688E+03  
              357.5E-03          871.376E+03        873.139E+03  
              360.E-03           873.8E+03          875.581E+03  
              362.5E-03          876.215E+03        878.012E+03  
              365.E-03           878.62E+03         880.434E+03  
              367.5E-03          881.014E+03        882.846E+03  
              370.E-03           883.399E+03        885.249E+03  
              372.5E-03          885.774E+03        887.642E+03  
              375.E-03           888.14E+03         890.025E+03  
              377.5E-03          890.496E+03        892.4E+03    
              380.E-03           892.843E+03        894.765E+03  
              382.5E-03          895.18E+03         897.121E+03  
              385.E-03           897.508E+03        899.468E+03  
              387.5E-03          899.828E+03        901.807E+03  
              390.E-03           902.138E+03        904.136E+03  
              392.5E-03          904.439E+03        906.457E+03  
              395.E-03           906.731E+03        908.769E+03  
              397.5E-03          909.015E+03        911.073E+03  
              400.E-03           911.29E+03         913.368E+03  
              402.5E-03          913.556E+03        915.655E+03  
              405.E-03           915.814E+03        917.933E+03  
              407.5E-03          918.063E+03        920.204E+03  
              410.E-03           920.305E+03        922.466E+03  
              412.5E-03          922.538E+03        924.721E+03  
              415.E-03           924.762E+03        926.967E+03  
              417.5E-03          926.979E+03        929.206E+03  
              420.E-03           929.188E+03        931.437E+03  
              422.5E-03          931.388E+03        933.66E+03   
              425.E-03           933.581E+03        935.876E+03  
              427.5E-03          935.766E+03        938.084E+03  
              430.E-03           937.943E+03        940.284E+03  
              432.5E-03          940.113E+03        942.478E+03  
              435.E-03           942.275E+03        944.663E+03  
              437.5E-03          944.43E+03         946.842E+03  
              440.E-03           946.577E+03        949.014E+03  
              442.5E-03          948.717E+03        951.178E+03  
              445.E-03           950.849E+03        953.335E+03  
              447.5E-03          952.974E+03        955.485E+03  
              450.E-03           955.092E+03        957.629E+03  
              452.5E-03          957.203E+03        959.766E+03  
              455.E-03           959.307E+03        961.895E+03  
              457.5E-03          961.403E+03        964.018E+03  
              460.E-03           963.493E+03        966.135E+03  
              462.5E-03          965.576E+03        968.245E+03  
              465.E-03           967.652E+03        970.348E+03  
              467.5E-03          969.722E+03        972.445E+03  
              470.E-03           971.784E+03        974.535E+03  
              472.5E-03          973.84E+03         976.619E+03  
              475.E-03           975.89E+03         978.697E+03  
              477.5E-03          977.932E+03        980.768E+03  
              480.E-03           979.969E+03        982.834E+03  
              482.5E-03          981.998E+03        984.893E+03  
              485.E-03           984.022E+03        986.946E+03  
              487.5E-03          986.039E+03        988.993E+03  
              490.E-03           988.05E+03         991.034E+03  
              492.5E-03          990.055E+03        993.069E+03  
              495.E-03           992.053E+03        995.099E+03  
              497.5E-03          994.045E+03        997.122E+03  
              500.E-03           996.031E+03        999.14E+03   
              502.5E-03          998.011E+03          1.00115E+06
              505.E-03           999.986E+03          1.00316E+06
              507.5E-03            1.00195E+06        1.00516E+06
              510.E-03             1.00392E+06        1.00715E+06
              512.5E-03            1.00587E+06        1.00914E+06
              515.E-03             1.00782E+06        1.01113E+06
              517.5E-03            1.00977E+06        1.01311E+06
              520.E-03             1.01171E+06        1.01508E+06
              522.5E-03            1.01364E+06        1.01705E+06
              525.E-03             1.01557E+06        1.01901E+06
              527.5E-03            1.01749E+06        1.02097E+06
              530.E-03             1.01941E+06        1.02292E+06
              532.5E-03            1.02132E+06        1.02487E+06
              535.E-03             1.02322E+06        1.02681E+06
              537.5E-03            1.02512E+06        1.02875E+06
              540.E-03             1.02702E+06        1.03068E+06
              542.5E-03            1.02891E+06        1.03261E+06
              545.E-03             1.03079E+06        1.03453E+06
              547.5E-03            1.03267E+06        1.03644E+06
              550.E-03             1.03454E+06        1.03836E+06
              552.5E-03            1.03641E+06        1.04026E+06
              555.E-03             1.03827E+06        1.04217E+06
              557.5E-03            1.04013E+06        1.04406E+06
              560.E-03             1.04199E+06        1.04596E+06
              562.5E-03            1.04383E+06        1.04785E+06
              565.E-03             1.04568E+06        1.04973E+06
              567.5E-03            1.04751E+06        1.05161E+06
              570.E-03             1.04935E+06        1.05348E+06
              572.5E-03            1.05117E+06        1.05535E+06
              575.E-03             1.053E+06          1.05722E+06
              577.5E-03            1.05482E+06        1.05908E+06
              580.E-03             1.05663E+06        1.06094E+06
              582.5E-03            1.05844E+06        1.06279E+06
              585.E-03             1.06024E+06        1.06464E+06
              587.5E-03            1.06204E+06        1.06648E+06
              590.E-03             1.06383E+06        1.06832E+06
              592.5E-03            1.06562E+06        1.07015E+06
              595.E-03             1.06741E+06        1.07199E+06
              597.5E-03            1.06919E+06        1.07381E+06
              600.E-03             1.07097E+06        1.07563E+06
              602.5E-03            1.07274E+06        1.07745E+06
              605.E-03             1.0745E+06         1.07927E+06
              607.5E-03            1.07627E+06        1.08108E+06
              610.E-03             1.07802E+06        1.08288E+06
              612.5E-03            1.07978E+06        1.08468E+06
              615.E-03             1.08153E+06        1.08648E+06
              617.5E-03            1.08327E+06        1.08828E+06
              620.E-03             1.08501E+06        1.09007E+06
              622.5E-03            1.08675E+06        1.09185E+06
              625.E-03             1.08848E+06        1.09363E+06
              627.5E-03            1.09021E+06        1.09541E+06
              630.E-03             1.09193E+06        1.09719E+06
              632.5E-03            1.09365E+06        1.09896E+06
              635.E-03             1.09536E+06        1.10072E+06
              637.5E-03            1.09708E+06        1.10249E+06
              640.E-03             1.09878E+06        1.10425E+06
              642.5E-03            1.10048E+06        1.106E+06  
              645.E-03             1.10218E+06        1.10775E+06
              647.5E-03            1.10388E+06        1.1095E+06 
              650.E-03             1.10557E+06        1.11125E+06
              652.5E-03            1.10726E+06        1.11299E+06
              655.E-03             1.10894E+06        1.11472E+06
              657.5E-03            1.11062E+06        1.11646E+06
              660.E-03             1.11229E+06        1.11819E+06
              662.5E-03            1.11396E+06        1.11991E+06
              665.E-03             1.11563E+06        1.12164E+06
              667.5E-03            1.11729E+06        1.12335E+06
              670.E-03             1.11895E+06        1.12507E+06
              672.5E-03            1.12061E+06        1.12678E+06
              675.E-03             1.12226E+06        1.12849E+06
              677.5E-03            1.12391E+06        1.1302E+06 
              680.E-03             1.12556E+06        1.1319E+06 
              682.5E-03            1.1272E+06         1.13359E+06
              685.E-03             1.12884E+06        1.13529E+06
              687.5E-03            1.13047E+06        1.13698E+06
              690.E-03             1.1321E+06         1.13867E+06
              692.5E-03            1.13373E+06        1.14035E+06
              695.E-03             1.13535E+06        1.14203E+06
              697.5E-03            1.13697E+06        1.14371E+06
              700.E-03             1.13859E+06        1.14538E+06
              702.5E-03            1.1402E+06         1.14705E+06
              705.E-03             1.14181E+06        1.14872E+06
              707.5E-03            1.14342E+06        1.15038E+06
              710.E-03             1.14502E+06        1.15204E+06
              712.5E-03            1.14662E+06        1.1537E+06 
              715.E-03             1.14822E+06        1.15535E+06
              717.5E-03            1.14982E+06        1.157E+06  
              720.E-03             1.15141E+06        1.15864E+06
              722.5E-03            1.15299E+06        1.16028E+06
              725.E-03             1.15458E+06        1.16192E+06
              727.5E-03            1.15616E+06        1.16356E+06
              730.E-03             1.15774E+06        1.16519E+06
              732.5E-03            1.15932E+06        1.16681E+06
              735.E-03             1.16089E+06        1.16844E+06
              737.5E-03            1.16246E+06        1.17006E+06
              740.E-03             1.16403E+06        1.17167E+06
              742.5E-03            1.16559E+06        1.17328E+06
              745.E-03             1.16716E+06        1.17489E+06
              747.5E-03            1.16872E+06        1.1765E+06 
              750.E-03             1.17027E+06        1.1781E+06 
              752.5E-03            1.17183E+06        1.17969E+06
              755.E-03             1.17338E+06        1.18128E+06
              757.5E-03            1.17493E+06        1.18287E+06
              760.E-03             1.17648E+06        1.18446E+06
              762.5E-03            1.17802E+06        1.18603E+06
              765.E-03             1.17957E+06        1.18761E+06
              767.5E-03            1.18111E+06        1.18918E+06
              770.E-03             1.18265E+06        1.19075E+06
              772.5E-03            1.18419E+06        1.19231E+06
              775.E-03             1.18573E+06        1.19387E+06
              777.5E-03            1.18726E+06        1.19542E+06
              780.E-03             1.18879E+06        1.19697E+06
              782.5E-03            1.19033E+06        1.19851E+06
              785.E-03             1.19186E+06        1.20005E+06
              787.5E-03            1.19339E+06        1.20159E+06
              790.E-03             1.19492E+06        1.20312E+06
              792.5E-03            1.19645E+06        1.20465E+06
              795.E-03             1.19798E+06        1.20618E+06
              797.5E-03            1.19951E+06        1.2077E+06 
              800.E-03             1.20104E+06        1.20922E+06
              802.5E-03            1.20258E+06        1.21074E+06
              805.E-03             1.20411E+06        1.21226E+06
              807.5E-03            1.20564E+06        1.21379E+06
              810.E-03             1.20718E+06        1.21532E+06
              812.5E-03            1.20872E+06        1.21685E+06
              815.E-03             1.21027E+06        1.2184E+06 
              817.5E-03            1.21182E+06        1.21997E+06
              820.E-03             1.21338E+06        1.22157E+06
              822.5E-03            1.21494E+06        1.2232E+06 
              825.E-03             1.21651E+06        1.22487E+06
              827.5E-03            1.21809E+06        1.22662E+06
              830.E-03             1.21968E+06        1.22845E+06
              832.5E-03            1.22129E+06        1.2304E+06 
              835.E-03             1.22292E+06        1.23251E+06
              837.5E-03            1.22456E+06        1.23484E+06
              840.E-03             1.22623E+06        1.23745E+06
              842.5E-03            1.22792E+06        1.24043E+06
              845.E-03             1.22964E+06        1.24389E+06
              847.5E-03            1.23139E+06        1.24797E+06
              850.E-03             1.23316E+06        1.2528E+06 
              852.5E-03            1.23495E+06        1.25885E+06
              855.E-03             1.23676E+06        1.26565E+06
              857.5E-03            1.23857E+06        1.27358E+06
              860.E-03             1.24036E+06        1.28271E+06
              862.5E-03            1.24211E+06        1.29306E+06
              865.E-03             1.2438E+06         1.30463E+06
              867.5E-03            1.2454E+06         1.31739E+06
              870.E-03             1.24689E+06        1.33127E+06
              872.5E-03            1.24823E+06        1.34617E+06
              875.E-03             1.2494E+06         1.36199E+06
              877.5E-03            1.25037E+06        1.37862E+06
              880.E-03             1.25112E+06        1.39592E+06
              882.5E-03            1.25162E+06        1.41379E+06
              885.E-03             1.25186E+06        1.43211E+06
              887.5E-03            1.25181E+06        1.45079E+06
              890.E-03             1.25145E+06        1.46977E+06
              892.5E-03            1.25078E+06        1.48896E+06
              895.E-03             1.24978E+06        1.50831E+06
              897.5E-03            1.24844E+06        1.52772E+06
              900.E-03             1.24676E+06        1.54707E+06
              902.5E-03            1.24473E+06        1.56621E+06
              905.E-03             1.24234E+06        1.58491E+06
              907.5E-03            1.2396E+06         1.60287E+06
              910.E-03             1.23651E+06        1.61969E+06
              912.5E-03            1.23308E+06        1.63491E+06
              915.E-03             1.22935E+06        1.64815E+06
              917.5E-03            1.22536E+06        1.65923E+06
              920.E-03             1.22118E+06        1.66825E+06
              922.5E-03            1.21686E+06        1.67559E+06
              925.E-03             1.21246E+06        1.68173E+06
              927.5E-03            1.20803E+06        1.68713E+06
              930.E-03             1.20359E+06        1.69215E+06
              932.5E-03            1.19919E+06        1.69702E+06
              935.E-03             1.19483E+06        1.70191E+06
              937.5E-03            1.19053E+06        1.70689E+06
              940.E-03             1.18631E+06        1.71203E+06
              942.5E-03            1.18216E+06        1.71733E+06
              945.E-03             1.1781E+06         1.72281E+06
              947.5E-03            1.17413E+06        1.72847E+06
              950.E-03             1.17026E+06        1.73431E+06
              952.5E-03            1.16648E+06        1.7403E+06 
              955.E-03             1.16262E+06        1.74648E+06
              957.5E-03            1.15903E+06        1.75278E+06
              960.E-03             1.15555E+06        1.75922E+06
              962.5E-03            1.15216E+06        1.76579E+06
              965.E-03             1.14886E+06        1.77247E+06
              967.5E-03            1.14566E+06        1.77926E+06
              970.E-03             1.14255E+06        1.78614E+06
              972.5E-03            1.13953E+06        1.79312E+06
              975.E-03             1.13659E+06        1.80019E+06
              977.5E-03            1.13374E+06        1.80733E+06
              980.E-03             1.13098E+06        1.81455E+06
              982.5E-03            1.12829E+06        1.82184E+06
              985.E-03             1.12568E+06        1.82919E+06
              987.5E-03            1.12315E+06        1.8366E+06 
              990.E-03             1.1207E+06         1.84406E+06
              992.5E-03            1.11831E+06        1.85158E+06
              995.E-03             1.116E+06          1.85915E+06
              997.5E-03            1.11375E+06        1.86676E+06
                1.                 1.11156E+06        1.87442E+06




