
                  X                 Dinn               Dout      

                0.                 0.                 0.         
                2.5E-03            1.27188E-03        1.04881E-03
                5.E-03             4.47971E-03        4.14027E-03
                7.5E-03            7.72445E-03        7.29953E-03
               10.E-03            10.9684E-03        10.4746E-03 
               12.5E-03           14.2086E-03        13.6582E-03 
               15.E-03            17.4451E-03        16.8478E-03 
               17.5E-03           20.6787E-03        20.0417E-03 
               20.E-03            23.9102E-03        23.2393E-03 
               22.5E-03           27.14E-03          26.4399E-03 
               25.E-03            30.3686E-03        29.6431E-03 
               27.5E-03           33.5963E-03        32.8485E-03 
               30.E-03            36.8234E-03        36.0559E-03 
               32.5E-03           40.0502E-03        39.265E-03  
               35.E-03            43.2766E-03        42.4757E-03 
               37.5E-03           46.5029E-03        45.6878E-03 
               40.E-03            49.7292E-03        48.9012E-03 
               42.5E-03           52.9555E-03        52.1157E-03 
               45.E-03            56.1818E-03        55.3313E-03 
               47.5E-03           59.4082E-03        58.5478E-03 
               50.E-03            62.6348E-03        61.7652E-03 
               52.5E-03           65.8615E-03        64.9835E-03 
               55.E-03            69.0885E-03        68.2025E-03 
               57.5E-03           71.9471E-03        71.0744E-03 
               60.E-03            74.3704E-03        73.5473E-03 
               62.5E-03           76.7385E-03        75.8507E-03 
               65.E-03            79.1117E-03        78.1055E-03 
               67.5E-03           81.4858E-03        80.3472E-03 
               70.E-03            83.8605E-03        82.7212E-03 
               72.5E-03           86.2355E-03        85.0956E-03 
               75.E-03            88.6109E-03        87.4703E-03 
               77.5E-03           90.9867E-03        89.8454E-03 
               80.E-03            93.3628E-03        92.2209E-03 
               82.5E-03           95.7393E-03        94.5967E-03 
               85.E-03            98.116E-03         96.9727E-03 
               87.5E-03          100.493E-03         99.3491E-03 
               90.E-03           102.87E-03         101.726E-03  
               92.5E-03          105.248E-03        104.103E-03  
               95.E-03           107.626E-03        106.48E-03   
               97.5E-03          110.004E-03        108.857E-03  
              100.E-03           112.382E-03        111.235E-03  
              102.5E-03          114.761E-03        113.612E-03  
              105.E-03           117.14E-03         115.99E-03   
              107.5E-03          119.519E-03        118.369E-03  
              110.E-03           121.898E-03        120.747E-03  
              112.5E-03          124.278E-03        123.126E-03  
              115.E-03           126.657E-03        125.504E-03  
              117.5E-03          129.037E-03        127.883E-03  
              120.E-03           131.417E-03        130.262E-03  
              122.5E-03          133.797E-03        132.641E-03  
              125.E-03           136.178E-03        135.021E-03  
              127.5E-03          138.558E-03        137.4E-03    
              130.E-03           140.939E-03        139.78E-03   
              132.5E-03          143.32E-03         142.16E-03   
              135.E-03           145.701E-03        144.539E-03  
              137.5E-03          148.082E-03        146.919E-03  
              140.E-03           150.464E-03        149.3E-03    
              142.5E-03          152.845E-03        151.68E-03   
              145.E-03           155.227E-03        154.06E-03   
              147.5E-03          157.609E-03        156.441E-03  
              150.E-03           159.991E-03        158.821E-03  
              152.5E-03          162.373E-03        161.202E-03  
              155.E-03           164.755E-03        163.582E-03  
              157.5E-03          167.137E-03        165.963E-03  
              160.E-03           169.52E-03         168.344E-03  
              162.5E-03          171.902E-03        170.725E-03  
              165.E-03           174.285E-03        173.106E-03  
              167.5E-03          176.331E-03        175.168E-03  
              170.E-03           178.099E-03        176.923E-03  
              172.5E-03          179.72E-03         178.522E-03  
              175.E-03           181.093E-03        179.86E-03   
              177.5E-03          182.653E-03        181.357E-03  
              180.E-03           184.352E-03        182.968E-03  
              182.5E-03          186.13E-03         184.649E-03  
              185.E-03           187.948E-03        186.373E-03  
              187.5E-03          189.785E-03        188.126E-03  
              190.E-03           191.629E-03        189.898E-03  
              192.5E-03          193.474E-03        191.681E-03  
              195.E-03           195.319E-03        193.473E-03  
              197.5E-03          197.161E-03        195.27E-03   
              200.E-03           199.001E-03        197.071E-03  
              202.5E-03          200.838E-03        198.874E-03  
              205.E-03           202.673E-03        200.679E-03  
              207.5E-03          204.507E-03        202.485E-03  
              210.E-03           206.338E-03        204.292E-03  
              212.5E-03          208.168E-03        206.1E-03    
              215.E-03           209.996E-03        207.908E-03  
              217.5E-03          211.823E-03        209.717E-03  
              220.E-03           213.649E-03        211.526E-03  
              222.5E-03          215.475E-03        213.336E-03  
              225.E-03           217.299E-03        215.145E-03  
              227.5E-03          219.123E-03        216.955E-03  
              230.E-03           220.946E-03        218.765E-03  
              232.5E-03          222.769E-03        220.576E-03  
              235.E-03           224.591E-03        222.386E-03  
              237.5E-03          226.413E-03        224.196E-03  
              240.E-03           228.235E-03        226.007E-03  
              242.5E-03          230.056E-03        227.818E-03  
              245.E-03           231.877E-03        229.628E-03  
              247.5E-03          233.698E-03        231.439E-03  
              250.E-03           235.518E-03        233.25E-03   
              252.5E-03          237.339E-03        235.061E-03  
              255.E-03           239.159E-03        236.872E-03  
              257.5E-03          240.979E-03        238.683E-03  
              260.E-03           242.799E-03        240.494E-03  
              262.5E-03          244.619E-03        242.305E-03  
              265.E-03           246.438E-03        244.116E-03  
              267.5E-03          248.258E-03        245.928E-03  
              270.E-03           250.077E-03        247.739E-03  
              272.5E-03          251.896E-03        249.55E-03   
              275.E-03           253.716E-03        251.362E-03  
              277.5E-03          255.535E-03        253.173E-03  
              280.E-03           257.448E-03        255.069E-03  
              282.5E-03          259.448E-03        257.044E-03  
              285.E-03           261.495E-03        259.061E-03  
              287.5E-03          263.564E-03        261.1E-03    
              290.E-03           265.643E-03        263.152E-03  
              292.5E-03          267.728E-03        265.21E-03   
              295.E-03           269.814E-03        267.273E-03  
              297.5E-03          271.901E-03        269.339E-03  
              300.E-03           273.987E-03        271.407E-03  
              302.5E-03          276.074E-03        273.476E-03  
              305.E-03           278.159E-03        275.546E-03  
              307.5E-03          280.244E-03        277.616E-03  
              310.E-03           282.329E-03        279.687E-03  
              312.5E-03          284.413E-03        281.758E-03  
              315.E-03           286.496E-03        283.829E-03  
              317.5E-03          288.58E-03         285.901E-03  
              320.E-03           290.662E-03        287.973E-03  
              322.5E-03          292.745E-03        290.045E-03  
              325.E-03           294.827E-03        292.117E-03  
              327.5E-03          296.909E-03        294.189E-03  
              330.E-03           298.99E-03         296.261E-03  
              332.5E-03          301.072E-03        298.334E-03  
              335.E-03           303.153E-03        300.406E-03  
              337.5E-03          305.234E-03        302.479E-03  
              340.E-03           307.315E-03        304.551E-03  
              342.5E-03          309.396E-03        306.624E-03  
              345.E-03           311.476E-03        308.696E-03  
              347.5E-03          313.557E-03        310.769E-03  
              350.E-03           315.637E-03        312.842E-03  
              352.5E-03          317.717E-03        314.915E-03  
              355.E-03           319.798E-03        316.987E-03  
              357.5E-03          321.878E-03        319.06E-03   
              360.E-03           323.958E-03        321.133E-03  
              362.5E-03          326.038E-03        323.206E-03  
              365.E-03           328.118E-03        325.279E-03  
              367.5E-03          330.198E-03        327.352E-03  
              370.E-03           332.277E-03        329.425E-03  
              372.5E-03          334.357E-03        331.498E-03  
              375.E-03           336.437E-03        333.571E-03  
              377.5E-03          338.516E-03        335.644E-03  
              380.E-03           340.596E-03        337.718E-03  
              382.5E-03          342.675E-03        339.791E-03  
              385.E-03           344.755E-03        341.864E-03  
              387.5E-03          346.834E-03        343.937E-03  
              390.E-03           348.913E-03        346.011E-03  
              392.5E-03          350.993E-03        348.084E-03  
              395.E-03           353.072E-03        350.157E-03  
              397.5E-03          355.151E-03        352.23E-03   
              400.E-03           357.23E-03         354.304E-03  
              402.5E-03          359.309E-03        356.377E-03  
              405.E-03           361.388E-03        358.451E-03  
              407.5E-03          363.467E-03        360.524E-03  
              410.E-03           365.546E-03        362.598E-03  
              412.5E-03          367.625E-03        364.671E-03  
              415.E-03           369.704E-03        366.745E-03  
              417.5E-03          371.783E-03        368.818E-03  
              420.E-03           373.862E-03        370.892E-03  
              422.5E-03          375.941E-03        372.965E-03  
              425.E-03           378.019E-03        375.039E-03  
              427.5E-03          380.098E-03        377.113E-03  
              430.E-03           382.177E-03        379.186E-03  
              432.5E-03          384.256E-03        381.26E-03   
              435.E-03           386.334E-03        383.333E-03  
              437.5E-03          388.413E-03        385.407E-03  
              440.E-03           390.492E-03        387.481E-03  
              442.5E-03          392.57E-03         389.555E-03  
              445.E-03           394.357E-03        391.341E-03  
              447.5E-03          396.046E-03        393.034E-03  
              450.E-03           399.152E-03        396.143E-03  
              452.5E-03          402.55E-03         399.546E-03  
              455.E-03           405.901E-03        402.906E-03  
              457.5E-03          409.188E-03        406.202E-03  
              460.E-03           412.438E-03        409.462E-03  
              462.5E-03          415.67E-03         412.704E-03  
              465.E-03           418.893E-03        415.937E-03  
              467.5E-03          422.112E-03        419.167E-03  
              470.E-03           425.329E-03        422.394E-03  
              472.5E-03          428.546E-03        425.621E-03  
              475.E-03           431.763E-03        428.848E-03  
              477.5E-03          434.98E-03         432.074E-03  
              480.E-03           438.196E-03        435.301E-03  
              482.5E-03          441.413E-03        438.527E-03  
              485.E-03           444.63E-03         441.754E-03  
              487.5E-03          447.847E-03        444.98E-03   
              490.E-03           451.065E-03        448.206E-03  
              492.5E-03          454.282E-03        451.433E-03  
              495.E-03           457.5E-03          454.659E-03  
              497.5E-03          460.718E-03        457.886E-03  
              500.E-03           463.936E-03        461.112E-03  
              502.5E-03          467.154E-03        464.339E-03  
              505.E-03           470.372E-03        467.565E-03  
              507.5E-03          473.59E-03         470.792E-03  
              510.E-03           476.809E-03        474.018E-03  
              512.5E-03          480.027E-03        477.245E-03  
              515.E-03           483.246E-03        480.471E-03  
              517.5E-03          486.465E-03        483.698E-03  
              520.E-03           489.684E-03        486.924E-03  
              522.5E-03          492.903E-03        490.151E-03  
              525.E-03           496.122E-03        493.377E-03  
              527.5E-03          499.341E-03        496.604E-03  
              530.E-03           502.561E-03        499.831E-03  
              532.5E-03          505.78E-03         503.057E-03  
              535.E-03           509.E-03           506.284E-03  
              537.5E-03          512.22E-03         509.51E-03   
              540.E-03           515.44E-03         512.737E-03  
              542.5E-03          518.66E-03         515.964E-03  
              545.E-03           521.88E-03         519.19E-03   
              547.5E-03          525.101E-03        522.417E-03  
              550.E-03           528.321E-03        525.644E-03  
              552.5E-03          531.541E-03        528.87E-03   
              555.E-03           534.762E-03        532.097E-03  
              557.5E-03          537.321E-03        534.655E-03  
              560.E-03           539.537E-03        536.868E-03  
              562.5E-03          541.471E-03        538.799E-03  
              565.E-03           543.193E-03        540.519E-03  
              567.5E-03          544.787E-03        542.112E-03  
              570.E-03           546.308E-03        543.631E-03  
              572.5E-03          547.787E-03        545.108E-03  
              575.E-03           549.242E-03        546.562E-03  
              577.5E-03          550.684E-03        548.003E-03  
              580.E-03           552.119E-03        549.436E-03  
              582.5E-03          553.55E-03         550.866E-03  
              585.E-03           554.978E-03        552.293E-03  
              587.5E-03          556.405E-03        553.718E-03  
              590.E-03           557.831E-03        555.143E-03  
              592.5E-03          559.257E-03        556.568E-03  
              595.E-03           560.683E-03        557.992E-03  
              597.5E-03          562.109E-03        559.417E-03  
              600.E-03           563.534E-03        560.841E-03  
              602.5E-03          564.96E-03         562.265E-03  
              605.E-03           566.385E-03        563.689E-03  
              607.5E-03          567.811E-03        565.113E-03  
              610.E-03           569.236E-03        566.537E-03  
              612.5E-03          570.662E-03        567.961E-03  
              615.E-03           572.087E-03        569.385E-03  
              617.5E-03          573.513E-03        570.81E-03   
              620.E-03           574.938E-03        572.234E-03  
              622.5E-03          576.363E-03        573.658E-03  
              625.E-03           577.789E-03        575.082E-03  
              627.5E-03          579.214E-03        576.506E-03  
              630.E-03           580.64E-03         577.931E-03  
              632.5E-03          582.065E-03        579.355E-03  
              635.E-03           583.491E-03        580.779E-03  
              637.5E-03          584.916E-03        582.203E-03  
              640.E-03           586.342E-03        583.627E-03  
              642.5E-03          587.767E-03        585.052E-03  
              645.E-03           589.193E-03        586.476E-03  
              647.5E-03          590.618E-03        587.9E-03    
              650.E-03           592.044E-03        589.324E-03  
              652.5E-03          593.469E-03        590.748E-03  
              655.E-03           594.894E-03        592.173E-03  
              657.5E-03          596.32E-03         593.597E-03  
              660.E-03           597.745E-03        595.021E-03  
              662.5E-03          599.171E-03        596.445E-03  
              665.E-03           600.596E-03        597.87E-03   
              667.5E-03          602.022E-03        599.294E-03  
              670.E-03           603.447E-03        600.718E-03  
              672.5E-03          604.873E-03        602.143E-03  
              675.E-03           606.298E-03        603.567E-03  
              677.5E-03          607.724E-03        604.991E-03  
              680.E-03           609.149E-03        606.415E-03  
              682.5E-03          610.575E-03        607.84E-03   
              685.E-03           612.E-03           609.264E-03  
              687.5E-03          613.425E-03        610.688E-03  
              690.E-03           614.851E-03        612.113E-03  
              692.5E-03          616.276E-03        613.537E-03  
              695.E-03           617.702E-03        614.961E-03  
              697.5E-03          619.127E-03        616.386E-03  
              700.E-03           620.553E-03        617.81E-03   
              702.5E-03          621.978E-03        619.234E-03  
              705.E-03           623.404E-03        620.659E-03  
              707.5E-03          624.829E-03        622.083E-03  
              710.E-03           626.255E-03        623.507E-03  
              712.5E-03          627.68E-03         624.932E-03  
              715.E-03           629.106E-03        626.356E-03  
              717.5E-03          630.531E-03        627.781E-03  
              720.E-03           631.956E-03        629.205E-03  
              722.5E-03          633.382E-03        630.629E-03  
              725.E-03           634.807E-03        632.054E-03  
              727.5E-03          636.233E-03        633.478E-03  
              730.E-03           637.658E-03        634.903E-03  
              732.5E-03          639.084E-03        636.327E-03  
              735.E-03           640.509E-03        637.751E-03  
              737.5E-03          641.935E-03        639.176E-03  
              740.E-03           643.36E-03         640.6E-03    
              742.5E-03          644.785E-03        642.025E-03  
              745.E-03           646.211E-03        643.449E-03  
              747.5E-03          647.636E-03        644.873E-03  
              750.E-03           649.062E-03        646.298E-03  
              752.5E-03          650.487E-03        647.722E-03  
              755.E-03           651.913E-03        649.147E-03  
              757.5E-03          653.338E-03        650.571E-03  
              760.E-03           654.763E-03        651.996E-03  
              762.5E-03          656.189E-03        653.42E-03   
              765.E-03           657.614E-03        654.845E-03  
              767.5E-03          659.04E-03         656.269E-03  
              770.E-03           660.465E-03        657.694E-03  
              772.5E-03          661.891E-03        659.118E-03  
              775.E-03           663.316E-03        660.543E-03  
              777.5E-03          664.741E-03        661.967E-03  
              780.E-03           666.167E-03        663.392E-03  
              782.5E-03          667.592E-03        664.816E-03  
              785.E-03           669.018E-03        666.241E-03  
              787.5E-03          670.443E-03        667.665E-03  
              790.E-03           671.869E-03        669.09E-03   
              792.5E-03          673.294E-03        670.514E-03  
              795.E-03           674.719E-03        671.939E-03  
              797.5E-03          676.145E-03        673.363E-03  
              800.E-03           677.57E-03         674.788E-03  
              802.5E-03          678.996E-03        676.212E-03  
              805.E-03           680.421E-03        677.637E-03  
              807.5E-03          681.846E-03        679.061E-03  
              810.E-03           683.272E-03        680.486E-03  
              812.5E-03          684.697E-03        681.91E-03   
              815.E-03           686.123E-03        683.335E-03  
              817.5E-03          687.548E-03        684.76E-03   
              820.E-03           688.974E-03        686.184E-03  
              822.5E-03          690.399E-03        687.609E-03  
              825.E-03           691.824E-03        689.033E-03  
              827.5E-03          693.25E-03         690.458E-03  
              830.E-03           694.675E-03        691.882E-03  
              832.5E-03          696.101E-03        693.307E-03  
              835.E-03           697.526E-03        694.732E-03  
              837.5E-03          698.951E-03        696.156E-03  
              840.E-03           700.377E-03        697.581E-03  
              842.5E-03          701.802E-03        699.005E-03  
              845.E-03           703.228E-03        700.43E-03   
              847.5E-03          704.653E-03        701.855E-03  
              850.E-03           706.078E-03        703.279E-03  
              852.5E-03          707.504E-03        704.704E-03  
              855.E-03           708.929E-03        706.128E-03  
              857.5E-03          710.355E-03        707.553E-03  
              860.E-03           711.78E-03         708.978E-03  
              862.5E-03          713.205E-03        710.402E-03  
              865.E-03           714.631E-03        711.827E-03  
              867.5E-03          716.056E-03        713.251E-03  
              870.E-03           717.482E-03        714.676E-03  
              872.5E-03          718.907E-03        716.101E-03  
              875.E-03           720.332E-03        717.525E-03  
              877.5E-03          721.758E-03        718.95E-03   
              880.E-03           723.183E-03        720.375E-03  
              882.5E-03          724.608E-03        721.799E-03  
              885.E-03           726.034E-03        723.224E-03  
              887.5E-03          727.459E-03        724.649E-03  
              890.E-03           728.885E-03        726.073E-03  
              892.5E-03          730.31E-03         727.498E-03  
              895.E-03           731.735E-03        728.923E-03  
              897.5E-03          733.161E-03        730.347E-03  
              900.E-03           734.586E-03        731.772E-03  
              902.5E-03          736.011E-03        733.197E-03  
              905.E-03           737.437E-03        734.621E-03  
              907.5E-03          738.862E-03        736.046E-03  
              910.E-03           740.288E-03        737.471E-03  
              912.5E-03          741.713E-03        738.896E-03  
              915.E-03           743.138E-03        740.32E-03   
              917.5E-03          744.564E-03        741.745E-03  
              920.E-03           745.989E-03        743.17E-03   
              922.5E-03          747.414E-03        744.594E-03  
              925.E-03           748.84E-03         746.019E-03  
              927.5E-03          750.265E-03        747.444E-03  
              930.E-03           751.691E-03        748.869E-03  
              932.5E-03          753.116E-03        750.293E-03  
              935.E-03           754.541E-03        751.718E-03  
              937.5E-03          755.967E-03        753.143E-03  
              940.E-03           757.392E-03        754.567E-03  
              942.5E-03          758.817E-03        755.992E-03  
              945.E-03           760.243E-03        757.417E-03  
              947.5E-03          761.668E-03        758.842E-03  
              950.E-03           763.094E-03        760.266E-03  
              952.5E-03          764.519E-03        761.691E-03  
              955.E-03           765.944E-03        763.116E-03  
              957.5E-03          767.37E-03         764.541E-03  
              960.E-03           768.795E-03        765.965E-03  
              962.5E-03          770.22E-03         767.39E-03   
              965.E-03           771.646E-03        768.815E-03  
              967.5E-03          773.071E-03        770.24E-03   
              970.E-03           774.496E-03        771.664E-03  
              972.5E-03          775.922E-03        773.089E-03  
              975.E-03           777.347E-03        774.514E-03  
              977.5E-03          778.772E-03        775.939E-03  
              980.E-03           780.198E-03        777.364E-03  
              982.5E-03          781.623E-03        778.788E-03  
              985.E-03           783.049E-03        780.213E-03  
              987.5E-03          784.474E-03        781.638E-03  
              990.E-03           785.899E-03        783.063E-03  
              992.5E-03          787.325E-03        784.488E-03  
              995.E-03           788.75E-03         785.912E-03  
              997.5E-03          790.175E-03        787.337E-03  
                1.               791.601E-03        788.762E-03  




