
                  X                 Dinn               Dout      

                0.                 0.                 0.         
                2.5E-03            0.                 0.         
                5.E-03             1.22095E-03        1.19439E-03
                7.5E-03            2.48486E-03        2.45415E-03
               10.E-03             3.74931E-03        3.71471E-03
               12.5E-03            5.01424E-03        4.97599E-03
               15.E-03             6.27963E-03        6.23792E-03
               17.5E-03            7.54545E-03        7.50044E-03
               20.E-03             8.81167E-03        8.76351E-03
               22.5E-03           10.0783E-03        10.0271E-03 
               25.E-03            11.3452E-03        11.2911E-03 
               27.5E-03           12.6125E-03        12.5556E-03 
               30.E-03            13.8801E-03        13.8205E-03 
               32.5E-03           15.1479E-03        15.0858E-03 
               35.E-03            16.4161E-03        16.3515E-03 
               37.5E-03           17.6845E-03        17.6174E-03 
               40.E-03            18.9531E-03        18.8837E-03 
               42.5E-03           20.2219E-03        20.1503E-03 
               45.E-03            21.491E-03         21.4172E-03 
               47.5E-03           22.7602E-03        22.6843E-03 
               50.E-03            24.0297E-03        23.9517E-03 
               52.5E-03           25.2993E-03        25.2193E-03 
               55.E-03            26.5691E-03        26.4871E-03 
               57.5E-03           27.839E-03         27.7552E-03 
               60.E-03            29.1091E-03        29.0234E-03 
               62.5E-03           30.3794E-03        30.2919E-03 
               65.E-03            31.6497E-03        31.5605E-03 
               67.5E-03           32.9203E-03        32.8293E-03 
               70.E-03            34.1909E-03        34.0983E-03 
               72.5E-03           35.4617E-03        35.3674E-03 
               75.E-03            36.7325E-03        36.6367E-03 
               77.5E-03           38.0035E-03        37.9061E-03 
               80.E-03            39.2746E-03        39.1757E-03 
               82.5E-03           40.5458E-03        40.4454E-03 
               85.E-03            41.8171E-03        41.7152E-03 
               87.5E-03           43.0885E-03        42.9852E-03 
               90.E-03            44.36E-03          44.2553E-03 
               92.5E-03           45.0361E-03        44.928E-03  
               95.E-03            46.6736E-03        46.2856E-03 
               97.5E-03           49.2298E-03        48.1686E-03 
              100.E-03            51.2053E-03        50.1511E-03 
              102.5E-03           53.098E-03         52.0351E-03 
              105.E-03            54.9297E-03        53.8605E-03 
              107.5E-03           56.7304E-03        55.6567E-03 
              110.E-03            58.5161E-03        57.439E-03  
              112.5E-03           60.2948E-03        59.215E-03  
              115.E-03            62.0701E-03        60.9883E-03 
              117.5E-03           63.8438E-03        62.7605E-03 
              120.E-03            65.6166E-03        64.5323E-03 
              122.5E-03           67.3891E-03        66.304E-03  
              125.E-03            69.1613E-03        68.0758E-03 
              127.5E-03           70.9335E-03        69.8478E-03 
              130.E-03            72.7055E-03        71.62E-03   
              132.5E-03           74.4776E-03        73.3924E-03 
              135.E-03            76.2496E-03        75.1649E-03 
              137.5E-03           78.0216E-03        76.9376E-03 
              140.E-03            79.7936E-03        78.7105E-03 
              142.5E-03           81.5657E-03        80.4836E-03 
              145.E-03            83.3378E-03        82.2568E-03 
              147.5E-03           85.11E-03          84.0302E-03 
              150.E-03            86.8822E-03        85.8037E-03 
              152.5E-03           88.6544E-03        87.5773E-03 
              155.E-03            90.4268E-03        89.3511E-03 
              157.5E-03           92.1992E-03        91.125E-03  
              160.E-03            93.9717E-03        92.899E-03  
              162.5E-03           95.7442E-03        94.6732E-03 
              165.E-03            97.5169E-03        96.4474E-03 
              167.5E-03           99.2896E-03        98.2218E-03 
              170.E-03           101.062E-03         99.9962E-03 
              172.5E-03          102.835E-03        101.771E-03  
              175.E-03           104.608E-03        103.545E-03  
              177.5E-03          106.381E-03        105.32E-03   
              180.E-03           108.155E-03        107.095E-03  
              182.5E-03          109.9E-03          108.843E-03  
              185.E-03           111.558E-03        110.509E-03  
              187.5E-03          113.168E-03        112.128E-03  
              190.E-03           114.754E-03        113.724E-03  
              192.5E-03          116.328E-03        115.309E-03  
              195.E-03           117.896E-03        116.888E-03  
              197.5E-03          119.462E-03        118.465E-03  
              200.E-03           121.027E-03        120.041E-03  
              202.5E-03          122.591E-03        121.616E-03  
              205.E-03           124.155E-03        123.191E-03  
              207.5E-03          125.719E-03        124.766E-03  
              210.E-03           127.283E-03        126.34E-03   
              212.5E-03          128.847E-03        127.915E-03  
              215.E-03           130.411E-03        129.49E-03   
              217.5E-03          131.975E-03        131.065E-03  
              220.E-03           133.54E-03         132.64E-03   
              222.5E-03          135.104E-03        134.214E-03  
              225.E-03           136.669E-03        135.789E-03  
              227.5E-03          138.234E-03        137.364E-03  
              230.E-03           139.799E-03        138.939E-03  
              232.5E-03          141.364E-03        140.515E-03  
              235.E-03           142.929E-03        142.09E-03   
              237.5E-03          144.495E-03        143.665E-03  
              240.E-03           146.06E-03         145.24E-03   
              242.5E-03          147.626E-03        146.815E-03  
              245.E-03           149.192E-03        148.39E-03   
              247.5E-03          150.758E-03        149.966E-03  
              250.E-03           152.324E-03        151.541E-03  
              252.5E-03          153.89E-03         153.116E-03  
              255.E-03           155.456E-03        154.692E-03  
              257.5E-03          157.022E-03        156.267E-03  
              260.E-03           158.589E-03        157.843E-03  
              262.5E-03          160.156E-03        159.418E-03  
              265.E-03           161.722E-03        160.994E-03  
              267.5E-03          163.289E-03        162.569E-03  
              270.E-03           164.856E-03        164.145E-03  
              272.5E-03          166.423E-03        165.72E-03   
              275.E-03           167.708E-03        166.695E-03  
              277.5E-03          168.996E-03        167.837E-03  
              280.E-03           170.018E-03        168.868E-03  
              282.5E-03          170.893E-03        169.737E-03  
              285.E-03           171.741E-03        170.586E-03  
              287.5E-03          172.657E-03        171.504E-03  
              290.E-03           173.629E-03        172.477E-03  
              292.5E-03          174.639E-03        173.488E-03  
              295.E-03           175.678E-03        174.528E-03  
              297.5E-03          176.736E-03        175.587E-03  
              300.E-03           177.808E-03        176.66E-03   
              302.5E-03          178.89E-03         177.743E-03  
              305.E-03           179.98E-03         178.832E-03  
              307.5E-03          181.074E-03        179.927E-03  
              310.E-03           182.171E-03        181.026E-03  
              312.5E-03          183.272E-03        182.127E-03  
              315.E-03           184.374E-03        183.23E-03   
              317.5E-03          185.478E-03        184.334E-03  
              320.E-03           186.583E-03        185.439E-03  
              322.5E-03          187.688E-03        186.545E-03  
              325.E-03           188.794E-03        187.652E-03  
              327.5E-03          189.9E-03          188.759E-03  
              330.E-03           191.007E-03        189.866E-03  
              332.5E-03          192.114E-03        190.973E-03  
              335.E-03           193.221E-03        192.081E-03  
              337.5E-03          194.328E-03        193.188E-03  
              340.E-03           195.435E-03        194.296E-03  
              342.5E-03          196.542E-03        195.404E-03  
              345.E-03           197.649E-03        196.512E-03  
              347.5E-03          198.756E-03        197.62E-03   
              350.E-03           199.864E-03        198.728E-03  
              352.5E-03          200.971E-03        199.835E-03  
              355.E-03           202.078E-03        200.943E-03  
              357.5E-03          203.186E-03        202.051E-03  
              360.E-03           204.293E-03        203.159E-03  
              362.5E-03          205.401E-03        204.267E-03  
              365.E-03           206.508E-03        205.375E-03  
              367.5E-03          207.616E-03        206.483E-03  
              370.E-03           208.723E-03        207.591E-03  
              372.5E-03          209.83E-03         208.699E-03  
              375.E-03           210.938E-03        209.807E-03  
              377.5E-03          212.045E-03        210.915E-03  
              380.E-03           213.153E-03        212.023E-03  
              382.5E-03          214.26E-03         213.131E-03  
              385.E-03           215.368E-03        214.239E-03  
              387.5E-03          216.475E-03        215.348E-03  
              390.E-03           217.583E-03        216.456E-03  
              392.5E-03          218.69E-03         217.564E-03  
              395.E-03           219.798E-03        218.672E-03  
              397.5E-03          220.905E-03        219.78E-03   
              400.E-03           222.013E-03        220.888E-03  
              402.5E-03          223.12E-03         221.996E-03  
              405.E-03           224.228E-03        223.104E-03  
              407.5E-03          225.335E-03        224.212E-03  
              410.E-03           226.443E-03        225.32E-03   
              412.5E-03          227.55E-03         226.428E-03  
              415.E-03           228.658E-03        227.536E-03  
              417.5E-03          229.766E-03        228.645E-03  
              420.E-03           230.873E-03        229.753E-03  
              422.5E-03          231.981E-03        230.861E-03  
              425.E-03           233.088E-03        231.969E-03  
              427.5E-03          234.196E-03        233.077E-03  
              430.E-03           235.303E-03        234.185E-03  
              432.5E-03          236.411E-03        235.293E-03  
              435.E-03           237.519E-03        236.402E-03  
              437.5E-03          238.626E-03        237.51E-03   
              440.E-03           239.734E-03        238.618E-03  
              442.5E-03          240.841E-03        239.726E-03  
              445.E-03           241.949E-03        240.834E-03  
              447.5E-03          243.057E-03        241.942E-03  
              450.E-03           244.164E-03        243.051E-03  
              452.5E-03          245.272E-03        244.159E-03  
              455.E-03           246.178E-03        245.066E-03  
              457.5E-03          247.539E-03        246.427E-03  
              460.E-03           248.731E-03        247.62E-03   
              462.5E-03          249.95E-03         248.839E-03  
              465.E-03           251.185E-03        250.074E-03  
              467.5E-03          252.43E-03         251.319E-03  
              470.E-03           253.682E-03        252.572E-03  
              472.5E-03          254.939E-03        253.828E-03  
              475.E-03           256.199E-03        255.088E-03  
              477.5E-03          257.461E-03        256.35E-03   
              480.E-03           258.725E-03        257.614E-03  
              482.5E-03          259.99E-03         258.879E-03  
              485.E-03           261.255E-03        260.144E-03  
              487.5E-03          262.521E-03        261.41E-03   
              490.E-03           263.788E-03        262.676E-03  
              492.5E-03          265.054E-03        263.943E-03  
              495.E-03           266.321E-03        265.21E-03   
              497.5E-03          267.589E-03        266.477E-03  
              500.E-03           268.856E-03        267.744E-03  
              502.5E-03          270.123E-03        269.011E-03  
              505.E-03           271.391E-03        270.279E-03  
              507.5E-03          272.658E-03        271.546E-03  
              510.E-03           273.926E-03        272.813E-03  
              512.5E-03          275.194E-03        274.081E-03  
              515.E-03           276.461E-03        275.348E-03  
              517.5E-03          277.729E-03        276.616E-03  
              520.E-03           278.997E-03        277.883E-03  
              522.5E-03          280.264E-03        279.151E-03  
              525.E-03           281.532E-03        280.418E-03  
              527.5E-03          282.8E-03          281.686E-03  
              530.E-03           284.068E-03        282.954E-03  
              532.5E-03          285.335E-03        284.221E-03  
              535.E-03           286.603E-03        285.489E-03  
              537.5E-03          287.871E-03        286.756E-03  
              540.E-03           289.139E-03        288.024E-03  
              542.5E-03          290.406E-03        289.291E-03  
              545.E-03           291.674E-03        290.559E-03  
              547.5E-03          292.942E-03        291.827E-03  
              550.E-03           294.21E-03         293.094E-03  
              552.5E-03          295.478E-03        294.362E-03  
              555.E-03           296.745E-03        295.63E-03   
              557.5E-03          298.013E-03        296.897E-03  
              560.E-03           299.281E-03        298.165E-03  
              562.5E-03          300.549E-03        299.432E-03  
              565.E-03           301.817E-03        300.7E-03    
              567.5E-03          303.085E-03        301.968E-03  
              570.E-03           304.353E-03        303.235E-03  
              572.5E-03          305.62E-03         304.503E-03  
              575.E-03           306.888E-03        305.771E-03  
              577.5E-03          308.156E-03        307.038E-03  
              580.E-03           309.424E-03        308.306E-03  
              582.5E-03          310.692E-03        309.574E-03  
              585.E-03           311.96E-03         310.841E-03  
              587.5E-03          313.228E-03        312.109E-03  
              590.E-03           314.496E-03        313.377E-03  
              592.5E-03          315.764E-03        314.644E-03  
              595.E-03           317.031E-03        315.912E-03  
              597.5E-03          318.299E-03        317.18E-03   
              600.E-03           319.567E-03        318.447E-03  
              602.5E-03          320.835E-03        319.715E-03  
              605.E-03           322.103E-03        320.983E-03  
              607.5E-03          323.371E-03        322.251E-03  
              610.E-03           324.639E-03        323.518E-03  
              612.5E-03          325.907E-03        324.786E-03  
              615.E-03           327.175E-03        326.054E-03  
              617.5E-03          328.443E-03        327.321E-03  
              620.E-03           329.711E-03        328.589E-03  
              622.5E-03          330.979E-03        329.857E-03  
              625.E-03           332.247E-03        331.125E-03  
              627.5E-03          333.515E-03        332.392E-03  
              630.E-03           334.783E-03        333.66E-03   
              632.5E-03          336.051E-03        334.928E-03  
              635.E-03           337.319E-03        336.196E-03  
              637.5E-03          338.403E-03        337.279E-03  
              640.E-03           339.229E-03        338.102E-03  
              642.5E-03          340.399E-03        339.252E-03  
              645.E-03           341.969E-03        340.77E-03   
              647.5E-03          343.842E-03        342.487E-03  
              650.E-03           346.11E-03         344.21E-03   
              652.5E-03          351.986E-03        344.871E-03  
              655.E-03           362.227E-03        344.871E-03  
              657.5E-03          373.075E-03        344.871E-03  
              660.E-03           384.12E-03         344.871E-03  
              662.5E-03          395.42E-03         344.871E-03  
              665.E-03           407.003E-03        344.871E-03  
              667.5E-03          418.881E-03        344.871E-03  
              670.E-03           431.041E-03        344.871E-03  
              672.5E-03          443.495E-03        344.871E-03  
              675.E-03           456.25E-03         344.871E-03  
              677.5E-03          469.313E-03        344.871E-03  
              680.E-03           482.639E-03        344.871E-03  
              682.5E-03          496.232E-03        344.871E-03  
              685.E-03           510.081E-03        344.871E-03  
              687.5E-03          524.19E-03         344.871E-03  
              690.E-03           538.452E-03        344.871E-03  
              692.5E-03          552.86E-03         344.871E-03  
              695.E-03           567.382E-03        344.871E-03  
              697.5E-03          581.976E-03        344.871E-03  
              700.E-03           596.57E-03         344.871E-03  
              702.5E-03          611.077E-03        344.871E-03  
              705.E-03           625.524E-03        344.871E-03  
              707.5E-03          639.558E-03        344.871E-03  
              710.E-03           652.954E-03        344.871E-03  
              712.5E-03          665.43E-03         344.871E-03  
              715.E-03           677.327E-03        344.871E-03  
              717.5E-03          689.598E-03        344.871E-03  
              720.E-03           702.259E-03        344.871E-03  
              722.5E-03          715.319E-03        344.871E-03  
              725.E-03           728.776E-03        344.871E-03  
              727.5E-03          742.553E-03        344.871E-03  
              730.E-03           756.755E-03        344.871E-03  
              732.5E-03          771.244E-03        344.871E-03  
              735.E-03           785.977E-03        344.871E-03  
              737.5E-03          801.088E-03        344.871E-03  
              740.E-03           816.291E-03        344.871E-03  
              742.5E-03          831.581E-03        344.871E-03  
              745.E-03           846.932E-03        344.871E-03  
              747.5E-03          862.355E-03        344.871E-03  
              750.E-03           877.943E-03        344.871E-03  
              752.5E-03          893.686E-03        344.871E-03  
              755.E-03           909.552E-03        344.871E-03  
              757.5E-03          925.388E-03        344.871E-03  
              760.E-03           941.128E-03        344.871E-03  
              762.5E-03          956.783E-03        344.871E-03  
              765.E-03           972.365E-03        344.871E-03  
              767.5E-03          987.888E-03        344.871E-03  
              770.E-03             1.00336          344.871E-03  
              772.5E-03            1.0188           344.871E-03  
              775.E-03             1.0342           344.871E-03  
              777.5E-03            1.04957          344.871E-03  
              780.E-03             1.06489          344.871E-03  
              782.5E-03            1.08014          344.871E-03  
              785.E-03             1.09527          344.871E-03  
              787.5E-03            1.11021          344.871E-03  
              790.E-03             1.12499          344.871E-03  
              792.5E-03            1.13961          344.871E-03  
              795.E-03             1.15407          344.871E-03  
              797.5E-03            1.16839          344.871E-03  
              800.E-03             1.18257          344.871E-03  
              802.5E-03            1.19662          344.871E-03  
              805.E-03             1.21055          344.871E-03  
              807.5E-03            1.22436          344.871E-03  
              810.E-03             1.23806          344.871E-03  
              812.5E-03            1.25164          344.871E-03  
              815.E-03             1.26512          344.871E-03  
              817.5E-03            1.2785           344.871E-03  
              820.E-03             1.29037          345.359E-03  
              822.5E-03            1.29947          346.637E-03  
              825.E-03             1.30818          347.916E-03  
              827.5E-03            1.31694          349.193E-03  
              830.E-03             1.32571          350.468E-03  
              832.5E-03            1.33451          351.742E-03  
              835.E-03             1.34332          353.013E-03  
              837.5E-03            1.35216          354.281E-03  
              840.E-03             1.361            355.547E-03  
              842.5E-03            1.36985          356.809E-03  
              845.E-03             1.37871          358.069E-03  
              847.5E-03            1.38756          359.325E-03  
              850.E-03             1.39641          360.577E-03  
              852.5E-03            1.40525          361.826E-03  
              855.E-03             1.41409          363.071E-03  
              857.5E-03            1.4229           364.312E-03  
              860.E-03             1.4317           365.549E-03  
              862.5E-03            1.44049          366.783E-03  
              865.E-03             1.44925          368.012E-03  
              867.5E-03            1.45799          369.236E-03  
              870.E-03             1.46671          370.457E-03  
              872.5E-03            1.4754           371.673E-03  
              875.E-03             1.48407          372.885E-03  
              877.5E-03            1.4927           374.092E-03  
              880.E-03             1.50131          375.295E-03  
              882.5E-03            1.50989          376.493E-03  
              885.E-03             1.51844          377.687E-03  
              887.5E-03            1.52695          378.876E-03  
              890.E-03             1.53543          380.061E-03  
              892.5E-03            1.54388          381.241E-03  
              895.E-03             1.5523           382.417E-03  
              897.5E-03            1.56068          383.588E-03  
              900.E-03             1.56902          384.754E-03  
              902.5E-03            1.57733          385.916E-03  
              905.E-03             1.58561          387.073E-03  
              907.5E-03            1.59385          388.226E-03  
              910.E-03             1.60205          389.374E-03  
              912.5E-03            1.61021          390.518E-03  
              915.E-03             1.61834          391.657E-03  
              917.5E-03            1.62644          392.792E-03  
              920.E-03             1.63449          393.922E-03  
              922.5E-03            1.64251          395.048E-03  
              925.E-03             1.65049          396.169E-03  
              927.5E-03            1.65844          397.286E-03  
              930.E-03             1.66634          398.399E-03  
              932.5E-03            1.67422          399.507E-03  
              935.E-03             1.68205          400.612E-03  
              937.5E-03            1.68985          401.712E-03  
              940.E-03             1.69761          402.807E-03  
              942.5E-03            1.70533          403.899E-03  
              945.E-03             1.71302          404.987E-03  
              947.5E-03            1.72067          406.07E-03   
              950.E-03             1.72828          407.15E-03   
              952.5E-03            1.73586          408.225E-03  
              955.E-03             1.74341          409.296E-03  
              957.5E-03            1.75091          410.364E-03  
              960.E-03             1.75838          411.428E-03  
              962.5E-03            1.76582          412.488E-03  
              965.E-03             1.77322          413.544E-03  
              967.5E-03            1.78059          414.596E-03  
              970.E-03             1.78792          415.645E-03  
              972.5E-03            1.79521          416.689E-03  
              975.E-03             1.80247          417.731E-03  
              977.5E-03            1.8097           418.768E-03  
              980.E-03             1.8169           419.802E-03  
              982.5E-03            1.82405          420.833E-03  
              985.E-03             1.83118          421.86E-03   
              987.5E-03            1.83827          422.884E-03  
              990.E-03             1.84533          423.904E-03  
              992.5E-03            1.85236          424.921E-03  
              995.E-03             1.85935          425.934E-03  
              997.5E-03            1.86632          426.945E-03  
                1.                 1.87325          427.952E-03  




