
                  X              SENER-out           SENER-in    

                0.                 0.                 0.         
                2.5E-03          145.515E+03        145.515E+03  
                5.E-03           164.473E+03        161.538E+03  
                7.5E-03          168.633E+03        165.828E+03  
               10.E-03           172.643E+03        169.953E+03  
               12.5E-03          176.515E+03        173.929E+03  
               15.E-03           180.263E+03        177.771E+03  
               17.5E-03          183.897E+03        181.491E+03  
               20.E-03           187.427E+03        185.1E+03    
               22.5E-03          190.86E+03         188.606E+03  
               25.E-03           194.204E+03        192.017E+03  
               27.5E-03          197.464E+03        195.339E+03  
               30.E-03           200.646E+03        198.58E+03   
               32.5E-03          203.754E+03        201.743E+03  
               35.E-03           206.794E+03        204.835E+03  
               37.5E-03          209.769E+03        207.858E+03  
               40.E-03           212.683E+03        210.817E+03  
               42.5E-03          215.539E+03        213.716E+03  
               45.E-03           218.34E+03         216.557E+03  
               47.5E-03          221.088E+03        219.344E+03  
               50.E-03           223.786E+03        222.079E+03  
               52.5E-03          226.437E+03        224.765E+03  
               55.E-03           229.043E+03        227.404E+03  
               57.5E-03          231.606E+03        229.998E+03  
               60.E-03           234.127E+03        232.549E+03  
               62.5E-03          236.608E+03        235.059E+03  
               65.E-03           239.051E+03        237.53E+03   
               67.5E-03          241.458E+03        239.963E+03  
               70.E-03           243.829E+03        242.36E+03   
               72.5E-03          246.167E+03        244.722E+03  
               75.E-03           248.472E+03        247.051E+03  
               77.5E-03          250.746E+03        249.347E+03  
               80.E-03           252.989E+03        251.612E+03  
               82.5E-03          255.204E+03        253.847E+03  
               85.E-03           257.39E+03         256.054E+03  
               87.5E-03          259.549E+03        258.232E+03  
               90.E-03           261.681E+03        260.383E+03  
               92.5E-03          288.584E+03        287.64E+03   
               95.E-03           361.438E+03        362.753E+03  
               97.5E-03          404.3E+03          403.906E+03  
              100.E-03           423.393E+03        423.57E+03   
              102.5E-03          433.734E+03        434.035E+03  
              105.E-03           440.925E+03        441.282E+03  
              107.5E-03          446.872E+03        447.265E+03  
              110.E-03           452.259E+03        452.681E+03  
              112.5E-03          457.357E+03        457.804E+03  
              115.E-03           462.285E+03        462.753E+03  
              117.5E-03          467.096E+03        467.584E+03  
              120.E-03           471.816E+03        472.322E+03  
              122.5E-03          476.458E+03        476.98E+03   
              125.E-03           481.03E+03         481.568E+03  
              127.5E-03          485.536E+03        486.088E+03  
              130.E-03           489.98E+03         490.546E+03  
              132.5E-03          494.365E+03        494.943E+03  
              135.E-03           498.692E+03        499.282E+03  
              137.5E-03          502.964E+03        503.566E+03  
              140.E-03           507.183E+03        507.795E+03  
              142.5E-03          511.351E+03        511.973E+03  
              145.E-03           515.468E+03        516.1E+03    
              147.5E-03          519.537E+03        520.178E+03  
              150.E-03           523.559E+03        524.209E+03  
              152.5E-03          527.536E+03        528.194E+03  
              155.E-03           531.468E+03        532.134E+03  
              157.5E-03          535.358E+03        536.032E+03  
              160.E-03           539.206E+03        539.887E+03  
              162.5E-03          543.014E+03        543.702E+03  
              165.E-03           546.782E+03        547.477E+03  
              167.5E-03          550.512E+03        551.214E+03  
              170.E-03           554.205E+03        554.914E+03  
              172.5E-03          557.861E+03        558.576E+03  
              175.E-03           561.482E+03        562.204E+03  
              177.5E-03          565.069E+03        565.796E+03  
              180.E-03           568.622E+03        569.355E+03  
              182.5E-03          573.16E+03         573.904E+03  
              185.E-03           579.443E+03        580.207E+03  
              187.5E-03          584.083E+03        584.855E+03  
              190.E-03           588.087E+03        588.863E+03  
              192.5E-03          591.81E+03         592.588E+03  
              195.E-03           595.391E+03        596.171E+03  
              197.5E-03          598.89E+03         599.671E+03  
              200.E-03           602.335E+03        603.118E+03  
              202.5E-03          605.74E+03         606.524E+03  
              205.E-03           609.11E+03         609.897E+03  
              207.5E-03          612.451E+03        613.239E+03  
              210.E-03           615.763E+03        616.552E+03  
              212.5E-03          619.049E+03        619.839E+03  
              215.E-03           622.308E+03        623.1E+03    
              217.5E-03          625.542E+03        626.335E+03  
              220.E-03           628.751E+03        629.546E+03  
              222.5E-03          631.935E+03        632.732E+03  
              225.E-03           635.096E+03        635.894E+03  
              227.5E-03          638.234E+03        639.034E+03  
              230.E-03           641.348E+03        642.15E+03   
              232.5E-03          644.44E+03         645.244E+03  
              235.E-03           647.511E+03        648.316E+03  
              237.5E-03          650.559E+03        651.366E+03  
              240.E-03           653.587E+03        654.396E+03  
              242.5E-03          656.593E+03        657.404E+03  
              245.E-03           659.58E+03         660.392E+03  
              247.5E-03          662.546E+03        663.36E+03   
              250.E-03           665.492E+03        666.309E+03  
              252.5E-03          668.419E+03        669.238E+03  
              255.E-03           671.327E+03        672.148E+03  
              257.5E-03          674.217E+03        675.039E+03  
              260.E-03           677.088E+03        677.912E+03  
              262.5E-03          679.941E+03        680.767E+03  
              265.E-03           682.776E+03        683.604E+03  
              267.5E-03          685.593E+03        686.424E+03  
              270.E-03           688.394E+03        689.227E+03  
              272.5E-03          691.177E+03        692.013E+03  
              275.E-03           645.047E+03        644.956E+03  
              277.5E-03          582.418E+03        584.317E+03  
              280.E-03           538.881E+03        540.227E+03  
              282.5E-03          511.142E+03        512.36E+03   
              285.E-03           493.873E+03        494.954E+03  
              287.5E-03          483.113E+03        484.115E+03  
              290.E-03           476.408E+03        477.357E+03  
              292.5E-03          472.267E+03        473.179E+03  
              295.E-03           469.78E+03         470.667E+03  
              297.5E-03          468.384E+03        469.253E+03  
              300.E-03           467.721E+03        468.576E+03  
              302.5E-03          467.558E+03        468.403E+03  
              305.E-03           467.741E+03        468.579E+03  
              307.5E-03          468.166E+03        468.999E+03  
              310.E-03           468.762E+03        469.59E+03   
              312.5E-03          469.478E+03        470.303E+03  
              315.E-03           470.279E+03        471.101E+03  
              317.5E-03          471.141E+03        471.961E+03  
              320.E-03           472.045E+03        472.864E+03  
              322.5E-03          472.98E+03         473.797E+03  
              325.E-03           473.935E+03        474.75E+03   
              327.5E-03          474.905E+03        475.719E+03  
              330.E-03           475.884E+03        476.697E+03  
              332.5E-03          476.869E+03        477.681E+03  
              335.E-03           477.857E+03        478.669E+03  
              337.5E-03          478.848E+03        479.658E+03  
              340.E-03           479.839E+03        480.648E+03  
              342.5E-03          480.829E+03        481.637E+03  
              345.E-03           481.818E+03        482.626E+03  
              347.5E-03          482.805E+03        483.612E+03  
              350.E-03           483.79E+03         484.597E+03  
              352.5E-03          484.773E+03        485.579E+03  
              355.E-03           485.754E+03        486.559E+03  
              357.5E-03          486.732E+03        487.537E+03  
              360.E-03           487.707E+03        488.512E+03  
              362.5E-03          488.68E+03         489.484E+03  
              365.E-03           489.65E+03         490.453E+03  
              367.5E-03          490.617E+03        491.419E+03  
              370.E-03           491.582E+03        492.383E+03  
              372.5E-03          492.543E+03        493.344E+03  
              375.E-03           493.502E+03        494.303E+03  
              377.5E-03          494.458E+03        495.258E+03  
              380.E-03           495.411E+03        496.211E+03  
              382.5E-03          496.362E+03        497.161E+03  
              385.E-03           497.31E+03         498.109E+03  
              387.5E-03          498.255E+03        499.054E+03  
              390.E-03           499.198E+03        499.996E+03  
              392.5E-03          500.138E+03        500.935E+03  
              395.E-03           501.075E+03        501.872E+03  
              397.5E-03          502.01E+03         502.807E+03  
              400.E-03           502.942E+03        503.738E+03  
              402.5E-03          503.871E+03        504.668E+03  
              405.E-03           504.798E+03        505.594E+03  
              407.5E-03          505.723E+03        506.518E+03  
              410.E-03           506.645E+03        507.44E+03   
              412.5E-03          507.564E+03        508.359E+03  
              415.E-03           508.481E+03        509.275E+03  
              417.5E-03          509.395E+03        510.19E+03   
              420.E-03           510.307E+03        511.101E+03  
              422.5E-03          511.217E+03        512.011E+03  
              425.E-03           512.124E+03        512.917E+03  
              427.5E-03          513.029E+03        513.822E+03  
              430.E-03           513.931E+03        514.724E+03  
              432.5E-03          514.831E+03        515.624E+03  
              435.E-03           515.729E+03        516.521E+03  
              437.5E-03          516.624E+03        517.416E+03  
              440.E-03           517.517E+03        518.309E+03  
              442.5E-03          518.407E+03        519.2E+03    
              445.E-03           519.296E+03        520.088E+03  
              447.5E-03          520.182E+03        520.974E+03  
              450.E-03           521.066E+03        521.858E+03  
              452.5E-03          521.947E+03        522.739E+03  
              455.E-03           522.664E+03        523.456E+03  
              457.5E-03          514.455E+03        515.189E+03  
              460.E-03           510.478E+03        511.181E+03  
              462.5E-03          508.221E+03        508.902E+03  
              465.E-03           507.03E+03         507.695E+03  
              467.5E-03          506.504E+03        507.157E+03  
              470.E-03           506.403E+03        507.049E+03  
              472.5E-03          506.58E+03         507.219E+03  
              475.E-03           506.941E+03        507.576E+03  
              477.5E-03          507.427E+03        508.058E+03  
              480.E-03           508.E+03           508.627E+03  
              482.5E-03          508.632E+03        509.256E+03  
              485.E-03           509.306E+03        509.929E+03  
              487.5E-03          510.01E+03         510.631E+03  
              490.E-03           510.735E+03        511.354E+03  
              492.5E-03          511.475E+03        512.093E+03  
              495.E-03           512.226E+03        512.843E+03  
              497.5E-03          512.985E+03        513.6E+03    
              500.E-03           513.748E+03        514.363E+03  
              502.5E-03          514.515E+03        515.128E+03  
              505.E-03           515.284E+03        515.896E+03  
              507.5E-03          516.054E+03        516.665E+03  
              510.E-03           516.824E+03        517.435E+03  
              512.5E-03          517.594E+03        518.204E+03  
              515.E-03           518.364E+03        518.972E+03  
              517.5E-03          519.133E+03        519.74E+03   
              520.E-03           519.9E+03          520.507E+03  
              522.5E-03          520.667E+03        521.273E+03  
              525.E-03           521.432E+03        522.037E+03  
              527.5E-03          522.196E+03        522.8E+03    
              530.E-03           522.958E+03        523.562E+03  
              532.5E-03          523.719E+03        524.322E+03  
              535.E-03           524.478E+03        525.08E+03   
              537.5E-03          525.236E+03        525.837E+03  
              540.E-03           525.992E+03        526.593E+03  
              542.5E-03          526.747E+03        527.347E+03  
              545.E-03           527.5E+03          528.099E+03  
              547.5E-03          528.252E+03        528.85E+03   
              550.E-03           529.002E+03        529.599E+03  
              552.5E-03          529.75E+03         530.346E+03  
              555.E-03           530.497E+03        531.092E+03  
              557.5E-03          531.242E+03        531.837E+03  
              560.E-03           531.985E+03        532.58E+03   
              562.5E-03          532.727E+03        533.321E+03  
              565.E-03           533.468E+03        534.061E+03  
              567.5E-03          534.207E+03        534.799E+03  
              570.E-03           534.945E+03        535.536E+03  
              572.5E-03          535.681E+03        536.271E+03  
              575.E-03           536.415E+03        537.005E+03  
              577.5E-03          537.148E+03        537.737E+03  
              580.E-03           537.879E+03        538.468E+03  
              582.5E-03          538.609E+03        539.198E+03  
              585.E-03           539.338E+03        539.925E+03  
              587.5E-03          540.065E+03        540.652E+03  
              590.E-03           540.791E+03        541.377E+03  
              592.5E-03          541.515E+03        542.1E+03    
              595.E-03           542.237E+03        542.822E+03  
              597.5E-03          542.959E+03        543.543E+03  
              600.E-03           543.678E+03        544.262E+03  
              602.5E-03          544.397E+03        544.98E+03   
              605.E-03           545.114E+03        545.696E+03  
              607.5E-03          545.829E+03        546.411E+03  
              610.E-03           546.543E+03        547.125E+03  
              612.5E-03          547.256E+03        547.837E+03  
              615.E-03           547.968E+03        548.547E+03  
              617.5E-03          548.677E+03        549.257E+03  
              620.E-03           549.386E+03        549.965E+03  
              622.5E-03          550.093E+03        550.672E+03  
              625.E-03           550.799E+03        551.377E+03  
              627.5E-03          551.504E+03        552.081E+03  
              630.E-03           552.207E+03        552.783E+03  
              632.5E-03          552.909E+03        553.485E+03  
              635.E-03           553.609E+03        554.185E+03  
              637.5E-03          567.707E+03        568.391E+03  
              640.E-03           624.655E+03        625.728E+03  
              642.5E-03          684.335E+03        685.93E+03   
              645.E-03           730.326E+03        732.596E+03  
              647.5E-03          761.223E+03        764.583E+03  
              650.E-03           780.753E+03        786.438E+03  
              652.5E-03          788.574E+03        807.322E+03  
              655.E-03           789.579E+03        824.107E+03  
              657.5E-03          789.74E+03         834.563E+03  
              660.E-03           789.785E+03        844.478E+03  
              662.5E-03          789.756E+03        854.566E+03  
              665.E-03           789.686E+03        864.905E+03  
              667.5E-03          789.581E+03        875.534E+03  
              670.E-03           789.445E+03        886.434E+03  
              672.5E-03          789.277E+03        897.64E+03   
              675.E-03           789.075E+03        909.172E+03  
              677.5E-03          788.834E+03        921.055E+03  
              680.E-03           788.552E+03        933.254E+03  
              682.5E-03          788.225E+03        945.799E+03  
              685.E-03           787.849E+03        958.707E+03  
              687.5E-03          787.418E+03        972.01E+03   
              690.E-03           786.93E+03         985.658E+03  
              692.5E-03          786.383E+03        999.695E+03  
              695.E-03           785.77E+03           1.01413E+06
              697.5E-03          785.088E+03          1.02899E+06
              700.E-03           784.33E+03           1.04422E+06
              702.5E-03          783.497E+03          1.05977E+06
              705.E-03           782.424E+03          1.07598E+06
              707.5E-03          781.414E+03          1.09252E+06
              710.E-03           780.487E+03          1.10909E+06
              712.5E-03          779.301E+03          1.12641E+06
              715.E-03           778.02E+03           1.14422E+06
              717.5E-03          776.641E+03          1.16259E+06
              720.E-03           775.156E+03          1.18156E+06
              722.5E-03          773.558E+03          1.20116E+06
              725.E-03           771.84E+03           1.22146E+06
              727.5E-03          770.003E+03          1.24262E+06
              730.E-03           767.824E+03          1.26534E+06
              732.5E-03          765.741E+03          1.28825E+06
              735.E-03           763.773E+03          1.31091E+06
              737.5E-03          761.441E+03          1.3349E+06 
              740.E-03           758.995E+03          1.35911E+06
              742.5E-03          756.185E+03          1.38448E+06
              745.E-03           753.54E+03           1.40935E+06
              747.5E-03          751.076E+03          1.43367E+06
              750.E-03           748.26E+03           1.45922E+06
              752.5E-03          745.358E+03          1.4851E+06 
              755.E-03           742.378E+03          1.5111E+06 
              757.5E-03          739.352E+03          1.53582E+06
              760.E-03           736.313E+03          1.55936E+06
              762.5E-03          733.296E+03          1.58239E+06
              765.E-03           730.315E+03          1.60517E+06
              767.5E-03          727.388E+03          1.62774E+06
              770.E-03           724.531E+03          1.65011E+06
              772.5E-03          721.758E+03          1.67227E+06
              775.E-03           719.085E+03          1.69417E+06
              777.5E-03          716.532E+03          1.71573E+06
              780.E-03           714.114E+03          1.73682E+06
              782.5E-03          711.857E+03          1.75708E+06
              785.E-03           709.811E+03          1.77417E+06
              787.5E-03          708.033E+03          1.78809E+06
              790.E-03           706.557E+03          1.80092E+06
              792.5E-03          705.396E+03          1.81328E+06
              795.E-03           704.561E+03          1.82532E+06
              797.5E-03          704.063E+03          1.83706E+06
              800.E-03           703.911E+03          1.84851E+06
              802.5E-03          704.113E+03          1.85964E+06
              805.E-03           704.676E+03          1.87046E+06
              807.5E-03          705.348E+03          1.8814E+06 
              810.E-03           706.654E+03          1.89154E+06
              812.5E-03          708.34E+03           1.90133E+06
              815.E-03           710.408E+03          1.91076E+06
              817.5E-03          712.865E+03          1.9198E+06 
              820.E-03           844.303E+03          1.94433E+06
              822.5E-03          843.549E+03          1.94889E+06
              825.E-03           842.468E+03          1.93974E+06
              827.5E-03          841.355E+03          1.93169E+06
              830.E-03           840.289E+03          1.92639E+06
              832.5E-03          839.238E+03          1.92294E+06
              835.E-03           838.192E+03          1.92049E+06
              837.5E-03          837.148E+03          1.91853E+06
              840.E-03           836.106E+03          1.9168E+06 
              842.5E-03          835.066E+03          1.9152E+06 
              845.E-03           834.03E+03           1.91368E+06
              847.5E-03          833.E+03             1.91222E+06
              850.E-03           831.978E+03          1.91084E+06
              852.5E-03          830.964E+03          1.90953E+06
              855.E-03           829.96E+03           1.90832E+06
              857.5E-03          828.967E+03          1.9072E+06 
              860.E-03           827.986E+03          1.90619E+06
              862.5E-03          827.018E+03          1.90528E+06
              865.E-03           826.063E+03          1.9045E+06 
              867.5E-03          825.124E+03          1.90384E+06
              870.E-03           824.199E+03          1.9033E+06 
              872.5E-03          823.289E+03          1.90288E+06
              875.E-03           822.396E+03          1.9026E+06 
              877.5E-03          821.518E+03          1.90244E+06
              880.E-03           820.657E+03          1.9024E+06 
              882.5E-03          819.813E+03          1.90248E+06
              885.E-03           818.986E+03          1.90269E+06
              887.5E-03          818.175E+03          1.90302E+06
              890.E-03           817.381E+03          1.90347E+06
              892.5E-03          816.605E+03          1.90403E+06
              895.E-03           815.845E+03          1.90471E+06
              897.5E-03          815.102E+03          1.90549E+06
              900.E-03           814.377E+03          1.90638E+06
              902.5E-03          813.668E+03          1.90738E+06
              905.E-03           812.976E+03          1.90848E+06
              907.5E-03          812.3E+03            1.90967E+06
              910.E-03           811.641E+03          1.91096E+06
              912.5E-03          810.999E+03          1.91235E+06
              915.E-03           810.373E+03          1.91382E+06
              917.5E-03          809.763E+03          1.91539E+06
              920.E-03           809.168E+03          1.91703E+06
              922.5E-03          808.59E+03           1.91876E+06
              925.E-03           808.027E+03          1.92057E+06
              927.5E-03          807.479E+03          1.92245E+06
              930.E-03           806.946E+03          1.92441E+06
              932.5E-03          806.428E+03          1.92644E+06
              935.E-03           805.925E+03          1.92854E+06
              937.5E-03          805.437E+03          1.93071E+06
              940.E-03           804.962E+03          1.93294E+06
              942.5E-03          804.502E+03          1.93524E+06
              945.E-03           804.055E+03          1.93759E+06
              947.5E-03          803.622E+03          1.94001E+06
              950.E-03           803.203E+03          1.94248E+06
              952.5E-03          802.796E+03          1.94501E+06
              955.E-03           802.403E+03          1.94759E+06
              957.5E-03          802.022E+03          1.95022E+06
              960.E-03           801.654E+03          1.9529E+06 
              962.5E-03          801.298E+03          1.95563E+06
              965.E-03           800.954E+03          1.95841E+06
              967.5E-03          800.622E+03          1.96123E+06
              970.E-03           800.302E+03          1.9641E+06 
              972.5E-03          799.993E+03          1.96701E+06
              975.E-03           799.695E+03          1.96996E+06
              977.5E-03          799.409E+03          1.97296E+06
              980.E-03           799.133E+03          1.97599E+06
              982.5E-03          798.868E+03          1.97905E+06
              985.E-03           798.613E+03          1.98216E+06
              987.5E-03          798.369E+03          1.9853E+06 
              990.E-03           798.134E+03          1.98847E+06
              992.5E-03          797.91E+03           1.99168E+06
              995.E-03           797.695E+03          1.99492E+06
              997.5E-03          797.49E+03           1.99819E+06
                1.               797.294E+03          2.00149E+06




