
                  X              SENER-out           SENER-in    

                0.                 0.                 0.         
                2.5E-03          230.668E+03        230.965E+03  
                5.E-03           270.347E+03        270.534E+03  
                7.5E-03          302.711E+03        302.873E+03  
               10.E-03           330.61E+03         330.764E+03  
               12.5E-03          355.382E+03        355.536E+03  
               15.E-03           460.908E+03        461.192E+03  
               17.5E-03          514.11E+03         514.414E+03  
               20.E-03           546.143E+03        546.412E+03  
               22.5E-03          574.071E+03        574.308E+03  
               25.E-03           599.936E+03        600.15E+03   
               27.5E-03          624.216E+03        624.411E+03  
               30.E-03           669.563E+03        669.79E+03   
               32.5E-03          725.43E+03         725.699E+03  
               35.E-03           753.185E+03        753.439E+03  
               37.5E-03          777.829E+03        778.065E+03  
               40.E-03           801.211E+03        801.43E+03   
               42.5E-03          823.599E+03        823.806E+03  
               45.E-03           845.111E+03        845.306E+03  
               47.5E-03          865.832E+03        866.018E+03  
               50.E-03           885.837E+03        886.015E+03  
               52.5E-03          905.187E+03        905.359E+03  
               55.E-03           923.937E+03        924.104E+03  
               57.5E-03          942.133E+03        942.297E+03  
               60.E-03           959.818E+03        959.979E+03  
               62.5E-03          977.028E+03        977.187E+03  
               65.E-03           993.795E+03        993.953E+03  
               67.5E-03            1.01015E+06        1.01031E+06
               70.E-03             1.02612E+06        1.02627E+06
               72.5E-03            1.04172E+06        1.04188E+06
               75.E-03             1.05698E+06        1.05714E+06
               77.5E-03            1.07191E+06        1.07208E+06
               80.E-03             1.08654E+06        1.08671E+06
               82.5E-03            1.10088E+06        1.10105E+06
               85.E-03             1.11495E+06        1.11512E+06
               87.5E-03            1.12875E+06        1.12893E+06
               90.E-03             1.14231E+06        1.14249E+06
               92.5E-03            1.15563E+06        1.15582E+06
               95.E-03             1.16872E+06        1.16892E+06
               97.5E-03            1.18159E+06        1.1818E+06 
              100.E-03             1.19426E+06        1.19447E+06
              102.5E-03            1.20673E+06        1.20695E+06
              105.E-03             1.21901E+06        1.21924E+06
              107.5E-03            1.23111E+06        1.23135E+06
              110.E-03             1.24302E+06        1.24328E+06
              112.5E-03            1.25477E+06        1.25504E+06
              115.E-03             1.26636E+06        1.26664E+06
              117.5E-03            1.27779E+06        1.27809E+06
              120.E-03             1.28907E+06        1.28938E+06
              122.5E-03            1.3002E+06         1.30053E+06
              125.E-03             1.31118E+06        1.31153E+06
              127.5E-03            1.32204E+06        1.32241E+06
              130.E-03             1.33275E+06        1.33315E+06
              132.5E-03            1.34334E+06        1.34376E+06
              135.E-03             1.35381E+06        1.35425E+06
              137.5E-03            1.36416E+06        1.36462E+06
              140.E-03             1.37438E+06        1.37487E+06
              142.5E-03            1.3845E+06         1.38502E+06
              145.E-03             1.3945E+06         1.39505E+06
              147.5E-03            1.4044E+06         1.40498E+06
              150.E-03             1.41419E+06        1.4148E+06 
              152.5E-03            1.42388E+06        1.42452E+06
              155.E-03             1.43347E+06        1.43415E+06
              157.5E-03            1.44296E+06        1.44368E+06
              160.E-03             1.45236E+06        1.45312E+06
              162.5E-03            1.46167E+06        1.46247E+06
              165.E-03             1.47089E+06        1.47173E+06
              167.5E-03            1.48002E+06        1.4809E+06 
              170.E-03             1.48907E+06        1.48999E+06
              172.5E-03            1.49803E+06        1.499E+06  
              175.E-03             1.50691E+06        1.50794E+06
              177.5E-03            1.51571E+06        1.51679E+06
              180.E-03             1.52444E+06        1.52557E+06
              182.5E-03            1.53309E+06        1.53427E+06
              185.E-03             1.54166E+06        1.5429E+06 
              187.5E-03            1.55017E+06        1.55146E+06
              190.E-03             1.5586E+06         1.55995E+06
              192.5E-03            1.56696E+06        1.56838E+06
              195.E-03             1.57525E+06        1.57673E+06
              197.5E-03            1.58348E+06        1.58503E+06
              200.E-03             1.59164E+06        1.59326E+06
              202.5E-03            1.59973E+06        1.60143E+06
              205.E-03             1.60776E+06        1.60953E+06
              207.5E-03            1.61573E+06        1.61758E+06
              210.E-03             1.62364E+06        1.62557E+06
              212.5E-03            1.63149E+06        1.6335E+06 
              215.E-03             1.63928E+06        1.64138E+06
              217.5E-03            1.64702E+06        1.6492E+06 
              220.E-03             1.65469E+06        1.65697E+06
              222.5E-03            1.66231E+06        1.66469E+06
              225.E-03             1.66988E+06        1.67236E+06
              227.5E-03            1.67739E+06        1.67997E+06
              230.E-03             1.68485E+06        1.68754E+06
              232.5E-03            1.69225E+06        1.69505E+06
              235.E-03             1.69961E+06        1.70252E+06
              237.5E-03            1.70691E+06        1.70994E+06
              240.E-03             1.71416E+06        1.71732E+06
              242.5E-03            1.72137E+06        1.72465E+06
              245.E-03             1.72852E+06        1.73194E+06
              247.5E-03            1.73563E+06        1.73918E+06
              250.E-03             1.74269E+06        1.74638E+06
              252.5E-03            1.7497E+06         1.75354E+06
              255.E-03             1.75667E+06        1.76066E+06
              257.5E-03            1.76359E+06        1.76773E+06
              260.E-03             1.77047E+06        1.77477E+06
              262.5E-03            1.7773E+06         1.78177E+06
              265.E-03             1.78409E+06        1.78873E+06
              267.5E-03            1.79083E+06        1.79565E+06
              270.E-03             1.79753E+06        1.80254E+06
              272.5E-03            1.80419E+06        1.80939E+06
              275.E-03             1.81081E+06        1.8162E+06 
              277.5E-03            1.81738E+06        1.82298E+06
              280.E-03             1.82392E+06        1.82973E+06
              282.5E-03            1.83041E+06        1.83644E+06
              285.E-03             1.83686E+06        1.84311E+06
              287.5E-03            1.84328E+06        1.84976E+06
              290.E-03             1.84965E+06        1.85637E+06
              292.5E-03            1.85598E+06        1.86295E+06
              295.E-03             1.86228E+06        1.8695E+06 
              297.5E-03            1.86853E+06        1.87602E+06
              300.E-03             1.87475E+06        1.88251E+06
              302.5E-03            1.88093E+06        1.88897E+06
              305.E-03             1.88707E+06        1.8954E+06 
              307.5E-03            1.89317E+06        1.9018E+06 
              310.E-03             1.89924E+06        1.90817E+06
              312.5E-03            1.90527E+06        1.91452E+06
              315.E-03             1.91126E+06        1.92084E+06
              317.5E-03            1.91721E+06        1.92713E+06
              320.E-03             1.92313E+06        1.93339E+06
              322.5E-03            1.92901E+06        1.93963E+06
              325.E-03             1.93486E+06        1.94585E+06
              327.5E-03            1.94066E+06        1.95204E+06
              330.E-03             1.94643E+06        1.9582E+06 
              332.5E-03            1.95217E+06        1.96434E+06
              335.E-03             1.95787E+06        1.97046E+06
              337.5E-03            1.96353E+06        1.97655E+06
              340.E-03             1.96916E+06        1.98262E+06
              342.5E-03            1.97475E+06        1.98867E+06
              345.E-03             1.9803E+06         1.9947E+06 
              347.5E-03            1.98586E+06        2.00074E+06
              350.E-03             1.99134E+06        2.00672E+06
              352.5E-03            1.99679E+06        2.01268E+06
              355.E-03             2.0022E+06         2.01862E+06
              357.5E-03            2.00757E+06        2.02454E+06
              360.E-03             2.01291E+06        2.03044E+06
              362.5E-03            2.01821E+06        2.03632E+06
              365.E-03             2.02347E+06        2.04218E+06
              367.5E-03            2.0287E+06         2.04802E+06
              370.E-03             2.03389E+06        2.05384E+06
              372.5E-03            2.03904E+06        2.05965E+06
              375.E-03             2.04415E+06        2.06543E+06
              377.5E-03            2.04923E+06        2.0712E+06 
              380.E-03             2.05427E+06        2.07694E+06
              382.5E-03            2.05927E+06        2.08267E+06
              385.E-03             2.06423E+06        2.08838E+06
              387.5E-03            2.06915E+06        2.09408E+06
              390.E-03             2.07404E+06        2.09976E+06
              392.5E-03            2.07888E+06        2.10542E+06
              395.E-03             2.08368E+06        2.11106E+06
              397.5E-03            2.08845E+06        2.11669E+06
              400.E-03             2.09317E+06        2.12229E+06
              402.5E-03            2.09785E+06        2.12789E+06
              405.E-03             2.10248E+06        2.13346E+06
              407.5E-03            2.10708E+06        2.13902E+06
              410.E-03             2.11163E+06        2.14457E+06
              412.5E-03            2.11613E+06        2.15009E+06
              415.E-03             2.12059E+06        2.1556E+06 
              417.5E-03            2.12501E+06        2.16109E+06
              420.E-03             2.12938E+06        2.16657E+06
              422.5E-03            2.1337E+06         2.17203E+06
              425.E-03             2.13797E+06        2.17747E+06
              427.5E-03            2.1422E+06         2.18289E+06
              430.E-03             2.14637E+06        2.1883E+06 
              432.5E-03            2.1505E+06         2.19369E+06
              435.E-03             2.15457E+06        2.19906E+06
              437.5E-03            2.15859E+06        2.20441E+06
              440.E-03             2.16255E+06        2.20974E+06
              442.5E-03            2.16646E+06        2.21505E+06
              445.E-03             2.17031E+06        2.22034E+06
              447.5E-03            2.1741E+06         2.22561E+06
              450.E-03             2.17783E+06        2.23085E+06
              452.5E-03            2.1815E+06         2.23607E+06
              455.E-03             2.1851E+06         2.24127E+06
              457.5E-03            2.18864E+06        2.24644E+06
              460.E-03             2.19212E+06        2.25159E+06
              462.5E-03            2.19552E+06        2.25671E+06
              465.E-03             2.19885E+06        2.26179E+06
              467.5E-03            2.2021E+06         2.26685E+06
              470.E-03             2.20528E+06        2.27187E+06
              472.5E-03            2.20838E+06        2.27685E+06
              475.E-03             2.2114E+06         2.28179E+06
              477.5E-03            2.21433E+06        2.2867E+06 
              480.E-03             2.21717E+06        2.29155E+06
              482.5E-03            2.21991E+06        2.29636E+06
              485.E-03             2.22256E+06        2.30112E+06
              487.5E-03            2.2251E+06         2.30582E+06
              490.E-03             2.22754E+06        2.31045E+06
              492.5E-03            2.22986E+06        2.31502E+06
              495.E-03             2.23206E+06        2.3195E+06 
              497.5E-03            2.23413E+06        2.32391E+06
              500.E-03             2.23607E+06        2.32822E+06
              502.5E-03            2.23786E+06        2.33243E+06
              505.E-03             2.23949E+06        2.33653E+06
              507.5E-03            2.24094E+06        2.34049E+06
              510.E-03             2.24221E+06        2.3443E+06 
              512.5E-03            2.24326E+06        2.34794E+06
              515.E-03             2.24408E+06        2.35138E+06
              517.5E-03            2.24463E+06        2.35459E+06
              520.E-03             2.24487E+06        2.35752E+06
              522.5E-03            2.24473E+06        2.3601E+06 
              525.E-03             2.24413E+06        2.36225E+06
              527.5E-03            2.24292E+06        2.36383E+06
              530.E-03             2.2409E+06         2.36461E+06
              532.5E-03            2.23769E+06        2.36421E+06
              535.E-03             2.23263E+06        2.36193E+06
              537.5E-03            2.2246E+06         2.35657E+06
              540.E-03             2.21225E+06        2.34648E+06
              542.5E-03            2.19481E+06        2.33023E+06
              545.E-03             2.1729E+06         2.30845E+06
              547.5E-03            2.14808E+06        2.28186E+06
              550.E-03             2.12202E+06        2.25293E+06
              552.5E-03            2.09609E+06        2.22303E+06
              555.E-03             2.07126E+06        2.19365E+06
              557.5E-03            2.04812E+06        2.16565E+06
              560.E-03             2.02695E+06        2.13955E+06
              562.5E-03            2.00784E+06        2.11559E+06
              565.E-03             1.99072E+06        2.09383E+06
              567.5E-03            1.97547E+06        2.07419E+06
              570.E-03             1.96195E+06        2.05655E+06
              572.5E-03            1.94997E+06        2.04074E+06
              575.E-03             1.93939E+06        2.0266E+06 
              577.5E-03            1.93003E+06        2.01396E+06
              580.E-03             1.92178E+06        2.00267E+06
              582.5E-03            1.91449E+06        1.99257E+06
              585.E-03             1.90805E+06        1.98356E+06
              587.5E-03            1.90238E+06        1.9755E+06 
              590.E-03             1.89739E+06        1.9683E+06 
              592.5E-03            1.893E+06          1.96187E+06
              595.E-03             1.88915E+06        1.95602E+06
              597.5E-03            1.88578E+06        1.94987E+06
              600.E-03             1.88279E+06        1.94074E+06
              602.5E-03            1.87976E+06        1.92675E+06
              605.E-03             1.8765E+06         1.91123E+06
              607.5E-03            1.87328E+06        1.89714E+06
              610.E-03             1.87033E+06        1.88516E+06
              612.5E-03            1.86775E+06        1.87512E+06
              615.E-03             1.86556E+06        1.86667E+06
              617.5E-03            1.86374E+06        1.85953E+06
              620.E-03             1.86229E+06        1.85345E+06
              622.5E-03            1.86116E+06        1.84823E+06
              625.E-03             1.86033E+06        1.84374E+06
              627.5E-03            1.85978E+06        1.83984E+06
              630.E-03             1.85947E+06        1.83644E+06
              632.5E-03            1.85938E+06        1.83346E+06
              635.E-03             1.8595E+06         1.83084E+06
              637.5E-03            1.8598E+06         1.82852E+06
              640.E-03             1.86027E+06        1.82647E+06
              642.5E-03            1.86088E+06        1.82465E+06
              645.E-03             1.86164E+06        1.82303E+06
              647.5E-03            1.86253E+06        1.8216E+06 
              650.E-03             1.86353E+06        1.82032E+06
              652.5E-03            1.86465E+06        1.81919E+06
              655.E-03             1.86586E+06        1.8182E+06 
              657.5E-03            1.86717E+06        1.81733E+06
              660.E-03             1.86856E+06        1.81658E+06
              662.5E-03            1.87003E+06        1.81594E+06
              665.E-03             1.87158E+06        1.8154E+06 
              667.5E-03            1.8732E+06         1.81497E+06
              670.E-03             1.87489E+06        1.81464E+06
              672.5E-03            1.87664E+06        1.8144E+06 
              675.E-03             1.87845E+06        1.81426E+06
              677.5E-03            1.88032E+06        1.81421E+06
              680.E-03             1.88224E+06        1.81426E+06
              682.5E-03            1.88421E+06        1.81441E+06
              685.E-03             1.88623E+06        1.81465E+06
              687.5E-03            1.8883E+06         1.81499E+06
              690.E-03             1.89041E+06        1.81542E+06
              692.5E-03            1.89256E+06        1.81596E+06
              695.E-03             1.89475E+06        1.8166E+06 
              697.5E-03            1.89698E+06        1.81735E+06
              700.E-03             1.89925E+06        1.8182E+06 
              702.5E-03            1.90156E+06        1.81916E+06
              705.E-03             1.90389E+06        1.82024E+06
              707.5E-03            1.90626E+06        1.82144E+06
              710.E-03             1.90866E+06        1.82275E+06
              712.5E-03            1.91109E+06        1.82419E+06
              715.E-03             1.91355E+06        1.82576E+06
              717.5E-03            1.91603E+06        1.82747E+06
              720.E-03             1.91854E+06        1.8293E+06 
              722.5E-03            1.92108E+06        1.83128E+06
              725.E-03             1.92363E+06        1.83341E+06
              727.5E-03            1.92621E+06        1.83568E+06
              730.E-03             1.9288E+06         1.83811E+06
              732.5E-03            1.93142E+06        1.8407E+06 
              735.E-03             1.93405E+06        1.84345E+06
              737.5E-03            1.93669E+06        1.84638E+06
              740.E-03             1.93935E+06        1.84948E+06
              742.5E-03            1.94203E+06        1.85276E+06
              745.E-03             1.94472E+06        1.85623E+06
              747.5E-03            1.94741E+06        1.85989E+06
              750.E-03             1.95012E+06        1.86374E+06
              752.5E-03            1.95283E+06        1.8678E+06 
              755.E-03             1.95556E+06        1.87207E+06
              757.5E-03            1.95829E+06        1.87656E+06
              760.E-03             1.96102E+06        1.88126E+06
              762.5E-03            1.96376E+06        1.88619E+06
              765.E-03             1.9665E+06         1.89134E+06
              767.5E-03            1.96925E+06        1.89673E+06
              770.E-03             1.972E+06          1.90236E+06
              772.5E-03            1.97475E+06        1.90823E+06
              775.E-03             1.9775E+06         1.91435E+06
              777.5E-03            1.98025E+06        1.92071E+06
              780.E-03             1.983E+06          1.92733E+06
              782.5E-03            1.98576E+06        1.93419E+06
              785.E-03             1.98851E+06        1.9413E+06 
              787.5E-03            1.99126E+06        1.94867E+06
              790.E-03             1.99402E+06        1.95628E+06
              792.5E-03            1.99678E+06        1.96413E+06
              795.E-03             1.99953E+06        1.97222E+06
              797.5E-03            2.00229E+06        1.98055E+06
              800.E-03             2.00505E+06        1.98911E+06
              802.5E-03            2.00782E+06        1.99789E+06
              805.E-03             2.01058E+06        2.00688E+06
              807.5E-03            2.01335E+06        2.01607E+06
              810.E-03             2.01613E+06        2.02545E+06
              812.5E-03            2.01891E+06        2.03501E+06
              815.E-03             2.02169E+06        2.04475E+06
              817.5E-03            2.02448E+06        2.05463E+06
              820.E-03             2.02728E+06        2.06466E+06
              822.5E-03            2.03008E+06        2.07482E+06
              825.E-03             2.03288E+06        2.0851E+06 
              827.5E-03            2.03569E+06        2.09547E+06
              830.E-03             2.0385E+06         2.10592E+06
              832.5E-03            2.04131E+06        2.11645E+06
              835.E-03             2.04413E+06        2.12702E+06
              837.5E-03            2.04694E+06        2.13764E+06
              840.E-03             2.04975E+06        2.14826E+06
              842.5E-03            2.05255E+06        2.15889E+06
              845.E-03             2.05535E+06        2.16949E+06
              847.5E-03            2.05814E+06        2.18005E+06
              850.E-03             2.0609E+06         2.19053E+06
              852.5E-03            2.06365E+06        2.20091E+06
              855.E-03             2.06637E+06        2.21114E+06
              857.5E-03            2.06906E+06        2.22118E+06
              860.E-03             2.07169E+06        2.23097E+06
              862.5E-03            2.07425E+06        2.24043E+06
              865.E-03             2.07672E+06        2.24945E+06
              867.5E-03            2.07905E+06        2.25786E+06
              870.E-03             2.08115E+06        2.26538E+06
              872.5E-03            2.08283E+06        2.27148E+06
              875.E-03             2.08348E+06        2.27464E+06
              877.5E-03            2.08594E+06        2.28253E+06
              880.E-03             2.08336E+06        2.27859E+06
              882.5E-03            2.00332E+06        2.20755E+06
              885.E-03             1.99936E+06        2.1471E+06 
              887.5E-03            1.98103E+06        2.08107E+06
              890.E-03             1.9542E+06         2.02739E+06
              892.5E-03            1.93157E+06        1.99097E+06
              895.E-03             1.9097E+06         1.95769E+06
              897.5E-03            1.93623E+06        1.91918E+06
              900.E-03             1.95658E+06        1.89924E+06
              902.5E-03            1.94671E+06        1.88658E+06
              905.E-03             1.97635E+06        1.87207E+06
              907.5E-03            1.9724E+06         1.86722E+06
              910.E-03             1.97108E+06        1.86428E+06
              912.5E-03            1.97744E+06        1.86422E+06
              915.E-03             1.97971E+06        1.86827E+06
              917.5E-03            1.99039E+06        1.87617E+06
              920.E-03             1.99335E+06        1.8873E+06 
              922.5E-03            2.00083E+06        1.90425E+06
              925.E-03             2.0044E+06         1.92566E+06
              927.5E-03            2.01871E+06        1.96767E+06
              929.094E-03          2.01678E+06        2.29984E+06




