
                  X               ep1-out            ep2-out            ep3-out             ep1-in             ep2-in             ep3-in     

                0.                 0.                 0.                 0.                 0.                 0.                 0.         
                2.5E-03          510.16E-06        -824.108E-06        313.948E-06        615.559E-06       -961.756E-06        346.197E-06  
                5.E-03             2.10306E-03       -3.49708E-03        1.39402E-03        2.29878E-03       -3.71602E-03        1.41724E-03
                7.5E-03            3.68546E-03       -6.18403E-03        2.49857E-03        3.94641E-03       -6.4632E-03         2.51679E-03
               10.E-03             5.26926E-03       -8.87824E-03        3.60898E-03        5.58255E-03       -9.20628E-03        3.62373E-03
               12.5E-03            6.85567E-03      -11.5779E-03         4.72221E-03        7.21181E-03      -11.9462E-03         4.73438E-03
               15.E-03             8.44468E-03      -14.2819E-03         5.83717E-03        8.8365E-03       -14.6839E-03         5.84737E-03
               17.5E-03           10.036E-03        -16.9894E-03         6.95341E-03       10.4579E-03       -17.42E-03           6.96205E-03
               20.E-03            11.6293E-03       -19.6999E-03         8.07067E-03       12.0769E-03       -20.155E-03          8.07807E-03
               22.5E-03           13.2242E-03       -22.413E-03          9.18881E-03       13.694E-03        -22.8892E-03         9.1952E-03 
               25.E-03            14.8206E-03       -25.1283E-03        10.3077E-03        15.3097E-03       -25.623E-03         10.3133E-03 
               27.5E-03           16.4183E-03       -27.8456E-03        11.4273E-03        16.9243E-03       -28.3565E-03        11.4322E-03 
               30.E-03            18.017E-03        -30.5646E-03        12.5475E-03        18.5381E-03       -31.0899E-03        12.5518E-03 
               32.5E-03           19.6168E-03       -33.2851E-03        13.6683E-03        20.1512E-03       -33.8233E-03        13.6721E-03 
               35.E-03            21.2174E-03       -36.0069E-03        14.7895E-03        21.7637E-03       -36.5566E-03        14.7929E-03 
               37.5E-03           22.8188E-03       -38.73E-03          15.9113E-03        23.3759E-03       -39.2901E-03        15.9143E-03 
               40.E-03            24.4208E-03       -41.4542E-03        17.0334E-03        24.9877E-03       -42.0238E-03        17.0361E-03 
               42.5E-03           26.0235E-03       -44.1794E-03        18.1559E-03        26.5993E-03       -44.7576E-03        18.1583E-03 
               45.E-03            27.6268E-03       -46.9055E-03        19.2787E-03        28.2107E-03       -47.4916E-03        19.281E-03  
               47.5E-03           29.2306E-03       -49.6325E-03        20.4019E-03        29.822E-03        -50.2259E-03        20.4039E-03 
               50.E-03            30.8348E-03       -52.3602E-03        21.5254E-03        31.4332E-03       -52.9604E-03        21.5272E-03 
               52.5E-03           32.4395E-03       -55.0887E-03        22.6492E-03        33.0443E-03       -55.6952E-03        22.6509E-03 
               55.E-03            34.0446E-03       -57.8178E-03        23.7732E-03        34.6555E-03       -58.4302E-03        23.7747E-03 
               57.5E-03           35.6501E-03       -60.5476E-03        24.8975E-03        36.2666E-03       -61.1655E-03        24.8989E-03 
               60.E-03            37.2559E-03       -63.2779E-03        26.022E-03         37.8778E-03       -63.9011E-03        26.0233E-03 
               62.5E-03           38.862E-03        -66.0088E-03        27.1467E-03        39.4889E-03       -66.6369E-03        27.1479E-03 
               65.E-03            40.2537E-03       -67.6366E-03        27.3829E-03        40.9414E-03       -68.3295E-03        27.3881E-03 
               67.5E-03           41.8261E-03       -68.9147E-03        27.0886E-03        42.5787E-03       -69.6631E-03        27.0845E-03 
               70.E-03            43.5749E-03       -70.0828E-03        26.508E-03         44.3209E-03       -70.8275E-03        26.5066E-03 
               72.5E-03           45.3447E-03       -71.1333E-03        25.7886E-03        46.0938E-03       -71.8807E-03        25.7869E-03 
               75.E-03            47.1162E-03       -72.1128E-03        24.9966E-03        47.8656E-03       -72.8609E-03        24.9953E-03 
               77.5E-03           48.8839E-03       -73.0497E-03        24.1658E-03        49.6339E-03       -73.7986E-03        24.1647E-03 
               80.E-03            50.6485E-03       -73.9619E-03        23.3133E-03        51.399E-03        -74.7114E-03        23.3124E-03 
               82.5E-03           52.4109E-03       -74.8597E-03        22.4487E-03        53.1619E-03       -75.6098E-03        22.4478E-03 
               85.E-03            54.172E-03        -75.7491E-03        21.5771E-03        54.9235E-03       -76.4998E-03        21.5762E-03 
               87.5E-03           55.9323E-03       -76.6338E-03        20.7015E-03        56.6843E-03       -77.3849E-03        20.7006E-03 
               90.E-03            57.6922E-03       -77.5157E-03        19.8235E-03        58.4446E-03       -78.2673E-03        19.8227E-03 
               92.5E-03           59.4518E-03       -78.396E-03         18.9442E-03        60.2047E-03       -79.1481E-03        18.9433E-03 
               95.E-03            61.2114E-03       -79.2754E-03        18.064E-03         61.9648E-03       -80.0279E-03        18.0632E-03 
               97.5E-03           62.9709E-03       -80.1543E-03        17.1833E-03        63.7248E-03       -80.9073E-03        17.1825E-03 
              100.E-03            64.7305E-03       -81.0329E-03        16.3024E-03        65.4848E-03       -81.7864E-03        16.3016E-03 
              102.5E-03           66.49E-03         -81.9113E-03        15.4213E-03        67.2449E-03       -82.6653E-03        15.4204E-03 
              105.E-03            68.2497E-03       -82.7897E-03        14.54E-03          69.005E-03        -83.5442E-03        14.5392E-03 
              107.5E-03           70.0094E-03       -83.6681E-03        13.6587E-03        70.7652E-03       -84.4231E-03        13.6579E-03 
              110.E-03            71.7692E-03       -84.5465E-03        12.7774E-03        72.5255E-03       -85.302E-03         12.7765E-03 
              112.5E-03           73.529E-03        -85.4249E-03        11.896E-03         74.2859E-03       -86.181E-03         11.8951E-03 
              115.E-03            75.2903E-03       -86.5736E-03        11.2834E-03        76.0514E-03       -87.3332E-03        11.2818E-03 
              117.5E-03           77.1549E-03       -88.3586E-03        11.2037E-03        78.1473E-03       -89.3451E-03        11.1979E-03 
              120.E-03            79.1294E-03       -90.6009E-03        11.4715E-03        80.1432E-03       -91.613E-03         11.4697E-03 
              122.5E-03           81.0654E-03       -92.9749E-03        11.9095E-03        82.093E-03        -94.0024E-03        11.9094E-03 
              125.E-03            82.9747E-03       -95.3953E-03        12.4206E-03        84.006E-03        -96.4263E-03        12.4203E-03 
              127.5E-03           84.8689E-03       -97.8312E-03        12.9622E-03        85.9042E-03       -98.8661E-03        12.9619E-03 
              130.E-03            86.7564E-03      -100.273E-03         13.5167E-03        87.796E-03       -101.312E-03         13.5164E-03 
              132.5E-03           88.641E-03       -102.718E-03         14.0767E-03        89.6851E-03      -103.762E-03         14.0764E-03 
              135.E-03            90.5242E-03      -105.163E-03         14.639E-03         91.5733E-03      -106.212E-03         14.6388E-03 
              137.5E-03           92.4069E-03      -107.609E-03         15.2024E-03        93.4614E-03      -108.664E-03         15.2023E-03 
              140.E-03            94.2893E-03      -110.056E-03         15.7662E-03        95.3496E-03      -111.116E-03         15.7661E-03 
              142.5E-03           96.1716E-03      -112.502E-03         16.3302E-03        97.238E-03       -113.568E-03         16.3303E-03 
              145.E-03            98.0539E-03      -114.948E-03         16.8944E-03        99.1267E-03      -116.021E-03         16.8945E-03 
              147.5E-03           99.936E-03       -117.395E-03         17.4586E-03       101.016E-03       -118.475E-03         17.4588E-03 
              150.E-03           101.818E-03       -119.841E-03         18.0229E-03       102.905E-03       -120.928E-03         18.0232E-03 
              152.5E-03          103.7E-03         -122.288E-03         18.5873E-03       104.795E-03       -123.383E-03         18.5876E-03 
              155.E-03           105.582E-03       -124.734E-03         19.1517E-03       106.685E-03       -125.837E-03         19.1521E-03 
              157.5E-03          107.464E-03       -127.18E-03          19.7161E-03       108.575E-03       -128.292E-03         19.7166E-03 
              160.E-03           109.346E-03       -129.627E-03         20.2806E-03       110.466E-03       -130.747E-03         20.2811E-03 
              162.5E-03          111.228E-03       -132.073E-03         20.8451E-03       112.357E-03       -133.203E-03         20.8457E-03 
              165.E-03           113.11E-03        -134.52E-03          21.4096E-03       114.249E-03       -135.659E-03         21.4103E-03 
              167.5E-03          114.992E-03       -136.966E-03         21.9742E-03       116.14E-03        -138.115E-03         21.975E-03  
              170.E-03           116.874E-03       -139.412E-03         22.5388E-03       118.032E-03       -140.572E-03         22.5397E-03 
              172.5E-03          118.755E-03       -141.859E-03         23.1035E-03       119.925E-03       -143.029E-03         23.1044E-03 
              175.E-03           120.637E-03       -144.305E-03         23.6681E-03       121.817E-03       -145.487E-03         23.6691E-03 
              177.5E-03          122.519E-03       -146.751E-03         24.2328E-03       123.71E-03        -147.944E-03         24.2339E-03 
              180.E-03           124.4E-03         -149.198E-03         24.7976E-03       125.604E-03       -150.402E-03         24.7987E-03 
              182.5E-03          126.281E-03       -151.644E-03         25.3623E-03       127.497E-03       -152.861E-03         25.3636E-03 
              185.E-03           128.163E-03       -154.09E-03          25.9271E-03       129.391E-03       -155.32E-03          25.9285E-03 
              187.5E-03          130.044E-03       -156.536E-03         26.492E-03        131.286E-03       -157.779E-03         26.4934E-03 
              190.E-03           131.925E-03       -158.982E-03         27.0568E-03       133.18E-03        -160.239E-03         27.0583E-03 
              192.5E-03          133.807E-03       -161.428E-03         27.6217E-03       135.075E-03       -162.699E-03         27.6233E-03 
              195.E-03           135.688E-03       -163.874E-03         28.1866E-03       136.971E-03       -165.159E-03         28.1883E-03 
              197.5E-03          137.569E-03       -166.32E-03          28.7516E-03       138.867E-03       -167.62E-03          28.7533E-03 
              200.E-03           139.45E-03        -168.766E-03         29.3165E-03       140.763E-03       -170.081E-03         29.3183E-03 
              202.5E-03          141.33E-03        -171.212E-03         29.8815E-03       142.659E-03       -172.542E-03         29.8834E-03 
              205.E-03           143.211E-03       -173.658E-03         30.4465E-03       144.556E-03       -175.004E-03         30.4485E-03 
              207.5E-03          145.092E-03       -176.103E-03         31.0115E-03       146.453E-03       -177.466E-03         31.0136E-03 
              210.E-03           146.972E-03       -178.549E-03         31.5766E-03       148.35E-03        -179.929E-03         31.5788E-03 
              212.5E-03          148.853E-03       -180.994E-03         32.1417E-03       150.248E-03       -182.392E-03         32.1439E-03 
              215.E-03           150.733E-03       -183.44E-03          32.7068E-03       152.146E-03       -184.855E-03         32.7091E-03 
              217.5E-03          152.613E-03       -185.885E-03         33.2719E-03       154.045E-03       -187.319E-03         33.2743E-03 
              220.E-03           154.493E-03       -188.33E-03          33.837E-03        155.944E-03       -189.783E-03         33.8396E-03 
              222.5E-03          156.373E-03       -190.775E-03         34.4022E-03       157.843E-03       -192.248E-03         34.4049E-03 
              225.E-03           158.253E-03       -193.22E-03          34.9674E-03       159.743E-03       -194.713E-03         34.9701E-03 
              227.5E-03          160.133E-03       -195.665E-03         35.5326E-03       161.643E-03       -197.179E-03         35.5354E-03 
              230.E-03           162.012E-03       -198.11E-03          36.0978E-03       163.544E-03       -199.644E-03         36.1008E-03 
              232.5E-03          163.892E-03       -200.555E-03         36.663E-03        165.445E-03       -202.111E-03         36.6661E-03 
              235.E-03           165.771E-03       -202.999E-03         37.2283E-03       167.346E-03       -204.577E-03         37.2315E-03 
              237.5E-03          167.65E-03        -205.443E-03         37.7935E-03       169.248E-03       -207.045E-03         37.7969E-03 
              240.E-03           169.529E-03       -207.888E-03         38.3588E-03       171.15E-03        -209.512E-03         38.3623E-03 
              242.5E-03          171.408E-03       -210.332E-03         38.9241E-03       173.053E-03       -211.98E-03          38.9277E-03 
              245.E-03           173.286E-03       -212.776E-03         39.4895E-03       174.956E-03       -214.449E-03         39.4932E-03 
              247.5E-03          175.165E-03       -215.219E-03         40.0548E-03       176.859E-03       -216.918E-03         40.0586E-03 
              250.E-03           177.043E-03       -217.663E-03         40.6201E-03       178.763E-03       -219.387E-03         40.6241E-03 
              252.5E-03          178.921E-03       -220.106E-03         41.1855E-03       180.668E-03       -221.857E-03         41.1896E-03 
              255.E-03           180.799E-03       -222.55E-03          41.7509E-03       182.573E-03       -224.328E-03         41.7551E-03 
              257.5E-03          182.676E-03       -224.993E-03         42.3163E-03       184.478E-03       -226.799E-03         42.3207E-03 
              260.E-03           184.554E-03       -227.435E-03         42.8817E-03       186.384E-03       -229.27E-03          42.8862E-03 
              262.5E-03          186.431E-03       -229.878E-03         43.4472E-03       188.29E-03        -231.742E-03         43.4518E-03 
              265.E-03           188.308E-03       -232.32E-03          44.0126E-03       190.197E-03       -234.215E-03         44.0174E-03 
              267.5E-03          190.185E-03       -234.763E-03         44.5781E-03       192.105E-03       -236.688E-03         44.583E-03  
              270.E-03           192.061E-03       -237.205E-03         45.1435E-03       194.013E-03       -239.162E-03         45.1486E-03 
              272.5E-03          193.937E-03       -239.646E-03         45.709E-03        195.922E-03       -241.636E-03         45.7143E-03 
              275.E-03           195.814E-03       -242.088E-03         46.2745E-03       197.831E-03       -244.111E-03         46.28E-03   
              277.5E-03          197.689E-03       -244.529E-03         46.84E-03         199.741E-03       -246.586E-03         46.8456E-03 
              280.E-03           199.565E-03       -246.97E-03          47.4055E-03       201.651E-03       -249.062E-03         47.4113E-03 
              282.5E-03          201.44E-03        -249.411E-03         47.9711E-03       203.562E-03       -251.539E-03         47.9771E-03 
              285.E-03           203.315E-03       -251.852E-03         48.5366E-03       205.473E-03       -254.016E-03         48.5428E-03 
              287.5E-03          205.19E-03        -254.292E-03         49.1022E-03       207.386E-03       -256.494E-03         49.1085E-03 
              290.E-03           207.064E-03       -256.732E-03         49.6677E-03       209.299E-03       -258.973E-03         49.6743E-03 
              292.5E-03          208.938E-03       -259.171E-03         50.2333E-03       211.212E-03       -261.452E-03         50.2401E-03 
              295.E-03           210.812E-03       -261.611E-03         50.7989E-03       213.126E-03       -263.932E-03         50.8059E-03 
              297.5E-03          212.685E-03       -264.05E-03          51.3645E-03       215.041E-03       -266.413E-03         51.3717E-03 
              300.E-03           214.558E-03       -266.488E-03         51.9301E-03       216.957E-03       -268.894E-03         51.9375E-03 
              302.5E-03          216.431E-03       -268.927E-03         52.4957E-03       218.873E-03       -271.377E-03         52.5034E-03 
              305.E-03           218.303E-03       -271.364E-03         53.0614E-03       220.79E-03        -273.86E-03          53.0692E-03 
              307.5E-03          220.175E-03       -273.802E-03         53.627E-03        222.708E-03       -276.343E-03         53.6351E-03 
              310.E-03           222.047E-03       -276.239E-03         54.1926E-03       224.627E-03       -278.828E-03         54.201E-03  
              312.5E-03          223.918E-03       -278.676E-03         54.7583E-03       226.546E-03       -281.313E-03         54.7669E-03 
              315.E-03           225.789E-03       -281.112E-03         55.324E-03        228.467E-03       -283.8E-03           55.3328E-03 
              317.5E-03          227.659E-03       -283.548E-03         55.8896E-03       230.388E-03       -286.287E-03         55.8988E-03 
              320.E-03           229.529E-03       -285.984E-03         56.4553E-03       232.31E-03        -288.775E-03         56.4647E-03 
              322.5E-03          231.398E-03       -288.419E-03         57.021E-03        234.233E-03       -291.264E-03         57.0307E-03 
              325.E-03           233.267E-03       -290.854E-03         57.5867E-03       236.157E-03       -293.754E-03         57.5967E-03 
              327.5E-03          235.136E-03       -293.288E-03         58.1524E-03       238.082E-03       -296.244E-03         58.1627E-03 
              330.E-03           237.004E-03       -295.722E-03         58.7181E-03       240.008E-03       -298.736E-03         58.7287E-03 
              332.5E-03          238.871E-03       -298.155E-03         59.2838E-03       241.934E-03       -301.229E-03         59.2947E-03 
              335.E-03           240.738E-03       -300.588E-03         59.8495E-03       243.862E-03       -303.723E-03         59.8608E-03 
              337.5E-03          242.605E-03       -303.02E-03          60.4153E-03       245.791E-03       -306.218E-03         60.4268E-03 
              340.E-03           244.471E-03       -305.452E-03         60.981E-03        247.721E-03       -308.714E-03         60.9929E-03 
              342.5E-03          246.336E-03       -307.883E-03         61.5468E-03       249.652E-03       -311.211E-03         61.559E-03  
              345.E-03           248.201E-03       -310.313E-03         62.1125E-03       251.584E-03       -313.71E-03          62.1251E-03 
              347.5E-03          250.065E-03       -312.743E-03         62.6783E-03       253.518E-03       -316.209E-03         62.6912E-03 
              350.E-03           251.929E-03       -315.173E-03         63.244E-03        255.453E-03       -318.71E-03          63.2574E-03 
              352.5E-03          253.792E-03       -317.601E-03         63.8098E-03       257.388E-03       -321.212E-03         63.8236E-03 
              355.E-03           255.654E-03       -320.029E-03         64.3755E-03       259.326E-03       -323.715E-03         64.3897E-03 
              357.5E-03          257.515E-03       -322.457E-03         64.9413E-03       261.264E-03       -326.22E-03          64.9559E-03 
              360.E-03           259.376E-03       -324.883E-03         65.5071E-03       263.204E-03       -328.726E-03         65.5221E-03 
              362.5E-03          261.236E-03       -327.309E-03         66.0729E-03       265.145E-03       -331.234E-03         66.0884E-03 
              365.E-03           263.096E-03       -329.734E-03         66.6386E-03       267.088E-03       -333.742E-03         66.6546E-03 
              367.5E-03          264.954E-03       -332.159E-03         67.2044E-03       269.032E-03       -336.253E-03         67.2209E-03 
              370.E-03           266.812E-03       -334.583E-03         67.7702E-03       270.978E-03       -338.765E-03         67.7872E-03 
              372.5E-03          268.669E-03       -337.005E-03         68.336E-03        272.925E-03       -341.278E-03         68.3535E-03 
              375.E-03           270.526E-03       -339.427E-03         68.9018E-03       274.874E-03       -343.794E-03         68.9198E-03 
              377.5E-03          272.381E-03       -341.849E-03         69.4676E-03       276.824E-03       -346.311E-03         69.4861E-03 
              380.E-03           274.235E-03       -344.269E-03         70.0334E-03       278.777E-03       -348.829E-03         70.0525E-03 
              382.5E-03          276.089E-03       -346.688E-03         70.5992E-03       280.731E-03       -351.35E-03          70.6189E-03 
              385.E-03           277.942E-03       -349.107E-03         71.165E-03        282.687E-03       -353.872E-03         71.1852E-03 
              387.5E-03          279.793E-03       -351.524E-03         71.7308E-03       284.644E-03       -356.396E-03         71.7517E-03 
              390.E-03           281.644E-03       -353.941E-03         72.2966E-03       286.604E-03       -358.922E-03         72.3181E-03 
              392.5E-03          283.494E-03       -356.356E-03         72.8624E-03       288.566E-03       -361.45E-03          72.8845E-03 
              395.E-03           285.342E-03       -358.77E-03          73.4282E-03       290.529E-03       -363.98E-03          73.451E-03  
              397.5E-03          287.19E-03        -361.184E-03         73.994E-03        292.495E-03       -366.513E-03         74.0175E-03 
              400.E-03           289.036E-03       -363.596E-03         74.5598E-03       294.463E-03       -369.047E-03         74.584E-03  
              402.5E-03          290.881E-03       -366.007E-03         75.1256E-03       296.434E-03       -371.584E-03         75.1506E-03 
              405.E-03           292.725E-03       -368.416E-03         75.6914E-03       298.406E-03       -374.124E-03         75.7171E-03 
              407.5E-03          294.568E-03       -370.825E-03         76.2572E-03       300.382E-03       -376.665E-03         76.2837E-03 
              410.E-03           296.409E-03       -373.232E-03         76.823E-03        302.359E-03       -379.21E-03          76.8503E-03 
              412.5E-03          298.249E-03       -375.638E-03         77.3888E-03       304.339E-03       -381.756E-03         77.4169E-03 
              415.E-03           300.088E-03       -378.042E-03         77.9545E-03       306.322E-03       -384.306E-03         77.9836E-03 
              417.5E-03          301.925E-03       -380.446E-03         78.5203E-03       308.308E-03       -386.858E-03         78.5503E-03 
              420.E-03           303.761E-03       -382.847E-03         79.0861E-03       310.296E-03       -389.413E-03         79.117E-03  
              422.5E-03          305.596E-03       -385.247E-03         79.6519E-03       312.288E-03       -391.971E-03         79.6837E-03 
              425.E-03           307.428E-03       -387.646E-03         80.2176E-03       314.282E-03       -394.533E-03         80.2505E-03 
              427.5E-03          309.26E-03        -390.043E-03         80.7834E-03       316.28E-03        -397.097E-03         80.8172E-03 
              430.E-03           311.09E-03        -392.439E-03         81.3491E-03       318.281E-03       -399.665E-03         81.384E-03  
              432.5E-03          312.918E-03       -394.832E-03         81.9149E-03       320.285E-03       -402.236E-03         81.9509E-03 
              435.E-03           314.744E-03       -397.224E-03         82.4806E-03       322.293E-03       -404.81E-03          82.5178E-03 
              437.5E-03          316.568E-03       -399.615E-03         83.0464E-03       324.304E-03       -407.389E-03         83.0847E-03 
              440.E-03           318.391E-03       -402.003E-03         83.6121E-03       326.319E-03       -409.971E-03         83.6516E-03 
              442.5E-03          320.212E-03       -404.389E-03         84.1778E-03       328.338E-03       -412.556E-03         84.2185E-03 
              445.E-03           322.03E-03        -406.774E-03         84.7435E-03       330.361E-03       -415.146E-03         84.7855E-03 
              447.5E-03          323.847E-03       -409.156E-03         85.3092E-03       332.388E-03       -417.741E-03         85.3526E-03 
              450.E-03           325.662E-03       -411.537E-03         85.8749E-03       334.419E-03       -420.339E-03         85.9196E-03 
              452.5E-03          327.474E-03       -413.915E-03         86.4406E-03       336.455E-03       -422.942E-03         86.4867E-03 
              455.E-03           329.285E-03       -416.291E-03         87.0062E-03       338.496E-03       -425.55E-03          87.0539E-03 
              457.5E-03          331.092E-03       -418.664E-03         87.5719E-03       340.541E-03       -428.162E-03         87.621E-03  
              460.E-03           332.898E-03       -421.036E-03         88.1375E-03       342.591E-03       -430.78E-03          88.1883E-03 
              462.5E-03          334.701E-03       -423.404E-03         88.7031E-03       344.647E-03       -433.402E-03         88.7555E-03 
              465.E-03           336.502E-03       -425.771E-03         89.2687E-03       346.708E-03       -436.031E-03         89.3228E-03 
              467.5E-03          338.3E-03         -428.134E-03         89.8343E-03       348.774E-03       -438.664E-03         89.8902E-03 
              470.E-03           340.095E-03       -430.495E-03         90.3998E-03       350.847E-03       -441.304E-03         90.4576E-03 
              472.5E-03          341.888E-03       -432.853E-03         90.9654E-03       352.925E-03       -443.95E-03          91.025E-03  
              475.E-03           343.678E-03       -435.209E-03         91.5309E-03       355.01E-03        -446.602E-03         91.5925E-03 
              477.5E-03          345.464E-03       -437.561E-03         92.0964E-03       357.101E-03       -449.261E-03         92.16E-03   
              480.E-03           347.248E-03       -439.91E-03          92.6619E-03       359.199E-03       -451.926E-03         92.7276E-03 
              482.5E-03          349.029E-03       -442.256E-03         93.2274E-03       361.304E-03       -454.599E-03         93.2952E-03 
              485.E-03           350.806E-03       -444.599E-03         93.7928E-03       363.416E-03       -457.279E-03         93.8629E-03 
              487.5E-03          352.58E-03        -446.938E-03         94.3582E-03       365.536E-03       -459.967E-03         94.4307E-03 
              490.E-03           354.351E-03       -449.274E-03         94.9236E-03       367.665E-03       -462.663E-03         94.9985E-03 
              492.5E-03          356.117E-03       -451.606E-03         95.489E-03        369.801E-03       -465.368E-03         95.5664E-03 
              495.E-03           357.881E-03       -453.935E-03         96.0543E-03       371.947E-03       -468.081E-03         96.1343E-03 
              497.5E-03          359.64E-03        -456.26E-03          96.6196E-03       374.101E-03       -470.804E-03         96.7024E-03 
              500.E-03           361.396E-03       -458.581E-03         97.1849E-03       376.265E-03       -473.536E-03         97.2705E-03 
              502.5E-03          363.147E-03       -460.897E-03         97.7501E-03       378.439E-03       -476.278E-03         97.8386E-03 
              505.E-03           364.894E-03       -463.21E-03          98.3153E-03       380.624E-03       -479.031E-03         98.4069E-03 
              507.5E-03          366.637E-03       -465.518E-03         98.8805E-03       382.82E-03        -481.795E-03         98.9752E-03 
              510.E-03           368.375E-03       -467.821E-03         99.4456E-03       385.027E-03       -484.57E-03          99.5436E-03 
              512.5E-03          370.109E-03       -470.12E-03         100.011E-03        387.246E-03       -487.358E-03        100.112E-03  
              515.E-03           371.838E-03       -472.414E-03        100.576E-03        389.478E-03       -490.158E-03        100.681E-03  
              517.5E-03          373.562E-03       -474.703E-03        101.141E-03        391.723E-03       -492.972E-03        101.249E-03  
              520.E-03           375.281E-03       -476.986E-03        101.706E-03        393.982E-03       -495.8E-03          101.818E-03  
              522.5E-03          376.994E-03       -479.265E-03        102.271E-03        396.255E-03       -498.643E-03        102.387E-03  
              525.E-03           378.702E-03       -481.538E-03        102.835E-03        398.545E-03       -501.501E-03        102.956E-03  
              527.5E-03          380.405E-03       -483.805E-03        103.4E-03          400.85E-03        -504.376E-03        103.525E-03  
              530.E-03           382.101E-03       -486.066E-03        103.965E-03        403.173E-03       -507.268E-03        104.095E-03  
              532.5E-03          383.791E-03       -488.321E-03        104.53E-03         405.515E-03       -510.179E-03        104.664E-03  
              535.E-03           385.475E-03       -490.569E-03        105.094E-03        407.875E-03       -513.109E-03        105.234E-03  
              537.5E-03          387.153E-03       -492.811E-03        105.659E-03        410.256E-03       -516.059E-03        105.803E-03  
              540.E-03           388.823E-03       -495.047E-03        106.223E-03        412.659E-03       -519.032E-03        106.373E-03  
              542.5E-03          390.487E-03       -497.275E-03        106.787E-03        415.085E-03       -522.028E-03        106.943E-03  
              545.E-03           392.144E-03       -499.495E-03        107.352E-03        417.535E-03       -525.049E-03        107.513E-03  
              547.5E-03          393.792E-03       -501.708E-03        107.916E-03        420.012E-03       -528.096E-03        108.084E-03  
              550.E-03           395.433E-03       -503.913E-03        108.48E-03         422.516E-03       -531.171E-03        108.654E-03  
              552.5E-03          397.066E-03       -506.11E-03         109.044E-03        425.051E-03       -534.276E-03        109.225E-03  
              555.E-03           398.691E-03       -508.298E-03        109.608E-03        427.617E-03       -537.414E-03        109.796E-03  
              557.5E-03          400.306E-03       -510.478E-03        110.172E-03        430.219E-03       -540.586E-03        110.368E-03  
              560.E-03           401.913E-03       -512.648E-03        110.735E-03        432.857E-03       -543.796E-03        110.939E-03  
              562.5E-03          403.509E-03       -514.808E-03        111.299E-03        435.535E-03       -547.047E-03        111.511E-03  
              565.E-03           405.096E-03       -516.959E-03        111.862E-03        438.257E-03       -550.341E-03        112.083E-03  
              567.5E-03          406.673E-03       -519.098E-03        112.425E-03        441.027E-03       -553.682E-03        112.656E-03  
              570.E-03           408.239E-03       -521.227E-03        112.988E-03        443.847E-03       -557.076E-03        113.229E-03  
              572.5E-03          409.793E-03       -523.345E-03        113.551E-03        446.724E-03       -560.526E-03        113.802E-03  
              575.E-03           411.336E-03       -525.45E-03         114.114E-03        449.663E-03       -564.039E-03        114.376E-03  
              577.5E-03          412.866E-03       -527.542E-03        114.676E-03        452.67E-03        -567.62E-03         114.95E-03   
              580.E-03           414.383E-03       -529.622E-03        115.238E-03        455.752E-03       -571.276E-03        115.524E-03  
              582.5E-03          415.887E-03       -531.687E-03        115.8E-03          458.918E-03       -575.018E-03        116.099E-03  
              585.E-03           417.376E-03       -533.738E-03        116.362E-03        462.178E-03       -578.853E-03        116.675E-03  
              587.5E-03          418.85E-03        -535.773E-03        116.923E-03        465.544E-03       -582.795E-03        117.251E-03  
              590.E-03           420.307E-03       -537.791E-03        117.484E-03        469.029E-03       -586.857E-03        117.828E-03  
              592.5E-03          421.747E-03       -539.792E-03        118.045E-03        472.649E-03       -591.055E-03        118.406E-03  
              595.E-03           423.17E-03        -541.774E-03        118.605E-03        476.426E-03       -595.41E-03         118.984E-03  
              597.5E-03          424.572E-03       -543.736E-03        119.164E-03        480.382E-03       -599.945E-03        119.564E-03  
              600.E-03           425.953E-03       -545.676E-03        119.723E-03        484.547E-03       -604.69E-03         120.144E-03  
              602.5E-03          427.312E-03       -547.593E-03        120.281E-03        488.956E-03       -609.68E-03         120.725E-03  
              605.E-03           428.646E-03       -549.484E-03        120.838E-03        493.651E-03       -614.957E-03        121.306E-03  
              607.5E-03          429.953E-03       -551.347E-03        121.394E-03        498.685E-03       -620.573E-03        121.888E-03  
              610.E-03           431.231E-03       -553.18E-03         121.949E-03        504.117E-03       -626.588E-03        122.471E-03  
              612.5E-03          432.478E-03       -554.981E-03        122.503E-03        510.017E-03       -633.071E-03        123.054E-03  
              615.E-03           433.69E-03        -556.745E-03        123.055E-03        516.462E-03       -640.098E-03        123.636E-03  
              617.5E-03          434.866E-03       -558.471E-03        123.605E-03        523.531E-03       -647.748E-03        124.217E-03  
              620.E-03           436.002E-03       -560.156E-03        124.153E-03        531.301E-03       -656.098E-03        124.797E-03  
              622.5E-03          437.099E-03       -561.799E-03        124.7E-03          539.803E-03       -665.177E-03        125.374E-03  
              625.E-03           438.152E-03       -563.397E-03        125.245E-03        549.126E-03       -675.076E-03        125.95E-03   
              627.5E-03          439.162E-03       -564.95E-03         125.788E-03        559.301E-03       -685.824E-03        126.523E-03  
              630.E-03           440.128E-03       -566.457E-03        126.329E-03        570.356E-03       -697.45E-03         127.094E-03  
              632.5E-03          441.05E-03        -567.919E-03        126.869E-03        582.309E-03       -709.972E-03        127.663E-03  
              635.E-03           441.929E-03       -569.335E-03        127.407E-03        595.167E-03       -723.397E-03        128.23E-03   
              637.5E-03          442.764E-03       -570.707E-03        127.943E-03        608.932E-03       -737.727E-03        128.795E-03  
              640.E-03           443.557E-03       -572.035E-03        128.478E-03        623.595E-03       -752.954E-03        129.359E-03  
              642.5E-03          444.308E-03       -573.32E-03         129.012E-03        639.143E-03       -769.064E-03        129.921E-03  
              645.E-03           445.019E-03       -574.564E-03        129.545E-03        655.552E-03       -786.033E-03        130.482E-03  
              647.5E-03          445.691E-03       -575.768E-03        130.077E-03        672.793E-03       -803.834E-03        131.041E-03  
              650.E-03           446.325E-03       -576.933E-03        130.608E-03        690.832E-03       -822.432E-03        131.6E-03    
              652.5E-03          446.922E-03       -578.06E-03         131.138E-03        709.631E-03       -841.788E-03        132.157E-03  
              655.E-03           447.484E-03       -579.152E-03        131.668E-03        729.149E-03       -861.863E-03        132.714E-03  
              657.5E-03          448.012E-03       -580.209E-03        132.196E-03        749.348E-03       -882.618E-03        133.27E-03   
              660.E-03           448.507E-03       -581.232E-03        132.725E-03        770.185E-03       -904.01E-03         133.826E-03  
              662.5E-03          448.971E-03       -582.224E-03        133.253E-03        791.613E-03       -925.994E-03        134.381E-03  
              665.E-03           449.404E-03       -583.185E-03        133.781E-03        813.576E-03       -948.512E-03        134.936E-03  
              667.5E-03          449.809E-03       -584.117E-03        134.309E-03        836.007E-03       -971.498E-03        135.491E-03  
              670.E-03           450.185E-03       -585.022E-03        134.837E-03        858.826E-03       -994.872E-03        136.046E-03  
              672.5E-03          450.536E-03       -585.901E-03        135.365E-03        881.949E-03         -1.01855          136.602E-03  
              675.E-03           450.861E-03       -586.756E-03        135.894E-03        905.299E-03         -1.04246          137.158E-03  
              677.5E-03          451.163E-03       -587.587E-03        136.424E-03        928.814E-03         -1.06653          137.714E-03  
              680.E-03           451.442E-03       -588.397E-03        136.955E-03        952.449E-03         -1.09072          138.271E-03  
              682.5E-03          451.699E-03       -589.186E-03        137.487E-03        976.174E-03         -1.115            138.829E-03  
              685.E-03           451.936E-03       -589.956E-03        138.02E-03         999.967E-03         -1.13935          139.386E-03  
              687.5E-03          452.154E-03       -590.707E-03        138.554E-03          1.02381           -1.16375          139.945E-03  
              690.E-03           452.352E-03       -591.441E-03        139.089E-03          1.04769           -1.18819          140.503E-03  
              692.5E-03          452.533E-03       -592.158E-03        139.625E-03          1.07158           -1.21264          141.063E-03  
              695.E-03           452.697E-03       -592.859E-03        140.163E-03          1.09546           -1.23708          141.623E-03  
              697.5E-03          452.844E-03       -593.545E-03        140.701E-03          1.11928           -1.26147          142.185E-03  
              700.E-03           452.975E-03       -594.217E-03        141.242E-03          1.14298           -1.28573          142.748E-03  
              702.5E-03          453.092E-03       -594.876E-03        141.784E-03          1.1665            -1.30981          143.313E-03  
              705.E-03           453.195E-03       -595.523E-03        142.327E-03          1.18976           -1.33364          143.88E-03   
              707.5E-03          453.286E-03       -596.158E-03        142.873E-03          1.21272           -1.35717          144.448E-03  
              710.E-03           453.364E-03       -596.784E-03        143.42E-03           1.23537           -1.38039          145.018E-03  
              712.5E-03          453.431E-03       -597.4E-03          143.969E-03          1.25769           -1.40328          145.587E-03  
              715.E-03           453.487E-03       -598.006E-03        144.519E-03          1.27967           -1.42583          146.157E-03  
              717.5E-03          453.534E-03       -598.605E-03        145.071E-03          1.30133           -1.44805          146.726E-03  
              720.E-03           453.571E-03       -599.195E-03        145.624E-03          1.32265           -1.46994          147.295E-03  
              722.5E-03          453.599E-03       -599.778E-03        146.178E-03          1.34365           -1.49151          147.863E-03  
              725.E-03           453.62E-03        -600.353E-03        146.733E-03          1.36433           -1.51276          148.431E-03  
              727.5E-03          453.632E-03       -600.921E-03        147.289E-03          1.3847            -1.5337           148.999E-03  
              730.E-03           453.637E-03       -601.483E-03        147.846E-03          1.40477           -1.55433          149.566E-03  
              732.5E-03          453.635E-03       -602.039E-03        148.404E-03          1.42453           -1.57466          150.133E-03  
              735.E-03           453.627E-03       -602.589E-03        148.962E-03          1.444             -1.5947           150.7E-03    
              737.5E-03          453.612E-03       -603.133E-03        149.521E-03          1.4632            -1.61447          151.267E-03  
              740.E-03           453.591E-03       -603.671E-03        150.081E-03          1.48211           -1.63394          151.833E-03  
              742.5E-03          453.564E-03       -604.205E-03        150.641E-03          1.50074           -1.65314          152.399E-03  
              745.E-03           453.532E-03       -604.733E-03        151.201E-03          1.51911           -1.67207          152.964E-03  
              747.5E-03          453.494E-03       -605.257E-03        151.762E-03          1.53722           -1.69075          153.53E-03   
              750.E-03           453.452E-03       -605.776E-03        152.324E-03          1.55507           -1.70917          154.095E-03  
              752.5E-03          453.405E-03       -606.291E-03        152.886E-03          1.57268           -1.72734          154.66E-03   
              755.E-03           453.353E-03       -606.801E-03        153.448E-03          1.59005           -1.74527          155.225E-03  
              757.5E-03          453.297E-03       -607.308E-03        154.01E-03           1.60718           -1.76297          155.79E-03   
              760.E-03           453.237E-03       -607.811E-03        154.573E-03          1.62408           -1.78043          156.354E-03  
              762.5E-03          453.173E-03       -608.31E-03         155.136E-03          1.64076           -1.79768          156.919E-03  
              765.E-03           453.105E-03       -608.805E-03        155.7E-03            1.65722           -1.8147           157.483E-03  
              767.5E-03          453.033E-03       -609.297E-03        156.263E-03          1.67347           -1.83151          158.047E-03  
              770.E-03           452.958E-03       -609.785E-03        156.827E-03          1.6895            -1.84812          158.611E-03  
              772.5E-03          452.879E-03       -610.271E-03        157.391E-03          1.70534           -1.86452          159.175E-03  
              775.E-03           452.797E-03       -610.753E-03        157.955E-03          1.72098           -1.88072          159.739E-03  
              777.5E-03          452.712E-03       -611.232E-03        158.52E-03           1.73643           -1.89673          160.303E-03  
              780.E-03           452.624E-03       -611.708E-03        159.084E-03          1.75169           -1.91255          160.867E-03  
              782.5E-03          452.532E-03       -612.181E-03        159.649E-03          1.76676           -1.92819          161.43E-03   
              785.E-03           452.438E-03       -612.652E-03        160.214E-03          1.78165           -1.94365          161.994E-03  
              787.5E-03          452.341E-03       -613.12E-03         160.779E-03          1.79637           -1.95893          162.557E-03  
              790.E-03           452.241E-03       -613.585E-03        161.344E-03          1.81092           -1.97404          163.12E-03   
              792.5E-03          452.139E-03       -614.048E-03        161.909E-03          1.8253            -1.98899          163.684E-03  
              795.E-03           452.034E-03       -614.508E-03        162.475E-03          1.83952           -2.00376          164.247E-03  
              797.5E-03          451.926E-03       -614.967E-03        163.04E-03           1.85357           -2.01838          164.81E-03   
              800.E-03           451.817E-03       -615.422E-03        163.606E-03          1.86747           -2.03285          165.373E-03  
              802.5E-03          451.705E-03       -615.876E-03        164.171E-03          1.88122           -2.04716          165.936E-03  
              805.E-03           451.59E-03        -616.327E-03        164.737E-03          1.89482           -2.06132          166.499E-03  
              807.5E-03          451.474E-03       -616.777E-03        165.303E-03          1.90827           -2.07533          167.062E-03  
              810.E-03           451.355E-03       -617.224E-03        165.869E-03          1.92158           -2.0892           167.624E-03  
              812.5E-03          451.234E-03       -617.669E-03        166.435E-03          1.93475           -2.10293          168.187E-03  
              815.E-03           451.112E-03       -618.112E-03        167.001E-03          1.94778           -2.11653          168.75E-03   
              817.5E-03          450.987E-03       -618.554E-03        167.567E-03          1.96068           -2.12999          169.313E-03  
              820.E-03           450.861E-03       -618.994E-03        168.133E-03          1.97344           -2.14332          169.875E-03  
              822.5E-03          450.732E-03       -619.431E-03        168.699E-03          1.98608           -2.15652          170.438E-03  
              825.E-03           450.602E-03       -619.867E-03        169.265E-03          1.99859           -2.16959          171.E-03     
              827.5E-03          450.47E-03        -620.302E-03        169.832E-03          2.01098           -2.18254          171.563E-03  
              830.E-03           450.336E-03       -620.734E-03        170.398E-03          2.02324           -2.19537          172.125E-03  
              832.5E-03          450.201E-03       -621.166E-03        170.964E-03          2.03539           -2.20808          172.688E-03  
              835.E-03           450.064E-03       -621.595E-03        171.531E-03          2.04742           -2.22067          173.25E-03   
              837.5E-03          449.926E-03       -622.023E-03        172.097E-03          2.05934           -2.23315          173.812E-03  
              840.E-03           449.786E-03       -622.449E-03        172.664E-03          2.07115           -2.24552          174.374E-03  
              842.5E-03          449.644E-03       -622.874E-03        173.23E-03           2.08284           -2.25778          174.937E-03  
              845.E-03           449.501E-03       -623.298E-03        173.797E-03          2.09443           -2.26993          175.499E-03  
              847.5E-03          449.357E-03       -623.72E-03         174.363E-03          2.10592           -2.28198          176.061E-03  
              850.E-03           449.211E-03       -624.141E-03        174.93E-03           2.1173            -2.29392          176.623E-03  
              852.5E-03          449.063E-03       -624.56E-03         175.497E-03          2.12858           -2.30576          177.185E-03  
              855.E-03           448.915E-03       -624.978E-03        176.063E-03          2.13976           -2.3175           177.748E-03  
              857.5E-03          448.765E-03       -625.395E-03        176.63E-03           2.15084           -2.32915          178.31E-03   
              860.E-03           448.613E-03       -625.81E-03         177.197E-03          2.16182           -2.34069          178.872E-03  
              862.5E-03          448.461E-03       -626.225E-03        177.764E-03          2.17271           -2.35215          179.434E-03  
              865.E-03           448.307E-03       -626.638E-03        178.33E-03           2.18351           -2.36351          179.996E-03  
              867.5E-03          448.152E-03       -627.049E-03        178.897E-03          2.19422           -2.37478          180.558E-03  
              870.E-03           447.996E-03       -627.46E-03         179.464E-03          2.20484           -2.38596          181.12E-03   
              872.5E-03          447.839E-03       -627.87E-03         180.031E-03          2.21537           -2.39705          181.681E-03  
              875.E-03           447.68E-03        -628.278E-03        180.598E-03          2.22582           -2.40806          182.243E-03  
              877.5E-03          447.521E-03       -628.685E-03        181.165E-03          2.23618           -2.41898          182.805E-03  
              880.E-03           447.36E-03        -629.092E-03        181.731E-03          2.24645           -2.42982          183.367E-03  
              882.5E-03          447.198E-03       -629.497E-03        182.298E-03          2.25665           -2.44058          183.929E-03  
              885.E-03           447.036E-03       -629.901E-03        182.865E-03          2.26676           -2.45125          184.491E-03  
              887.5E-03          446.872E-03       -630.304E-03        183.432E-03          2.2768            -2.46185          185.052E-03  
              890.E-03           446.707E-03       -630.706E-03        183.999E-03          2.28675           -2.47237          185.614E-03  
              892.5E-03          446.541E-03       -631.107E-03        184.566E-03          2.29663           -2.48281          186.176E-03  
              895.E-03           446.374E-03       -631.507E-03        185.133E-03          2.30644           -2.49318          186.738E-03  
              897.5E-03          446.206E-03       -631.906E-03        185.7E-03            2.31617           -2.50347          187.299E-03  
              900.E-03           446.038E-03       -632.305E-03        186.267E-03          2.32583           -2.51369          187.861E-03  
              902.5E-03          445.868E-03       -632.702E-03        186.834E-03          2.33542           -2.52384          188.423E-03  
              905.E-03           445.697E-03       -633.099E-03        187.401E-03          2.34493           -2.53392          188.985E-03  
              907.5E-03          445.526E-03       -633.494E-03        187.968E-03          2.35438           -2.54393          189.546E-03  
              910.E-03           445.353E-03       -633.889E-03        188.535E-03          2.36376           -2.55387          190.108E-03  
              912.5E-03          445.18E-03        -634.282E-03        189.102E-03          2.37307           -2.56374          190.669E-03  
              915.E-03           445.006E-03       -634.675E-03        189.669E-03          2.38231           -2.57355          191.231E-03  
              917.5E-03          444.831E-03       -635.067E-03        190.236E-03          2.39149           -2.58329          191.793E-03  
              920.E-03           444.655E-03       -635.459E-03        190.803E-03          2.40061           -2.59296          192.354E-03  
              922.5E-03          444.479E-03       -635.849E-03        191.37E-03           2.40966           -2.60258          192.916E-03  
              925.E-03           444.301E-03       -636.239E-03        191.938E-03          2.41865           -2.61213          193.478E-03  
              927.5E-03          444.123E-03       -636.628E-03        192.505E-03          2.42758           -2.62162          194.039E-03  
              930.E-03           443.944E-03       -637.016E-03        193.072E-03          2.43645           -2.63105          194.601E-03  
              932.5E-03          443.764E-03       -637.403E-03        193.639E-03          2.44525           -2.64042          195.162E-03  
              935.E-03           443.583E-03       -637.789E-03        194.206E-03          2.454             -2.64973          195.724E-03  
              937.5E-03          443.402E-03       -638.175E-03        194.773E-03          2.46269           -2.65898          196.286E-03  
              940.E-03           443.22E-03        -638.56E-03         195.34E-03           2.47133           -2.66817          196.847E-03  
              942.5E-03          443.037E-03       -638.944E-03        195.907E-03          2.4799            -2.67731          197.409E-03  
              945.E-03           442.853E-03       -639.328E-03        196.474E-03          2.48843           -2.6864           197.97E-03   
              947.5E-03          442.669E-03       -639.711E-03        197.042E-03          2.49689           -2.69543          198.532E-03  
              950.E-03           442.484E-03       -640.093E-03        197.609E-03          2.50531           -2.7044           199.094E-03  
              952.5E-03          442.298E-03       -640.474E-03        198.176E-03          2.51367           -2.71332          199.655E-03  
              955.E-03           442.112E-03       -640.855E-03        198.743E-03          2.52197           -2.72219          200.217E-03  
              957.5E-03          441.925E-03       -641.235E-03        199.31E-03           2.53023           -2.73101          200.778E-03  
              960.E-03           441.737E-03       -641.614E-03        199.877E-03          2.53843           -2.73977          201.34E-03   
              962.5E-03          441.549E-03       -641.993E-03        200.444E-03          2.54659           -2.74849          201.902E-03  
              965.E-03           441.359E-03       -642.371E-03        201.012E-03          2.55469           -2.75715          202.463E-03  
              967.5E-03          441.17E-03        -642.748E-03        201.579E-03          2.56275           -2.76577          203.025E-03  
              970.E-03           440.979E-03       -643.125E-03        202.146E-03          2.57075           -2.77434          203.587E-03  
              972.5E-03          440.788E-03       -643.501E-03        202.713E-03          2.57871           -2.78285          204.148E-03  
              975.E-03           440.596E-03       -643.877E-03        203.28E-03           2.58661           -2.79132          204.71E-03   
              977.5E-03          440.404E-03       -644.251E-03        203.848E-03          2.59447           -2.79974          205.272E-03  
              980.E-03           440.211E-03       -644.626E-03        204.415E-03          2.60228           -2.80811          205.834E-03  
              982.5E-03          440.017E-03       -644.999E-03        204.982E-03          2.61004           -2.81643          206.395E-03  
              985.E-03           439.823E-03       -645.372E-03        205.549E-03          2.61774           -2.8247           206.957E-03  
              987.5E-03          439.628E-03       -645.744E-03        206.116E-03          2.6254            -2.83291          207.519E-03  
              990.E-03           439.433E-03       -646.116E-03        206.683E-03          2.63299           -2.84107          208.08E-03   
              992.5E-03          439.237E-03       -646.487E-03        207.251E-03          2.64051           -2.84915          208.642E-03  
              995.E-03           439.04E-03        -646.858E-03        207.818E-03          2.64795           -2.85715          209.203E-03  
              997.5E-03          438.843E-03       -647.228E-03        208.385E-03          2.65528           -2.86505          209.764E-03  
                1.               438.645E-03       -647.597E-03        208.952E-03          2.66247           -2.87279          210.324E-03  




