
                  X                 Dinn               Dout      

                0.                 0.                 0.         
                2.5E-03            1.99842E-03        1.83306E-03
                5.E-03             5.37643E-03        5.00854E-03
                7.5E-03            8.74762E-03        8.19337E-03
               10.E-03            12.1179E-03        11.3856E-03 
               12.5E-03           15.4878E-03        14.5834E-03 
               15.E-03            18.8577E-03        17.7856E-03 
               17.5E-03           22.2278E-03        20.9914E-03 
               20.E-03            25.5983E-03        24.2001E-03 
               22.5E-03           28.9693E-03        27.4112E-03 
               25.E-03            32.3407E-03        30.6243E-03 
               27.5E-03           35.7125E-03        33.8391E-03 
               30.E-03            39.0849E-03        37.0555E-03 
               32.5E-03           42.4578E-03        40.2731E-03 
               35.E-03            45.8311E-03        43.4919E-03 
               37.5E-03           49.2049E-03        46.7118E-03 
               40.E-03            52.5792E-03        49.9325E-03 
               42.5E-03           55.9539E-03        53.154E-03  
               45.E-03            59.3291E-03        56.3763E-03 
               47.5E-03           62.7047E-03        59.5992E-03 
               50.E-03            66.0806E-03        62.8227E-03 
               52.5E-03           69.457E-03         66.0468E-03 
               55.E-03            72.8338E-03        69.2713E-03 
               57.5E-03           76.2109E-03        72.4963E-03 
               60.E-03            79.5883E-03        75.7218E-03 
               62.5E-03           82.9661E-03        78.9476E-03 
               65.E-03            86.3443E-03        82.1737E-03 
               67.5E-03           89.7228E-03        85.4002E-03 
               70.E-03            93.1015E-03        88.627E-03  
               72.5E-03           96.4806E-03        91.8541E-03 
               75.E-03            99.86E-03          95.0814E-03 
               77.5E-03          103.24E-03          98.309E-03  
               80.E-03           106.62E-03         101.537E-03  
               82.5E-03          110.E-03           104.765E-03  
               85.E-03           113.38E-03         107.993E-03  
               87.5E-03          116.761E-03        111.221E-03  
               90.E-03           120.142E-03        114.45E-03   
               92.5E-03          123.523E-03        117.679E-03  
               95.E-03           126.905E-03        120.908E-03  
               97.5E-03          130.286E-03        124.137E-03  
              100.E-03           133.668E-03        127.366E-03  
              102.5E-03          137.05E-03         130.596E-03  
              105.E-03           140.433E-03        133.825E-03  
              107.5E-03          143.815E-03        137.055E-03  
              110.E-03           147.198E-03        140.285E-03  
              112.5E-03          150.581E-03        143.514E-03  
              115.E-03           153.964E-03        146.744E-03  
              117.5E-03          157.348E-03        149.975E-03  
              120.E-03           160.731E-03        153.205E-03  
              122.5E-03          164.115E-03        156.435E-03  
              125.E-03           167.499E-03        159.665E-03  
              127.5E-03          170.883E-03        162.896E-03  
              130.E-03           174.268E-03        166.127E-03  
              132.5E-03          177.652E-03        169.357E-03  
              135.E-03           181.037E-03        172.588E-03  
              137.5E-03          184.422E-03        175.819E-03  
              140.E-03           187.807E-03        179.05E-03   
              142.5E-03          190.884E-03        182.151E-03  
              145.E-03           195.714E-03        182.463E-03  
              147.5E-03          197.478E-03        184.333E-03  
              150.E-03           199.769E-03        186.631E-03  
              152.5E-03          202.332E-03        189.193E-03  
              155.E-03           205.022E-03        191.881E-03  
              157.5E-03          207.776E-03        194.629E-03  
              160.E-03           210.561E-03        197.407E-03  
              162.5E-03          213.362E-03        200.202E-03  
              165.E-03           216.173E-03        203.005E-03  
              167.5E-03          218.989E-03        205.812E-03  
              170.E-03           221.807E-03        208.622E-03  
              172.5E-03          224.628E-03        211.434E-03  
              175.E-03           227.449E-03        214.246E-03  
              177.5E-03          230.271E-03        217.058E-03  
              180.E-03           233.094E-03        219.871E-03  
              182.5E-03          235.917E-03        222.683E-03  
              185.E-03           238.741E-03        225.496E-03  
              187.5E-03          241.565E-03        228.308E-03  
              190.E-03           244.389E-03        231.121E-03  
              192.5E-03          247.214E-03        233.933E-03  
              195.E-03           250.039E-03        236.745E-03  
              197.5E-03          252.864E-03        239.557E-03  
              200.E-03           255.69E-03         242.369E-03  
              202.5E-03          258.516E-03        245.18E-03   
              205.E-03           261.342E-03        247.992E-03  
              207.5E-03          264.169E-03        250.803E-03  
              210.E-03           266.996E-03        253.614E-03  
              212.5E-03          269.823E-03        256.425E-03  
              215.E-03           272.651E-03        259.236E-03  
              217.5E-03          275.479E-03        262.047E-03  
              220.E-03           278.308E-03        264.857E-03  
              222.5E-03          281.137E-03        267.667E-03  
              225.E-03           283.966E-03        270.478E-03  
              227.5E-03          286.796E-03        273.287E-03  
              230.E-03           289.627E-03        276.097E-03  
              232.5E-03          292.457E-03        278.907E-03  
              235.E-03           295.289E-03        281.716E-03  
              237.5E-03          298.121E-03        284.525E-03  
              240.E-03           300.953E-03        287.334E-03  
              242.5E-03          303.786E-03        290.142E-03  
              245.E-03           306.619E-03        292.951E-03  
              247.5E-03          309.453E-03        295.759E-03  
              250.E-03           312.287E-03        298.566E-03  
              252.5E-03          315.122E-03        301.374E-03  
              255.E-03           317.958E-03        304.181E-03  
              257.5E-03          320.794E-03        306.988E-03  
              260.E-03           323.631E-03        309.795E-03  
              262.5E-03          326.468E-03        312.601E-03  
              265.E-03           329.306E-03        315.407E-03  
              267.5E-03          332.145E-03        318.213E-03  
              270.E-03           334.985E-03        321.018E-03  
              272.5E-03          337.825E-03        323.823E-03  
              275.E-03           340.666E-03        326.628E-03  
              277.5E-03          343.508E-03        329.432E-03  
              280.E-03           346.35E-03         332.236E-03  
              282.5E-03          349.194E-03        335.039E-03  
              285.E-03           352.038E-03        337.842E-03  
              287.5E-03          354.883E-03        340.645E-03  
              290.E-03           357.729E-03        343.447E-03  
              292.5E-03          360.576E-03        346.248E-03  
              295.E-03           363.424E-03        349.05E-03   
              297.5E-03          366.273E-03        351.85E-03   
              300.E-03           369.123E-03        354.65E-03   
              302.5E-03          371.974E-03        357.45E-03   
              305.E-03           374.827E-03        360.249E-03  
              307.5E-03          377.68E-03         363.047E-03  
              310.E-03           380.535E-03        365.845E-03  
              312.5E-03          383.391E-03        368.642E-03  
              315.E-03           386.248E-03        371.439E-03  
              317.5E-03          389.107E-03        374.235E-03  
              320.E-03           391.967E-03        377.03E-03   
              322.5E-03          394.829E-03        379.824E-03  
              325.E-03           397.692E-03        382.618E-03  
              327.5E-03          400.557E-03        385.41E-03   
              330.E-03           403.424E-03        388.202E-03  
              332.5E-03          406.292E-03        390.993E-03  
              335.E-03           409.163E-03        393.783E-03  
              337.5E-03          412.035E-03        396.572E-03  
              340.E-03           414.909E-03        399.36E-03   
              342.5E-03          417.785E-03        402.147E-03  
              345.E-03           420.664E-03        404.933E-03  
              347.5E-03          423.545E-03        407.718E-03  
              350.E-03           426.428E-03        410.502E-03  
              352.5E-03          429.314E-03        413.284E-03  
              355.E-03           432.203E-03        416.065E-03  
              357.5E-03          435.094E-03        418.844E-03  
              360.E-03           437.989E-03        421.622E-03  
              362.5E-03          440.886E-03        424.399E-03  
              365.E-03           443.787E-03        427.173E-03  
              367.5E-03          446.691E-03        429.947E-03  
              370.E-03           449.599E-03        432.718E-03  
              372.5E-03          452.511E-03        435.487E-03  
              375.E-03           455.427E-03        438.255E-03  
              377.5E-03          458.347E-03        441.02E-03   
              380.E-03           461.272E-03        443.783E-03  
              382.5E-03          464.201E-03        446.543E-03  
              385.E-03           467.136E-03        449.302E-03  
              387.5E-03          470.076E-03        452.057E-03  
              390.E-03           473.022E-03        454.81E-03   
              392.5E-03          475.974E-03        457.559E-03  
              395.E-03           478.933E-03        460.306E-03  
              397.5E-03          481.898E-03        463.049E-03  
              400.E-03           484.871E-03        465.788E-03  
              402.5E-03          487.852E-03        468.524E-03  
              405.E-03           490.841E-03        471.256E-03  
              407.5E-03          493.839E-03        473.983E-03  
              410.E-03           496.847E-03        476.706E-03  
              412.5E-03          499.865E-03        479.423E-03  
              415.E-03           502.894E-03        482.136E-03  
              417.5E-03          505.936E-03        484.843E-03  
              420.E-03           508.99E-03         487.544E-03  
              422.5E-03          512.058E-03        490.238E-03  
              425.E-03           515.141E-03        492.925E-03  
              427.5E-03          518.24E-03         495.605E-03  
              430.E-03           521.356E-03        498.277E-03  
              432.5E-03          524.491E-03        500.94E-03   
              435.E-03           527.647E-03        503.594E-03  
              437.5E-03          530.824E-03        506.238E-03  
              440.E-03           534.025E-03        508.871E-03  
              442.5E-03          537.251E-03        511.493E-03  
              445.E-03           540.505E-03        514.102E-03  
              447.5E-03          543.789E-03        516.697E-03  
              450.E-03           547.105E-03        519.278E-03  
              452.5E-03          550.455E-03        521.844E-03  
              455.E-03           553.841E-03        524.393E-03  
              457.5E-03          557.266E-03        526.924E-03  
              460.E-03           560.731E-03        529.436E-03  
              462.5E-03          564.238E-03        531.928E-03  
              465.E-03           567.788E-03        534.4E-03    
              467.5E-03          571.379E-03        536.85E-03   
              470.E-03           575.011E-03        539.278E-03  
              472.5E-03          578.68E-03         541.684E-03  
              475.E-03           582.379E-03        544.07E-03   
              477.5E-03          586.101E-03        546.436E-03  
              480.E-03           589.834E-03        548.787E-03  
              482.5E-03          593.563E-03        551.126E-03  
              485.E-03           597.271E-03        553.461E-03  
              487.5E-03          600.937E-03        555.801E-03  
              490.E-03           604.543E-03        558.161E-03  
              492.5E-03          608.071E-03        560.555E-03  
              495.E-03           611.509E-03        563.E-03     
              497.5E-03          614.854E-03        565.508E-03  
              500.E-03           618.116E-03        568.078E-03  
              502.5E-03          621.312E-03        570.699E-03  
              505.E-03           624.462E-03        573.353E-03  
              507.5E-03          627.579E-03        576.026E-03  
              510.E-03           630.672E-03        578.712E-03  
              512.5E-03          633.746E-03        581.407E-03  
              515.E-03           636.804E-03        584.109E-03  
              517.5E-03          639.848E-03        586.818E-03  
              520.E-03           642.88E-03         589.531E-03  
              522.5E-03          645.901E-03        592.25E-03   
              525.E-03           648.912E-03        594.973E-03  
              527.5E-03          651.915E-03        597.7E-03    
              530.E-03           654.91E-03         600.43E-03   
              532.5E-03          657.898E-03        603.164E-03  
              535.E-03           660.878E-03        605.901E-03  
              537.5E-03          663.853E-03        608.641E-03  
              540.E-03           666.823E-03        611.383E-03  
              542.5E-03          669.786E-03        614.128E-03  
              545.E-03           672.745E-03        616.875E-03  
              547.5E-03          675.7E-03          619.625E-03  
              550.E-03           678.65E-03         622.376E-03  
              552.5E-03          681.596E-03        625.129E-03  
              555.E-03           684.539E-03        627.885E-03  
              557.5E-03          687.478E-03        630.641E-03  
              560.E-03           690.413E-03        633.4E-03    
              562.5E-03          693.345E-03        636.16E-03   
              565.E-03           696.275E-03        638.921E-03  
              567.5E-03          699.201E-03        641.684E-03  
              570.E-03           702.125E-03        644.448E-03  
              572.5E-03          705.046E-03        647.213E-03  
              575.E-03           707.965E-03        649.98E-03   
              577.5E-03          710.881E-03        652.748E-03  
              580.E-03           713.795E-03        655.516E-03  
              582.5E-03          716.707E-03        658.286E-03  
              585.E-03           719.616E-03        661.057E-03  
              587.5E-03          722.524E-03        663.829E-03  
              590.E-03           725.43E-03         666.602E-03  
              592.5E-03          728.334E-03        669.376E-03  
              595.E-03           731.236E-03        672.151E-03  
              597.5E-03          734.137E-03        674.926E-03  
              600.E-03           737.036E-03        677.702E-03  
              602.5E-03          739.933E-03        680.48E-03   
              605.E-03           742.829E-03        683.257E-03  
              607.5E-03          745.723E-03        686.036E-03  
              610.E-03           748.616E-03        688.815E-03  
              612.5E-03          751.507E-03        691.595E-03  
              615.E-03           754.397E-03        694.376E-03  
              617.5E-03          757.286E-03        697.158E-03  
              620.E-03           760.174E-03        699.939E-03  
              622.5E-03          763.06E-03         702.722E-03  
              625.E-03           765.945E-03        705.505E-03  
              627.5E-03          768.829E-03        708.289E-03  
              630.E-03           771.712E-03        711.073E-03  
              632.5E-03          774.594E-03        713.858E-03  
              635.E-03           777.475E-03        716.644E-03  
              637.5E-03          780.354E-03        719.43E-03   
              640.E-03           783.233E-03        722.216E-03  
              642.5E-03          786.111E-03        725.003E-03  
              645.E-03           788.988E-03        727.79E-03   
              647.5E-03          791.864E-03        730.578E-03  
              650.E-03           794.739E-03        733.366E-03  
              652.5E-03          797.613E-03        736.155E-03  
              655.E-03           800.487E-03        738.944E-03  
              657.5E-03          803.359E-03        741.734E-03  
              660.E-03           806.231E-03        744.524E-03  
              662.5E-03          809.102E-03        747.314E-03  
              665.E-03           811.972E-03        750.105E-03  
              667.5E-03          814.842E-03        752.896E-03  
              670.E-03           817.71E-03         755.688E-03  
              672.5E-03          820.578E-03        758.479E-03  
              675.E-03           823.446E-03        761.272E-03  
              677.5E-03          826.313E-03        764.064E-03  
              680.E-03           829.179E-03        766.857E-03  
              682.5E-03          832.044E-03        769.651E-03  
              685.E-03           834.909E-03        772.444E-03  
              687.5E-03          837.773E-03        775.238E-03  
              690.E-03           840.636E-03        778.032E-03  
              692.5E-03          843.499E-03        780.827E-03  
              695.E-03           846.361E-03        783.622E-03  
              697.5E-03          849.223E-03        786.417E-03  
              700.E-03           852.084E-03        789.212E-03  
              702.5E-03          854.945E-03        792.008E-03  
              705.E-03           857.805E-03        794.804E-03  
              707.5E-03          860.665E-03        797.6E-03    
              710.E-03           863.524E-03        800.397E-03  
              712.5E-03          866.383E-03        803.193E-03  
              715.E-03           869.241E-03        805.991E-03  
              717.5E-03          872.098E-03        808.788E-03  
              720.E-03           874.956E-03        811.585E-03  
              722.5E-03          877.812E-03        814.383E-03  
              725.E-03           880.668E-03        817.181E-03  
              727.5E-03          883.524E-03        819.979E-03  
              730.E-03           886.38E-03         822.778E-03  
              732.5E-03          889.234E-03        825.577E-03  
              735.E-03           892.089E-03        828.375E-03  
              737.5E-03          894.943E-03        831.175E-03  
              740.E-03           897.797E-03        833.974E-03  
              742.5E-03          900.65E-03         836.773E-03  
              745.E-03           903.503E-03        839.573E-03  
              747.5E-03          906.355E-03        842.373E-03  
              750.E-03           909.208E-03        845.173E-03  
              752.5E-03          912.059E-03        847.974E-03  
              755.E-03           914.911E-03        850.774E-03  
              757.5E-03          917.762E-03        853.575E-03  
              760.E-03           920.612E-03        856.376E-03  
              762.5E-03          923.463E-03        859.177E-03  
              765.E-03           926.313E-03        861.978E-03  
              767.5E-03          929.162E-03        864.78E-03   
              770.E-03           932.012E-03        867.582E-03  
              772.5E-03          934.861E-03        870.383E-03  
              775.E-03           937.71E-03         873.185E-03  
              777.5E-03          940.558E-03        875.988E-03  
              780.E-03           943.406E-03        878.79E-03   
              782.5E-03          946.254E-03        881.592E-03  
              785.E-03           949.101E-03        884.395E-03  
              787.5E-03          951.948E-03        887.198E-03  
              790.E-03           954.795E-03        890.001E-03  
              792.5E-03          957.642E-03        892.804E-03  
              795.E-03           960.488E-03        895.607E-03  
              797.5E-03          963.334E-03        898.41E-03   
              800.E-03           966.18E-03         901.214E-03  
              802.5E-03          969.026E-03        904.018E-03  
              805.E-03           971.871E-03        906.821E-03  
              807.5E-03          974.716E-03        909.625E-03  
              810.E-03           977.561E-03        912.43E-03   
              812.5E-03          980.405E-03        915.234E-03  
              815.E-03           983.249E-03        918.038E-03  
              817.5E-03          986.093E-03        920.843E-03  
              820.E-03           988.937E-03        923.647E-03  
              822.5E-03          991.78E-03         926.452E-03  
              825.E-03           994.624E-03        929.257E-03  
              827.5E-03          997.467E-03        932.062E-03  
              830.E-03             1.00031          934.867E-03  
              832.5E-03            1.00315          937.672E-03  
              835.E-03             1.00599          940.478E-03  
              837.5E-03            1.00884          943.283E-03  
              840.E-03             1.01168          946.089E-03  
              842.5E-03            1.01452          948.895E-03  
              845.E-03             1.01736          951.7E-03    
              847.5E-03            1.0202           954.506E-03  
              850.E-03             1.02304          957.312E-03  
              852.5E-03            1.02589          960.118E-03  
              855.E-03             1.02873          962.925E-03  
              857.5E-03            1.03157          965.731E-03  
              860.E-03             1.03441          968.538E-03  
              862.5E-03            1.03725          971.344E-03  
              865.E-03             1.04009          974.151E-03  
              867.5E-03            1.04293          976.958E-03  
              870.E-03             1.04577          979.765E-03  
              872.5E-03            1.04861          982.571E-03  
              875.E-03             1.05144          985.379E-03  
              877.5E-03            1.05428          988.186E-03  
              880.E-03             1.05712          990.993E-03  
              882.5E-03            1.05996          993.8E-03    
              885.E-03             1.0628           996.608E-03  
              887.5E-03            1.06564          999.415E-03  
              890.E-03             1.06848            1.00222    
              892.5E-03            1.07131            1.00503    
              895.E-03             1.07415            1.00784    
              897.5E-03            1.07699            1.01065    
              900.E-03             1.07983            1.01345    
              902.5E-03            1.08267            1.01626    
              905.E-03             1.0855             1.01907    
              907.5E-03            1.08834            1.02188    
              910.E-03             1.09118            1.02469    
              912.5E-03            1.09401            1.0275     
              915.E-03             1.09685            1.0303     
              917.5E-03            1.09969            1.03311    
              920.E-03             1.10252            1.03592    
              922.5E-03            1.10536            1.03873    
              925.E-03             1.1082             1.04154    
              927.5E-03            1.11103            1.04435    
              930.E-03             1.11387            1.04716    
              932.5E-03            1.1167             1.04997    
              935.E-03             1.11954            1.05277    
              937.5E-03            1.12237            1.05558    
              940.E-03             1.12521            1.05839    
              942.5E-03            1.12804            1.0612     
              945.E-03             1.13088            1.06401    
              947.5E-03            1.13371            1.06682    
              950.E-03             1.13655            1.06963    
              952.5E-03            1.13938            1.07244    
              955.E-03             1.14222            1.07525    
              957.5E-03            1.14505            1.07806    
              960.E-03             1.14789            1.08087    
              962.5E-03            1.15072            1.08368    
              965.E-03             1.15356            1.08649    
              967.5E-03            1.15639            1.0893     
              970.E-03             1.15922            1.09211    
              972.5E-03            1.16206            1.09492    
              975.E-03             1.16489            1.09773    
              977.5E-03            1.16772            1.10054    
              980.E-03             1.17056            1.10335    
              982.5E-03            1.17339            1.10616    
              985.E-03             1.17622            1.10897    
              987.5E-03            1.17906            1.11178    
              990.E-03             1.18189            1.11459    
              992.5E-03            1.18472            1.1174     
              995.E-03             1.18756            1.12021    
              997.5E-03            1.19039            1.12302    
                1.                 1.19322            1.12583    




