
                  X              SENER-out           SENER-in    

                0.                 0.                 0.         
                2.5E-03          261.632E+03        257.648E+03  
                5.E-03           281.16E+03         278.288E+03  
                7.5E-03          297.908E+03        295.72E+03   
               10.E-03           313.255E+03        311.559E+03  
               12.5E-03          327.539E+03        326.21E+03   
               15.E-03           340.954E+03        339.907E+03  
               17.5E-03          353.633E+03        352.807E+03  
               20.E-03           365.677E+03        365.028E+03  
               22.5E-03          377.164E+03        376.658E+03  
               25.E-03           388.158E+03        387.77E+03   
               27.5E-03          398.71E+03         398.421E+03  
               30.E-03           408.865E+03        408.66E+03   
               32.5E-03          418.661E+03        418.528E+03  
               35.E-03           428.129E+03        428.057E+03  
               37.5E-03          437.296E+03        437.279E+03  
               40.E-03           446.188E+03        446.218E+03  
               42.5E-03          454.824E+03        454.896E+03  
               45.E-03           463.224E+03        463.332E+03  
               47.5E-03          471.403E+03        471.545E+03  
               50.E-03           479.377E+03        479.549E+03  
               52.5E-03          487.159E+03        487.358E+03  
               55.E-03           494.761E+03        494.985E+03  
               57.5E-03          502.192E+03        502.439E+03  
               60.E-03           509.464E+03        509.731E+03  
               62.5E-03          516.584E+03        516.871E+03  
               65.E-03           523.562E+03        523.866E+03  
               67.5E-03          530.404E+03        530.725E+03  
               70.E-03           537.116E+03        537.453E+03  
               72.5E-03          543.707E+03        544.058E+03  
               75.E-03           550.18E+03         550.545E+03  
               77.5E-03          556.542E+03        556.92E+03   
               80.E-03           562.797E+03        563.187E+03  
               82.5E-03          568.95E+03         569.352E+03  
               85.E-03           575.006E+03        575.419E+03  
               87.5E-03          580.968E+03        581.392E+03  
               90.E-03           586.841E+03        587.275E+03  
               92.5E-03          592.627E+03        593.071E+03  
               95.E-03           598.33E+03         598.783E+03  
               97.5E-03          603.953E+03        604.415E+03  
              100.E-03           609.499E+03        609.97E+03   
              102.5E-03          614.97E+03         615.45E+03   
              105.E-03           620.37E+03         620.859E+03  
              107.5E-03          625.701E+03        626.197E+03  
              110.E-03           630.965E+03        631.469E+03  
              112.5E-03          636.164E+03        636.676E+03  
              115.E-03           641.3E+03          641.82E+03   
              117.5E-03          646.376E+03        646.903E+03  
              120.E-03           651.393E+03        651.927E+03  
              122.5E-03          656.353E+03        656.894E+03  
              125.E-03           661.257E+03        661.806E+03  
              127.5E-03          666.108E+03        666.664E+03  
              130.E-03           670.907E+03        671.469E+03  
              132.5E-03          675.655E+03        676.224E+03  
              135.E-03           680.353E+03        680.929E+03  
              137.5E-03          685.004E+03        685.586E+03  
              140.E-03           689.607E+03        690.196E+03  
              142.5E-03          694.166E+03        694.761E+03  
              145.E-03           698.68E+03         699.282E+03  
              147.5E-03          703.151E+03        703.759E+03  
              150.E-03           707.58E+03         708.194E+03  
              152.5E-03          711.967E+03        712.588E+03  
              155.E-03           716.315E+03        716.942E+03  
              157.5E-03          720.623E+03        721.257E+03  
              160.E-03           724.894E+03        725.534E+03  
              162.5E-03          729.127E+03        729.773E+03  
              165.E-03           733.324E+03        733.976E+03  
              167.5E-03          737.485E+03        738.144E+03  
              170.E-03           741.611E+03        742.276E+03  
              172.5E-03          745.703E+03        746.375E+03  
              175.E-03           749.762E+03        750.44E+03   
              177.5E-03          753.788E+03        754.472E+03  
              180.E-03           757.783E+03        758.473E+03  
              182.5E-03          761.746E+03        762.442E+03  
              185.E-03           765.678E+03        766.381E+03  
              187.5E-03          769.581E+03        770.29E+03   
              190.E-03           773.454E+03        774.169E+03  
              192.5E-03          777.298E+03        778.02E+03   
              195.E-03           781.114E+03        781.843E+03  
              197.5E-03          784.903E+03        785.637E+03  
              200.E-03           788.664E+03        789.405E+03  
              202.5E-03          792.398E+03        793.146E+03  
              205.E-03           796.107E+03        796.861E+03  
              207.5E-03          799.79E+03         800.55E+03   
              210.E-03           803.447E+03        804.214E+03  
              212.5E-03          807.08E+03         807.853E+03  
              215.E-03           810.688E+03        811.468E+03  
              217.5E-03          814.273E+03        815.059E+03  
              220.E-03           817.834E+03        818.627E+03  
              222.5E-03          821.372E+03        822.172E+03  
              225.E-03           824.887E+03        825.694E+03  
              227.5E-03          828.38E+03         829.194E+03  
              230.E-03           831.851E+03        832.672E+03  
              232.5E-03          835.301E+03        836.128E+03  
              235.E-03           838.729E+03        839.563E+03  
              237.5E-03          842.137E+03        842.977E+03  
              240.E-03           845.524E+03        846.371E+03  
              242.5E-03          848.891E+03        849.745E+03  
              245.E-03           852.237E+03        853.099E+03  
              247.5E-03          855.565E+03        856.433E+03  
              250.E-03           858.873E+03        859.749E+03  
              252.5E-03          862.162E+03        863.045E+03  
              255.E-03           865.432E+03        866.322E+03  
              257.5E-03          868.684E+03        869.581E+03  
              260.E-03           871.918E+03        872.823E+03  
              262.5E-03          875.134E+03        876.046E+03  
              265.E-03           884.44E+03         885.416E+03  
              267.5E-03          891.071E+03        892.087E+03  
              270.E-03           895.18E+03         896.211E+03  
              272.5E-03          898.785E+03        899.824E+03  
              275.E-03           902.17E+03         903.215E+03  
              277.5E-03          905.464E+03        906.514E+03  
              280.E-03           908.712E+03        909.767E+03  
              282.5E-03          911.932E+03        912.992E+03  
              285.E-03           915.131E+03        916.196E+03  
              287.5E-03          918.312E+03        919.381E+03  
              290.E-03           921.476E+03        922.549E+03  
              292.5E-03          924.623E+03        925.701E+03  
              295.E-03           927.754E+03        928.836E+03  
              297.5E-03          930.869E+03        931.956E+03  
              300.E-03           933.969E+03        935.061E+03  
              302.5E-03          937.053E+03        938.15E+03   
              305.E-03           940.122E+03        941.224E+03  
              307.5E-03          943.176E+03        944.283E+03  
              310.E-03           946.216E+03        947.328E+03  
              312.5E-03          949.24E+03         950.358E+03  
              315.E-03           952.251E+03        953.374E+03  
              317.5E-03          955.247E+03        956.375E+03  
              320.E-03           958.229E+03        959.363E+03  
              322.5E-03          961.198E+03        962.337E+03  
              325.E-03           964.153E+03        965.297E+03  
              327.5E-03          967.094E+03        968.244E+03  
              330.E-03           970.021E+03        971.177E+03  
              332.5E-03          972.936E+03        974.097E+03  
              335.E-03           975.838E+03        977.005E+03  
              337.5E-03          978.726E+03        979.899E+03  
              340.E-03           981.602E+03        982.781E+03  
              342.5E-03          984.466E+03        985.651E+03  
              345.E-03           987.317E+03        988.507E+03  
              347.5E-03          990.155E+03        991.352E+03  
              350.E-03           992.982E+03        994.185E+03  
              352.5E-03          995.796E+03        997.006E+03  
              355.E-03           998.599E+03        999.814E+03  
              357.5E-03            1.00139E+06        1.00261E+06
              360.E-03             1.00417E+06        1.0054E+06 
              362.5E-03            1.00694E+06        1.00817E+06
              365.E-03             1.00969E+06        1.01093E+06
              367.5E-03            1.01244E+06        1.01369E+06
              370.E-03             1.01517E+06        1.01643E+06
              372.5E-03            1.01789E+06        1.01916E+06
              375.E-03             1.02061E+06        1.02188E+06
              377.5E-03            1.02331E+06        1.02458E+06
              380.E-03             1.026E+06          1.02728E+06
              382.5E-03            1.02868E+06        1.02997E+06
              385.E-03             1.03135E+06        1.03264E+06
              387.5E-03            1.03401E+06        1.03531E+06
              390.E-03             1.03666E+06        1.03797E+06
              392.5E-03            1.0393E+06         1.04061E+06
              395.E-03             1.04192E+06        1.04325E+06
              397.5E-03            1.04454E+06        1.04588E+06
              400.E-03             1.04715E+06        1.04849E+06
              402.5E-03            1.04975E+06        1.0511E+06 
              405.E-03             1.05234E+06        1.0537E+06 
              407.5E-03            1.05492E+06        1.05629E+06
              410.E-03             1.05749E+06        1.05886E+06
              412.5E-03            1.06005E+06        1.06143E+06
              415.E-03             1.06261E+06        1.06399E+06
              417.5E-03            1.06515E+06        1.06655E+06
              420.E-03             1.06768E+06        1.06909E+06
              422.5E-03            1.07021E+06        1.07162E+06
              425.E-03             1.07272E+06        1.07414E+06
              427.5E-03            1.07523E+06        1.07666E+06
              430.E-03             1.07773E+06        1.07917E+06
              432.5E-03            1.08022E+06        1.08167E+06
              435.E-03             1.0827E+06         1.08416E+06
              437.5E-03            1.08517E+06        1.08664E+06
              440.E-03             1.08764E+06        1.08911E+06
              442.5E-03            1.09009E+06        1.09157E+06
              445.E-03             1.09254E+06        1.09403E+06
              447.5E-03            1.09498E+06        1.09648E+06
              450.E-03             1.09741E+06        1.09892E+06
              452.5E-03            1.09983E+06        1.10135E+06
              455.E-03             1.10225E+06        1.10378E+06
              457.5E-03            1.10466E+06        1.10619E+06
              460.E-03             1.10705E+06        1.1086E+06 
              462.5E-03            1.10945E+06        1.111E+06  
              465.E-03             1.11183E+06        1.11339E+06
              467.5E-03            1.11421E+06        1.11578E+06
              470.E-03             1.11657E+06        1.11816E+06
              472.5E-03            1.11894E+06        1.12053E+06
              475.E-03             1.09721E+06        1.09827E+06
              477.5E-03            1.00766E+06        1.00631E+06
              480.E-03           949.024E+03        941.367E+03  
              482.5E-03          897.567E+03        928.309E+03  
              485.E-03           861.539E+03        933.701E+03  
              487.5E-03          836.489E+03        945.012E+03  
              490.E-03           819.167E+03        958.976E+03  
              492.5E-03          808.281E+03        974.816E+03  
              495.E-03           802.983E+03        992.047E+03  
              497.5E-03          797.988E+03          1.0074E+06 
              500.E-03           792.391E+03          1.02463E+06
              502.5E-03          787.34E+03           1.04205E+06
              505.E-03           782.794E+03          1.05978E+06
              507.5E-03          778.227E+03          1.07925E+06
              510.E-03           773.769E+03          1.09952E+06
              512.5E-03          769.4E+03            1.12054E+06
              515.E-03           765.112E+03          1.14223E+06
              517.5E-03          760.904E+03          1.16451E+06
              520.E-03           756.776E+03          1.18731E+06
              522.5E-03          752.733E+03          1.21053E+06
              525.E-03           748.781E+03          1.23405E+06
              527.5E-03          744.928E+03          1.25777E+06
              530.E-03           741.183E+03          1.2816E+06 
              532.5E-03          737.551E+03          1.30539E+06
              535.E-03           734.062E+03          1.32895E+06
              537.5E-03          730.703E+03          1.35215E+06
              540.E-03           727.481E+03          1.37411E+06
              542.5E-03          724.399E+03          1.39418E+06
              545.E-03           721.471E+03          1.41267E+06
              547.5E-03          718.734E+03          1.43078E+06
              550.E-03           716.197E+03          1.44864E+06
              552.5E-03          713.862E+03          1.46627E+06
              555.E-03           711.723E+03          1.48364E+06
              557.5E-03          709.775E+03          1.50066E+06
              560.E-03           708.01E+03           1.51721E+06
              562.5E-03          706.418E+03          1.53294E+06
              565.E-03           704.879E+03          1.53824E+06
              567.5E-03          703.49E+03           1.5381E+06 
              570.E-03           702.303E+03          1.53659E+06
              572.5E-03          701.327E+03          1.53486E+06
              575.E-03           700.552E+03          1.53336E+06
              577.5E-03          699.96E+03           1.53224E+06
              580.E-03           699.531E+03          1.53154E+06
              582.5E-03          699.245E+03          1.53127E+06
              585.E-03           699.086E+03          1.53141E+06
              587.5E-03          699.037E+03          1.53192E+06
              590.E-03           699.046E+03          1.53276E+06
              592.5E-03          698.101E+03          1.53382E+06
              595.E-03           696.125E+03          1.53513E+06
              597.5E-03          693.055E+03          1.53666E+06
              600.E-03           688.83E+03           1.53841E+06
              602.5E-03          683.401E+03          1.54037E+06
              605.E-03           676.729E+03          1.54251E+06
              607.5E-03          668.786E+03          1.54481E+06
              610.E-03           659.332E+03          1.5473E+06 
              612.5E-03          649.024E+03          1.54983E+06
              615.E-03           637.004E+03          1.55259E+06
              617.5E-03          623.915E+03          1.5554E+06 
              620.E-03           609.57E+03           1.55832E+06
              622.5E-03          594.006E+03          1.56133E+06
              625.E-03           577.267E+03          1.56442E+06
              627.5E-03          559.409E+03          1.56759E+06
              630.E-03           540.5E+03            1.57083E+06
              632.5E-03          520.617E+03          1.57412E+06
              635.E-03           499.846E+03          1.57747E+06
              637.5E-03          478.286E+03          1.58086E+06
              640.E-03           456.046E+03          1.5843E+06 
              642.5E-03          433.246E+03          1.58778E+06
              645.E-03           410.016E+03          1.59129E+06
              647.5E-03          386.496E+03          1.59483E+06
              650.E-03           362.838E+03          1.5984E+06 
              652.5E-03          339.206E+03          1.602E+06  
              655.E-03           315.771E+03          1.60561E+06
              657.5E-03          292.719E+03          1.60925E+06
              660.E-03           270.244E+03          1.6129E+06 
              662.5E-03          248.553E+03          1.61657E+06
              665.E-03           227.864E+03          1.62025E+06
              667.5E-03          208.404E+03          1.62395E+06
              670.E-03           190.414E+03          1.62765E+06
              672.5E-03          174.144E+03          1.63136E+06
              675.E-03           159.857E+03          1.63508E+06
              677.5E-03          147.825E+03          1.6388E+06 
              680.E-03           138.334E+03          1.64253E+06
              682.5E-03          131.681E+03          1.64626E+06
              685.E-03           128.173E+03          1.64999E+06
              687.5E-03          128.13E+03           1.65372E+06
              690.E-03           131.882E+03          1.65746E+06
              692.5E-03          139.765E+03          1.66118E+06
              695.E-03           152.14E+03           1.66502E+06
              697.5E-03          169.374E+03          1.66883E+06
              700.E-03           191.844E+03          1.6726E+06 
              702.5E-03          219.947E+03          1.67629E+06
              705.E-03           254.084E+03          1.67988E+06
              707.5E-03          294.671E+03          1.68347E+06
              710.E-03           342.13E+03           1.68704E+06
              712.5E-03          396.901E+03          1.69061E+06
              715.E-03           459.43E+03           1.6941E+06 
              717.5E-03          530.188E+03          1.69786E+06
              720.E-03           609.648E+03          1.70156E+06
              722.5E-03          698.296E+03          1.70517E+06
              725.E-03           796.633E+03          1.70871E+06
              727.5E-03          892.888E+03          1.71298E+06
              730.E-03           893.041E+03          1.72128E+06
              732.5E-03          892.682E+03          1.72695E+06
              735.E-03           892.229E+03          1.73145E+06
              737.5E-03          891.722E+03          1.73545E+06
              740.E-03           891.201E+03          1.73924E+06
              742.5E-03          890.681E+03          1.74293E+06
              745.E-03           890.17E+03           1.74658E+06
              747.5E-03          889.669E+03          1.75021E+06
              750.E-03           889.181E+03          1.75382E+06
              752.5E-03          888.704E+03          1.75741E+06
              755.E-03           888.239E+03          1.76099E+06
              757.5E-03          887.786E+03          1.76456E+06
              760.E-03           887.345E+03          1.76812E+06
              762.5E-03          886.915E+03          1.77166E+06
              765.E-03           886.496E+03          1.77519E+06
              767.5E-03          886.089E+03          1.77872E+06
              770.E-03           885.692E+03          1.78223E+06
              772.5E-03          885.305E+03          1.78573E+06
              775.E-03           884.929E+03          1.78921E+06
              777.5E-03          884.563E+03          1.79269E+06
              780.E-03           884.207E+03          1.79615E+06
              782.5E-03          883.862E+03          1.79961E+06
              785.E-03           883.525E+03          1.80305E+06
              787.5E-03          883.198E+03          1.80648E+06
              790.E-03           882.881E+03          1.80989E+06
              792.5E-03          882.573E+03          1.8133E+06 
              795.E-03           882.274E+03          1.81669E+06
              797.5E-03          881.983E+03          1.82007E+06
              800.E-03           881.702E+03          1.82344E+06
              802.5E-03          881.428E+03          1.8268E+06 
              805.E-03           881.164E+03          1.83015E+06
              807.5E-03          880.907E+03          1.83348E+06
              810.E-03           880.659E+03          1.8368E+06 
              812.5E-03          880.419E+03          1.84011E+06
              815.E-03           880.187E+03          1.8434E+06 
              817.5E-03          879.962E+03          1.84669E+06
              820.E-03           879.745E+03          1.84996E+06
              822.5E-03          879.536E+03          1.85321E+06
              825.E-03           879.334E+03          1.85646E+06
              827.5E-03          879.139E+03          1.85969E+06
              830.E-03           878.951E+03          1.86291E+06
              832.5E-03          878.771E+03          1.86612E+06
              835.E-03           878.597E+03          1.86931E+06
              837.5E-03          878.43E+03           1.8725E+06 
              840.E-03           878.27E+03           1.87566E+06
              842.5E-03          878.117E+03          1.87882E+06
              845.E-03           877.97E+03           1.88196E+06
              847.5E-03          877.829E+03          1.88509E+06
              850.E-03           877.695E+03          1.8882E+06 
              852.5E-03          877.567E+03          1.89131E+06
              855.E-03           877.445E+03          1.89439E+06
              857.5E-03          877.33E+03           1.89747E+06
              860.E-03           877.22E+03           1.90053E+06
              862.5E-03          877.116E+03          1.90358E+06
              865.E-03           877.018E+03          1.90661E+06
              867.5E-03          876.926E+03          1.90963E+06
              870.E-03           876.839E+03          1.91263E+06
              872.5E-03          876.758E+03          1.91562E+06
              875.E-03           876.682E+03          1.9186E+06 
              877.5E-03          876.612E+03          1.92156E+06
              880.E-03           876.547E+03          1.92451E+06
              882.5E-03          876.488E+03          1.92744E+06
              885.E-03           876.434E+03          1.93036E+06
              887.5E-03          876.385E+03          1.93326E+06
              890.E-03           876.341E+03          1.93615E+06
              892.5E-03          876.301E+03          1.93902E+06
              895.E-03           876.267E+03          1.94188E+06
              897.5E-03          876.238E+03          1.94472E+06
              900.E-03           876.214E+03          1.94755E+06
              902.5E-03          876.194E+03          1.95036E+06
              905.E-03           876.18E+03           1.95315E+06
              907.5E-03          876.169E+03          1.95593E+06
              910.E-03           876.164E+03          1.95869E+06
              912.5E-03          876.163E+03          1.96144E+06
              915.E-03           876.166E+03          1.96417E+06
              917.5E-03          876.174E+03          1.96689E+06
              920.E-03           876.187E+03          1.96958E+06
              922.5E-03          876.204E+03          1.97226E+06
              925.E-03           876.225E+03          1.97493E+06
              927.5E-03          876.25E+03           1.97757E+06
              930.E-03           876.28E+03           1.9802E+06 
              932.5E-03          876.314E+03          1.98282E+06
              935.E-03           876.352E+03          1.98541E+06
              937.5E-03          876.394E+03          1.98799E+06
              940.E-03           876.44E+03           1.99054E+06
              942.5E-03          876.49E+03           1.99308E+06
              945.E-03           876.544E+03          1.99561E+06
              947.5E-03          876.602E+03          1.99811E+06
              950.E-03           876.665E+03          2.00059E+06
              952.5E-03          876.731E+03          2.00306E+06
              955.E-03           876.8E+03            2.0055E+06 
              957.5E-03          876.874E+03          2.00793E+06
              960.E-03           876.952E+03          2.01034E+06
              962.5E-03          877.033E+03          2.01272E+06
              965.E-03           877.118E+03          2.01509E+06
              967.5E-03          877.207E+03          2.01744E+06
              970.E-03           877.299E+03          2.01976E+06
              972.5E-03          877.395E+03          2.02207E+06
              975.E-03           877.495E+03          2.02435E+06
              977.5E-03          877.598E+03          2.02661E+06
              980.E-03           877.705E+03          2.02885E+06
              982.5E-03          877.815E+03          2.03106E+06
              985.E-03           877.929E+03          2.03326E+06
              987.5E-03          878.046E+03          2.03542E+06
              990.E-03           878.167E+03          2.03757E+06
              992.5E-03          878.291E+03          2.03969E+06
              995.E-03           878.419E+03          2.04178E+06
              997.5E-03          878.55E+03           2.04385E+06
                1.               878.685E+03          2.04589E+06




